0,1,2,3,4,5,6,7,8,9,10,11
1342444245,1342641422,1342706487,1342903461,1342968750,1343165482,1342772085,1342510064,1342837293,1343034087,1342575068,0
1342445218,1342640706,1342706602,1342903619,1342967961,1343166526,1342772298,1342509401,1342837467,1343035220,1342576090,0
1342445462,1342640273,1342707476,1342902543,1342969501,1343164803,1342771390,1342509120,1343100523,1342838499,1343033649,1342576486
1342442030,1342639530,1342704309,1342901531,1342966609,1343163516,1342770282,1342508289,1342835227,1343032255,1342572958,0
1342442123,1342639706,1342707628,1342902595,1342968981,1343165534,1342771304,1342508426,1342838514,1343034233,1342573016,0
1342442454,1342639399,1342703757,1342902367,1342969153,1343165387,1342770990,1342508016,1342838651,1343033966,1342573239,0
1342443099,1342638664,1342704701,1342901357,1342966285,1343164063,1342770113,1342507432,1342835627,1343032814,1342574030,0
1342443160,1342638636,1342704653,1342901438,1342966123,1343164262,1342507384,1342835560,1343032990,1342574073,0,0
1342443412,1342638278,1342705254,1342900728,1342967088,1343163182,1342769543,1342507101,1343098065,1342836232,1343031994,1342574397
1342439510,1342638175,1342705084,1342901021,1342966509,1343163890,1342769681,1342506880,1342835910,1343032537,1342574472,0
1342439900,1342637710,1342701688,1342900217,1342967582,1343162707,1342769028,1342506529,1342832658,1343031514,1342570877,0
1342439972,1342637629,1342701793,1342900098,1342967726,1343162552,1342768929,1342506465,1342832782,1343031378,1342570965,0
1342440093,1342637496,1342701952,1342899927,1342963804,1343162366,1342768750,1342506324,1342832932,1343031183,1342571076,0
1342440122,1342637468,1342701978,1342899903,1342963826,1343162346,1342768729,1342506301,1342832960,1343031167,1342571108,0
1342440247,1342637322,1342702170,1342899691,1342964087,1343162063,1342768553,1342506189,1342833189,1343030923,1342571266,0
1342440247,1342702065,1342899831,1342963864,1343162321,1342768515,1342506060,1343098817,1342832911,1342571108,0,0
1342440288,1342637377,1342701897,1342900062,1342967607,1343162741,1342768729,1342506060,1342832719,1343031389,1342571124,0
1342440416,1342637182,1342702248,1342899641,1342964070,1343162110,1342768437,1342505984,1342833198,1343030899,1342571373,0
1342440544,1342637004,1342702538,1342899299,1342964528,1343161599,1342768181,1342505887,1342833571,1343030475,1342571579,0
1342440709,1342636853,1342702655,1342964594,1343161549,1342768025,1342505687,1342833634,1343030371,1342571693,0,0
1342440732,1342636956,1342702263,1342899722,1342963763,1343162490,1342768503,1342505745,1342833198,1343031289,1342571670,0
1342440767,1342636816,1342702644,1342964517,1343161645,1342767639,1342505263,1342833198,1343030019,1342571355,0,0
1342440767,1342636858,1342702507,1342899411,1342964229,1343161981,1342768221,1342505676,1342833471,1343030784,1342571734,0
1342440843,1342636695,1342702867,1342898960,1342964888,1343161227,1342767818,1342505558,1343095893,1342833875,1343030081,1342571856
1342440868,1342636640,1342702989,1342898812,1342965100,1343160989,1342767706,1342505537,1343096145,1342834035,1343029885,0
1342440868,1342703254,1342898457,1342965659,1343160337,1342523325,1343095994,1342833646,1343046989,1342571305,0,0
1342440896,1342636640,1342702932,1342898890,1342964972,1343161137,1342767694,1343095921,1342833888,1343029931,1342571856,0
1342441041,1342636517,1342703005,1342964964,1343161172,1342767662,1342505344,1343095921,1342833973,1343029989,1342572018,0
1342441041,1342636509,1342703028,1342898812,1342965013,1343161114,1342767550,1342505263,1343095893,1342833916,1342571939,0
1342441041,1342636491,1342703086,1342965127,1343160982,1342767579,1342505344,1343096117,1342834075,1343029821,0,0
1342441408,1342636087,1342703568,1342898218,1342965726,1343160348,1342767105,1342504982,1343096756,1342834600,1342572442,0
1342455845,1342654453,1342703584,1342898238,1342965627,1343160484,1342785481,1342523251,1342834512,1343029258,1342572475,0
1342455845,1342654249,1342718572,1342981323,1343177335,1342784649,1342523103,1343112282,1342849552,1342572529,0,0
1342456164,1342654030,1342718559,1342915920,1342980965,1343177801,1342784669,1342522795,1343111832,1342849445,1343046531,1342587068
1342456275,1342718597,1342915906,1342980918,1343177874,1342784828,1342522867,1343111976,1342849660,1343046794,1342587344,0
1342456295,1342653988,1342718397,1342916176,1342980493,1342785010,1342522829,1343111460,1342849371,1342587276,0,0
1342456349,1342653885,1342718614,1342915906,1342980883,1343177924,1342784798,1342522781,1343111909,1342849645,1343046812,1342587385
1342456571,1342653608,1342719020,1342915443,1342981482,1343177266,1342784372,1342522538,1343112541,1342850083,1342587637,0
1342456685,1342653550,1342718949,1342915574,1342981212,1342784508,1342522487,1343112282,1342850019,1343046531,1342587757,0
1342456685,1342653517,1342719057,1342915430,1342981439,1343177335,1342784402,1342522487,1343112546,1342850165,1342587790,0
1342457242,1342652875,1342719891,1342918631,1342982534,1343180244,1342787460,1343113474,1342850846,1343049054,1342588209,0
1342457353,1342719141,1342915533,1342980902,1343178066,1342521527,1343111468,1342849739,1343046492,1342587979,0,0
1342457391,1342719149,1342915533,1342980883,1343178091,1342783960,1342521464,1343111414,1342849708,1343046480,0,0
1342457664,1342652466,1342720248,1342918261,1342982876,1343179916,1342787262,1342521464,1343113999,1342851374,1343048918,1342588792
1342457760,1342652423,1342720161,1342918405,1342982594,1343180259,1342787179,1342525335,1343113474,1343049017,1342588675,0
1342458099,1342656025,1342721046,1342917356,1342984025,1343182782,1342786312,1342524987,1343115086,1342852120,1343051732,0
1342458510,1342655622,1342721426,1342916984,1342984348,1343182441,1342786062,1342524695,1343115542,1342852622,1343051524,1342589702
1342458587,1342655594,1342721348,1342917113,1342984129,1343182737,1342786152,1342524627,1342852502,1342589741,0,0
1342458720,1342655459,1342721485,1342916974,1342984245,1343182593,1342786024,1342524504,1343115408,1342852651,1343051648,1342589884
1342459567,1342654483,1342722725,1342919697,1342985946,1342788676,1342523464,1343117014,1342853808,1342590659,0,0
1342459677,1342654695,1342721796,1342916867,1342983905,1343179051,1342789543,1342527404,1343114537,1342852462,1343051695,1342590374
1342460053,1342658198,1342722887,1342919648,1342985736,1342788577,1342527134,1343116755,1342853919,1342591099,0,0
1342460870,1342657272,1342724076,1342922465,1342987289,1343183505,1342791574,1342526373,1343118488,1342855252,1343052618,1342592074
1342464194,1342662100,1342727514,1342923064,1342990830,1343188128,1342792088,1342531134,1343121905,1342858607,1342595303,0
1342637543,1342702390,1342899269,1342964968,1343160975,1342768221,1342506491,1343096071,1342833499,1343029931,0,0
1342636517,1342703058,1342898765,1342965094,1343161019,1342767579,1342505344,1343096049,1342834017,1343029821,0,0
1342441287,1342636223,1342703404,1342898396,1343160571,1342767272,1342505103,1342834427,1343029442,1342572313,0,0
1342441306,1342636181,1342703500,1342898276,1343160373,1342785010,1342522971,1343096049,1342833916,1343047048,0,0
1342455809,1342654440,1342718023,1342916510,1342980246,1343178575,1342785392,1342523325,1343111270,1342849044,1342572529,0
1342455832,1342654385,1342718154,1342916347,1342980487,1343178299,1342785037,1342523090,1343111292,1342834676,1343046960,0
1342653543,1342718977,1342915533,1342981277,1343177522,1342784435,1342522447,1343112309,1342850014,1342587723,0,0
1342456755,1342653432,1342719181,1342915290,1342981616,1343177142,1342784150,1342522298,1343112597,1342850173,1342587757,0
1342653376,1342719181,1342915313,1342981537,1343177243,1342784261,1342522326,1343112618,1342850265,1342587916,0,0
1342456810,1342653341,1342719350,1342915083,1342981906,1343176812,1342784023,1342522285,1343112970,1342850422,1342587888,0
1342457129,1342653039,1342914838,1342982109,1343180751,1342783785,1342521985,1343113181,1342850688,1342588209,0,0
1342652912,1342719188,1342915517,1342980856,1343178139,1342783902,1343111335,1342849708,1343046488,1342588062,0,0
1342457672,1342652436,1342720323,1342918163,1342983024,1343179748,1342787179,1342521449,1343114160,1342851462,1343048765,1342588811
1342656351,1342720568,1342917901,1342983321,1343179432,1342786939,1342525381,1343114479,1342851725,1342588995,0,0
1342458061,1342656099,1342720887,1342917555,1342983735,1343178990,1342786596,1342525136,1343114893,1342852047,1342589223,0
1342458247,1342655931,1342721012,1342917448,1342983798,1343178947,1342786404,1342524889,1343114865,1342852087,1342589328,0
1342458863,1342655250,1342721843,1342920671,1342984827,1343181945,1342789584,1343115830,1342852865,1343050839,0,0
1342459732,1342658515,1342722646,1342919855,1342985609,1343181176,1342788962,1343116820,1342853859,1342590943,0,0
1342459900,1342658457,1342722448,1342920168,1342985030,1343181873,1342789053,1342527352,1343116010,1342853440,1342590904,0
1342475919,1342671002,1342738738,1342936562,1343001600,1343197983,1342805572,1342540015,1343132715,1342869859,1342607045,0
1342475741,1342671111,1342738787,1342936440,1343001896,1342805572,1342540233,1343133137,1342870026,1342606976,0,0
1342475292,1342671692,1342737926,1342933343,1343000573,1343199106,1342802340,1342540688,1343131653,1342869039,1343068102,1342606408
1342474320,1342672650,1342737004,1342934250,1342999705,1342803260,1342541659,1343130832,1342868134,1342605453,0,0
1342473516,1342669435,1342735951,1342931285,1342998397,1342800154,1342538316,1343129381,1342866956,1342604531,0,0
1342473064,1342669918,1342735393,1342931875,1342997728,1342800838,1342538880,1343128828,1342866493,1342604165,0,0
1342473053,1342669904,1342735467,1342931775,1342997891,1342800755,1342538880,1343129005,1342866581,1342604165,0,0
1342472793,1342734386,1342947425,1343014412,1343210150,1342801672,1342539001,1343145096,1342883549,1342603517,0,0
1342472493,1342670472,1342734877,1342932373,1342997271,1343194265,1342801252,1342539357,1343128279,1342865894,1343063138,1342603517
1342490610,1342685229,1342752645,1342947482,1343014676,1343209740,1342816313,1342539759,1342883619,1343078563,1342621590,0
1342490562,1342685309,1342752493,1342947669,1343014412,1343210039,1342816449,1343145330,1342883419,1343078808,1342621498,0
1342490464,1342685383,1342752473,1342947664,1343014477,1343209950,1342816482,1342554212,1343145435,1342883438,1343078758,1342621438
1342490188,1342685679,1342752129,1342948028,1343014064,1343210384,1342816831,1342554491,1343145009,1342883082,1343079179,1342621148
1342490075,1342685800,1342751993,1342948174,1343013899,1343210557,1342817027,1342554657,1343144900,1342882994,1343079407,1342621082
1342490003,1342685853,1342751985,1342948161,1343013960,1343210475,1342817021,1342554716,1343144964,1342882994,1343079330,1342621015
1342489964,1342685689,1342752623,1342996849,1343194598,1342801783,1342554484,1343127752,1342883549,1343063366,1342620905,0
1342489938,1342685948,1342751823,1342948352,1343013698,1343210767,1342817069,1342554679,1342882690,1343079470,1342620819,0
1342489697,1342686185,1342751596,1342948577,1343013485,1343210977,1342817406,1342555017,1342882576,1343079801,1342620682,0
1342489690,1342686189,1342751596,1342948574,1343013493,1343210967,1342817434,1342555053,1342882609,1343079824,1342620706,0
1342489569,1342686319,1342751450,1342948728,1343013322,1343211144,1342817581,1342555175,1342882457,1343079995,1342620578,0
1342489510,1342686476,1342751059,1342949221,1343016711,1343211956,1342817608,1342554899,1343147223,1342885722,1343080333,1342620089
1342489505,1342686405,1342751305,1342948899,1343013090,1343211404,1342817746,1342555258,1342882307,1343080248,1342620510,0
1342489483,1342686415,1342751323,1342948866,1343013150,1343211330,1342817628,1342555184,1342882238,1343080082,1342620406,0
1342489418,1342686509,1342751164,1342949056,1343012895,1343211589,1342817883,1342555341,1342882149,1343080440,1342620406,0
1342489169,1342686783,1342750833,1342949386,1343016598,1343212034,1342818167,1342555546,1343147506,1342885868,1343080780,1342620089
1342489091,1342686859,1342750753,1342949468,1343016514,1343212120,1342555679,1343147483,1342885847,1343080926,0,0
1342488965,1342686930,1342750818,1342949370,1343016779,1343211792,1342818083,1342555658,1342885813,1343080493,1342619849,0
1342488902,1342687012,1342754814,1342949489,1343016590,1343212001,1342555818,1342885767,1343080789,1342619866,0,0
1342488878,1342686995,1342750803,1342949361,1343016846,1343211701,1342818167,1342555808,1343080500,1342619849,0,0
1342488751,1342687185,1342754590,1342949734,1343016295,1343212320,1342818359,1342555832,1343147065,1342885376,1343080926,1342623677
1342488603,1342687266,1342754575,1342949706,1343016420,1343212153,1342818525,1342556118,1343147397,1343080965,1342623710,0
1342492304,1342687719,1342754052,1342950262,1343015792,1343212812,1342819063,1342556527,1343146756,1342885020,1343081607,1342623275
1342492257,1342687881,1342753620,1342950818,1343014949,1343213757,1342819469,1342556554,1343149879,1342884440,1343082415,1342623096
1342491869,1342688084,1342753851,1342950389,1343015837,1343212688,1342819254,1342556950,1342884884,1343081552,1342622902,0
1342491839,1342688180,1342753604,1342950705,1343015361,1343213237,1342819429,1342556916,1342884496,1343081949,1342622741,0
1342491578,1342688535,1342753031,1342951374,1343018590,1343214204,1342820040,1342557217,1342883872,1343082856,1342622425,0
1342491045,1342688914,1342753006,1342951240,1343014971,1343213561,1342819970,1342557656,1343149987,1342883908,1343082280,1342621957
1342490870,1342756265,1342952296,1343017508,1343215347,1342820961,1342557976,1342887111,1343083998,1342621724,0,0
1342493922,1342690292,1342755360,1342953146,1343020907,1343215986,1342821731,1342558895,1342886133,1343084552,1342624708,0
1342496670,1342691712,1342757874,1342954802,1343019061,1343217877,1342823230,1342560197,1342888501,1343086306,1342627321,0
1342481540,1342677687,1342744314,1342939206,1343007054,1343204851,1342808280,1342546762,1343138190,1342875454,1343073925,1342612689
1342477494,1342673371,1342740821,1342938414,1343004218,1343199297,1342807519,1342542469,1343135404,1342872016,1342608692,0
1342474302,1342672697,1342736889,1342934396,1342999488,1343196084,1342803137,1342541458,1343130328,1342867752,1342605214,0
1342474002,1342668868,1342736672,1342934577,1342999388,1343196147,1342803427,1343130345,1342867646,1343064984,1342604990,0
1342473917,1342668937,1342736644,1342934584,1342999427,1343196084,1342803599,1342537953,1343130563,1342867785,1343065099,1342605059
1342473563,1342669357,1342736100,1342931103,1342998626,1343196959,1342800069,1342538323,1343129718,1342867197,1342604662,0
1342473400,1342669548,1342735845,1342931387,1342998304,1343193213,1342800333,1342538494,1343129377,1342866922,1342604480,0
1342669548,1342735393,1342932041,1342997182,1343194543,1342800813,1342538323,1343128084,1342866306,1343063304,0,0
1342473306,1342669665,1342735670,1342931586,1342998039,1343193504,1342800550,1342538626,1343129137,1342866766,1342604404,0
1342473064,1342669927,1342735367,1342931909,1342997675,1343193889,1342800813,1342538833,1343128707,1342866404,1342604105,0
1342670073,1342735309,1342931927,1342997751,1343193772,1342800857,1342539006,1343128812,1342866375,1342603949,0,0
1342670142,1342735245,1342931987,1342997698,1343193819,1342800880,1342539039,1343128719,1342866274,1342603840,0,0
1342670326,1342734945,1342932344,1342997219,1343194357,1342801291,1342539276,1343128307,1342866033,1343063304,0,0
1342472693,1342670326,1342734906,1342932398,1343194467,1342801089,1342539039,1343127933,1342865736,1343063138,0,0
1342670472,1342752759,1342947525,1343014284,1343210291,1342816322,1342539282,1342883701,1343079076,1342603694,0,0
1342670804,1342734640,1342932567,1342997182,1343194308,1342801523,1342539759,1343128279,1342865740,1343063266,1342621680,0
1342490437,1342685288,1342734393,1342932850,1342996819,1343194707,1342801659,1343127758,1342883803,1343063506,1342621401,0
1342490354,1342685393,1342752700,1342947328,1342996605,1343194942,1342801583,1342883401,1343063468,1342621082,0,0
1342490207,1342685514,1342752634,1342947371,1342996615,1343194906,1342801886,1342554348,1343127569,1342883599,1342621186,0
1342491045,1342689145,1342756365,1342952218,1343215347,1342820888,1342557827,1342887216,1343084007,1342621902,0,0
1342490986,1342689217,1342756261,1342952337,1343215515,1342820945,1342557844,1342887049,1343084106,1342621786,0,0
1342494421,1342689816,1342755776,1342952755,1343215680,1342821289,1342558375,1343151942,1342886497,1343084221,1342625157,0
