0,1,2,3,4,5,6,7,8,9,10,11
1342443578,1342642470,1342708597,1342905872,1342973578,1342774320,1342510969,1342839243,1343037704,1342578365,0,0
1342444317,1342641637,1342709734,1342904610,1342971007,1343167627,1342773187,1342510208,1343101735,1342840474,1343036160,1342575074
1342443245,1342638552,1342704735,1342901359,1342966200,1343164185,1342770118,1342507322,1342835663,1343032939,1342574178,0
1342439696,1342637942,1342705518,1342900507,1342967207,1343163107,1342768863,1342506312,1342836003,1343031394,1342574344,0
1342440156,1342637448,1342701963,1342899933,1342963761,1343162398,1342768650,1342506181,1343098748,1342832837,1343031131,1342571041
1342441185,1342636344,1342703242,1342965299,1343160808,1342767388,1342505167,1343096252,1342834203,1343029614,1342572154,0
1342441434,1342636116,1342703419,1342898424,1342965394,1343160737,1342767213,1342523375,1342834353,1343029516,1342572381,0
1342456764,1342653465,1342719043,1342915472,1342981328,1342784413,1342522408,1343112403,1342850120,1342587841,0,0
1342456783,1342653445,1342719061,1342915456,1342981341,1343177465,1342784396,1342522388,1343112414,1342850136,1342587861,0
1342460310,1342657925,1342723196,1342919323,1342986099,1343184827,1342788333,1342526937,1343117202,1342854306,1342591427,0
1342439963,1342637702,1342900371,1342967263,1343163087,1342769163,1342506502,1343098216,1342836638,1343031873,1342570919,0
1342440626,1342637016,1342702306,1342899631,1343162261,1342768323,1342505726,1343094801,1342833152,1343030939,1342571486,0
1342636571,1342703011,1342898809,1342965061,1343161047,1342767708,1342505472,1343096107,1342834059,1343029944,1342572010,0
1342456286,1342654039,1342718247,1342916369,1342980199,1343178708,1342785031,1342522723,1342849050,1343047352,1342587109,0
1342456783,1342653393,1342719236,1342915222,1342981706,1343177040,1342522303,1343112738,1342850277,1342587827,0,0
1342456734,1342653382,1342719392,1342915003,1342982076,1343180725,1342784014,1342522388,1342850535,1342587876,0,0
1342457019,1342653193,1342719355,1342915145,1342981693,1343177093,1342783932,1342521992,1343112595,1342850271,1342587950,0
1342457541,1342652626,1342918548,1342982494,1343180340,1342787542,1342521615,1343113612,1342851120,1342588663,0,0
1342478938,1342676098,1342742028,1342937290,1343005111,1343202592,1342806221,1342545039,1343136102,1342873041,1342609967,0
1342476264,1342674813,1342738977,1342936355,1343001730,1343197887,1342805365,1342543821,1343132842,1342870094,0,0
1342474109,1342668811,1342736616,1342934684,1342999162,1343196423,1342803679,1342537804,1343130279,1342867735,1343065419,1342605229
1342472901,1342670161,1342734964,1342932390,1342997019,1342801137,1342538924,1343127891,1342865849,1343063357,1342603801,0
1342472682,1342670292,1342735039,1342932222,1342997403,1343194143,1342801149,1342539221,1343128464,1342866104,1343063068,1342603750
1342490304,1342685536,1342752338,1342947791,1343014368,1343210050,1342816649,1342554399,1343145370,1342883344,1343078905,0
1342489412,1342686480,1342751273,1342948911,1343013124,1343211349,1342817723,1342555300,1342882241,1343080155,1342620385,0
1342492628,1342687542,1342753888,1342950582,1343015110,1343213627,1342819195,1342556173,1343150004,1342884669,1343082249,1342623422
1342491916,1342688132,1342753576,1342950765,1343015224,1343213408,1342819359,1342556749,1342884340,1343081982,1342622697,0
1342491844,1342688262,1342753310,1342951094,1343018876,1343213917,1342819832,1342557012,1343149783,1342884222,1343082646,1342622761
1342491174,1342688892,1342752784,1342951547,1343018504,1343214238,1342820301,1342557630,1343149405,1342887811,1343082958,1342622084
1342494445,1342689863,1342755569,1342953038,1343020781,1343216217,1342821520,1342558372,1343151433,1342886238,1343084675,1342625134
1342493194,1342691185,1342758206,1342954572,1343019054,1343217990,1342823190,1342559819,1343153993,1342889023,1343086598,1342624017
1342495552,1342692972,1342760413,1342956505,1343021118,1343220067,1342824915,1342561408,1343155848,1342891035,1343088480,1342626190
1342474306,1342672630,1342737107,1342934110,1342999930,1343195571,1342803147,1342541662,1343131085,1342868265,1342605465,0
1342473323,1342669590,1342735882,1342931313,1342998461,1343197141,1342800292,1342538568,1343129570,1342866994,1342604434,0
1342472977,1342670010,1342735290,1342931983,1342997608,1343193954,1342800944,1342538968,1342866386,1343062913,1342604075,0
1342472944,1342670057,1342735216,1342932071,1342997492,1343194083,1342801006,1342538991,1343128561,1342866288,1342604017,0
1342472483,1342670590,1342734514,1342932849,1342996538,1343195114,1342801676,1342539425,1342865484,1342603460,0,0
1342472264,1342670786,1342734366,1342932974,1343209475,1342801810,1342539635,1343145892,1342883805,1343063996,0,0
