0,1,2,3,4,5,6,7,8,9,10,11
1342446704,1342643455,1342711762,1342906791,1342972668,1343170177,1342775301,1342511981,1343103368,1342842475,1343038663,1342577429
1342444348,1342641619,1342709719,1342904639,1342970948,1343167701,1342773139,1342510120,1342840385,1343036151,1342575033,0
1342444405,1342641488,1342705901,1342904282,1342971511,1343167058,1342772920,1342510139,1343035681,1342575240,0,0
1342441800,1342640115,1342707022,1342903290,1342968081,1343166500,1342771946,1342508787,1342837862,1343035170,1342572647,0
1342441800,1342707055,1342903243,1342968166,1343166423,1342771527,1342508432,1343102722,1342837516,1343034671,0,0
1342441813,1342640035,1342707257,1342902985,1342968549,1343165985,1342771694,1342508755,1342838144,1343034686,1342572705,0
1342441938,1342639952,1342707241,1342903045,1342968384,1343166198,1342771667,1342508592,1342838042,1343034805,1342572750,0
1342442049,1342639747,1342707662,1342902525,1342969135,1343165344,1342508432,1342838510,1343034001,1342572906,0,0
1342442063,1342639702,1342703662,1342902370,1342969366,1343165076,1342771063,1342508382,1342838623,1342572914,0,0
1342442619,1342638910,1342705003,1342900803,1342967414,1343162676,1342769574,1342507690,1343098331,1342835935,1343031432,1342573564
1342442763,1342704436,1342901600,1342966092,1343164232,1342770404,1342507788,1342835409,1343033032,1342573740,0,0
1342442869,1342638917,1342704398,1342901683,1342965905,1343164438,1342770239,1342507498,1343100736,1342835122,1343032999,1342573614
1342443159,1342638564,1342704893,1342901123,1342966612,1343163693,1342769826,1342507280,1342835760,1343032383,1342574039,0
1342443443,1342638292,1342705140,1342900887,1342966822,1343163495,1342769702,1342507112,1343097803,1342836118,1343032307,1342574424
1342439981,1342637628,1342701778,1342900121,1342967684,1343162601,1342768963,1342506474,1343031432,1342570983,0,0
1342439996,1342637496,1342702176,1342899601,1342964363,1343161703,1342768310,1342506221,1342833036,1343030396,1342570874,0
1342440194,1342637371,1342702132,1342899726,1342964059,1343162086,1342768568,1342506216,1342833128,1343030922,1342571198,0
1342440496,1342637096,1342702345,1342899537,1342964187,1343161985,1342768297,1342505865,1342833261,1343030737,1342571418,0
1342440567,1342637005,1342702483,1342899378,1342964393,1343161758,1342768253,1342505882,1342833511,1343030630,1342571595,0
1342440574,1342637042,1342702345,1342899564,1342964096,1343162105,1342768387,1342505872,1342833323,1343030922,1342571556,0
1342440751,1342636804,1342702720,1342899126,1342964682,1343161455,1342767998,1342505682,1342833743,1343030324,1342571777,0
1342440842,1342636662,1342702983,1342898807,1342965128,1343160950,1342767641,1342505504,1343096106,1342833969,1343029779,1342571834
1342440983,1342636603,1342702854,1342899021,1342964717,1343161449,1342767812,1342505402,1342833796,1343030232,1342571930,0
1342441149,1342636520,1342702738,1342899227,1342964302,1343161956,1342767773,1342505094,1342833434,1343030474,1342571871,0
1342441171,1342702858,1342899076,1342964525,1343161703,1342785443,1342522918,1343098621,1342832901,1342571299,0,0
1342441442,1342654341,1342718479,1342915896,1342981229,1342784620,1342523086,1343112069,1342849338,1342572326,0,0
1342456066,1342654135,1342718441,1342916045,1342980825,1343177947,1342784965,1342523057,1343111880,1342849500,1343046864,1342587130
1342456176,1342654067,1342718414,1342916116,1342980650,1343178168,1342785003,1342522957,1343111672,1342849440,1343047049,1342587206
1342456268,1342718545,1342915973,1342980820,1343177986,1342784885,1342522879,1343111870,1342849591,1343046901,0,0
1342456299,1342653923,1342718603,1342915903,1342980916,1343177878,1342784853,1342522872,1343112002,1342849691,1343046828,1342587380
1342456312,1342653915,1342718603,1342915908,1342980901,1343177898,1342784750,1342522762,1343111870,1342849582,1343046730,1342587298
1342456337,1342653903,1342718581,1342915948,1342980828,1343177986,1342784885,1342522842,1343111904,1342849658,1343046925,1342587413
1342456337,1342653854,1342718740,1342915735,1342981156,1342784316,1342522460,1343111838,1342849452,1342587076,0,0
1342456803,1342653390,1342719203,1342915275,1342981612,1342784201,1342522319,1343112667,1342850263,1343046078,1342587865,0
1342457259,1342652956,1342719583,1342914920,1342981913,1342783855,1342521893,1343112976,1342850649,1342588328,0,0
1342457403,1342652719,1342720013,1342918485,1342982670,1343180112,1342787493,1342521725,1343113803,1342851147,1343049122,1342588537
1342457433,1342652678,1342720076,1342918411,1342982770,1343180002,1342787405,1342521669,1343113885,1342851196,1343048995,1342588553
1342458420,1342655739,1342721250,1342917190,1342984104,1343182741,1342786260,1342524801,1342852436,1342589605,0,0
1342459062,1342655139,1342721747,1342916737,1342984419,1343182449,1342785779,1342524175,1343115570,1342852900,1343051491,1342590216
1342461467,1342656649,1342724724,1342921767,1342988039,1343186856,1342790867,1342525745,1343119220,1342855911,1342592658,0
1342447096,1342643094,1342707927,1342906534,1343170029,1342774914,1342511478,1343103385,1342842605,1343038348,1342577673,0
1342442529,1342639276,1342703991,1342902112,1342969551,1343164939,1342770856,1342508030,1343100467,1342834907,1343033673,1342573449
1342442975,1342638850,1342704370,1342901754,1343164652,1342770325,1342507445,1343100585,1342835109,1343033228,1342573733,0
1342439848,1342637760,1342701643,1342900228,1343162731,1342769060,1342506572,1342836730,1343031533,1342570816,0,0
1342440467,1342637103,1342702387,1342899473,1342964302,1343161850,1342768174,1342505827,1342833240,1343030533,1342571340,0
1342441013,1342636543,1342898855,1342964961,1343161172,1342767676,1342505374,1343095932,1342833966,1342571995,0,0
1342441102,1342636325,1342703496,1342898213,1342980217,1343178547,1342784915,1342523078,1343096228,1342833874,1343046730,0
1342441450,1342636209,1342703077,1342898878,1343161563,1342767311,1342523136,1342833657,1343029964,1342572062,0,0
1342441368,1342636113,1342703582,1342898185,1342980108,1343178715,1342784853,1342522838,1342833927,1343046864,1342571777,0
1342456059,1342654194,1342718266,1342916274,1342980475,1343178352,1342785153,1342523078,1343111489,1342849286,1342587084,0
1342653990,1342718535,1342915973,1342980842,1343177958,1342784853,1342522879,1343111849,1342849558,1343046837,1342587262,0
1342653771,1342718811,1342915672,1342981199,1343177575,1342784222,1342522359,1343111849,1342849500,1342587141,0,0
1342456452,1342653757,1342718800,1342915694,1342981156,1343177623,1342784620,1342522685,1343112214,1342849862,1342587518,0
1342456538,1342653647,1342718963,1342915507,1342981398,1343177356,1342784455,1342522595,1343112479,1342850047,1342587624,0
1342456566,1342653628,1342718967,1342915512,1342981376,1343177388,1342784222,1342522359,1343112198,1342849810,1342587430,0
1342456919,1342653486,1342718618,1342916080,1343178686,1342784237,1342521708,1343096235,1342834606,1343046794,0,0
1342456624,1342653486,1342719301,1342915087,1342982004,1343180792,1342783975,1342522377,1343113011,1342850320,1343049672,1342587651
1342456691,1342653443,1342719286,1342915131,1342981897,1343176803,1342783938,1342522264,1343112822,1342850225,1342587646,0
1342456957,1342653419,1342915927,1342980510,1343178457,1342784380,1342521908,1342849338,1343046868,1342587573,0,0
1342456794,1342653412,1342719149,1342915343,1342981511,1343177267,1342784290,1342522359,1343112589,1342850230,1342587877,0
1342457292,1342652871,1342719786,1342914662,1342982266,1343180565,1342783583,1342521797,1343113309,1342850836,1342588349,0
1342457649,1342652689,1342719566,1342915067,1342981467,1343177456,1342783665,1342525439,1343112174,1342850296,1342588404,0
1342459518,1342654911,1342721448,1342917276,1342983357,1343179661,1342785999,1342523652,1343114180,1342852288,1342590375,0
1342478878,1342676045,1342742346,1342940977,1343005821,1343201759,1342809991,1342545064,1342873439,1343070765,1342609984,0
1342475605,1342671274,1342738566,1342936687,1343001586,1342805759,1342540340,1343132765,1342869749,1343067026,1342606785,0
1342475507,1342671371,1342738468,1342936784,1343001490,1342805889,1342540468,1343132705,1342869684,1342606720,0,0
1342474905,1342672029,1342737705,1342933510,1343000529,1343199094,1342802550,1342541063,1343131653,1342868859,1343068134,1342606062
1342474814,1342672085,1342737741,1342933435,1343000672,1343198881,1342802321,1343131653,1342868739,1342605822,0,0
1342474601,1342672312,1342737479,1342933712,1343000384,1343199214,1342802599,1342541206,1343131372,1342868483,1343068092,1342605617
1342474165,1342672878,1342736671,1342934629,1342999217,1343196370,1342803626,1342537749,1343130338,1342867794,1343065367,1342605289
1342474045,1342668853,1342736630,1342934647,1342999258,1343196303,1342803657,1342537859,1343130392,1342867767,1343065316,1342605181
1342473961,1342669092,1342736054,1342931289,1342998141,1343193492,1342799902,1342537731,1343128854,1342866797,1342604729,0
1342473711,1342736447,1342934781,1342999236,1343196274,1342803626,1342537997,1343130185,1342867442,1343065111,1342604695,0
1342473684,1342669188,1342736380,1342934896,1342999073,1343196458,1342538072,1343130056,1343065316,1342604695,0,0
1342473664,1342669246,1342736235,1342930957,1342998793,1343196780,1342803896,1342538072,1343129721,1342867178,1343065582,1342604620
1342473563,1342669378,1342736027,1342998500,1343197136,1342800069,1342538255,1343129488,1342867027,1342604572,0,0
1342473390,1342669436,1342736235,1342999073,1343196415,1342803754,1342538221,1342867121,1343065159,1342604303,0,0
1342472831,1342670151,1342735165,1342932100,1342997510,1342801061,1342539111,1343128608,1342866264,1343063005,1342603926,0
1342472781,1342670227,1342735023,1342932274,1342997265,1343194317,1342801207,1342539161,1343128337,1342866097,1343063250,1342603855
1342472705,1342670281,1342735018,1342932255,1342997335,1343194227,1342801175,1342539203,1343128389,1342866075,1343063142,1342603767
1342472601,1342670419,1342734805,1342932502,1342997011,1343194584,1342801398,1342539317,1343128041,1342865839,1343063474,1342603639
1342472448,1342670498,1342734895,1342932337,1342997353,1343194164,1342801158,1342539330,1343128301,1342865855,1342603420,0
1342472359,1342670613,1342734721,1342932536,1342997092,1343194452,1342801093,1342539203,1343127750,1342865416,1342621548,0
1342472350,1342670655,1342734605,1342932686,1342996865,1343194713,1342801569,1342539542,1343127885,1342865630,1342603380,0
1342472281,1342670839,1342752614,1342947566,1343014474,1343209996,1342801884,1342539488,1343145224,1342883385,1343078601,1342621533
1342490571,1342685255,1342752643,1342947474,1343014710,1343209696,1342816332,1342554118,1342883646,1343078548,1342621581,0
1342490396,1342685444,1342752422,1343014441,1343209982,1342816563,1342554303,1343145435,1342883420,1343078828,1342621401,0
1342490396,1342685464,1342752360,1342947791,1343014317,1343210123,1342554259,1343145239,1342883291,1343078899,1342621335,0
1342489988,1342685862,1342751990,1342948151,1343013985,1343210444,1342816953,1342554672,1342882940,1343079237,1342620947,0
1342489884,1342686008,1342751743,1342948444,1343013587,1343210887,1342817182,1342554759,1342882632,1343079615,1342620788,0
1342489787,1342686068,1342751776,1342948366,1343013761,1343210670,1342817240,1342554944,1342882802,1343079542,1342620812,0
1342489708,1342686145,1342751700,1342948444,1343013688,1343210744,1342817324,1342555028,1342882734,1343079622,1342620743,0
1342489378,1342686486,1342751330,1342948826,1343013275,1343211168,1342817557,1342555233,1342882214,1343079885,1342620276,0
1342489341,1342686573,1342751132,1342949073,1343012912,1343211557,1342817718,1342555239,1342881932,1343080209,0,0
1342489280,1342686729,1342750749,1342949531,1343016315,1343212383,1342818191,1342555383,1343147095,1342885664,1343080998,1342620088
1342489274,1342686680,1342750931,1342949315,1343016694,1343211943,1342818114,1342555487,1342881891,1343080735,1342620236,0
1342488900,1342687031,1342754749,1342949573,1343016460,1343212151,1342818387,1342555851,1343147432,1342885724,1343080962,1342619881
1342492468,1342687650,1342753895,1342950523,1343015294,1343213418,1342819269,1342556410,1342884811,1343082159,1342623389,0
1342492203,1342687815,1342753967,1342950342,1343015721,1343212877,1342819163,1342556641,1342884955,1343081695,1342623193,0
1342491412,1342688726,1342752779,1342951629,1343018242,1342820234,1342557326,1343148985,1342887658,1343083141,1342622187,0
1342494123,1342755287,1342953305,1343020552,1343216427,1342821619,1342558529,1342889910,1343084704,1342624653,0,0
1342493961,1342690366,1342755025,1342953574,1343020180,1343216832,1342821988,1342558784,1342889724,1343085187,1342624562,0
1342493144,1342691143,1342758462,1342954218,1343019636,1343217335,1342822764,1342559710,1343150364,1342889203,1343085861,1342623899
1342675492,1342742925,1342940349,1343006500,1343205179,1342809347,1342544498,1343137554,1342873998,1342610499,0,0
1342476634,1342674339,1342739621,1342935634,1343201032,1342804433,1342543157,1343133502,1342870520,1342607556,0,0
1342475125,1342671867,1342737741,1342933532,1343000372,1343195189,1342802532,1342540865,1343131485,1342868859,1342606242,0
1342474979,1342672021,1342737563,1342933722,1343000158,1343195414,1342802699,1342540999,1343131247,1342868658,1342606078,0
1342474781,1342672113,1342737726,1342933443,1343000680,1343198867,1342802537,1342541195,1343131890,1342868935,1343067967,1342605986
1342474242,1342672689,1342737050,1342934166,1342999870,1343195633,1342802764,1342541319,1343130549,1342867767,1342605023,0
1342474171,1342672828,1342736826,1342934428,1342999523,1343196016,1342803147,1342541567,1343130338,1342867666,1342605035,0
1342474099,1342672833,1342736976,1342934207,1342999913,1343195551,1342803229,1342537728,1343131053,1342868120,1342605244,0
1342473762,1342669281,1342735889,1342931444,1342998012,1343193611,1342800332,1342538177,1343129028,1342866912,1342604789,0
1342669326,1342736124,1342931083,1342998637,1343196951,1342800062,1342538303,1343129740,1342867232,1342604705,0,0
1342473527,1342669436,1342735925,1342931326,1342998327,1343193209,1342800170,1342538290,1343129291,1342866899,1342604513,0
1342473711,1342669456,1342735433,1342932025,1343194605,1342800538,1342537997,1343127767,1342866075,1343063090,0,0
1342473075,1342669924,1342735351,1342931934,1343193942,1342800842,1342538835,1343128669,1342866394,1342604122,0,0
1342473075,1342669953,1342932065,1342997432,1343194174,1342800842,1342538746,1343128337,1342866163,1342603996,0,0
1342473075,1342669956,1342735236,1342932085,1342997396,1343194216,1342800787,1343128216,1342866075,1342603933,0,0
1342473075,1342670004,1342932277,1342997102,1343194554,1342801093,1342538835,1342866049,1343063372,1342604037,0,0
1342472689,1342670264,1342735120,1342932115,1342997564,1343193957,1342800563,1342538750,1343128106,1342603307,0,0
1342670335,1342734959,1342932318,1342997265,1343194298,1342801158,1342539189,1343128244,1342865941,1343063142,0,0
1342490224,1342685712,1342751937,1342948293,1343210891,1342817002,1342554436,1342882796,1343079586,1342621095,0,0
1342489965,1342685910,1342751885,1342948280,1343210655,1342817111,1342554748,1342882869,1343079481,1342620952,0,0
1342489597,1342686361,1342751239,1342949012,1343211654,1342817671,1342555039,1343147786,1342882054,1343080324,1342620426,0
1342492050,1342688081,1342950993,1343018914,1343213905,1342819710,1342556809,1343149799,1342884324,1343082612,1342622948,0
1342494332,1342689999,1342755382,1342953248,1343216502,1342821899,1342558664,1342886222,1343085143,1342625177,0,0
