0,1,2,3,4,5,6,7,8,9,10,11
1342441522,1342640313,1342706923,1342903332,1342968173,1343166374,1342771956,1342508981,1342837728,1343034983,1342576461,0
1342442031,1342639774,1342707617,1342902579,1342969059,1343165430,1342508545,1343100000,1342838559,1343034188,1342572976,0
1342442092,1342639790,1342707423,1342902855,1342968595,1343165976,1342771459,1342508418,1342838207,1343034560,1342572891,0
1342442255,1342639577,1342703633,1342902466,1342969110,1343165405,1342771096,1342508201,1343099875,1342838533,1343033988,1342573050
1342442775,1342638974,1342704425,1342901617,1342966059,1343164273,1342770354,1342507721,1342835331,1343033000,1342573691,0
1342442789,1342638995,1342704323,1342901756,1342965838,1343164504,1342770517,1342507767,1343100890,1342835256,1343033283,1342573727
1342443453,1342638343,1342704943,1342901149,1342966409,1343163973,1342769881,1342507090,1342835841,1343032702,1342574358,0
1342443461,1342638293,1342705091,1342900958,1342966700,1343163641,1342769763,1343097669,1342836061,1343032441,1342574435,0
1342443485,1342638314,1342704971,1342901122,1342966432,1343163953,1342769666,1342506910,1342835681,1343032474,1342574214,0
1342439460,1342638201,1342705116,1342900963,1342966627,1343163745,1342769515,1342506805,1343097324,1342835832,1343032275,1342574320
1342439606,1342638049,1342705371,1342900673,1342966993,1343163343,1342769454,1342506837,1343097933,1342836314,1343032117,1342570554
1342439734,1342637837,1342701653,1342900208,1342967690,1343162555,1342769071,1342506703,1342832675,1343031416,1342570757,0
1342439756,1342637902,1342705507,1342900543,1342967114,1343163227,1342769222,1342506603,1343097942,1342836348,1343031890,1342570612
1342440134,1342637478,1342701912,1342899994,1342967799,1343162495,1342768756,1342506250,1342832830,1343031273,1342571061,0
1342440242,1342637375,1342702013,1342899897,1342963770,1343162402,1342768699,1342506185,1342832973,1343031227,1342571206,0
1342440699,1342636851,1342702692,1342899148,1342964676,1343161451,1342768017,1342505724,1343095695,1342833710,1343030317,1342571721
1342440751,1342702692,1342899163,1342964626,1343161517,1342768028,1342505682,1342833710,1343030381,1342571771,0,0
1342440824,1342702736,1342899126,1342964645,1343161505,1342767998,1342505629,1342833759,1343030375,1342571842,0,0
1342440824,1342636721,1342702833,1342899000,1342964839,1343161282,1342767814,1342505542,1342833795,1343030089,1342571793,0
1342456442,1342653782,1342718739,1342915770,1342981043,1343177754,1342784720,1342522737,1343112128,1342849828,1343046703,1342587526
1342456476,1342653753,1342718755,1342915761,1342981039,1343177764,1342784671,1342522666,1343112081,1342849804,1343046672,1342587526
1342456590,1342653693,1342718691,1342915882,1342980786,1343178076,1342784787,1342522601,1343111827,1342849734,1343046979,1342587636
1342456728,1342653533,1342718901,1342915649,1342981072,1343177767,1342784556,1342522442,1343112114,1342849945,1343046672,1342587776
1342457543,1342652599,1342720083,1342918440,1342982660,1343180148,1342787200,1342521380,1343113520,1342850995,1343048887,1342588452
1342458399,1342655769,1342721197,1342917250,1342984020,1343182836,1342786250,1342524769,1343115127,1342852313,1342589521,0
1342459130,1342655082,1342721784,1342916713,1342984423,1343182455,1342524034,1343115477,1342852847,1343051400,1342590201,0
1342459202,1342654871,1342722285,1342920163,1342985428,1342789279,1342523978,1343116652,1342853508,1343050422,1342590425,0
1342459759,1342658438,1342722838,1342919613,1342985972,1342788531,1342527364,1343116974,1342853858,1342590794,0,0
1342441951,1342639858,1342707527,1342902671,1343165531,1342771330,1342508532,1343099786,1342838363,1342572798,0,0
1342442476,1342639312,1342902081,1342969629,1343164839,1342770751,1342507997,1343100460,1342834841,1343033493,1342573328,0
1342636727,1342702839,1342898990,1342964859,1343161259,1342767847,1342505586,1343095861,1342833844,1343030111,1342571824,0
1342456446,1342653758,1342718812,1342915679,1342981186,1343177589,1342784604,1342522687,1343112247,1342849875,1342587513,0
1342456555,1342653649,1342718922,1342915567,1342981298,1343177476,1342784535,1342522617,1343112402,1342850028,1342587658,0
1342456555,1342653551,1342719243,1342915141,1342981958,1343176709,1342783991,1342522406,1343112923,1342850223,1343049670,1342587545
1342653219,1342719280,1342915241,1342981548,1343177260,1342783595,1343111982,1342849762,1343049689,1342587545,0,0
1342456992,1342653219,1342719331,1342915167,1342981674,1343177110,1342784118,1342522171,1343112756,1342850415,1342588077,0
1342457085,1342653131,1342719407,1342915095,1342981735,1343177056,1342784011,1342522050,1343112779,1342850456,1342588138,0
1342457476,1342652694,1342719944,1342918637,1342982394,1343180447,1342787520,1342521586,1343113395,1342850955,1343049324,1342588498
1342458225,1342655991,1342720868,1342917630,1342983531,1343179252,1342786647,1342525005,1343114668,1342852008,1342589364,0
1342459572,1342654518,1342722601,1342919863,1342985686,1343181060,1342788988,1342523635,1343116915,1342853832,1342590802,0
1342459566,1342654509,1342722647,1342919799,1342985794,1343180933,1342788890,1342523592,1343116987,1342853844,1342590761,0
1342460254,1342658268,1342722193,1342920626,1342984130,1343178886,1342789521,1342527170,1343115136,1342591264,0,0
1342460540,1342657620,1342723678,1342918764,1342986810,1343184013,1342791600,1342526359,1343117582,1342854486,1342591380,0
1342477667,1342673207,1342740961,1342938286,1343004317,1342807308,1342542235,1342872071,1343068226,1342608793,0,0
1342475139,1342671695,1342738276,1342936956,1343001425,1342801934,1342540788,1343132635,1342869489,1342606349,0,0
1342474103,1342668805,1342736647,1342934641,1342999232,1342803619,1342537784,1342867751,1343065314,1342605209,0,0
1342473947,1342668983,1342736420,1342934891,1342998930,1343196667,1342803828,1342537922,1343129989,1342867483,1343065598,1342605016
1342473947,1342669224,1342735654,1342997335,1343194423,1342800086,1342541665,1343127682,1342866046,1342604386,0,0
1342473425,1342669689,1342735328,1342997221,1343194472,1342800272,1343145959,1342865654,1343062613,1342603808,0,0
1342472860,1342670152,1342735089,1342932213,1342997317,1343194272,1342801142,1342539082,1343128383,1342866155,1343063199,1342603929
1342472511,1342670503,1342734737,1342932563,1342996968,1343194621,1342801462,1342539403,1343128001,1342865776,1343063515,1342603552
1342490576,1342752451,1342947728,1343014311,1343210159,1342816464,1342539753,1343145182,1342883332,1343078882,1342621472,0
1342490395,1342685346,1342752758,1342932957,1342996678,1343194863,1342801828,1342554224,1343127682,1342883772,1342621418,0
1342490352,1342685525,1342752265,1342947902,1343014169,1343210287,1342816669,1342554304,1343145077,1342883182,1343079044,1342621278
1342490181,1342752272,1342947838,1343014364,1343210036,1342816751,1342554553,1343145417,1342883332,1342621244,0,0
1342490181,1342752126,1342948031,1343014069,1343210374,1342816845,1342554504,1342883085,1343079179,1342621151,0,0
1342490037,1342685809,1342752055,1342948080,1343014069,1343210356,1342816962,1342554691,1343145097,1342883085,1343079232,1342621068
1342490037,1342685980,1342751489,1342948820,1343012924,1343211651,1342817481,1342882306,1343080326,1342620859,0,0
1342489802,1342686074,1342751722,1342948443,1343013634,1343210821,1342817317,1342554949,1342882749,1343079691,1342620829,0
1342489642,1342686291,1342751368,1342948859,1343013077,1343211440,1342817643,1342555083,1342882306,1343080215,1342620587,0
1342489584,1342686160,1342751938,1342948089,1343014308,1343210003,1342817013,1342555083,1343145379,1342883011,1343078926,1342620658
1342489565,1342686309,1342751489,1342948672,1343013409,1343211042,1342817535,1342555173,1342882505,1342620581,0,0
1342489437,1342686434,1342751368,1342948793,1343013295,1343211155,1342817643,1342555287,1342882374,1343080002,1342620445,0
1342489357,1342686521,1342751267,1342948901,1343013170,1343211287,1342817699,1342555327,1342882220,1343080076,1342620317,0
1342489142,1342686741,1342751034,1342949139,1343012918,1342817929,1342555540,1342881982,1343080326,1342620096,0,0
1342488749,1342687137,1342754752,1342949519,1343016628,1343211933,1342818345,1342555968,1342885741,1343080755,1342619740,0
1342492521,1342687644,1342753799,1342950664,1343015041,1343213692,1342819164,1342556178,1343149818,1342884464,1342623215,0
1342492401,1342687624,1342754142,1342950174,1343015872,1343212735,1342818970,1342556427,1342885104,1343081526,1342623364,0
1342491880,1342688229,1342753343,1342951061,1343018905,1343213887,1342819821,1342556995,1343149835,1342884273,1343082638,1342622814
1342491590,1342688562,1342752908,1342951515,1343018320,1343214520,1342820169,1342557208,1342887834,1343083133,1342622405,0
1342494198,1342690099,1342755360,1342953234,1343020615,1343216370,1342821910,1342558787,1342886224,1343085036,1342625067,0
1342493448,1342690856,1342758708,1342953990,1343019816,1343217174,1342822624,1342559503,1342889535,1343085796,1342624283,0
1342495754,1342692754,1342760658,1342956248,1343021400,1343219774,1342824702,1342561235,1343156176,1342891323,1343088233,1342626435
1342476329,1342674683,1342739193,1342936101,1343002072,1343197507,1342804919,1342543516,1343132970,1342870113,1342607297,0
1342476217,1342674717,1342739403,1342935780,1343002625,1343200934,1342804794,1342543731,1343133731,1342870520,1342607341,0
1342475969,1342670876,1342739036,1342936186,1343002162,1343197340,1342805251,1342539939,1343133328,1342870208,1343066409,1342607144
1342671616,1342738232,1342937056,1343001198,1343198345,1342801974,1342540653,1343132343,1342869382,1342606426,0,0
1342475158,1342671733,1342738105,1342933064,1343001057,1343198491,1342802151,1342540811,1343132253,1342869304,1342606357,0
1342474159,1342668868,1342736336,1342930982,1342998507,1343193100,1342799914,1342537803,1343129567,1342867396,1342605223,0
1342474177,1342668907,1342736169,1342931207,1342998144,1343193522,1342541704,1343128907,1342866949,1342604981,0,0
1342473341,1342669427,1342736381,1342934787,1343196002,1342803511,1342538168,1343130241,1342867226,1342604217,0,0
1342473571,1342669452,1342735762,1342931551,1342997950,1343193652,1342800386,1342538298,1343128907,1342866730,1342604546,0
1342669499,1342735931,1342931284,1342998440,1343197182,1342800284,1342538495,1343129574,1342867063,1342604563,0,0
1342473470,1342669499,1342735850,1342931405,1342998234,1343193306,1342800364,1342538459,1343129326,1342866943,1342604563,0
1342473361,1342669602,1342735750,1342931499,1342998149,1343193386,1342538582,1343129264,1342866865,1342604476,0,0
1342472834,1342670091,1342735348,1342931862,1342997873,1343193623,1342800630,1342538874,1343128753,1342866248,1342603752,0
1342670325,1342734975,1342932300,1342997289,1343194272,1342801234,1342539258,1343128359,1342866046,1343063203,0,0
1342489908,1342685980,1342751783,1342948396,1343210821,1342817228,1342554818,1342882767,1343079651,1342620896,0,0
1342491807,1342688273,1342753365,1342951009,1343213735,1342819708,1342556985,1343149888,1342884234,1343082448,1342622686,0
1342493399,1342690942,1342758537,1342954199,1343217513,1342822833,1342559591,1343150345,1342889368,1343086136,1342624235,0
