0,1,2,3,4,5,6,7,8,9,10,11
1342444256,1342641768,1342709437,1342904981,1342970464,1343168249,1342773574,1342510378,1342840224,1343036826,1342575054,0
1342445479,1342640538,1342706559,1342903760,1342971719,1343166991,1342772400,1342509194,1342837384,1343035619,1342576315,0
1342442994,1342638820,1342704431,1342901678,1342965841,1343164535,1342770432,1342507584,1343100887,1342835356,1343033308,1342573925
1342443140,1342638648,1342704659,1342901424,1342966154,1343164220,1342770172,1342507404,1342835577,1343032960,1342574063,0
1342443355,1342638371,1342705081,1342900937,1342966792,1343163515,1342769753,1342507192,1342836062,1343032325,1342574336,0
1342443378,1342638423,1342704855,1342901244,1342966304,1343164086,1342769989,1342507179,1342835767,1343032825,1342574296,0
1342443458,1342638259,1342705214,1342900794,1342966959,1343163339,1342769549,1342507023,1343097870,1342836132,1343032086,1342574384
1342439668,1342637919,1342705661,1342900312,1342967525,1343162737,1342768996,1342506596,1343098325,1342836477,1343031376,1342570499
1342439795,1342637828,1342705661,1342900350,1342967395,1343162907,1342769119,1342506584,1343098291,1342836565,1343031639,1342570706
1342439835,1342637749,1342701709,1342900166,1342967699,1343162560,1342768966,1342506559,1342832669,1343031355,1342570800,0
1342440065,1342637509,1342701969,1342899897,1342963866,1343162288,1342768718,1342506337,1342832947,1343031105,1342571050,0
1342440101,1342637517,1342701863,1342900048,1342967736,1343162560,1342768531,1342506033,1343098345,1342836622,1343031039,1342570767
1342440116,1342637472,1342701980,1342899897,1342963838,1343162330,1342768752,1342506329,1342832991,1343031180,1342571128,0
1342440179,1342637448,1342701907,1342900016,1342967739,1343162571,1342768818,1342506260,1342832867,1343031367,1342571142,0
1342440327,1342637334,1342701945,1342900012,1342967668,1343162675,1342768374,1342505733,1343098146,1342836580,1343031024,1342570879
1342440540,1342636896,1342702910,1342898807,1342965298,1343160704,1342767636,1342505733,1343096264,1342833887,1343029524,1342571522
1342440556,1342637041,1342702387,1342899503,1342964204,1343161977,1342768348,1342505891,1342833388,1343030815,1342571558,0
1342440675,1342636880,1342702647,1342899199,1342964613,1343161520,1342768049,1342505733,1342833650,1343030367,1342571680,0
1342440685,1342636855,1342702707,1342964724,1343161394,1342767945,1342505683,1342833675,1343030206,1342571661,0,0
1342440699,1342636845,1342702707,1342899126,1342964712,1343161410,1342768003,1342505727,1342833736,1343030285,1342571730,0
1342440757,1342636785,1342702775,1342899055,1342964790,1343161329,1342767935,1342505666,1343095818,1342833804,1343030206,1342571788
1342440809,1342636652,1342703100,1342898644,1342965400,1343160628,1342767469,1342505481,1342834070,1343029444,1342571788,0
1342440845,1342636705,1342702832,1342899009,1342964811,1343161318,1342767875,1342505578,1343095826,1342833849,1343030181,1342571865
1342440913,1342636752,1342702522,1342899438,1342964108,1343162143,1342767994,1342505334,1342833228,1343030674,1342571645,0
1342441111,1342636444,1342703076,1342898771,1342965033,1343161103,1342767608,1342505287,1343096012,1342834059,1343029934,1342572100
1342441129,1342636400,1342703187,1342898630,1342965243,1343160864,1342767482,1342505256,1343096237,1342834185,1343029710,1342572133
1342441235,1342636290,1342703300,1342898515,1342965362,1343160742,1342767378,1342505159,1342834309,1343029601,1342572249,0
1342456135,1342654064,1342718518,1342915964,1342980914,1343177854,1342784847,1342522949,1343111928,1342849537,1343046731,1342587161
1342456151,1342654041,1342718556,1342915920,1342980973,1343177790,1342784711,1342522844,1343111886,1342849484,1342587093,0
1342456369,1342653862,1342718639,1342915883,1342980900,1343177912,1342784799,1342522787,1343111948,1342849691,1343046824,1342587430
1342456603,1342718646,1342915947,1342980680,1343178203,1342784582,1342522360,1343111431,1342849424,1343046824,0,0
1342456821,1342653512,1342718757,1342915867,1342980680,1343178236,1342784624,1342522282,1343111560,1342849650,1343046977,1342587726
1342457312,1342652837,1342719856,1342914576,1342982389,1343180425,1342783564,1342521823,1343113501,1342850972,1342588427,0
1342457891,1342656365,1342720397,1342982913,1343179913,1342787004,1342525235,1343113886,1342851383,1343048766,1342588914,0
1342458800,1342655289,1342721863,1342920624,1342984936,1342785619,1342524398,1343116163,1342853094,1342590027,0,0
1342441628,1342639904,1342703997,1342901815,1343163699,1342770642,1342508734,1342834992,1343032519,1342572630,0,0
1342443395,1342638345,1342705066,1342900972,1342966714,1343163615,1342769662,1342507052,1342835920,1343032290,1342574264,0
1342439916,1342637716,1342900271,1342967446,1343162869,1342769086,1342506513,1342836702,1343031649,1342570871,0,0
1342440074,1342637492,1342702009,1342899846,1343162207,1342768699,1342506348,1342833018,1343031054,1342571085,0,0
1342440269,1342637325,1342702109,1342899776,1343162237,1342768374,1342505944,1343098795,1342832867,1343030815,1342571050,0
1342440512,1342637085,1342702343,1342899543,1343162005,1342768303,1343095076,1342833256,1343030761,1342571434,0,0
1342456383,1342653812,1342718778,1342915703,1342981184,1343177582,1342784608,1342522721,1343112221,1342849821,1342587430,0
1342456505,1342653703,1342718850,1342915645,1342981205,1343177577,1342784558,1342522622,1343112250,1342849902,1342587558,0
1342456690,1342653522,1342719028,1342915468,1342981372,1343177416,1342784184,1342522254,1343112201,1342849875,1342587558,0
1342456694,1342653509,1342719063,1342915426,1342981439,1343177336,1342784361,1342522445,1343112505,1342850134,1342587766,0
1342456710,1342653503,1342719043,1342915456,1342981381,1343177406,1342784327,1342522383,1343112377,1342850049,1342587726,0
1342456658,1342653503,1342719167,1342915275,1342981696,1343177031,1342783576,1342521856,1343112064,1342849596,0,0
1342456724,1342653455,1342719167,1342915298,1342981623,1343177127,1342784262,1342522419,1343112719,1342850265,1343046094,1342587824
1342456886,1342653311,1342719273,1342915208,1342981668,1343177100,1342784145,1342522247,1343112734,1342850343,1343046035,1342587959
1342457017,1342653169,1342719443,1342915027,1342981880,1343176878,1342783899,1342522048,1343112872,1342850446,1342588030,0
1342457231,1342652973,1342719591,1342914900,1342981954,1343176824,1342783827,1342521902,1343113008,1342850649,1342588293,0
1342457726,1342656456,1342720543,1342917889,1342983417,1343179301,1342786804,1342525375,1343114437,1342851579,1342588769,0
1342656456,1342720449,1342918026,1342983179,1343179581,1342787052,1342521352,1343114327,1342851598,1343048609,1342588914,0
1342457769,1342656429,1342720529,1342917923,1342983341,1343179393,1342786804,1343114327,1342851530,1342588786,0,0
1342655365,1342721706,1342916696,1342984654,1343182127,1342785768,1342524429,1343115835,1342852889,1343051200,1342589943,0
1342459508,1342654630,1342722378,1342920136,1342985297,1343181502,1342789068,1342523569,1343116323,1342853417,1343050426,1342590558
1342459915,1342658347,1342722713,1342919831,1342985529,1343181303,1342788898,1342527409,1343116699,1342853884,1342591089,0
1342478998,1342675947,1342742396,1342940951,1343005794,1343201810,1342809873,1342544881,1343136768,1342873395,1343070718,1342610021
1342477032,1342673888,1342740203,1342939116,1343003384,1342804132,1342543017,1343134618,1342871438,1343069336,1342608265,0
1342475932,1342670885,1342739097,1342936092,1343002322,1342804988,1342539788,1343133298,1342870095,1342606947,0,0
1342475451,1342671499,1342738199,1342933033,1343000940,1342801996,1342540465,1343132006,1342869274,1342606534,0,0
1342475264,1342671680,1342738031,1342933199,1343000780,1343198832,1342805909,1342540299,1343131467,1342868730,1343067385,1342606003
1342474864,1342672131,1342737466,1342933813,1343000081,1342802777,1342541100,1343131159,1342868551,1342605953,0,0
1342474839,1342672081,1342737692,1342933505,1343000574,1343199033,1342802583,1342541152,1343131742,1342868888,1343068116,1342606032
1342474195,1342672831,1342736757,1342999358,1343196211,1342803498,1342541802,1343130447,1342867850,1343065180,1342605294,0
1342473486,1342669401,1342736129,1342931039,1342998768,1343196781,1342537837,1342866646,1343065127,1342604051,0,0
1342473420,1342669456,1342736100,1342931057,1342998780,1343196757,1342800045,1342538443,1343129895,1342867219,1342604540,0
1342473410,1342669482,1342736036,1342931138,1342998655,1342800155,1342538495,1343129801,1342867184,1342604555,0,0
1342472819,1342670177,1342735104,1342932177,1342997396,1343194172,1342801113,1342539113,1343128469,1342866178,1343063107,1342603894
1342472634,1342670375,1342734873,1342932422,1342997118,1343194467,1342801299,1342539259,1343128129,1342865890,1343063339,1342603655
1342472451,1342670731,1342752571,1342947677,1343014207,1343210335,1342816302,1342539381,1343144966,1342883340,1343078939,0
1342490074,1342685783,1342752054,1342948094,1343014027,1343210407,1342816923,1342554622,1343145003,1342883033,1343079232,1342621057
1342490066,1342685802,1342752009,1342948147,1343013947,1343210500,1342817024,1342554685,1342883037,1343079376,1342621098,0
1342489946,1342685893,1342751985,1342948142,1343014021,1343210394,1342817034,1342554787,1343145064,1342883027,1343079285,1342620989
1342489883,1342685922,1342752033,1342948059,1343014186,1343210193,1342816978,1342554841,1343145254,1342883101,1343079111,1342620950
1342489740,1342686139,1342751645,1342948524,1343013542,1343210917,1342817358,1342554978,1342882632,1343079747,1342620731,0
1342489661,1342686224,1342751544,1342948632,1343013418,1343211049,1342817410,1342555014,1342882478,1343079819,1342620603,0
1342489347,1342686626,1342750935,1342949338,1343016620,1343212037,1342818103,1342555402,1342881859,1343080797,1342620279,0
1342489240,1342686648,1342751116,1342949061,1343012988,1343211481,1342817912,1342555501,1342882124,1343080327,1342620250,0
1342488849,1342687095,1342754665,1342949667,1343016343,1343212280,1342818420,1342555856,1343147252,1342885579,1343081023,1342619771
1342488829,1342687075,1342754775,1342949514,1343016590,1343211989,1342555856,1343147516,1342885705,1343080750,1342619767,0
1342488811,1342754722,1342949579,1343016502,1343212089,1342818368,1343147444,1342885672,1343080868,1342619763,0,0
1342492655,1342687473,1342754057,1342950366,1343015433,1343213283,1342818992,1342556146,1342884851,1343081893,1342623461,0
1342492605,1342687464,1342754200,1342950163,1343015775,1343212881,1342818904,1342556216,1342885107,1343081611,1342623518,0
1342492528,1342687479,1342754338,1342949955,1343016146,1342818764,1342556293,1342885311,1343081248,1342623507,0,0
1342492405,1342687697,1342753896,1342950500,1343015368,1343213316,1342818921,1343150051,1342884481,1343081708,1342623019,0
1342492375,1342687744,1342753797,1342950620,1343015193,1343213517,1342819305,1342556444,1342884652,1343082191,1342623238,0
1342491881,1342688248,1342753282,1342951143,1343018776,1343214037,1342819837,1342556955,1343149637,1342884149,1343082720,1342622755
1342491723,1342688440,1342753003,1342951434,1343018368,1343214484,1342820023,1342557024,1342887859,1343083025,1342622475,0
1342491536,1342688522,1342753167,1342951183,1343018907,1343213829,1342819820,1342557176,1343149700,1342883973,1343082475,1342622357
1342490691,1342689417,1342756191,1342952334,1343017547,1342820990,1342558114,1342887028,1343083913,1342625660,0,0
1342494483,1342689749,1342755856,1342952672,1343017209,1343215612,1342821287,1342558382,1343084211,1342625294,0,0
1342493951,1342690353,1342755093,1342953478,1343020331,1343216657,1342822008,1342558878,1343151008,1342889908,1343085137,1342624658
1342493703,1342690252,1342755994,1342952242,1343018305,1343214215,1342820855,1342558882,1342886786,1343082808,1342624515,0
1342493492,1342690851,1342758624,1342954115,1343019597,1343217435,1342822722,1342559474,1342889425,1343086030,1342624302,0
1342495084,1342693390,1342760015,1342956880,1343024914,1343220370,1342825369,1342561928,1343155611,1342890721,1343088840,1342625802
1342673902,1342740004,1342935277,1343002901,1343200762,1342804233,1342542863,1343133945,1342871060,1342608165,0,0
1342477329,1342673923,1342739389,1342936161,1343001428,1343198413,1342804769,1342542561,1343132114,1342870100,1343066996,1342608069
1342476586,1342674394,1342739550,1342935714,1343002529,1343201144,1342804483,1342543184,1343133370,1342870419,1342607484,0
1342476166,1342674781,1342739301,1342935899,1343002495,1343201110,1342804960,1342543838,1343133651,1342870464,1342607337,0
1342475757,1342671141,1342738655,1342936619,1343001605,1343197950,1342805722,1342540237,1343132819,1342606968,0,0
1342475247,1342671576,1342738423,1342936795,1343001617,1343197855,1342805860,1342540634,1343132787,1342869571,1342606422,0
1342475224,1342671838,1342933741,1342999998,1343195636,1342802146,1342540282,1343130474,1342868122,1343068116,0,0
1342474823,1342672125,1342737584,1342933645,1343000362,1343195151,1342802710,1342541183,1343131544,1342868766,1342606003,0
1342672386,1342737246,1342934017,1342999914,1343195636,1342802777,1342541164,1343130767,1342868122,1343064375,1342605491,0
1342473696,1342669456,1342931988,1342997198,1343194543,1342800571,1342538067,1343127893,1342866178,1343063107,1342604445,0
1342669598,1342735810,1342931414,1342998288,1343193221,1342800406,1342538585,1343129412,1342866935,1342604462,0,0
1342473237,1342669630,1342735949,1342931199,1343196871,1342800204,1342538626,1343129790,1342867085,1342604380,0,0
1342473575,1342669630,1342735168,1342932332,1342996737,1343195055,1342800809,1342538139,1342865784,1343063505,1342604217,0
1342473101,1342669876,1342735448,1342931814,1342997803,1343193746,1342800764,1342538825,1343128887,1342866535,1343062697,1342604188
1342473038,1342669942,1342735376,1342931888,1342997721,1343193831,1342800822,1342538876,1343128788,1342866445,1342604109,0
1342472478,1342670392,1342735180,1342931970,1342997905,1343193528,1342800806,1342539237,1343128861,1342866151,1342603462,0
1342670633,1342734609,1342932688,1342996849,1343194738,1342801595,1343127893,1342865658,1343063640,1342603424,0,0
