0,1,2,3,4,5,6,7,8,9,10,11
1342442412,1342639429,1342703753,1342902358,1342969192,1343165335,1342771061,1342508124,1343100032,1342838727,1343033995,1342573275
1342439762,1342637922,1342705430,1342900645,1342966952,1343163415,1342769421,1342506706,1343097888,1342836368,1343032186,1342570704
1342440392,1342637194,1342702258,1342899621,1342964112,1343162054,1342768443,1342506023,1343095087,1342833235,1343030872,1342571374
1342440578,1342636972,1342702564,1342899276,1342964545,1343161584,1342768155,1342505855,1342833596,1343030461,1342571611,0
1342440823,1342636733,1342702793,1342899052,1342964758,1343161375,1342767917,1342505602,1343095773,1342833809,1343030239,1342571840
1342440873,1342636657,1342702928,1342898890,1342964983,1343161125,1342767790,1342505559,1343096030,1342833979,1343030023,1342571923
1342455923,1342703370,1342898542,1342965115,1343161088,1342785398,1342522900,1343095619,1342833911,1343029448,1342572189,0
1342456482,1342653751,1342718747,1342915774,1342981015,1343177792,1342784711,1342522689,1343112088,1342849822,1343046729,0
1342456496,1342653727,1342718794,1342915716,1342981097,1343177701,1342784673,1342522683,1343112190,1342849888,1343046657,1342587590
1342458240,1342655900,1342721129,1342917292,1342984044,1343182783,1342786169,1342524786,1343115020,1342852122,1343051649,0
1342458942,1342655261,1342721619,1342916868,1342984283,1343182587,1342785768,1342524167,1343115282,1342852631,1343051476,1342589965
1342440933,1342636605,1342702964,1342898862,1343161125,1342767730,1342505474,1343096003,1342833979,1343029987,1342571951,0
1342456643,1342653515,1342719161,1342915280,1342981693,1343177032,1342784079,1342522326,1343112609,1342850092,1342587590,0
1342457545,1342652581,1342720140,1342918362,1342982785,1343180001,1342787392,1342521604,1343113942,1342851298,1343049036,1342588699
1342457669,1342652514,1342720073,1342918492,1342982512,1343180340,1342787472,1342521493,1343113618,1342851182,1342588779,0
1342461260,1342656872,1342724468,1342922038,1342987735,1343183052,1342791124,1342525953,1343118906,1342855644,1342592441,0
1342477552,1342673381,1342740647,1342938661,1343003798,1343199792,1342807798,1342542510,1343135026,1342871876,1343068933,1342608780
1342474930,1342672027,1342737657,1342933583,1343000401,1342802460,1342540915,1343131381,1342868651,1343068113,1342605938,0
1342473513,1342669430,1342735971,1342931257,1342998440,1342800206,1342538381,1343129517,1342867053,1343062022,1342604598,0
1342473444,1342669469,1342736006,1342931188,1342998562,1343197013,1342800179,1342538459,1343129681,1342867129,1343066006,1342604564
1342472344,1342670623,1342734723,1342932527,1342997119,1342801429,1342539529,1343128155,1342865767,1343063315,1342603392,0
1342490463,1342685341,1342752615,1342947477,1343014768,1343209612,1342816363,1342554230,1343145794,1342883645,1343078495,0
1342490449,1342685392,1342752481,1342947650,1343014507,1343209913,1342816496,1342554243,1342883472,1343078753,1342621445,0
1342490036,1342685812,1342752047,1342948090,1343014054,1343210370,1342816934,1342554663,1343145047,1342883043,1343079211,1342621037
1342490012,1342752172,1342947915,1343014341,1343210033,1342816804,1342554686,1343145374,1342883208,1343078918,1342621046,0
1342490012,1342685831,1342752031,1342948102,1343014046,1343210375,1342816958,1342554692,1343145047,1342883036,1343079226,1342621022
1342489535,1342686336,1342751464,1342948699,1343013385,1343211066,1342817557,1342555200,1343144397,1342882476,1343079922,1342620549
1342489247,1342686788,1342754753,1342949679,1343016102,1343212625,1342818351,1342555477,1343146928,1342885587,1343081284,1342620093
1342473444,1342669497,1342735908,1342931319,1342998382,1343193129,1342800217,1342538400,1343129403,1342866938,1343062022,1342604480
1342687353,1342754364,1342949975,1343016018,1343212611,1342818783,1342556163,1343146991,1342885335,1343081414,1342623666,0
1342496757,1342691646,1342757889,1342954807,1343217958,1342823216,1342560111,1343153713,1342888497,1343086365,1342627386,0
