0,1,2,3,4,5,6,7,8,9,10,11
1342441054,1342636530,1342702930,1342898944,1342964797,1343161368,1342767688,1342505286,1342833823,1343030100,1342571959,0
1342456064,1342654165,1342718348,1342916165,1342980639,1343178162,1342785077,1342523078,1343111687,1342849402,1343047070,1342587120
1342456946,1342653248,1342719341,1342915139,1342981744,1342784093,1342522205,1343112826,1342850428,1343045974,1342588034,0
1342458264,1342655882,1342721134,1342917292,1342984030,1343182802,1342786376,1342524957,1343115232,1342852335,1342589463,0
1342460830,1342657282,1342724100,1342922385,1342987431,1342791505,1342526397,1343118638,1342855313,1343052457,1342592048,0
1342636116,1342703329,1342898555,1342965169,1343161003,1342767264,1342523302,1343096012,1342834183,1343029698,1342572343,0
1342474971,1342671944,1342737843,1342933350,1343000715,1343198855,1342802435,1342541021,1343131917,1342869044,1343067947,1342606169
1342474421,1342672613,1342736896,1342934422,1342999380,1343196226,1342803328,1342541524,1343130400,1342867926,1342605458,0
1342473854,1342669087,1342736320,1342935029,1342998770,1343196839,1342803840,1342537912,1343129693,1342867259,1343065639,1342604806
1342473538,1342669329,1342736245,1342935029,1342998943,1343196586,1342803796,1342538113,1343129817,1342867138,1342604452,0
1342472805,1342670199,1342735062,1342932228,1342997321,1343194256,1342801143,1342539115,1343128370,1342866112,1343063168,1342603859
1342490253,1342685587,1342752285,1342947845,1343014314,1343210106,1342816692,1342554439,1343145304,1342883280,1343078946,1342621252
1342490245,1342685551,1342752425,1342947657,1343014608,1343209762,1342816542,1342554439,1343145636,1342883456,1343078644,1342621280
1342489550,1342686360,1342751353,1342948851,1343013141,1343211350,1342817586,1342555109,1342882241,1343080074,1342620451,0
1342489495,1342686413,1342751302,1342948898,1343013097,1343211394,1342817714,1342555236,1342882274,1343080203,1342620471,0
1342489456,1342686439,1342751307,1342948877,1343013150,1343211326,1342817681,1342555251,1343144104,1342882267,1343080123,1342620421
1342489417,1342686471,1342751290,1342948889,1343013154,1343211315,1342817738,1342555325,1342882294,1343080159,1342620421,0
1342491587,1342688581,1342752849,1342951594,1343018200,1343214660,1342820336,1342557308,1342887863,1343083368,1342622483,0
1342472741,1342670223,1342735130,1342932119,1342997526,1343194009,1342801019,1342539126,1343128557,1342866165,1343062906,1342603780
1342490791,1342689412,1342755974,1342952655,1343215907,1342821316,1342558115,1342886819,1343084557,1342625767,0,0
