0,1,2,3,4,5,6,7,8,9,10,11
1342443621,1342642366,1342708838,1342905570,1342969907,1343168766,1342774225,1342511061,1342839693,1343037439,1342578603,0
1342442775,1342639038,1342704213,1342901894,1342969750,1343164748,1342770494,1342507655,1343100505,1342834982,1342573560,0
1342442957,1342638757,1342704724,1342901280,1342966482,1343163810,1342769854,1342507354,1342835462,1343032361,1342573717,0
1342439739,1342637910,1342705524,1342900514,1342967168,1343163160,1342769134,1342506525,1343097904,1342836276,1343031732,1342570510
1342440182,1342637456,1342701877,1342900056,1342967679,1343162641,1342768734,1342506152,1343098500,1342832712,1343031305,1342571030
1342440523,1342637072,1342702359,1342899527,1342964184,1343161992,1342768261,1342505820,1343095061,1342833247,1343030715,1342571422
1342456506,1342653733,1342718754,1342915771,1342981006,1343177806,1342784691,1342522654,1343112062,1342849812,1343046724,1342587566
1342456618,1342653552,1342719097,1342915356,1342981586,1343177154,1342784000,1342522220,1343112333,1342849872,1342587420,0
1342457609,1342652755,1342719437,1342915224,1342981242,1343177713,1342783951,1342521498,1343112087,1342850297,1343046424,1342588483
1342457760,1342720223,1342918324,1342982720,1343180111,1342787323,1342521401,1343113845,1342851346,1343049111,1342588885,0
1342460062,1342658187,1342722902,1342919631,1342985758,1342788552,1342527115,1343116767,1342853926,1343049973,1342591100,0
1342455897,1342654346,1342718131,1342916399,1342980370,1343178446,1342785274,1342523227,1343111379,1342849147,1342586918,0
1342456362,1342653977,1342718275,1342916357,1342980174,1343178749,1342785115,1342522749,1343096753,1342849172,1342587271,0
1342473618,1342669304,1342736147,1342931058,1342998664,1343196924,1342800009,1342538255,1343129740,1342867228,1343065872,1342604702
1342473332,1342669745,1342735349,1342932020,1342997354,1343194306,1342800869,1342538601,1343128331,1342866332,1343063147,1342604323
1342489799,1342686053,1342751791,1343013778,1343210651,1342817237,1342554942,1342882829,1343079538,1342620839,0,0
1342489012,1342686873,1342750897,1342949278,1343016898,1343211661,1342818058,1342555661,1343147832,1342881836,1342619958,0
1342488891,1342687084,1342754601,1342949764,1343016164,1343212495,1342818555,1342555882,1343147115,1342885554,1343081279,1342619847
1342488817,1342687099,1342754728,1342949574,1343016506,1343212085,1342818335,1342555871,1343147422,1342885649,1343080837,1342619746
1342492335,1342687721,1342753975,1342950373,1343015603,1343213035,1342819176,1342556532,1343146572,1342884945,1343081833,1342623308
1342492883,1342758453,1342954145,1343019890,1343216999,1342822832,1342560025,1343150768,1342889336,1343085676,1342623770,0
1342477752,1342673104,1342741105,1342938121,1343004527,1343203102,1342807332,1342872404,1343068197,1342609048,0,0
1342476724,1342674292,1342739575,1342935724,1343002438,1343201270,1342804730,1342543297,1343133540,1342870681,1342607838,0
1342473084,1342669775,1342735824,1342931314,1342998566,1343196950,1342800235,1342538698,1343129608,1342866875,1343065866,1342604142
