0,1,2,3,4,5,6,7,8,9,10,11
1342447297,1342642841,1342708297,1342906137,1342973400,1343169420,1342774384,1342511128,1343103818,1342842868,1343037629,1342577778
1342444577,1342641458,1342709725,1342904704,1342970720,1343168001,1342773059,1342509822,1343101213,1342840243,1343036296,1342575123
1342444758,1342641216,1342705980,1342904294,1342971294,1343167365,1342772836,1342509781,1343035891,1342575507,0,0
1342441926,1342639890,1342707473,1342902734,1342968877,1343165623,1342771327,1342508503,1342838243,1343034195,1342572710,0
1342441942,1342639944,1342707261,1342903021,1342968425,1343166151,1342771564,1342508510,1343099134,1342837983,1343034674,1342572680
1342442290,1342639540,1342703671,1342902428,1342969148,1343165367,1342771138,1342508236,1342838654,1343034038,1342573158,0
1342442596,1342639225,1342704009,1342902106,1342969525,1343164976,1342770566,1342507716,1342838764,1343033408,1342573254,0
1342442736,1342639033,1342704322,1342901741,1342965889,1343164435,1342770451,1342507757,1343100887,1342835203,1343033163,1342573626
1342442846,1342638949,1342704343,1342901748,1342965817,1343164540,1342770417,1342507634,1343100769,1342835182,1343033220,1342573696
1342442889,1342638851,1342704561,1342901473,1342966219,1343164106,1342770187,1342507581,1342835445,1343032811,1342573784,0
1342442942,1342638836,1342704497,1342901575,1342966030,1343164331,1342770280,1342507554,1342835369,1343033022,1342573825,0
1342442989,1342638749,1342704675,1342901355,1342966348,1343163971,1342770043,1342507451,1342835529,1343032644,1342573854,0
1342443336,1342638350,1342705191,1342900786,1342967040,1343163224,1342506902,1342835845,1343031687,1342574020,0,0
1342443351,1342638372,1342705087,1342900927,1342966813,1343163490,1342769448,1342506948,1343097472,1342835770,1343031985,1342574059
1342443438,1342638288,1342705157,1342900862,1342966866,1343163444,1342769658,1342507093,1342836119,1343032235,1342574403,0
1342439511,1342638218,1342704945,1342901202,1342966238,1343164198,1342769406,1343100690,1342835311,1343032359,1342574041,0
1342439670,1342637812,1342701889,1342899876,1342964118,1343161932,1342768508,1342506464,1342832675,1343030540,0,0
1342439715,1342637925,1342705527,1342900502,1342967200,1343163121,1342769148,1342506564,1343097963,1342836305,1343031718,1342570512
1342439795,1342637780,1342701703,1342900160,1342967732,1343162516,1342768893,1342506525,1342836718,1343031262,1342570696,0
1342439989,1342637578,1342701918,1342899940,1342963841,1343162304,1342768774,1342506419,1342832908,1343031134,1342570984,0
1342440047,1342637544,1342701900,1342899977,1342963750,1343162393,1342768757,1342506334,1342832836,1343031185,1342570984,0
1342440573,1342637020,1342702421,1342899462,1342964258,1343161915,1342768291,1342505855,1342833403,1343030738,1342571560,0
1342440904,1342636636,1342702925,1342898904,1342964942,1343161176,1342767734,1343095915,1342833903,1343029999,1342571889,0
1342440962,1342636480,1342703306,1342898421,1342965659,1343160353,1342785460,1342505088,1342834030,1342571715,0,0
1342441241,1342636393,1342702948,1342898983,1342964629,1343161593,1342767670,1342505096,1342833784,1343030265,1342572092,0
1342456143,1342654077,1342718456,1342916051,1342980771,1343178022,1342784674,1342522724,1343111504,1342849215,1342586931,0
1342456854,1342653352,1342719207,1342915287,1342981566,1342784257,1342522322,1343112671,1342850312,1342587961,0,0
1342457816,1342656499,1342720190,1342918386,1342982593,1343180269,1342787176,1342525304,1343113492,1342851105,1343049045,1342588748
1342459371,1342654724,1342722381,1342920088,1342985448,1342789072,1342523717,1343116525,1342853471,1342590476,0,0
1342440955,1342636612,1342702888,1342898968,1343161333,1342767796,1342505447,1342833865,1343030153,1342571936,0,0
1342636544,1342703005,1342898828,1342965005,1343161117,1342767703,1343096027,1342834030,1343029988,1342572026,0,0
1342456143,1342654161,1342718171,1342916426,1342980186,1343178701,1342785275,1342523020,1342849160,1342587142,0,0
1342456143,1342654012,1342718675,1342915761,1342981224,1343177497,1342784634,1342522889,1343112221,1342849683,1342587158,0
1342456396,1342653800,1342718787,1342915693,1342981190,1343177577,1342784650,1342522757,1343112283,1342849883,1343046534,1342587492
1342456591,1342653535,1342719214,1342915194,1342981860,1343176832,1342783987,1342522340,1343112766,1342850138,1342587531,0
1342456991,1342653209,1342719362,1342915124,1342981743,1343177032,1342784051,1342522139,1343112796,1342850423,1342588054,0
1342457064,1342653143,1342719416,1342915078,1342981772,1343177008,1342783902,1342521979,1343112714,1342850371,0,0
1342457734,1342656413,1342720659,1342917739,1342983647,1343179034,1342786673,1342525350,1343114688,1342851713,1343047961,1342588798
1342458925,1342655243,1342721720,1342916731,1342984508,1343182325,1342524061,1343115398,1342852633,1343051110,1342589858,0
1342475653,1342671216,1342738646,1342936598,1343001694,1342805467,1342540095,1343132653,1342869623,1342606646,0,0
1342475331,1342671675,1342737897,1342933394,1343000469,1342802333,1342540616,1343131517,1342868951,1342606393,0,0
1342474634,1342672480,1342736843,1342934560,1342999046,1342803308,1342541243,1343129901,1342867712,1343065378,1342605521,0
1342473880,1342669024,1342736443,1342934839,1342999050,1343196517,1342803867,1342867590,1343065548,1342605034,0,0
1342473482,1342669623,1342735403,1342931995,1342997310,1343194377,1342800673,1342538322,1343128106,1342866217,1343063040,1342604314
1342473463,1342669615,1342735475,1342931895,1342997475,1343194185,1342800617,1342538355,1343128316,1342866330,1342604335,0
1342472945,1342670024,1342735318,1342931936,1342997700,1342800854,1342538945,1343128750,1342866372,1342604003,0,0
1342472718,1342670176,1342735343,1342931833,1342997987,1343193472,1342800646,1342538999,1343128918,1342866290,1342603678,0
1342472621,1342735037,1342932205,1342997462,1343194066,1342800957,1342539103,1343128331,1342865922,1342603527,0,0
1342472441,1342752642,1342947579,1343014367,1343210146,1342816286,1342539443,1343145209,1342883496,1343078839,1342603306,0
1342490365,1342685490,1342752352,1342947794,1343014330,1343210105,1342816557,1342554264,1343145228,1342883261,1343078857,1342621286
1342490227,1342685577,1342752382,1342947710,1343014538,1343209840,1342816594,1342554465,1342883413,1343078720,0,0
1342490087,1342685773,1342752055,1342948096,1343014015,1343210425,1342816876,1342554565,1342882982,1343079197,1342621027,0
1342490030,1342685816,1342752047,1342948089,1343014059,1343210365,1342816948,1342554680,1343145066,1342883057,1343079221,1342621044
1342490011,1342685716,1342752420,1342947589,1343014845,1342816470,1342554600,1342883447,1343064017,1342621044,0,0
1342489747,1342686126,1342751669,1342948495,1343013583,1343210872,1342817363,1342554998,1342882689,1343079736,1342620770,0
1342489632,1342686090,1342752055,1342947950,1343014494,1343209795,1342816850,1342554993,1342883103,1343078691,1342620683,0
1342489626,1342686216,1342751651,1342948480,1343013673,1343210747,1342817126,1342554882,1342882446,1343079370,1342620442,0
1342489308,1342686496,1342751463,1342948627,1343013623,1343210754,1342817375,1342555256,1342882362,1343079488,1342620219,0
1342489053,1342686839,1342750916,1342949265,1343016895,1343211673,1342818100,1342555678,1343147887,1342881911,1343080504,1342620050
1342488943,1342687019,1342754696,1342949652,1343016313,1343212331,1342818339,1342555721,1343147148,1342885545,1343081004,1342619800
1342488917,1342687030,1342754720,1342949616,1343016384,1343212244,1342818365,1342555792,1343147285,1342885631,1343080980,1342619836
1342488728,1342687300,1342754173,1342950278,1343015458,1343213287,1342818847,1342555917,1342884905,1343081837,1342623603,0
1342488658,1342687241,1342754528,1342949787,1343016262,1343212342,1342818561,1343147195,1342885465,1343081109,1342623725,0
1342492314,1342687712,1342754051,1342950267,1343015779,1343212828,1342818980,1342556438,1343146649,1342884930,1343081531,1342623206
1342491888,1342688263,1342753214,1342951234,1343018629,1343214208,1342819927,1342556970,1342884080,1343082890,1342622760,0
1342491115,1342689053,1342756505,1342952057,1343017744,1343215109,1342820597,1342557620,1342887224,1343083626,1342621855,0
1342490987,1342689203,1342756313,1342952267,1343017494,1342820509,1342557488,1342886732,1343083577,1342625565,0,0
1342494228,1342690051,1342755446,1342953131,1343020758,1343216206,1342821590,1342558540,1342886090,1343084640,0,0
1342494210,1342690088,1342755367,1342953227,1343020622,1343216361,1342821556,1342558453,1343084653,1342624757,0,0
1342478018,1342672904,1342741141,1342938160,1343004315,1343199269,1342807097,1342541852,1343135323,1342872168,1343068197,1342609061
1342476930,1342673995,1342740080,1342935124,1343003230,1343200354,1342804039,1342542918,1343134221,1342871091,1342607958,0
1342476735,1342674319,1342935885,1343002184,1343197441,1342804930,1342543362,1343133329,1342870602,1342607885,0,0
1342476558,1342674434,1342739481,1342935795,1343002424,1343201259,1342804861,1342543497,1343133588,1342607731,0,0
1342474612,1342672337,1342737371,1342933858,1343000152,1343195361,1342802824,1342541304,1343131229,1342868457,1342605701,0
1342473707,1342669200,1342736285,1342935028,1342998853,1343196718,1342803896,1342538076,1343129837,1342867281,1343065580,1342604713
1342473845,1342669225,1342735879,1342931483,1342997902,1343193750,1342800075,1342537845,1343128598,1342866602,1343062316,1342604596
1342473210,1342669753,1342735607,1342931640,1342998014,1343193521,1342800607,1342538717,1343129112,1342866707,1342604309,0
1342473229,1342669760,1342735532,1342931745,1342997838,1343193727,1342800658,1342538676,1343128881,1342866579,1342604282,0
1342670161,1342735126,1342932152,1342997427,1343194139,1342801076,1342539085,1343128484,1342866187,1343063060,1342603896,0
1342472707,1342670284,1342735007,1342932271,1342997310,1343194253,1342801215,1342539227,1343128391,1342866089,1343063197,1342603791
1342489129,1342686851,1342949553,1343016365,1343212297,1342818116,1342555416,1343147041,1342885516,1343080811,1342619848,0
