0,1,2,3,4,5,6,7,8,9,10,11
1342443776,1342642224,1342708950,1342905470,1342969972,1343168714,1342774022,1342510825,1342839702,1343037278,1342578663,0
1342443790,1342642174,1342709174,1342905178,1342970421,1343168221,1342773443,1342510480,1342839633,1343036446,1342578408,0
1342445451,1342640563,1342706541,1342903775,1342971712,1343166994,1342772286,1342509100,1343102396,1342837238,1343035483,1342576166
1342445544,1342640480,1342706603,1342903720,1342971746,1343166969,1342772367,1342509141,1342837435,1343035603,1342576384,0
1342445554,1342640382,1342706908,1342903320,1342968241,1343166281,1342771961,1342837730,1343034907,1342576384,0,0
1342441808,1342640006,1342707363,1342902842,1342968776,1343165719,1342771383,1342508571,1343099479,1342838082,1342572545,0
1342442932,1342638882,1342704365,1342901746,1342965770,1343164607,1342770478,1342507625,1343100793,1342835267,1342573839,0
1342443308,1342638466,1342704871,1342901198,1342966415,1343163945,1342769831,1342507119,1342835669,1343032561,1342574120,0
1342439569,1342638030,1342705517,1342900472,1342967331,1343162946,1342769266,1342506832,1343098282,1342836472,1343031734,1342570531
1342439637,1342637962,1342705582,1342900406,1342967395,1343162880,1342769178,1342506748,1343098323,1342836515,1343031646,1342570578
1342439975,1342637617,1342701824,1342967789,1343162480,1342768887,1342506451,1343098772,1342832811,1343031303,1342570964,0
1342439982,1342637590,1342701900,1342899960,1342963819,1343162331,1342768790,1342506430,1342832890,1343031158,1342570970,0
1342440078,1342637540,1342701840,1342900071,1342967710,1343162588,1342768872,1342506349,1342832800,1343031383,1342571043,0
1342440353,1342637194,1342702347,1342899490,1342964338,1343161788,1342768360,1342506067,1342833370,1343030655,1342571378,0
1342440468,1342637092,1342702422,1342899429,1342964369,1343161770,1342768301,1342505967,1342833447,1343030641,1342571496,0
1342440878,1342636688,1342702809,1342899049,1342964733,1343161415,1342767910,1342505554,1343095743,1342833821,1343030274,1342571894
1342441293,1342636261,1342703266,1342898577,1342965232,1343160901,1342767351,1342505045,1343096142,1342834185,1343029663,1342572223
1342455886,1342654432,1342703564,1342898275,1342965544,1343160584,1342523255,1342834521,1343029388,1342572541,0,0
1342456183,1342654054,1342718440,1342916084,1342980702,1343178108,1342784989,1342522962,1343111744,1342849484,1343047011,1342587231
1342456222,1342653975,1342718607,1342915875,1342981001,1343177766,1342784711,1342522822,1343111961,1342849581,1342587207,0
1342456294,1342653981,1342718422,1342916142,1342980546,1342784884,1342522740,1343111415,1342849303,1342587190,0,0
1342456432,1342653834,1342718589,1342980741,1343178102,1342784844,1342522717,1343111753,1342849603,1343046974,1342587452,0
1342456513,1342653650,1342719014,1342915433,1342981527,1343177205,1342784297,1342522521,1343112514,1342850013,1343046061,1342587520
1342456544,1342653676,1342718857,1342915646,1342981181,1343177610,1342784532,1342522567,1343112196,1342849882,1342587572,0
1342457287,1342653077,1342719113,1342915549,1342980921,1343178032,1342784087,1342521648,1343111566,1342849787,1342587990,0
1342457371,1342652802,1342719830,1342914629,1342982272,1342783577,1342521752,1343113344,1342850907,1343049515,1342588451,0
1342457700,1342652428,1342720286,1342918220,1342982916,1343179876,1342787063,1342525404,1343113866,1342851253,1343048706,1342588678
1342457875,1342656377,1342720395,1342918142,1342982925,1343179897,1342787132,1342525366,1343114039,1342851511,1343048888,1342588992
1342458175,1342721065,1342917357,1342983981,1343182845,1342786407,1342525004,1343115147,1342852234,1342589351,0,0
1342458477,1342655653,1342721404,1342917004,1342984331,1343182455,1342786081,1342524722,1343115521,1342852595,1343051534,1342589667
1342458662,1342655557,1342721291,1342917211,1342983934,1343178855,1342786117,1342524469,1343114944,1342852313,1342589694,0
1342458682,1342655429,1342721667,1342916722,1342984661,1343182106,1342785672,1342524384,1343115712,1342852732,1342589754,0
1342461086,1342657035,1342724328,1342922167,1342987632,1342791251,1342526115,1343118798,1342855504,1342592266,0,0
1342462538,1342659611,1342726026,1342924523,1342989529,1343185274,1342793586,1342528676,1343120656,1342857171,1342593692,0
1342440796,1342636759,1342702768,1342899076,1343161400,1342505627,1343095747,1342833782,1343030260,1342571813,0,0
1342654405,1342718012,1342916546,1342980158,1343178688,1342784923,1342522822,1343096314,1343047011,1342572102,0,0
1342456109,1342654138,1342718327,1342916211,1343178281,1342785088,1342523019,1343111555,1342849344,1343047154,1342587131,0
1342653915,1342718614,1342915893,1342980929,1343177864,1342784829,1342522852,1343112000,1342849687,1343046798,1342587387,0
1342456414,1342653754,1342718900,1342915549,1342981402,1343177333,1342784506,1342522708,1343112489,1342849990,1342587506,0
1342456908,1342653255,1342719406,1342915041,1342981917,1343176815,1342784013,1342522229,1343113019,1342850509,1342588016,0
1342653096,1342719475,1342915012,1342981851,1343176925,1342783939,1342522025,1343112903,1342850533,1342588167,0,0
1342457020,1342653082,1342719720,1342914664,1342982417,1343180346,1342783683,1342522099,1343113565,1342850869,1342588167,0
1342457200,1342652977,1342719653,1342914808,1342982118,1343180753,1342787561,1342521637,1343112850,1342850419,1342587990,0
1342457378,1342652819,1342719759,1342914724,1343180747,1342783637,1342521736,1343113183,1342850803,1342588425,0,0
1342457515,1342652782,1342719570,1342915018,1342981616,1343177263,1342783842,1342521615,1343112563,1342850526,1342588479,0
1342457677,1342652687,1342719501,1342915161,1342981302,1343177653,1342783897,1342521442,1343112160,1342850370,1342588560,0
1342656323,1342720640,1342917809,1342983460,1343179271,1342786778,1342525293,1343114542,1342851730,1342588940,0,0
1342458041,1342656149,1342720765,1342917709,1342983502,1343179257,1342786377,1342524843,1343114257,1342851551,1342588883,0
1342458531,1342655685,1342721166,1342917334,1342983815,1343178971,1342786222,1342524581,1343114808,1342852172,1342589549,0
1342459184,1342654942,1342722090,1342920413,1342985046,1343181741,1342789281,1342523821,1343116004,1342853095,1343050597,1342590178
1342459948,1342658311,1342722759,1342919783,1342985587,1343181242,1342788713,1342527248,1343116608,1342853794,1342590993,0
1342473160,1342669814,1342735519,1342931738,1342997887,1343193659,1342800694,1342538768,1343128975,1342866610,1342604252,0
1342473081,1342669977,1342735159,1342932189,1342997230,1342801048,1342538844,1343128224,1342866157,1343063259,1342604083,0
1342473033,1342669927,1342735437,1342931807,1342997852,1343193679,1342800775,1342538893,1343128955,1342866541,1342604138,0
1342472817,1342670187,1342735078,1342932214,1342997340,1343194239,1342801064,1342539045,1342866064,1343063081,1342603812,0
1342472780,1342670210,1342735078,1342932201,1342997380,1343194184,1342801110,1342539124,1343128424,1342866124,1343063091,1342603831
1342472748,1342670254,1342735010,1342932280,1342997274,1343194302,1342801159,1342539138,1343128284,1342866029,1343063176,1342603773
1342472567,1342670450,1342734787,1342932515,1342997011,1343194578,1342801383,1342539323,1343128012,1342865794,1343063439,1342603579
1342472445,1342670667,1342734341,1342947372,1343014686,1343209777,1342801824,1342539442,1342883707,1342603361,0,0
1342490395,1342685301,1342734447,1342932765,1342996970,1343194527,1342801377,1342539629,1343127690,1342883656,1343063112,1342621176
1342490350,1342685540,1342752220,1342947962,1343014079,1343210392,1342816721,1342554311,1343144977,1342883128,1343079141,1342621266
1342490295,1342685551,1342752312,1342947823,1343014325,1343210099,1342816648,1342554384,1343145292,1342883286,1343078917,1342621274
1342490202,1342685597,1342752372,1342947713,1343014544,1343209828,1342816586,1342554475,1342883391,1343078696,1342621224,0
1342490202,1342752190,1342947956,1343014166,1343210268,1342816840,1342554533,1343145199,1342883222,1343079152,0,0
1342490124,1342685645,1342752391,1342947663,1343014665,1343209676,1342816569,1342554553,1342883444,1343078579,1342621181,0
1342490060,1342685832,1342751919,1342948266,1343013765,1343210710,1342817096,1342554669,1342882901,1343079534,1342621047,0
1342489986,1342685906,1342751845,1342948340,1343013691,1343210785,1342817159,1342554734,1342882817,1343079599,1342620964,0
1342489907,1342686006,1342751700,1342948504,1343013481,1343211013,1342817102,1342554627,1342882447,1343079588,1342620675,0
1342489844,1342686053,1342751691,1342948495,1343013525,1343210952,1342817159,1342554734,1342882507,1343079599,1342620675,0
1342489756,1342686152,1342751561,1342948639,1343013354,1343211138,1342817432,1342554951,1342882507,1343079924,1342620709,0
1342489656,1342686198,1342751647,1342948495,1343013635,1343210794,1342817348,1342555057,1342882655,1343079644,1342620666,0
1342489631,1342686223,1342751616,1342948527,1343013598,1343210834,1342817381,1342555081,1342882623,1343079682,1342620641,0
1342489583,1342686213,1342751763,1342948319,1343013951,1343210417,1342817152,1342555057,1342882750,1343079246,1342620575,0
1342489555,1342686312,1342751499,1342948657,1343013439,1343211009,1342817498,1342555157,1342882495,1343079843,1342620553,0
1342489555,1342686335,1342751429,1342948749,1343013295,1343211173,1342817535,1342555126,1342882368,1343079948,1342620501,0
1342489440,1342686286,1342751852,1342948157,1343014282,1343210010,1342555039,1343145152,1342882739,1343078734,1342620343,0
1342489356,1342686538,1342751211,1342948977,1343013053,1343211423,1342817814,1342555382,1342882206,1343080257,1342620354,0
1342489308,1342686569,1342751225,1342948942,1343013133,1343211321,1342817770,1342555400,1342882206,1343080142,1342620293,0
1342489251,1342686676,1342750999,1342949220,1343016855,1343211751,1342818020,1342555483,1342881957,1343080543,1342620214,0
1342489161,1342686783,1342750851,1343016647,1343211978,1342818175,1342555580,1342881799,1343080760,1342620113,0,0
1342489088,1342686795,1342750977,1342949195,1343012865,1343211569,1342817986,1342555594,1342881926,1343080378,1342620043,0
1342492550,1342687520,1342754142,1342950222,1343015717,1343212937,1342818886,1342556207,1342884971,1343081582,1342623390,0
1342491948,1342688172,1342753376,1343018902,1343213900,1342819545,1342556709,1342884052,1343082404,1342622646,0,0
1342491882,1342688180,1342753501,1342950853,1343015106,1343213540,1342819626,1342556960,1342884444,1343082305,1342622829,0
1342491827,1342688254,1342753388,1342950985,1343014930,1343213706,1342819620,1342556905,1343149845,1342884193,1343082352,1342622646
1342491197,1342688939,1342756696,1342951830,1343018048,1343214772,1342820557,1342557677,1342887602,1343083490,1342622107,0
1342494287,1342689967,1342755589,1343020993,1343215944,1342821527,1342558556,1342886344,1343084521,1342625056,0,0
1342493430,1342690942,1342758471,1342954296,1343019353,1343217682,1342822822,1342559490,1342889192,1343086214,1342624166,0
1342475605,1342671344,1342738362,1342936992,1343001106,1343198505,1342805814,1342540179,1343132020,1342869293,1342606554,0
1342474366,1342672641,1342736928,1342934363,1342999503,1343196074,1342803324,1342541603,1343130580,1342868010,1342605451,0
1342474286,1342672692,1342736946,1342934314,1342999623,1343195920,1342803278,1342541656,1343130703,1342868032,1342605376,0
1342474278,1342672846,1342736450,1342934966,1342998613,1343197092,1342803853,1342541740,1343129624,1342867466,0,0
1342669418,1342735988,1342931240,1342998462,1343197176,1342800030,1342538223,1343129363,1342866906,1342604460,0,0
1342472985,1342669980,1342735370,1342931880,1342997764,1343193771,1342800828,1342538929,1343128844,1342866454,1342604069,0
1342472924,1342670071,1342735213,1342932068,1342997506,1343194061,1342801013,1342539014,1343128587,1342866296,1342604004,0
1342472910,1342670075,1342735232,1342932038,1342997561,1343193996,1342800934,1342538975,1343128587,1342866266,1342603948,0
1342670092,1342735210,1342932064,1342997529,1343194031,1342800957,1342538990,1343128552,1342866237,1342603929,0,0
1342472338,1342670693,1342734507,1342932811,1342996677,1343194929,1342801048,1342538982,1343063112,1342621224,0,0
1342472249,1342670772,1342734451,1342932858,1342996655,1343194941,1342801748,1342539665,1343127683,1342865483,1342603284,0
1342489576,1342686379,1342751230,1342949020,1343211655,1342817707,1342555081,1342882071,1343080350,1342620435,0,0
1342493752,1342690562,1342754851,1342953734,1343020043,1343216960,1342822348,1342559169,1343150816,1342889755,1343085532,1342624542
