0,1,2,3,4,5,6,7,8,9,10,11
1342439812,1342637798,1342701599,1342900276,1342967497,1343162792,1342769111,1342506615,1342836690,1343031594,1342570784,0
1342439888,1342637769,1342705647,1342900399,1342967270,1343163066,1342768752,1342506136,1342836129,1343031350,1342574533,0
1342439939,1342637769,1342705521,1342900584,1342966947,1343163452,1342769324,1342506522,1342836423,1343032183,1342570850,0
1342440097,1342637652,1342705548,1342900597,1342966843,1343163596,1342769071,1342506136,1342836158,1343032015,1342570732,0
1342440204,1342637488,1342701719,1342900243,1342967330,1343163049,1342768885,1342506124,1343098089,1342836615,1343031646,1342570995
1342440246,1342637352,1342702073,1342899818,1342963888,1343162293,1342768577,1342506124,1342832988,1343031041,1342571171,0
1342440416,1342637212,1342702144,1342899778,1342963853,1343162361,1342768538,1342505985,1342833057,1343031107,1342571341,0
1342440469,1342637084,1342702446,1342899398,1342964416,1343161716,1342768235,1342505926,1342833436,1343030547,1342571464,0
1342440810,1342636739,1342702798,1342899041,1342964782,1343161345,1342767774,1342505487,1342833680,1343030065,1342571706,0
1342456033,1342654284,1342718021,1342916587,1342965693,1343160437,1342785383,1342523091,1342834651,1342586981,0,0
1342456343,1342653898,1342718584,1342915945,1342980827,1343177989,1342784883,1342522835,1343111901,1342849661,1343046925,1342587420
1342456851,1342653274,1342719476,1342914932,1342982120,1343180694,1342783847,1342522193,1343113156,1342850522,1343049604,0
1342457166,1342653007,1342719630,1342914826,1342982106,1343180761,1342783721,1342521905,1343113121,1342850654,1343049650,1342588196
1342457319,1342652763,1342720062,1342918394,1342982862,1343179876,1342787449,1342521811,1343114043,1342851243,1342588497,0
1342458076,1342656008,1342721155,1342917203,1342984250,1343182486,1342786325,1342525120,1343115490,1342852396,1343051616,1342589310
1342459762,1342658497,1342722638,1342919874,1342985564,1343181233,1342788960,1342523456,1343116754,1342853831,1342590953,0
1342459864,1342658341,1342722916,1342919542,1342986026,1343184837,1342788632,1342527427,1343117214,1342854111,1342591034,0
1342461399,1342656684,1342724762,1342921694,1342988187,1342790598,1342525600,1343119155,1342855754,1343055565,1342592415,0
1342439586,1342638069,1342705351,1342900693,1343163361,1342769463,1342506847,1343097902,1342836284,1343032122,1342570523,0
1342459125,1342655044,1342721920,1342920654,1343182130,1342789301,1342523719,1343115425,1342852675,1343050753,1342589913,0
1342459107,1342655011,1342920448,1342985039,1343181735,1342789468,1342524028,1343116161,1342853174,1343050753,1342590241,0
1342474889,1342672030,1342737742,1342933457,1343000594,1343198983,1342802376,1342540955,1343131644,1342868777,1343067897,1342605935
1342473851,1342669041,1342736457,1342934810,1342999110,1343196442,1342803807,1342538033,1343130231,1342867581,1343065439,1342604973
1342473012,1342670033,1342735134,1342932200,1342997250,1343194372,1342801102,1342538938,1343128287,1342866173,1343063270,1342604053
1342489672,1342686177,1342751680,1342948457,1343013686,1343210741,1342817324,1342555046,1342882700,1343079605,1342620695,0
1342489629,1342686186,1342751746,1342948355,1343013866,1343210523,1342817263,1342555093,1343144925,1342882807,1343079430,1342620688
1342489236,1342686716,1342750900,1342949347,1343016668,1343211966,1342817904,1342555299,1343147361,1342885736,1343080498,1342619973
1342488614,1342687169,1342750838,1342949229,1343013079,1343211272,1342818004,1342555958,1343143996,1343080034,1342623682,0
1342492387,1342687703,1342753913,1342950472,1343015419,1343213258,1342819230,1342556470,1342884838,1343082008,1342623317,0
1342492097,1342687986,1342753645,1342950733,1343015171,1343213498,1342819429,1342556695,1342884508,1343082180,1342622972,0
1342491696,1342688383,1342753262,1342951109,1343018935,1342819771,1342557058,1343149758,1342884095,1342622540,0,0
1342491297,1342688882,1342756651,1342951924,1343017849,1343215020,1342820458,1342557440,1342887362,1343083533,1342622027,0
1342477312,1342673628,1342740413,1342938930,1343003512,1343200088,1342808048,1342542738,1343134720,1342871599,1342608525,0
1342474946,1342672030,1342737605,1342933656,1343000276,1343195271,1342802388,1342540785,1343131099,1342868455,1343068106,1342605820
1342474459,1342672478,1342737255,1342933963,1343000074,1343195425,1342803000,1342541510,1343131230,1342868413,1343064465,1342605617
1342473911,1342669058,1342736278,1342930978,1342998624,1343197016,1342799918,1342538001,1343129689,1342867347,1342604982,0
1342472951,1342670039,1342735257,1342932019,1342997569,1343193992,1342800979,1342539000,1343128665,1342866356,1342604047,0
1342472927,1342670056,1342735257,1342932010,1342997595,1343193960,1342800972,1342539015,1343128695,1342866356,1343062921,1342604026
