0,1,2,3,4,5,6,7,8,9,10,11
1342456561,1342653581,1342719125,1342915302,1342981701,1343177012,1342784300,1342522581,1343112829,1342850258,1343046009,1342587696
1342457590,1342652491,1342720335,1342918122,1342983131,1342787181,1342521543,1343114313,1342851518,1343048672,1342588770,0
1342636316,1342703173,1342898688,1342965082,1343161070,1342767523,1342505158,1343096062,1342834156,1343029899,0,0
1342476595,1342674299,1342739844,1342935325,1343003109,1343200437,1342804499,1342543461,1343134381,1342871118,1342607867,0
1342473165,1342669789,1342735588,1342931651,1342998020,1343193504,1342800576,1342538717,1343129075,1342866646,1343062426,1342604228
1342473018,1342669917,1342735502,1342931714,1342998004,1343193500,1342800671,1342538873,1343129090,1342866593,1343062457,1342604110
1342472925,1342670039,1342735314,1342931936,1342997713,1342800890,1342538993,1342866404,1343062781,1342604016,0,0
1342489521,1342686350,1342751448,1342948715,1343013369,1343211083,1342817581,1342555221,1343144389,1342882470,1343079947,1342620544
1342489428,1342686476,1342751246,1342948951,1343013052,1343211435,1342817719,1342555257,1342882171,1343080192,1342620360,0
1342488956,1342686987,1342754770,1342949562,1343016447,1343212178,1342818275,1342555692,1343147279,1342885617,1343080848,1342619815
1342492119,1342687980,1342753617,1342950776,1343015094,1342819506,1342556720,1342884517,1343082312,1342623024,0,0
1342473457,1342669594,1342735554,1342931787,1342997645,1343193984,1342800510,1342538333,1343128484,1342866409,1342604328,0
1342473046,1342669932,1342735388,1342931875,1342997737,1343193814,1342800824,1342538880,1343128819,1342866472,1343062762,1342604132
