0,1,2,3,4,5,6,7,8,9,10,11
1342443518,1342638285,1342704990,1342901109,1342966437,1343163954,1342769653,1342506880,1343097126,1342835698,1343032474,1342574246
1342441139,1342636484,1342702882,1342899035,1342964608,1342767733,1342505199,1343095443,1342833728,1343030281,1342571999,0
1342456772,1342653456,1342719052,1342915464,1342981334,1343177470,1342784418,1342522409,1343112423,1342850140,1343046423,1342587862
1342475083,1342671851,1342737887,1342933329,1343000684,1343198912,1342802103,1342540644,1343131575,1342868774,1343067667,1342605993
1342474876,1342672089,1342737579,1342933668,1343000299,1343195234,1342802556,1342540984,1343131288,1342868584,1343064112,1342605891
1342472313,1342670642,1342734734,1342932503,1342997171,1343194354,1342801417,1342539559,1343128219,1342865790,1343063265,1342603371
1342489945,1342685916,1342751911,1342948239,1343013870,1343210569,1342817076,1342554758,1343144852,1342882898,1343079402,1342620936
1342489507,1342686428,1342751228,1342949000,1343012930,1343211563,1342817777,1342555213,1343147980,1342882161,1343080357,1342620446
1342475681,1342671139,1342738839,1342936351,1343002062,1343197409,1342805487,1342540265,1343133304,1342870083,1342606921,0
1342473112,1342669853,1342735492,1342931759,1342997883,1343193657,1342800695,1342538791,1343128949,1342866562,1342604185,0
1342472821,1342670168,1342735134,1342932137,1342997458,1343194101,1342801070,1342539104,1343128521,1342866202,1342603894,0
1342491101,1342689106,1342756362,1342952241,1343215435,1342820920,1342557797,1343148321,1342887224,1343084105,1342621967,0
