0,1,2,3,4,5,6,7,8,9,10,11
1342447118,1342643067,1342707968,1342906487,1342972915,1343169953,1342774711,1342511306,1343103288,1342842494,1343038113,1342577552
1342444133,1342641861,1342709415,1342904970,1342970552,1343168127,1342773432,1342510347,1342840067,1343036562,1342574807,0
1342444575,1342641426,1342705708,1342904566,1342970933,1343167755,1342773206,1342510057,1342840637,1343036356,1342575389,0
1342441998,1342639900,1342707275,1342903020,1342968394,1343166195,1342771608,1342508510,1342838045,1343034768,1342572782,0
1342442734,1342639040,1342704301,1342901765,1342965852,1343164480,1342770443,1342507733,1343100814,1342835150,1343033171,1342573592
1342442876,1342638878,1342704510,1342901537,1342966128,1343164209,1342770312,1342507661,1342835454,1343032978,1342573819,0
1342439491,1342638140,1342705248,1342900799,1342966863,1342769495,1342506880,1342836105,1343032159,1342574486,0,0
1342439942,1342637732,1342705642,1342900423,1342967197,1343163160,1342769098,1342506398,1343097992,1342836450,1343031793,1342570764
1342439952,1342637681,1342701668,1342900231,1342967488,1343162824,1342769051,1342506482,1343098438,1343031611,1342570910,0
1342440277,1342637292,1342702204,1342899655,1342964123,1343162024,1342768506,1342506146,1342833209,1343030871,1342571284,0
1342440526,1342637081,1342702324,1342899578,1342964103,1343162088,1342768359,1342505871,1342833258,1343030859,1342571468,0
1342440605,1342636949,1342702574,1342899274,1342964532,1343161603,1342505806,1342833577,1343030452,1342571616,0,0
1342441216,1342636333,1342703206,1342898633,1342965188,1343160941,1342767288,1342505007,1343095964,1342834005,1343029570,1342572039
1342441296,1342636283,1342703191,1342898679,1342965075,1343161086,1342767481,1342505092,1343096018,1342834141,1343029880,1342572252
1342441452,1342636147,1342703284,1342898606,1342965101,1343161081,1342767282,1342523299,1343095906,1342834105,1343029740,1342572288
1342455908,1342654280,1342718325,1342916148,1342980754,1343178004,1342785033,1342523171,1343111772,1342849350,1343046884,1342586939
1342456022,1342654350,1342703518,1342898380,1342965307,1343160883,1342785518,1342523048,1343096115,1342834340,1343029545,0
1342456631,1342653526,1342719150,1342915291,1342981682,1342783996,1342522249,1343112495,1342849986,1342587490,0,0
1342457263,1342653106,1342719079,1342915586,1342980870,1343178086,1342784407,1342521937,1343111823,1342850037,1343046902,1342588227
1342457487,1342652631,1342720106,1342918391,1342982770,1343180013,1342787406,1342521643,1343113909,1342851248,1343049030,1342588629
1342457898,1342656355,1342720417,1342918120,1342982947,1343179876,1342787110,1342525344,1343114060,1342851532,1343048867,1342589014
1342457963,1342656229,1342720685,1342917786,1342983429,1343179327,1342786806,1342525243,1343114566,1342851824,1342589102,0
1342458216,1342656005,1342720836,1342917668,1342983471,1343179321,1342786536,1342524880,1343114442,1342851824,1342589214,0
1342458216,1342655932,1342721086,1342917339,1342983983,1342786289,1342524884,1343115036,1342852152,1342589290,0,0
1342458708,1342655491,1342721397,1342917089,1342984100,1343182793,1342786044,1342524450,1343115162,1342852468,1343051744,1342589786
1342458730,1342655434,1342721543,1342916900,1342984353,1343182470,1342785927,1342524457,1343115492,1342852685,1343051500,1342589872
1342459304,1342655147,1342721161,1342917585,1342982998,1343180041,1342786153,1342523744,1343113660,1342851847,1343048582,1342590017
1342442723,1342639118,1342902075,1342969500,1343165030,1342770659,1342507724,1343100246,1342834819,1343033595,1342573494,0
1342442979,1342638845,1342704379,1342901744,1343164639,1342770401,1342507519,1343100692,1342835205,1343033309,1342573819,0
1342654306,1342718495,1342915888,1342981218,1343177449,1342784703,1342523130,1343112153,1342849445,1342572454,0,0
1342456219,1342654056,1342718348,1342916215,1342980477,1343178375,1342785047,1342522895,1343111440,1342849321,1342587200,0
1342456236,1342653939,1342718701,1342915754,1343177553,1342784625,1342522813,1343112178,1342849707,1342587250,0,0
1342456619,1342653602,1342915581,1342981241,1343177553,1342784534,1342522556,1343112330,1342850018,1343046509,1342587711,0
1342456580,1342653485,1342719405,1342914939,1342982232,1343180490,1342783774,1342522329,1343113207,1342850369,1342587559,0
1342456703,1342653474,1342719160,1342915299,1342981633,1343177109,1342784212,1342522390,1343112672,1342850205,1342587755,0
1342456722,1342653388,1342719395,1342914996,1342982091,1343180707,1342783831,1342522232,1343113040,1342850360,1343049530,1342587700
1342456846,1342653324,1342719316,1342915140,1342981797,1343176945,1342784083,1342522268,1343112867,1342850390,1342587924,0
1342457513,1342652572,1342720243,1342918218,1342983025,1343179720,1342787189,1342521539,1343114112,1342851337,1342588611,0
1342458432,1342655814,1342720964,1342917569,1342983504,1343179317,1342786348,1342524610,1343114380,1342851860,1342589348,0
1342459206,1342654979,1342721943,1342920646,1342984674,1343182177,1342785550,1342524004,1343115807,1342853082,1343051204,1342590345
1342459456,1342654606,1342722577,1342919858,1342985757,1343180960,1342788656,1342523421,1343116632,1342853479,1342590381,0
1342460408,1342657776,1342723474,1342918986,1342986544,1343184296,1342788020,1342526808,1343117669,1342854607,1342591545,0
1342462756,1342659719,1342725164,1342921603,1342987563,1343183494,1342790215,1342528363,1343118226,1342855861,1342593486,0
1342478489,1342676519,1342741677,1342937613,1343004860,1343202811,1342806700,1342545607,1343136021,1342872848,1342609670,0
1342475214,1342671718,1342738025,1342933188,1343000830,1343198764,1342802185,1342540715,1343131933,1342869136,1343067760,1342606331
1342475042,1342737065,1342934398,1342999070,1343196684,1342803261,1342540997,1343130049,1342868050,1343065540,1342606035,0
1342474788,1342672141,1342737609,1342933600,1343000455,1343199160,1342802618,1342541156,1343131585,1342868743,1342605925,0
1342474608,1342672360,1342737301,1342933949,1343000013,1343195521,1342802935,1342541344,1343131113,1342868406,1342605716,0
1342474449,1342672518,1342737142,1342934109,1342999850,1343195685,1342803053,1342541470,1342868205,1342605525,0,0
1342473887,1342668982,1342736565,1342934681,1342999293,1343196238,1342803625,1342537928,1343130354,1342867634,1343065179,1342604962
1342473383,1342669509,1342736005,1342931168,1342998622,1343196934,1342800108,1342538451,1343129683,1342867075,1342604457,0
1342472895,1342735112,1342932193,1342997326,1343194265,1342801113,1342539046,1343128379,1342866171,1343063176,0,0
1342472851,1342670145,1342735131,1342932154,1342997414,1343194157,1342801090,1342539084,1343128487,1342866205,1343063094,1342603927
1342472639,1342670350,1342734944,1342932333,1342997253,1343194308,1342801149,1342539176,1343128196,1342865901,1343063115,1342603606
1342472627,1342670355,1342734961,1342932306,1342997303,1343194250,1342801113,1342539173,1343128234,1342865901,1343063045,1342603583
1342472544,1342670472,1342734763,1342932541,1342996985,1343194607,1342801430,1342539366,1343128009,1342865792,1343063492,1342603578
1342490347,1342685544,1342752213,1342947968,1343014068,1343210405,1342816729,1342554315,1343144966,1342883121,1343079154,1342621264
1342490167,1342685738,1342751988,1342948210,1343013801,1343210685,1342816956,1342554499,1343079425,1342621079,0,0
1342490131,1342685806,1342751844,1342948388,1343013534,1343210989,1342817126,1342554556,1343144415,1342882731,1343079714,1342621030
1342490081,1342685727,1342752220,1342947876,1343014360,1343210022,1342816750,1342554605,1343145379,1342883241,1343078893,1342621106
1342490047,1342685829,1342751959,1342948210,1343013861,1343210597,1342816978,1342554611,1342882877,1343079352,1342620975,0
1342490026,1342685852,1342751929,1342948243,1343013816,1343210648,1342817099,1342554720,1342882935,1343079492,1342621030,0
1342489994,1342685859,1342751980,1342948165,1343013957,1343210478,1342817046,1342554744,1343144987,1342883009,1343079352,1342621030
1342489966,1342685890,1342751943,1342948204,1343013916,1343210519,1342817081,1342554771,1342882973,1343079396,1342620995,0
1342489718,1342686052,1342751988,1342948066,1343014270,1343210069,1342816900,1342554893,1343145246,1342882973,1343078899,1342620710
1342489696,1342686204,1342751533,1342948658,1343013358,1343211124,1342817511,1342555060,1343144364,1342882540,1343079972,1342620705
1342489630,1342686307,1342751343,1342948888,1343013037,1343211486,1342817572,1343147986,1342882180,1343080154,1342620482,0
1342489556,1342686330,1342751441,1342948736,1343013316,1343211149,1342817586,1342555183,1342882444,1343079996,1342620563,0
1342489470,1342686390,1342751441,1342948706,1343013411,1343211024,1342817539,1342555230,1343144396,1342882431,1343079853,1342620461
1342489381,1342686534,1342751165,1342949043,1343012934,1343211538,1342817873,1342555372,1342882153,1343080389,1342620372,0
1342489137,1342686822,1342750780,1342949446,1343016525,1343212116,1342818275,1342555630,1343147485,1342885864,1343080912,1342620101
1342489001,1342686884,1342750887,1342949287,1343016891,1343211669,1342818088,1342555692,1342881846,1343080462,1342619965,0
1342488861,1342687046,1342754796,1342949500,1343016597,1343211986,1342818262,1342555795,1343147485,1342885692,1343080711,1342619769
1342492531,1342687551,1342754082,1342950294,1343015612,1343213056,1342818984,1342556257,1342884938,1343081733,1342623397,0
1342492350,1342687793,1342753699,1342950740,1343015018,1343213690,1342819437,1342556501,1343150001,1342884564,1343082401,1342623223
1342491867,1342688236,1342753359,1342951034,1343018966,1343213812,1342819221,1342556474,1342887838,1343081979,1342622267,0
1342491698,1342688388,1342753236,1342951145,1343018878,1343213890,1342819848,1342557106,1343149748,1342884113,1343082584,1342622584
1342491470,1342688616,1342753011,1342951369,1343018657,1343214109,1342820054,1342557313,1342883869,1343082782,1342622338,0
1342494644,1342689532,1342756210,1342952256,1343017764,1343214992,1342820865,1342558186,1342886999,1343083584,1342625448,0
1342494220,1342690058,1342755440,1342953136,1343020756,1343216208,1342821707,1342558650,1343151504,1342886198,1343084761,1342624991
1342493327,1342690884,1342758897,1342953703,1343020330,1343216559,1342559569,1342889762,1343085221,1342624199,0,0
1342479352,1342675657,1342940875,1343005719,1343201951,1342809868,1342544656,1343136773,1343070936,1342610436,0,0
1342476930,1342674001,1342740056,1342935156,1343003182,1343200408,1342804186,1342543033,1343134300,1342871183,1342608066,0
1342474774,1342672205,1342737430,1342933832,1343000100,1343195448,1342802836,1342541207,1343131220,1342868553,1343064450,1342605900
1342473282,1342669683,1342735671,1342931579,1342998069,1343193469,1342800480,1342538588,1343129095,1342866704,1343062364,1342604322
1342473191,1342669799,1342735496,1342931778,1342997808,1343193754,1342800718,1342538739,1343128879,1342866570,1342604267,0
1342472635,1342670302,1342735112,1342932107,1342997606,1343193901,1342800973,1342539173,1343128596,1342866114,1342603646,0
1342472335,1342670696,1342734503,1342932816,1342996672,1343194935,1342801689,1342539574,1343127681,1342865519,1342603356,0
1342492652,1342687476,1342754052,1342950373,1343213294,1342818951,1342556109,1343146150,1342884797,1343081849,1342623419,0
1342491667,1342688471,1342753031,1342951403,1343214328,1342819829,1342556929,1342887753,1343082723,1342622293,0,0
