0,1,2,3,4,5,6,7,8,9,10,11
1342445397,1342640539,1342706746,1342903487,1342968073,1343166448,1342771977,1342509057,1342837420,1343034916,1342576093,0
1342442315,1342639461,1342703873,1342902195,1342969541,1343164914,1342770761,1342508051,1342838735,1343033460,1342573073,0
1342439756,1342637841,1342701588,1342900272,1342967536,1343162739,1342769095,1342506645,1343098488,1342836668,1343031527,1342570717
1342440114,1342637620,1342705613,1342900516,1342966953,1343163471,1342769228,1342506348,1342836486,1343032173,1342570997,0
1342440285,1342637296,1342702169,1342899704,1342964045,1343162116,1342768548,1342506146,1343095044,1342833169,1343030958,1342571287
1342440490,1342637051,1342702511,1342899317,1342964531,1343161587,1342768164,1342505903,1342833512,1343030429,1342571494,0
1342440593,1342636958,1342702576,1342899266,1342964552,1343161578,1342768125,1342505822,1342833584,1343030429,1342571607,0
1342440673,1342636924,1342702506,1342899383,1342964327,1343161853,1342768210,1342505757,1342833486,1343030674,1342571657,0
1342441028,1342636566,1342702868,1342899018,1342964695,1343161481,1342767764,1342505326,1342833765,1343030216,1342571935,0
1342441067,1342636490,1342703032,1342898813,1342964995,1343161140,1342767448,1342505148,1342833815,1343029755,1342571870,0
1342455835,1342703559,1342898267,1342965586,1343160528,1342767105,1342523313,1342834539,1343029356,1342572514,0,0
1342456049,1342654177,1342718343,1342916166,1342980645,1343178151,1342785075,1342523087,1343111690,1342849392,1343047055,1342587099
1342456108,1342654118,1342718399,1342980692,1343178108,1342784985,1342522996,1343111690,1342849409,1342587126,0,0
1342456823,1342653345,1342719306,1342915145,1342981804,1343176934,1342784002,1342522211,1343112781,1342850297,1342587822,0
1342457418,1342652740,1342719932,1342918634,1342982430,1343180394,1342787581,1342521689,1343113498,1342851005,1342588496,0
1342458875,1342655280,1342721721,1342916712,1342984564,1342785750,1342524316,1343115718,1342852873,1342590027,0,0
1342459018,1342655206,1342721629,1342916879,1342984223,1343182668,1342785861,1342524188,1343115315,1342852726,1343051648,1342590119
1342459767,1342658412,1342722911,1342919517,1342986116,1342788514,1342527416,1343117198,1342854011,1342590879,0,0
1342636556,1342703026,1342898793,1342965074,1343161034,1342767692,1343096121,1342834072,1343029931,1342572023,0,0
1342441429,1342636055,1342916597,1342980151,1343178677,1342785466,1342523389,1342834647,1343047542,1342572447,0,0
1342441349,1342654403,1342718493,1342915843,1342981366,1343177254,1342784692,1342523257,1343112332,1342849476,1342572344,0
1342456446,1342653760,1342718805,1342915686,1342981172,1343177606,1342784606,1342522681,1343112224,1342849861,1342587506,0
1342456521,1342653675,1342718913,1342915568,1342981313,1343177454,1342784472,1342522582,1343112347,1342849953,1342587567,0
1342456591,1342653509,1342719294,1342915088,1342982018,1343180769,1342783781,1342522224,1343112817,1342850116,1343049440,1342587439
1342457167,1342653010,1342719616,1342914845,1342982078,1343180794,1342783837,1342521998,1343113200,1342850740,1342588288,0
1342457582,1342652488,1342720368,1342918075,1342983212,1343179514,1342786845,1343114086,1342851269,1342588496,0,0
1342458143,1342656103,1342720685,1342917846,1342983236,1343179581,1342786845,1342525099,1343114356,1342851805,1343048580,1342589265
1342458736,1342655383,1342721698,1342916700,1342984664,1343182112,1342785735,1343115806,1342852847,1343051148,1342589887,0
1342460420,1342657787,1342723407,1342919079,1342986391,1343184476,1342788058,1342526768,1343117456,1342854485,1342591508,0
1342461327,1342656808,1342724517,1342921991,1342987768,1343183027,1342790847,1342525677,1343118685,1342855461,1343051865,1342592292
1342475021,1342671925,1342737785,1342933444,1343000566,1343199071,1342802488,1342540963,1343131696,1342868943,1343068117,1342606181
1342474953,1342672002,1342737681,1342933557,1343000431,1343199215,1342802605,1342541049,1343131596,1342868850,1342606119,0
1342474691,1342672230,1342737538,1342933661,1343000413,1342802592,1342541164,1343131447,1342868586,1343068117,1342605747,0
1342474374,1342672591,1342737075,1342934172,1342999796,1343195737,1342803159,1342541576,1343130898,1342868184,1342605486,0
1342473331,1342669634,1342735718,1342931533,1342998111,1342800459,1342538561,1343129164,1342866775,1342604394,0,0
1342473325,1342669593,1342735868,1342931332,1342998425,1342800100,1342538374,1343129300,1342866763,1342604238,0,0
1342472503,1342670500,1342734763,1342932526,1342997028,1343194549,1342801435,1343128073,1342865812,1343063455,1342603555,0
1342490310,1342685584,1342752159,1342948029,1343013993,1343210487,1342816835,1342554407,1342883114,1342621279,0,0
1342490254,1342752227,1342947921,1343014189,1343210251,1342816803,1342554491,1343145214,1342883259,1343079127,1342621279,0
1342490151,1342685716,1342752091,1342948069,1343014021,1343210427,1342816901,1342554557,1343145001,1342883072,1343079255,1342621139
1342489734,1342686178,1342751529,1342948674,1343013310,1343211185,1342817232,1342554761,1342882237,1343079714,1342620468,0
1342489394,1342686543,1342751107,1342949121,1343016928,1343211690,1342817870,1342555302,1343147825,1342882012,1342620306,0
1342489134,1342686776,1342750935,1342949267,1343016844,1343211744,1342818020,1342555540,1342881844,1343080483,1342620054,0
1342488986,1342686936,1342750747,1342949440,1343016618,1343211983,1342555667,1343147491,1342885747,1343080686,0,0
1342488816,1342687116,1342754668,1342949652,1343016383,1343212227,1342818384,1342555860,1343147266,1342885560,1343080948,1342619717
1342488690,1342754520,1342949808,1343016212,1343212406,1342818618,1342556066,1343147185,1342885493,1343081211,1342619664,0
1342488596,1342687389,1342754183,1342950221,1343015623,1343213072,1342818772,1342555991,1342884899,1343081601,1342623455,0
1342492653,1342687427,1342754212,1342950163,1343015747,1343212920,1342818941,1342556213,1342885154,1343081691,1342623600,0
1342491941,1342688173,1342753387,1342951024,1343018928,1342819749,1342556911,1342884284,1343082588,1342622845,0,0
1342490675,1342689482,1342756015,1342952565,1343017198,1343215647,1342821243,1342558201,1343084342,1342625664,0,0
1342494423,1342689917,1342755444,1342953196,1343020551,1343216478,1342821548,1342558304,1342885981,1343084799,1342624989,0
1342493766,1342690593,1342758846,1342953909,1343019769,1343217280,1342822510,1342559210,1343150558,1342889640,1343085868,1342624567
1342479616,1342675287,1342743129,1342940146,1343006708,1343204969,1342809381,1342544511,1343137991,1342874440,1343074215,1342610924
1342476234,1342674707,1342739393,1342935799,1343002617,1343200977,1342804941,1342543841,1343133835,1342870640,1343070128,1342607452
1342475449,1342671439,1342738409,1342936880,1343001369,1343198176,1342805815,1342540377,1343132401,1342869452,1343067102,1342606503
1342475236,1342671607,1342738347,1342936891,1343001474,1343198019,1342805874,1342540594,1342869440,1342606340,0,0
1342474754,1342672254,1342737311,1342933983,1342999875,1343195706,1342802726,1342541016,1343130714,1342868173,1342605638,0
1342473670,1342669301,1342736034,1342931222,1342998403,1343193141,1342800128,1342538211,1343129435,1342604712,0,0
1342473251,1342669616,1342735965,1342931181,1342998677,1343196849,1342800093,1342538534,1343129707,1342867007,1343065752,1342604302
1342669859,1342735498,1342931748,1342997907,1343193624,1342800678,1342538792,1343128967,1342866561,1342604162,0,0
1342472943,1342670052,1342932049,1342997526,1343194042,1342800948,1342538954,1343128557,1342866267,1342603982,0,0
1342472314,1342670726,1342734452,1342932877,1342996588,1343195028,1342801754,1342539608,1343127603,1342865471,1342603337,0
1342490362,1342685316,1342734476,1342932711,1342997081,1343194390,1342801622,1342554234,1342865530,1343063293,1342621417,0
