0,1,2,3,4,5,6,7,8,9,10,11,12,13,14,15,16,17,18,19,20,21,22,23,24,25
724156752,587830820,653104880,583910085,581834861,781086742,0,0,0,0,0,0,0,0,0,0,0,0,0,0,0,0,0,0,0,0
589953821,587850035,719963720,583642206,581531528,579420595,644422098,575209702,573109488,638117625,568522211,566422768,564323069,0,0,0,0,0,0,0,0,0,0,0,0,0
657036214,587823812,585720274,583616479,581506298,579003352,576901118,0,0,0,0,0,0,0,0,0,0,0,0,0,0,0,0,0,0,0
589907701,587398278,585299097,583199916,581098193,578996471,0,0,0,0,0,0,0,0,0,0,0,0,0,0,0,0,0,0,0,0
589907701,587805693,585299097,583199916,581098193,578996471,0,0,0,0,0,0,0,0,0,0,0,0,0,0,0,0,0,0,0,0
589490086,587391665,585293244,583194824,581095391,578995959,0,0,0,0,0,0,0,0,0,0,0,0,0,0,0,0,0,0,0,0
723708502,587392613,585294196,583196035,581096354,578996929,711115736,574799847,572702191,570604278,0,0,0,0,0,0,0,0,0,0,0,0,0,0,0,0
589484347,587386189,585288288,583190386,581091479,578992572,576894168,574796267,572698612,570601213,0,0,0,0,0,0,0,0,0,0,0,0,0,0,0,0
589572035,587475421,585378807,583186455,581088075,578989950,576892069,574794430,572697035,570599640,568502245,566404850,564307455,0,0,0,0,0,0,0,0,0,0,0,0,0
589466387,587369510,585272634,583175757,581079411,578982809,576886198,709006793,572692178,570595036,568498150,566401007,564304121,0,0,0,0,0,0,0,0,0,0,0,0,0
589468626,587371485,585274600,583177715,0,0,0,0,0,0,0,0,0,0,0,0,0,0,0,0,0,0,0,0,0,0
589457505,587361137,585265025,583168657,581073329,578978001,576882153,574785785,0,0,0,0,0,0,0,0,0,0,0,0,0,0,0,0,0,0
589607163,654458653,585254713,583159636,581066635,578973634,576879595,0,0,0,0,0,0,0,0,0,0,0,0,0,0,0,0,0,0,0
589458394,587362277,585266160,583170043,0,0,0,0,0,0,0,0,0,0,0,0,0,0,0,0,0,0,0,0,0,0
589667131,587564891,585462651,583360411,581253338,578934304,576844879,574752111,572657534,570562958,568468382,633482669,564279229,562184652,560090076,557995499,690118395,0,0,0,0,0,0,0,0,0
589414475,587320667,585226859,583133051,581042331,646060474,643968210,574765539,572669931,570574579,568478971,0,0,0,0,0,0,0,0,0,0,0,0,0,0,0
589712451,587607394,585502593,583398560,581285854,578907171,576821585,574732144,572639103,570545807,568452510,633468077,564265149,562171853,560078556,692202988,555892219,0,0,0,0,0,0,0,0,0
589377032,587287588,585198400,583108956,581027987,578945483,576859894,0,0,0,0,0,0,0,0,0,0,0,0,0,0,0,0,0,0,0
589370679,587280202,585189468,583098991,581014933,578930618,643952086,574751721,572657906,570563836,569902049,567807214,565712634,0,0,0,0,0,0,0,0,0,0,0,0,0
589356054,587266347,585175872,583086165,581003903,646030504,576835783,574746076,706870246,570558449,568465147,634913755,565710314,563615737,0,0,0,0,0,0,0,0,0,0,0,0
589431794,587337723,586679511,584584676,582492157,0,0,0,0,0,0,0,0,0,0,0,0,0,0,0,0,0,0,0,0,0
589364860,587273353,585182101,583091106,581006524,578921943,576834283,574743288,572649214,639108271,704121532,567808456,565712852,630726368,561522157,693644281,0,0,0,0,0,0,0,0,0,0
590883270,588787410,586691293,584595177,0,0,0,0,0,0,0,0,0,0,0,0,0,0,0,0,0,0,0,0,0,0
590887601,588791231,586694861,584598491,582502902,0,0,0,0,0,0,0,0,0,0,0,0,0,0,0,0,0,0,0,0,0
658420982,588794896,586698020,718818872,582504801,580408201,578311591,643323579,574117830,572020688,569923802,567826916,565729774,563632888,0,0,0,0,0,0,0,0,0,0,0,0
590897747,588800360,586703230,584606099,582508990,580411624,0,0,0,0,0,0,0,0,0,0,0,0,0,0,0,0,0,0,0,0
590900842,588803453,586705809,584608420,582510539,580412914,0,0,0,0,0,0,0,0,0,0,0,0,0,0,0,0,0,0,0,0
590899415,723019742,586704870,718825197,582510332,0,0,0,0,0,0,0,0,0,0,0,0,0,0,0,0,0,0,0,0,0
590915932,588817264,586718597,651728793,582519747,580419564,0,0,0,0,0,0,0,0,0,0,0,0,0,0,0,0,0,0,0,0
591265895,589171590,587077030,584982469,582536202,580433993,712550520,576233112,574134696,639145143,569937863,567839447,565741031,563642615,0,0,0,0,0,0,0,0,0,0,0,0
590933056,588833111,586732910,584632965,582529971,580426976,0,0,0,0,0,0,0,0,0,0,0,0,0,0,0,0,0,0,0,0
725454428,589145477,587054254,652071638,582549805,580441982,578336443,576233700,574133752,0,0,0,0,0,0,0,0,0,0,0,0,0,0,0,0,0
658059784,588849188,586747712,584646492,582540692,580434378,578330865,0,0,0,0,0,0,0,0,0,0,0,0,0,0,0,0,0,0,0
590931874,588833966,586735542,584637375,582537428,0,0,0,0,0,0,0,0,0,0,0,0,0,0,0,0,0,0,0,0,0
590923234,723042026,586725618,584626937,0,0,0,0,0,0,0,0,0,0,0,0,0,0,0,0,0,0,0,0,0,0
658053761,588844687,586744477,584645035,582541766,580438498,578336758,0,0,0,0,0,0,0,0,0,0,0,0,0,0,0,0,0,0,0
591181397,589091185,587001484,584910758,582828509,580486171,578377543,576272997,574172277,572071556,569970579,567869859,565769651,630777538,561567954,559466978,691583730,0,0,0,0,0,0,0,0,0
590962545,588861567,586760588,584659866,649663924,580451023,645457123,576247281,574148344,571669237,569570557,0,0,0,0,0,0,0,0,0,0,0,0,0,0,0
591156582,589068934,654089893,584893381,582612488,580496455,712602742,576278421,574176420,572074419,569972162,567870161,565768928,563666928,561182960,0,0,0,0,0,0,0,0,0,0,0
725145082,588446189,586347509,584248572,0,0,0,0,0,0,0,0,0,0,0,0,0,0,0,0,0,0,0,0,0,0
657648645,588441371,586342960,584244549,582144623,781370778,0,0,0,0,0,0,0,0,0,0,0,0,0,0,0,0,0,0,0,0
590613495,588437524,586339882,584241985,582143085,781370778,0,0,0,0,0,0,0,0,0,0,0,0,0,0,0,0,0,0,0,0
590622242,588525382,586428777,584332172,582235603,580038177,577940567,575842938,573745804,571648414,636659887,567453633,565356243,563258853,561161462,0,0,0,0,0,0,0,0,0,0,0
590521666,655533400,586327151,584230022,582132404,580035041,0,0,0,0,0,0,0,0,0,0,0,0,0,0,0,0,0,0,0,0
590519834,588422702,586325570,651337302,582131071,580033959,577936838,575839706,573742565,571645423,569548281,0,0,0,0,0,0,0,0,0,0,0,0,0,0,0
724872879,588556743,720675551,584359415,582112558,580018526,577923714,642936730,573731495,571635123,569538751,567442379,565346007,563249635,561153263,559056892,0,0,0,0,0,0,0,0,0,0
590485610,588390520,720512902,584200341,582107057,580013772,577919457,575824367,573728245,571632124,0,0,0,0,0,0,0,0,0,0,0,0,0,0,0,0
590481775,588387714,586293653,584199848,582108366,580017396,0,0,0,0,0,0,0,0,0,0,0,0,0,0,0,0,0,0,0,0
590725325,588619250,586247453,584159297,582080137,647109330,0,0,0,0,0,0,0,0,0,0,0,0,0,0,0,0,0,0,0,0
590464904,588370836,586276769,584182701,582091206,580000479,577908209,710031869,0,0,0,0,0,0,0,0,0,0,0,0,0,0,0,0,0,0
590793530,588683109,653681552,584462268,582032922,647071344,644994225,575800797,573710323,0,0,0,0,0,0,0,0,0,0,0,0,0,0,0,0,0
590474720,588380135,586285294,584190453,581437663,579344115,0,0,0,0,0,0,0,0,0,0,0,0,0,0,0,0,0,0,0,0
590480115,588385530,585631191,583535585,581442036,0,0,0,0,0,0,0,0,0,0,0,0,0,0,0,0,0,0,0,0,0
590460864,655475912,586273488,584179928,582089448,579998457,577244135,575149044,573053178,0,0,0,0,0,0,0,0,0,0,0,0,0,0,0,0,0
590772978,722504975,653307429,584109884,582028649,579947926,577862838,575773643,573680597,571587551,569494505,701619187,699526141,629673407,560469712,558374625,0,0,0,0,0,0,0,0,0,0
590420621,722546841,586237860,584146608,582061254,714193373,577887215,575795963,573048766,570953162,568857557,566761952,564666347,562570742,0,0,0,0,0,0,0,0,0,0,0,0
590364731,588276811,586188891,718318699,582022283,579942827,577859523,575771603,573679068,571586532,569493740,567401205,699526141,629673407,560469712,558374625,0,0,0,0,0,0,0,0,0,0
589846416,587749277,585652394,583555255,581458385,579361516,0,0,0,0,0,0,0,0,0,0,0,0,0,0,0,0,0,0,0,0
589869861,587771448,585673034,583574620,581475200,579375524,577276352,575177938,573080283,570982372,568884717,566786807,0,0,0,0,0,0,0,0,0,0,0,0,0,0
589870951,587772027,585673103,583573923,648582091,579372276,0,0,0,0,0,0,0,0,0,0,0,0,0,0,0,0,0,0,0,0
657326578,587789071,585689382,583589437,581486955,579384473,577283516,575183570,573085150,638095593,568888309,0,0,0,0,0,0,0,0,0,0,0,0,0,0,0
587535309,585434853,583134468,581042997,578952293,576860042,574765986,572670638,570575035,568479431,566384083,564288479,629301739,560097528,0,0,0,0,0,0,0,0,0,0,0,0
588782134,586686023,584589913,582495101,647508896,578304443,576208589,574111958,572015327,569918696,567822065,565725434,0,0,0,0,0,0,0,0,0,0,0,0,0,0
588376961,586282896,584188319,582097341,580006619,577914097,0,0,0,0,0,0,0,0,0,0,0,0,0,0,0,0,0,0,0,0
588708547,586595814,584083217,582017624,579951262,712095187,777122293,0,0,0,0,0,0,0,0,0,0,0,0,0,0,0,0,0,0,0
588704189,586592481,584085515,579947926,0,0,0,0,0,0,0,0,0,0,0,0,0,0,0,0,0,0,0,0,0,0
585906506,718038641,581747390,579462672,577348169,575239536,573136515,571033494,568930473,566827708,564724687,629731298,560519414,625143803,0,0,0,0,0,0,0,0,0,0,0,0
585410567,717528641,581209269,578972976,576879495,574784705,706906334,570592763,0,0,0,0,0,0,0,0,0,0,0,0,0,0,0,0,0,0
719729178,583406143,581293451,579179734,576815894,641836091,572634190,570541409,568448372,566355335,698480025,562168748,560075711,557982930,555889893,553796856,0,0,0,0,0,0,0,0,0,0
585237932,583142583,581049038,578954985,576859390,0,0,0,0,0,0,0,0,0,0,0,0,0,0,0,0,0,0,0,0,0
721333275,652127044,582920343,715040233,578313260,576216405,574119530,572022654,569925523,567828647,565731516,563634385,561537253,559439866,0,0,0,0,0,0,0,0,0,0,0,0
586742957,584642488,582539214,580436196,712552950,0,0,0,0,0,0,0,0,0,0,0,0,0,0,0,0,0,0,0,0,0
584319625,582225097,580046863,577947967,575849567,573751919,571654015,569556367,567458463,565360815,563263167,561165263,559067615,556969711,554872063,0,0,0,0,0,0,0,0,0,0,0
584427008,582316123,580204983,712314876,575796018,707919689,571608160,636623479,567420815,565327270,630342589,561139925,559046125,0,0,0,0,0,0,0,0,0,0,0,0,0
718730172,582391030,647017271,644938594,575744127,573653134,705779869,770797482,701597624,565288902,563197908,0,0,0,0,0,0,0,0,0,0,0,0,0,0,0
584510156,581982985,579909695,644939623,575744899,573653648,705779869,770797482,701597624,565288902,563197908,0,0,0,0,0,0,0,0,0,0,0,0,0,0,0
715432763,579114131,644123093,574776585,572680479,570584117,568488012,566391906,564295544,562199438,560103332,692224699,555910865,551718397,0,0,0,0,0,0,0,0,0,0,0,0
648335408,579123851,644131534,574922748,572673305,570577712,568481863,566386269,564290420,562194826,560098977,625112247,555907534,553811941,551716091,0,0,0,0,0,0,0,0,0,0,0
581273137,646262218,643956037,574760594,572669368,637686749,0,0,0,0,0,0,0,0,0,0,0,0,0,0,0,0,0,0,0,0
581302318,646283207,643941186,574750607,572660406,570570972,0,0,0,0,0,0,0,0,0,0,0,0,0,0,0,0,0,0,0,0
715580059,579237091,576767520,574684484,572593750,704721256,568413563,700541069,564233375,629252273,560053188,557963222,555873001,687999739,553125590,551033329,0,0,0,0,0,0,0,0,0,0
581351650,578871120,576806814,708949714,639754987,637015261,0,0,0,0,0,0,0,0,0,0,0,0,0,0,0,0,0,0,0,0
582770583,714918889,578414380,576303189,574199146,572095102,569991059,702104743,565783228,563679184,561576165,693305055,624093945,0,0,0,0,0,0,0,0,0,0,0,0,0
582675592,580532694,577955590,575848544,573746317,638752954,569541608,0,0,0,0,0,0,0,0,0,0,0,0,0,0,0,0,0,0,0
582150152,580049983,645059432,575851908,573754002,571656095,569558189,567460283,565362376,563264470,561166563,559068657,556970751,0,0,0,0,0,0,0,0,0,0,0,0,0
649520162,580267962,577846835,709990527,573687461,638710730,635962608,0,0,0,0,0,0,0,0,0,0,0,0,0,0,0,0,0,0,0
582018645,579950751,577876948,709361851,0,0,0,0,0,0,0,0,0,0,0,0,0,0,0,0,0,0,0,0,0,0
581441367,579347330,577252514,575156919,573060546,570964172,568867799,566771426,564675052,562578679,0,0,0,0,0,0,0,0,0,0,0,0,0,0,0,0
581844274,713969036,577657552,575184130,573085977,570987823,568889670,566791516,564693363,629704073,694715041,558398903,556300749,688420068,552104186,0,0,0,0,0,0,0,0,0,0,0
581837684,646858747,577281637,575180456,573081034,570981612,0,0,0,0,0,0,0,0,0,0,0,0,0,0,0,0,0,0,0,0
581837684,579385600,577281637,575180456,573081034,570981612,0,0,0,0,0,0,0,0,0,0,0,0,0,0,0,0,0,0,0,0
581823017,646841732,577641417,575548151,573099282,571000361,568901184,566802007,698920559,562603910,558405812,556306635,554207458,552108537,0,0,0,0,0,0,0,0,0,0,0,0
579494083,577359600,574810704,572709762,704826548,568508134,0,0,0,0,0,0,0,0,0,0,0,0,0,0,0,0,0,0,0,0
579094363,711215271,574900697,572803570,0,0,0,0,0,0,0,0,0,0,0,0,0,0,0,0,0,0,0,0,0,0
579141405,577037682,709153706,707054278,704954850,702855422,0,0,0,0,0,0,0,0,0,0,0,0,0,0,0,0,0,0,0,0
579141664,577038195,709153706,707054278,704954850,702855422,0,0,0,0,0,0,0,0,0,0,0,0,0,0,0,0,0,0,0,0
646293302,711279570,574744642,572655478,570566826,568478431,0,0,0,0,0,0,0,0,0,0,0,0,0,0,0,0,0,0,0,0
646301010,577080734,574974160,572872169,704750602,568440611,566348348,564255830,562163567,560070793,557978274,555886011,553793492,618810093,0,0,0,0,0,0,0,0,0,0,0,0
579243071,577123981,642121665,707125979,570803957,568409623,566319921,564230219,696357989,560050559,625069721,690088628,620889294,551690729,0,0,0,0,0,0,0,0,0,0,0,0
580825120,578727100,576214567,574117979,572021392,569924548,634936824,0,0,0,0,0,0,0,0,0,0,0,0,0,0,0,0,0,0,0
580790100,645810658,576233797,708351348,773360291,569933779,0,0,0,0,0,0,0,0,0,0,0,0,0,0,0,0,0,0,0,0
580572546,578447527,576331455,574225611,706336727,704230628,567907057,632486730,563277677,628286096,559077044,556976856,554876668,0,0,0,0,0,0,0,0,0,0,0,0,0
580150632,578052284,575954420,640846615,571640883,569544271,567447403,565350791,563253923,628266174,559060698,556963830,0,0,0,0,0,0,0,0,0,0,0,0,0,0
647371523,578143063,576030607,573925804,571821000,569716196,567400456,565311013,630329409,561131102,559041403,556951960,0,0,0,0,0,0,0,0,0,0,0,0,0,0
579864972,712014511,575719110,573631698,638652125,569455849,701585909,564660556,629675377,560472471,558378428,690501858,0,0,0,0,0,0,0,0,0,0,0,0,0,0
711636301,575299955,707409542,571083929,568976812,701086399,564760786,696870373,560544760,558034345,555932372,553830398,0,0,0,0,0,0,0,0,0,0,0,0,0,0
577036111,642043529,572835495,704953796,568636898,566376967,564282149,562187331,560092514,557997696,555902878,553807805,551712987,549618169,0,0,0,0,0,0,0,0,0,0,0,0
778486226,708891972,639707512,704741293,568448737,0,0,0,0,0,0,0,0,0,0,0,0,0,0,0,0,0,0,0,0,0
576751688,574670439,572581238,570491270,568402070,566313126,562134982,560045782,557956838,555867639,555221415,553128390,752361956,0,0,0,0,0,0,0,0,0,0,0,0,0
578665811,576575372,574481577,572387781,704511458,568199167,565767200,630775612,561566553,559466102,557365907,622374319,553165005,551064554,0,0,0,0,0,0,0,0,0,0,0,0
578028461,575933405,573837300,571659027,569560875,567462723,565364570,563266418,561168266,626178977,556971961,689091537,686993385,0,0,0,0,0,0,0,0,0,0,0,0,0
578031941,575936384,573840029,571743931,569647576,567551222,565362459,563264568,561166678,559068787,556970641,621981614,552774860,550676970,0,0,0,0,0,0,0,0,0,0,0,0
779542250,575714639,707855997,571562924,569487578,566763494,0,0,0,0,0,0,0,0,0,0,0,0,0,0,0,0,0,0,0,0
577777526,575698575,573610396,571522217,569434037,567345346,565256911,697386460,695298281,626101493,556272507,621287582,552084930,549991142,0,0,0,0,0,0,0,0,0,0,0,0
712020159,777065702,573659386,570956407,635973306,566772478,0,0,0,0,0,0,0,0,0,0,0,0,0,0,0,0,0,0,0,0
576194799,574098931,572002551,569906939,0,0,0,0,0,0,0,0,0,0,0,0,0,0,0,0,0,0,0,0,0,0
574631872,572545739,570459606,568373216,700504298,564199669,696329983,561969393,557324870,555230319,620244631,551041216,548946664,0,0,0,0,0,0,0,0,0,0,0,0,0
576620675,574524627,572026661,569928565,567830469,0,0,0,0,0,0,0,0,0,0,0,0,0,0,0,0,0,0,0,0,0
576505160,574418035,706547614,771569096,0,0,0,0,0,0,0,0,0,0,0,0,0,0,0,0,0,0,0,0,0,0
575935805,640949911,571745778,569555032,567455667,0,0,0,0,0,0,0,0,0,0,0,0,0,0,0,0,0,0,0,0,0
710200887,573884249,571785082,569685916,567586749,632596702,563234568,561139497,559044426,556949356,554854285,619868334,550664400,548569329,0,0,0,0,0,0,0,0,0,0,0,0
575995938,641005125,571796073,636805004,567596208,565496020,563396087,628241698,559038790,556944746,554850445,552756401,617771220,548568312,0,0,0,0,0,0,0,0,0,0,0,0
576013892,708129390,706027160,569707458,634714859,565313821,563221831,628238704,559037850,556945860,554854125,0,0,0,0,0,0,0,0,0,0,0,0,0,0,0
576096022,573989690,571883102,569776771,634779815,699782092,563458033,561077789,558990146,556902247,554814603,552726959,617747410,548550646,0,0,0,0,0,0,0,0,0,0,0,0
575498514,573406776,571314782,569223044,634239913,766365647,562947317,560531487,558429765,690545003,554225041,552122551,550020317,0,0,0,0,0,0,0,0,0,0,0,0,0
709112913,774125744,570599707,700621275,0,0,0,0,0,0,0,0,0,0,0,0,0,0,0,0,0,0,0,0,0,0
708858285,706785481,637603045,567808337,565718447,0,0,0,0,0,0,0,0,0,0,0,0,0,0,0,0,0,0,0,0,0
572527712,704679568,769722047,633438959,565708919,764950515,0,0,0,0,0,0,0,0,0,0,0,0,0,0,0,0,0,0,0,0
574435617,572344904,771580526,635272084,633181370,563981537,561593099,693707313,758712663,622392189,620288675,618185161,683190255,0,0,0,0,0,0,0,0,0,0,0,0,0
574422796,572331571,570240857,568149888,566059174,563968975,561879288,626609187,624504395,0,0,0,0,0,0,0,0,0,0,0,0,0,0,0,0,0
574022184,571895432,771096039,634478929,699519921,0,0,0,0,0,0,0,0,0,0,0,0,0,0,0,0,0,0,0,0,0
573085871,570987455,568889039,566790623,631800814,562593534,0,0,0,0,0,0,0,0,0,0,0,0,0,0,0,0,0,0,0,0
571139628,770356545,701138007,564810861,562701187,560592281,558482607,556372933,554263004,552153076,549645501,547542253,0,0,0,0,0,0,0,0,0,0,0,0,0,0
570227210,635246648,566049383,563960725,561872323,559783665,624509218,756621136,553189502,618193067,548978393,0,0,0,0,0,0,0,0,0,0,0,0,0,0,0
569655822,567559242,632571782,630475202,628378366,559061827,556964735,554867643,552770806,0,0,0,0,0,0,0,0,0,0,0,0,0,0,0,0,0
636409914,567202422,565103281,563004396,560480811,558385253,556289695,621303000,0,0,0,0,0,0,0,0,0,0,0,0,0,0,0,0,0,0
636397096,567191126,565094019,562996656,560899550,558390031,556292924,554195818,552098967,550001860,615013873,0,0,0,0,0,0,0,0,0,0,0,0,0,0,0
566236900,564154607,562072312,561971034,626979988,691988686,553135172,551040894,548946359,0,0,0,0,0,0,0,0,0,0,0,0,0,0,0,0,0
702208586,565874028,563756943,561640881,760850643,557407477,554886316,552781559,0,0,0,0,0,0,0,0,0,0,0,0,0,0,0,0,0,0
567281378,565204721,630125953,560916177,556283507,621298883,0,0,0,0,0,0,0,0,0,0,0,0,0,0,0,0,0,0,0,0
565978605,697999635,561669684,559557461,758772342,689551256,553221305,618217946,683214332,0,0,0,0,0,0,0,0,0,0,0,0,0,0,0,0,0
699413643,563119526,561042881,693183196,556271187,621289892,619199477,0,0,0,0,0,0,0,0,0,0,0,0,0,0,0,0,0,0,0
565196485,563114195,561031904,558949358,623835628,552083810,549990300,547896789,0,0,0,0,0,0,0,0,0,0,0,0,0,0,0,0,0,0
629517073,627410255,759520909,690305228,687985939,685898577,683810447,681723085,0,0,0,0,0,0,0,0,0,0,0,0,0,0,0,0,0,0
698131762,763154283,693959587,624764380,622440217,687440210,551113862,549004986,0,0,0,0,0,0,0,0,0,0,0,0,0,0,0,0,0,0
563881663,763127784,559569430,557455679,689560168,553228690,551114939,683218661,0,0,0,0,0,0,0,0,0,0,0,0,0,0,0,0,0,0
698005357,628779885,559554158,691655792,555321458,0,0,0,0,0,0,0,0,0,0,0,0,0,0,0,0,0,0,0,0,0
563794514,695898477,693784968,557453731,555340990,620336344,551113971,615704999,0,0,0,0,0,0,0,0,0,0,0,0,0,0,0,0,0,0
629997096,560802149,760043169,623740125,621367324,552149592,684259220,547932880,0,0,0,0,0,0,0,0,0,0,0,0,0,0,0,0,0,0
762880709,626579519,759034796,622706978,0,0,0,0,0,0,0,0,0,0,0,0,0,0,0,0,0,0,0,0,0,0
696087572,559781717,691911063,555605208,553190172,551084894,548979103,0,0,0,0,0,0,0,0,0,0,0,0,0,0,0,0,0,0,0
561158655,626169263,624071007,621972751,552885694,550789485,548693277,0,0,0,0,0,0,0,0,0,0,0,0,0,0,0,0,0,0,0
561156311,693273956,624192497,554989182,552894731,0,0,0,0,0,0,0,0,0,0,0,0,0,0,0,0,0,0,0,0,0
561146038,626145316,624221332,622136322,0,0,0,0,0,0,0,0,0,0,0,0,0,0,0,0,0,0,0,0,0,0
762648065,559218253,624223129,555010022,552746044,550656136,548566229,0,0,0,0,0,0,0,0,0,0,0,0,0,0,0,0,0,0,0
560783935,558699902,556616382,554271232,686377793,617158017,547938499,544805514,609832007,742225659,605896121,0,0,0,0,0,0,0,0,0,0,0,0,0,0,0
625133512,555933811,620951837,552201448,550125519,682268086,0,0,0,0,0,0,0,0,0,0,0,0,0,0,0,0,0,0,0,0
625127910,555925153,620939613,618845209,549718226,547618957,0,0,0,0,0,0,0,0,0,0,0,0,0,0,0,0,0,0,0,0
558123589,556027017,621038799,618830367,549624425,547527602,0,0,0,0,0,0,0,0,0,0,0,0,0,0,0,0,0,0,0,0
626588353,758726261,756646951,754790605,618458493,549233710,0,0,0,0,0,0,0,0,0,0,0,0,0,0,0,0,0,0,0,0
559051464,556943961,622116585,754244983,617938692,0,0,0,0,0,0,0,0,0,0,0,0,0,0,0,0,0,0,0,0,0
559220226,624226637,555014297,687128549,617758778,615668102,0,0,0,0,0,0,0,0,0,0,0,0,0,0,0,0,0,0,0,0
693531184,691415414,756409786,619792906,617713743,615634578,0,0,0,0,0,0,0,0,0,0,0,0,0,0,0,0,0,0,0,0
559029210,624024227,689018221,686903607,617993725,683021767,680975908,0,0,0,0,0,0,0,0,0,0,0,0,0,0,0,0,0,0,0
692602875,556284609,554184070,552083532,548338636,680559327,0,0,0,0,0,0,0,0,0,0,0,0,0,0,0,0,0,0,0,0
625522612,556330319,554556895,552445563,617443351,0,0,0,0,0,0,0,0,0,0,0,0,0,0,0,0,0,0,0,0,0
624850521,622756578,553153387,618162163,0,0,0,0,0,0,0,0,0,0,0,0,0,0,0,0,0,0,0,0,0,0
757978959,554563746,686691828,617139016,749251226,0,0,0,0,0,0,0,0,0,0,0,0,0,0,0,0,0,0,0,0,0
623722783,621640057,619557331,617158958,749265800,0,0,0,0,0,0,0,0,0,0,0,0,0,0,0,0,0,0,0,0,0
688678763,552392136,550094374,682187139,0,0,0,0,0,0,0,0,0,0,0,0,0,0,0,0,0,0,0,0,0,0
553936213,551837877,616729375,614633599,0,0,0,0,0,0,0,0,0,0,0,0,0,0,0,0,0,0,0,0,0,0
688320153,686190316,683736393,681670812,0,0,0,0,0,0,0,0,0,0,0,0,0,0,0,0,0,0,0,0,0,0
555402803,687496294,685372824,683248587,0,0,0,0,0,0,0,0,0,0,0,0,0,0,0,0,0,0,0,0,0,0
622194593,754295536,617713735,615634578,0,0,0,0,0,0,0,0,0,0,0,0,0,0,0,0,0,0,0,0,0,0
554174454,552739582,684850931,548526312,546399688,678491560,609275805,540060051,672170632,0,0,0,0,0,0,0,0,0,0,0,0,0,0,0,0,0
554194427,552096480,684216262,547900843,545801565,543702287,609142253,539936978,537840568,0,0,0,0,0,0,0,0,0,0,0,0,0,0,0,0,0
621657124,753788814,751702264,547931491,0,0,0,0,0,0,0,0,0,0,0,0,0,0,0,0,0,0,0,0,0,0
554851818,552750543,751975859,546439238,544543216,542450132,540356793,538263710,0,0,0,0,0,0,0,0,0,0,0,0,0,0,0,0,0,0
551735547,549640682,547546072,680071674,543770075,675894992,539584965,537492408,0,0,0,0,0,0,0,0,0,0,0,0,0,0,0,0,0,0
683823860,547506149,545400501,543294854,675413110,539095398,536995414,0,0,0,0,0,0,0,0,0,0,0,0,0,0,0,0,0,0,0
551046122,548947924,613956497,544747343,542649145,0,0,0,0,0,0,0,0,0,0,0,0,0,0,0,0,0,0,0,0,0
549997810,547899872,545800103,543700335,541602396,539504202,537406263,0,0,0,0,0,0,0,0,0,0,0,0,0,0,0,0,0,0,0
548591350,546501317,544809964,542717155,540624346,538531281,0,0,0,0,0,0,0,0,0,0,0,0,0,0,0,0,0,0,0,0
612543221,610448548,541243530,673364847,537050964,0,0,0,0,0,0,0,0,0,0,0,0,0,0,0,0,0,0,0,0,0
545399980,543279136,608517357,606428351,537230479,0,0,0,0,0,0,0,0,0,0,0,0,0,0,0,0,0,0,0,0,0
679582442,677430109,541096750,539406843,671545805,0,0,0,0,0,0,0,0,0,0,0,0,0,0,0,0,0,0,0,0,0
546856553,612279189,610181970,540976143,0,0,0,0,0,0,0,0,0,0,0,0,0,0,0,0,0,0,0,0,0,0
546865148,544770781,542674386,540578248,605590717,0,0,0,0,0,0,0,0,0,0,0,0,0,0,0,0,0,0,0,0,0
546491608,544400030,676522122,540209015,605222499,0,0,0,0,0,0,0,0,0,0,0,0,0,0,0,0,0,0,0,0,0
546428371,544314534,542211736,540108937,538005883,0,0,0,0,0,0,0,0,0,0,0,0,0,0,0,0,0,0,0,0,0
610463157,541666807,606690272,537495754,0,0,0,0,0,0,0,0,0,0,0,0,0,0,0,0,0,0,0,0,0,0
543341801,608355785,539152042,537056907,0,0,0,0,0,0,0,0,0,0,0,0,0,0,0,0,0,0,0,0,0,0
543293438,742512100,539077579,536969394,0,0,0,0,0,0,0,0,0,0,0,0,0,0,0,0,0,0,0,0,0,0
544740570,541187820,539080148,536972476,0,0,0,0,0,0,0,0,0,0,0,0,0,0,0,0,0,0,0,0,0,0
611856331,542646175,540545138,538444357,0,0,0,0,0,0,0,0,0,0,0,0,0,0,0,0,0,0,0,0,0,0
544774605,542682016,674807155,538497094,0,0,0,0,0,0,0,0,0,0,0,0,0,0,0,0,0,0,0,0,0,0
611897792,542700943,540612190,538524205,0,0,0,0,0,0,0,0,0,0,0,0,0,0,0,0,0,0,0,0,0,0
679021741,744047733,674855998,538790142,0,0,0,0,0,0,0,0,0,0,0,0,0,0,0,0,0,0,0,0,0,0
544792818,542705361,540618671,672749710,0,0,0,0,0,0,0,0,0,0,0,0,0,0,0,0,0,0,0,0,0,0
611902450,542701794,540609233,672735168,0,0,0,0,0,0,0,0,0,0,0,0,0,0,0,0,0,0,0,0,0,0
611901434,542705115,741944764,538531486,0,0,0,0,0,0,0,0,0,0,0,0,0,0,0,0,0,0,0,0,0,0
544824235,542747763,674889019,538750971,0,0,0,0,0,0,0,0,0,0,0,0,0,0,0,0,0,0,0,0,0,0
544357083,676469427,540147339,538041955,0,0,0,0,0,0,0,0,0,0,0,0,0,0,0,0,0,0,0,0,0,0
544360437,609364948,540151988,538048660,0,0,0,0,0,0,0,0,0,0,0,0,0,0,0,0,0,0,0,0,0,0
543687133,676465391,741468885,538036156,0,0,0,0,0,0,0,0,0,0,0,0,0,0,0,0,0,0,0,0,0,0
611452398,676452556,540125610,538016136,0,0,0,0,0,0,0,0,0,0,0,0,0,0,0,0,0,0,0,0,0,0
677917931,608708300,539498670,537397904,0,0,0,0,0,0,0,0,0,0,0,0,0,0,0,0,0,0,0,0,0,0
543709404,541614005,539518351,537422952,0,0,0,0,0,0,0,0,0,0,0,0,0,0,0,0,0,0,0,0,0,0
543722975,608737980,539535258,604550263,0,0,0,0,0,0,0,0,0,0,0,0,0,0,0,0,0,0,0,0,0,0
543734181,675859541,741220090,537791659,0,0,0,0,0,0,0,0,0,0,0,0,0,0,0,0,0,0,0,0,0,0
589490913,587392235,585293557,0,0,0,0,0,0,0,0,0,0,0,0,0,0,0,0,0,0,0,0,0,0,0
590916721,588818051,653828245,0,0,0,0,0,0,0,0,0,0,0,0,0,0,0,0,0,0,0,0,0,0,0
590931967,588839925,586747371,0,0,0,0,0,0,0,0,0,0,0,0,0,0,0,0,0,0,0,0,0,0,0
589859760,587761598,585663692,0,0,0,0,0,0,0,0,0,0,0,0,0,0,0,0,0,0,0,0,0,0,0
579728260,711521285,709419608,0,0,0,0,0,0,0,0,0,0,0,0,0,0,0,0,0,0,0,0,0,0,0
768926335,632437810,563245784,0,0,0,0,0,0,0,0,0,0,0,0,0,0,0,0,0,0,0,0,0,0,0
567076137,564999568,562924025,0,0,0,0,0,0,0,0,0,0,0,0,0,0,0,0,0,0,0,0,0,0,0
763509226,761374013,759549841,0,0,0,0,0,0,0,0,0,0,0,0,0,0,0,0,0,0,0,0,0,0,0
762846624,692117696,689977223,0,0,0,0,0,0,0,0,0,0,0,0,0,0,0,0,0,0,0,0,0,0,0
561889009,559478893,557361641,0,0,0,0,0,0,0,0,0,0,0,0,0,0,0,0,0,0,0,0,0,0,0
762919077,761067505,691810380,0,0,0,0,0,0,0,0,0,0,0,0,0,0,0,0,0,0,0,0,0,0,0
762919077,559546112,691810380,0,0,0,0,0,0,0,0,0,0,0,0,0,0,0,0,0,0,0,0,0,0,0
762502317,693744838,758801514,0,0,0,0,0,0,0,0,0,0,0,0,0,0,0,0,0,0,0,0,0,0,0
628265896,626166029,557081972,0,0,0,0,0,0,0,0,0,0,0,0,0,0,0,0,0,0,0,0,0,0,0
628259723,626296795,624206887,0,0,0,0,0,0,0,0,0,0,0,0,0,0,0,0,0,0,0,0,0,0,0
623201639,755302398,618805923,0,0,0,0,0,0,0,0,0,0,0,0,0,0,0,0,0,0,0,0,0,0,0
623201639,553774092,618805923,0,0,0,0,0,0,0,0,0,0,0,0,0,0,0,0,0,0,0,0,0,0,0
623304576,755031581,618768557,0,0,0,0,0,0,0,0,0,0,0,0,0,0,0,0,0,0,0,0,0,0,0
557067130,622081016,619883139,0,0,0,0,0,0,0,0,0,0,0,0,0,0,0,0,0,0,0,0,0,0,0
557067130,554873349,619883139,0,0,0,0,0,0,0,0,0,0,0,0,0,0,0,0,0,0,0,0,0,0,0
691443215,756411578,754036854,0,0,0,0,0,0,0,0,0,0,0,0,0,0,0,0,0,0,0,0,0,0,0
556272845,554799099,686859489,0,0,0,0,0,0,0,0,0,0,0,0,0,0,0,0,0,0,0,0,0,0,0
622372585,553165620,551443824,0,0,0,0,0,0,0,0,0,0,0,0,0,0,0,0,0,0,0,0,0,0,0
622147621,619841281,751984332,0,0,0,0,0,0,0,0,0,0,0,0,0,0,0,0,0,0,0,0,0,0,0
622147621,754246640,751984332,0,0,0,0,0,0,0,0,0,0,0,0,0,0,0,0,0,0,0,0,0,0,0
622175629,619824447,617759205,0,0,0,0,0,0,0,0,0,0,0,0,0,0,0,0,0,0,0,0,0,0,0
551897678,616894149,614601545,0,0,0,0,0,0,0,0,0,0,0,0,0,0,0,0,0,0,0,0,0,0,0
553547855,618561722,616068903,0,0,0,0,0,0,0,0,0,0,0,0,0,0,0,0,0,0,0,0,0,0,0
545450236,745318341,541859418,0,0,0,0,0,0,0,0,0,0,0,0,0,0,0,0,0,0,0,0,0,0,0
543440118,541341845,539243572,0,0,0,0,0,0,0,0,0,0,0,0,0,0,0,0,0,0,0,0,0,0,0
610445334,541342653,606353508,0,0,0,0,0,0,0,0,0,0,0,0,0,0,0,0,0,0,0,0,0,0,0
679070905,744111749,674935634,0,0,0,0,0,0,0,0,0,0,0,0,0,0,0,0,0,0,0,0,0,0,0
541237433,606248085,537040754,0,0,0,0,0,0,0,0,0,0,0,0,0,0,0,0,0,0,0,0,0,0,0
676905199,540596437,538505147,0,0,0,0,0,0,0,0,0,0,0,0,0,0,0,0,0,0,0,0,0,0,0
677162191,607946151,740056447,0,0,0,0,0,0,0,0,0,0,0,0,0,0,0,0,0,0,0,0,0,0,0
542283774,540186088,672306130,0,0,0,0,0,0,0,0,0,0,0,0,0,0,0,0,0,0,0,0,0,0,0
541602798,539503318,537403838,0,0,0,0,0,0,0,0,0,0,0,0,0,0,0,0,0,0,0,0,0,0,0
541620470,539524576,537428682,0,0,0,0,0,0,0,0,0,0,0,0,0,0,0,0,0,0,0,0,0,0,0
541995167,539893361,537792324,0,0,0,0,0,0,0,0,0,0,0,0,0,0,0,0,0,0,0,0,0,0,0
541637602,539541978,537446354,0,0,0,0,0,0,0,0,0,0,0,0,0,0,0,0,0,0,0,0,0,0,0
