0,1,2,3,4,5,6,7,8,9,10,11,12,13,14,15,16,17,18,19,20,21,22,23,24,25
589926248,587823991,585721478,583619221,581511603,579404243,577300204,575197949,572716276,570616830,0,0,0,0,0,0,0,0,0,0,0,0,0,0,0,0
657203844,588008354,585921728,583835102,648679710,579453529,577340549,575232931,573130418,571028160,568925647,566823390,564721901,562619388,560131821,0,0,0,0,0,0,0,0,0,0,0
589905847,587805123,585704398,583603673,581499886,579007967,576906741,0,0,0,0,0,0,0,0,0,0,0,0,0,0,0,0,0,0,0
589909932,587812528,585715124,583617464,0,0,0,0,0,0,0,0,0,0,0,0,0,0,0,0,0,0,0,0,0,0
589957966,587849066,585739397,583629729,0,0,0,0,0,0,0,0,0,0,0,0,0,0,0,0,0,0,0,0,0,0
589490911,587392487,585294063,583195640,0,0,0,0,0,0,0,0,0,0,0,0,0,0,0,0,0,0,0,0,0,0
589480052,654491266,585284497,583186848,581088446,578990299,576892402,0,0,0,0,0,0,0,0,0,0,0,0,0,0,0,0,0,0,0
589470170,587373026,585275882,583178995,0,0,0,0,0,0,0,0,0,0,0,0,0,0,0,0,0,0,0,0,0,0
589590019,587492393,585394511,583296885,581198529,646088979,576883788,709004914,572690565,570593688,568496810,566399933,564303312,562206435,560109558,0,0,0,0,0,0,0,0,0,0,0
656697286,587490528,585270272,650282521,581077580,578981503,576885157,574788542,572691659,570594519,568497636,566400753,564303870,0,0,0,0,0,0,0,0,0,0,0,0,0
589613096,587513933,585414770,583315863,715432161,578967088,576873063,574777995,572681885,570585775,568489922,566393812,564297702,562201848,0,0,0,0,0,0,0,0,0,0,0,0
589620285,788847452,585421181,583321758,581219039,646072616,576871007,574776452,572680599,570585002,568489149,566393552,564297699,562201590,0,0,0,0,0,0,0,0,0,0,0,0
589437712,587342629,585247546,583152719,581059705,578966947,576872899,641886936,572681955,637694701,568489720,0,0,0,0,0,0,0,0,0,0,0,0,0,0,0
589448157,587352804,585257196,717379316,0,0,0,0,0,0,0,0,0,0,0,0,0,0,0,0,0,0,0,0,0,0
589397363,587304834,585212561,583120032,581032381,713162459,576854001,574097133,572002038,569906687,0,0,0,0,0,0,0,0,0,0,0,0,0,0,0,0
589424367,587330294,585236222,584582850,582489563,580396020,0,0,0,0,0,0,0,0,0,0,0,0,0,0,0,0,0,0,0,0
590889650,588793021,586696391,584599506,582503400,580407294,0,0,0,0,0,0,0,0,0,0,0,0,0,0,0,0,0,0,0,0
792242566,588817812,586719393,584620974,582521545,580422116,578323192,0,0,0,0,0,0,0,0,0,0,0,0,0,0,0,0,0,0,0
590915789,588817366,586719199,584620776,582521338,0,0,0,0,0,0,0,0,0,0,0,0,0,0,0,0,0,0,0,0,0
590936963,588837010,586737313,584637616,582535373,580433129,578331901,0,0,0,0,0,0,0,0,0,0,0,0,0,0,0,0,0,0,0
590929373,588830181,586730989,584631797,0,0,0,0,0,0,0,0,0,0,0,0,0,0,0,0,0,0,0,0,0,0
590940620,588840917,586741470,584641256,582156007,580054269,0,0,0,0,0,0,0,0,0,0,0,0,0,0,0,0,0,0,0,0
590940628,588840926,586741223,584641264,649262822,580052477,0,0,0,0,0,0,0,0,0,0,0,0,0,0,0,0,0,0,0,0
725174218,588855764,586754781,584653799,582549498,647163097,577953776,575854079,0,0,0,0,0,0,0,0,0,0,0,0,0,0,0,0,0,0
590946280,588845807,586745591,584252351,582151384,580050417,0,0,0,0,0,0,0,0,0,0,0,0,0,0,0,0,0,0,0,0
590978475,655984822,586773442,584670926,582563045,580455164,577957069,575857122,573758444,571660022,0,0,0,0,0,0,0,0,0,0,0,0,0,0,0,0
591022673,588917347,586812021,584707462,582593961,580480203,712588517,643374582,574164479,571666876,569567692,634577115,632477931,563269627,0,0,0,0,0,0,0,0,0,0,0,0
658119318,588906403,721019823,584697788,582585813,580473838,577960081,575859630,573760956,705879755,569563353,567464680,632474614,0,0,0,0,0,0,0,0,0,0,0,0,0
590538251,588439841,586341430,651352139,582143862,714261921,577945282,575846871,573748962,571651309,569553400,0,0,0,0,0,0,0,0,0,0,0,0,0,0,0
590527315,588429668,586332021,584234374,582136488,580038346,577940452,575842805,573745406,0,0,0,0,0,0,0,0,0,0,0,0,0,0,0,0,0
590480024,588385444,586290608,651304892,582103765,580011757,712135935,0,0,0,0,0,0,0,0,0,0,0,0,0,0,0,0,0,0,0
590429250,588337746,586245219,651262325,582067098,579981505,577892829,575800560,573047252,570952160,568857068,566762232,0,0,0,0,0,0,0,0,0,0,0,0,0,0
590429250,588336977,586245219,651262325,582067098,579981505,577892829,575800560,573047252,570952160,568857068,566762232,0,0,0,0,0,0,0,0,0,0,0,0,0,0
590390645,588301956,653322130,584123809,582043583,579963357,577879027,575146143,573051055,570955712,568860624,633874144,564670193,0,0,0,0,0,0,0,0,0,0,0,0,0
590362329,722492641,720405481,584100592,649001652,577249602,575154793,573058684,570962576,568866467,566770615,564674506,562578398,560482289,0,0,0,0,0,0,0,0,0,0,0,0
589842392,587745505,652757737,583551986,0,0,0,0,0,0,0,0,0,0,0,0,0,0,0,0,0,0,0,0,0,0
590278460,588179806,586081409,583983011,581883367,579351857,577256548,575160710,573064343,570967720,568871097,566774730,631786971,629690348,0,0,0,0,0,0,0,0,0,0,0,0
589841157,587744539,585647920,583551302,581455217,579358877,577262525,575165651,573068766,570971881,568874996,566778111,0,0,0,0,0,0,0,0,0,0,0,0,0,0
589873185,587774262,719893067,583576672,581476234,579376051,577276370,575177702,573079792,570981882,0,0,0,0,0,0,0,0,0,0,0,0,0,0,0,0
589863656,789092079,585667319,583569151,0,0,0,0,0,0,0,0,0,0,0,0,0,0,0,0,0,0,0,0,0,0
590168507,588077269,585985775,583629327,581520452,579411833,577306529,575203772,573103562,571003608,568903398,566803187,0,0,0,0,0,0,0,0,0,0,0,0,0,0
589875430,587776493,585677557,583578621,0,0,0,0,0,0,0,0,0,0,0,0,0,0,0,0,0,0,0,0,0,0
590134318,588045650,585956983,650976412,648895974,780755510,577319532,642322832,573112739,571012277,568911302,566810072,564708842,562607868,0,0,0,0,0,0,0,0,0,0,0,0
590116868,588029227,585941587,583853946,581774792,579438875,644436566,575221118,707336849,638126244,568916408,566814667,564712926,562611185,0,0,0,0,0,0,0,0,0,0,0,0
590703979,588601994,586500008,582080520,579993411,577902959,575810445,573715868,571620779,569525947,567430859,565336027,563240939,561146106,0,0,0,0,0,0,0,0,0,0,0,0
587473738,585377391,583280787,715402717,578990893,644001636,709012617,572697500,570600110,568502465,566405075,698525157,629318903,0,0,0,0,0,0,0,0,0,0,0,0,0
588574746,787801153,584374633,582271671,580008717,577916232,575821935,573726339,571630743,569534890,567439294,565343698,563248102,561152249,0,0,0,0,0,0,0,0,0,0,0,0
585894581,583810260,581591830,579469394,577354367,709462429,640250284,705255868,703152587,768158171,564728298,562625785,694350040,625140208,0,0,0,0,0,0,0,0,0,0,0,0
721174841,584871778,582797746,647618566,645504322,710504299,574183807,572080787,569977767,567875003,565772239,563669731,561566711,0,0,0,0,0,0,0,0,0,0,0,0,0
586417268,584321432,582226911,580044845,577945954,575847558,573749656,571651754,636662971,565358559,0,0,0,0,0,0,0,0,0,0,0,0,0,0,0,0
586418756,584322923,582228154,580044047,577945162,575846769,573749124,571651224,569553579,567455935,699575762,563260390,628271609,0,0,0,0,0,0,0,0,0,0,0,0,0
719065289,582651404,580528202,578411896,643410582,574197926,572094133,704208068,567886803,565783011,563679474,561182659,559081693,556980726,0,0,0,0,0,0,0,0,0,0,0,0
584427816,582316161,714422234,577886756,575796817,573702503,571608957,770842003,567422122,565328576,563235030,561141485,0,0,0,0,0,0,0,0,0,0,0,0,0,0
584509255,582386074,580263148,577836336,575752536,573662061,571571585,569481365,567390889,699518141,563210193,561119460,559028984,556275967,0,0,0,0,0,0,0,0,0,0,0,0
715931454,579645345,577569003,575260706,707373883,772378197,636055917,566842246,631846558,562633144,560529361,759751402,555939063,0,0,0,0,0,0,0,0,0,0,0,0,0
581606870,579481582,577364479,574811408,572712747,570614086,568515168,566416507,631426709,696436656,627229130,558021605,0,0,0,0,0,0,0,0,0,0,0,0,0,0
716477467,580159363,578059728,575827979,573731621,571635519,569539161,567443059,565346701,563250599,628263104,626167002,556961780,0,0,0,0,0,0,0,0,0,0,0,0,0
582069382,579983026,577894097,575801829,573707503,570949859,0,0,0,0,0,0,0,0,0,0,0,0,0,0,0,0,0,0,0,0
581967251,647009463,577826258,575743716,573654253,705782262,568854089,566759270,564664450,696787359,560475068,558380248,556285685,0,0,0,0,0,0,0,0,0,0,0,0,0
581889316,579787410,577687012,575159326,573063481,570967636,635980654,566775689,564679587,562582972,627595220,558389485,0,0,0,0,0,0,0,0,0,0,0,0,0,0
647240839,779363288,575847702,707967537,571652172,569554279,567456642,565358749,630369720,628272083,559065327,0,0,0,0,0,0,0,0,0,0,0,0,0,0,0
580253217,645246590,576028349,573925084,705796355,703705378,701614402,699523425,697432448,628231839,559031999,556941022,554850046,0,0,0,0,0,0,0,0,0,0,0,0,0
579975101,577890259,575800293,573706734,638722040,0,0,0,0,0,0,0,0,0,0,0,0,0,0,0,0,0,0,0,0,0
711747741,709670874,573366264,571079963,636081721,566865496,564758135,562651029,560543668,558436306,690547441,688056570,0,0,0,0,0,0,0,0,0,0,0,0,0,0
577510016,642544829,573350365,571093760,568985119,566876990,564767836,562659195,560550555,558441660,623442654,620951024,0,0,0,0,0,0,0,0,0,0,0,0,0,0
778722073,575268449,707373701,705261481,636040651,701038316,0,0,0,0,0,0,0,0,0,0,0,0,0,0,0,0,0,0,0,0
577123658,575008663,572902078,637904356,568420115,566332474,564244832,562156935,627178157,692198356,555892987,0,0,0,0,0,0,0,0,0,0,0,0,0,0,0
578036823,575941787,708063419,571749341,0,0,0,0,0,0,0,0,0,0,0,0,0,0,0,0,0,0,0,0,0,0
578038612,575942553,708063419,571749341,0,0,0,0,0,0,0,0,0,0,0,0,0,0,0,0,0,0,0,0,0,0
577668363,575572060,573475460,638487724,569282261,566783745,564686122,562588498,560490875,558393251,556295628,554198005,0,0,0,0,0,0,0,0,0,0,0,0,0,0
711845982,575537316,573443527,772676073,636016912,566807603,698924886,562606969,560506524,625514942,556305633,0,0,0,0,0,0,0,0,0,0,0,0,0,0,0
708851384,572549317,570464722,702597856,566295789,564210682,564067322,559422817,624437906,555235524,553141750,0,0,0,0,0,0,0,0,0,0,0,0,0,0,0
573644077,705773124,569466461,567377268,565288077,563199144,561109954,559020765,624040697,0,0,0,0,0,0,0,0,0,0,0,0,0,0,0,0,0
573464107,571368540,569272972,567177405,632190701,629703457,560495954,692615042,556298930,554200290,0,0,0,0,0,0,0,0,0,0,0,0,0,0,0,0
570853687,568740976,767954856,765842913,696340515,694259036,692177557,690095310,0,0,0,0,0,0,0,0,0,0,0,0,0,0,0,0,0,0
571390254,569292643,701412504,565097164,562581252,560484665,558388333,556291746,621304022,0,0,0,0,0,0,0,0,0,0,0,0,0,0,0,0,0
570178884,568099198,566019768,563939570,628733231,559509610,557394855,555281122,0,0,0,0,0,0,0,0,0,0,0,0,0,0,0,0,0,0
704039429,701924167,565591176,697694153,695286035,626098515,624019604,554831061,0,0,0,0,0,0,0,0,0,0,0,0,0,0,0,0,0,0
569825290,701928773,766923647,630591930,762696181,558979384,556898931,554818733,619846631,0,0,0,0,0,0,0,0,0,0,0,0,0,0,0,0,0
567039771,699180647,629994930,627687936,692679500,556344728,554228452,0,0,0,0,0,0,0,0,0,0,0,0,0,0,0,0,0,0,0
567031668,564955828,697097716,694801975,558466167,757674424,0,0,0,0,0,0,0,0,0,0,0,0,0,0,0,0,0,0,0,0
634137450,632062381,764204784,761911861,558466679,757674424,0,0,0,0,0,0,0,0,0,0,0,0,0,0,0,0,0,0,0,0
566937265,699039173,562705880,560590828,558475007,623043934,553832615,618839024,0,0,0,0,0,0,0,0,0,0,0,0,0,0,0,0,0,0
633655087,564444536,562342848,627199250,625106779,555905188,553812717,0,0,0,0,0,0,0,0,0,0,0,0,0,0,0,0,0,0,0
632051563,697086648,761919494,558472531,757678750,621341673,0,0,0,0,0,0,0,0,0,0,0,0,0,0,0,0,0,0,0,0
699066750,629838491,560610233,692709078,556371956,620947076,618842587,0,0,0,0,0,0,0,0,0,0,0,0,0,0,0,0,0,0,0
698709003,763709028,627382717,759299361,690104443,688019156,0,0,0,0,0,0,0,0,0,0,0,0,0,0,0,0,0,0,0,0
566020389,631045742,628961721,559520518,691627345,689515674,0,0,0,0,0,0,0,0,0,0,0,0,0,0,0,0,0,0,0,0
562315086,560218795,558014995,623026287,553819853,0,0,0,0,0,0,0,0,0,0,0,0,0,0,0,0,0,0,0,0,0
564053254,629063786,559856335,557337394,555241876,553146613,0,0,0,0,0,0,0,0,0,0,0,0,0,0,0,0,0,0,0,0
563086663,695231855,760268182,691086014,689013477,686301641,0,0,0,0,0,0,0,0,0,0,0,0,0,0,0,0,0,0,0,0
560204919,625219533,555926319,620935301,618835420,0,0,0,0,0,0,0,0,0,0,0,0,0,0,0,0,0,0,0,0,0
561892129,626913151,624824542,689491006,754493596,551060987,0,0,0,0,0,0,0,0,0,0,0,0,0,0,0,0,0,0,0,0
561816583,761071740,691892210,756624744,754502367,0,0,0,0,0,0,0,0,0,0,0,0,0,0,0,0,0,0,0,0,0
762190927,558773678,556315406,554212205,552109003,0,0,0,0,0,0,0,0,0,0,0,0,0,0,0,0,0,0,0,0,0
625284649,623176868,553789997,618813864,0,0,0,0,0,0,0,0,0,0,0,0,0,0,0,0,0,0,0,0,0,0
557855645,757120456,755058163,553126464,618149067,0,0,0,0,0,0,0,0,0,0,0,0,0,0,0,0,0,0,0,0,0
559185463,624193955,621969179,619874695,684888819,0,0,0,0,0,0,0,0,0,0,0,0,0,0,0,0,0,0,0,0,0
626317321,624211099,621958714,619870665,0,0,0,0,0,0,0,0,0,0,0,0,0,0,0,0,0,0,0,0,0,0
760661330,758523856,756113755,552730586,0,0,0,0,0,0,0,0,0,0,0,0,0,0,0,0,0,0,0,0,0,0
624795139,756932504,754508844,618177473,0,0,0,0,0,0,0,0,0,0,0,0,0,0,0,0,0,0,0,0,0,0
547533805,545447180,543853041,743101666,0,0,0,0,0,0,0,0,0,0,0,0,0,0,0,0,0,0,0,0,0,0
680073159,678017606,608825627,539810025,537699006,0,0,0,0,0,0,0,0,0,0,0,0,0,0,0,0,0,0,0,0,0
679657717,543348911,541253784,539158657,537063529,0,0,0,0,0,0,0,0,0,0,0,0,0,0,0,0,0,0,0,0,0
612545116,543434927,541336694,539238717,0,0,0,0,0,0,0,0,0,0,0,0,0,0,0,0,0,0,0,0,0,0
546841341,543281366,541176002,539070637,536965272,0,0,0,0,0,0,0,0,0,0,0,0,0,0,0,0,0,0,0,0,0
613947361,610383826,675387328,539064494,536959387,0,0,0,0,0,0,0,0,0,0,0,0,0,0,0,0,0,0,0,0,0
746702820,543242388,675350393,539023966,536914499,0,0,0,0,0,0,0,0,0,0,0,0,0,0,0,0,0,0,0,0,0
546840193,677430221,675314359,673198498,0,0,0,0,0,0,0,0,0,0,0,0,0,0,0,0,0,0,0,0,0,0
546857381,544760346,543071459,608083124,538877062,0,0,0,0,0,0,0,0,0,0,0,0,0,0,0,0,0,0,0,0,0
613970026,612271015,610172777,608074539,0,0,0,0,0,0,0,0,0,0,0,0,0,0,0,0,0,0,0,0,0,0
613976762,611890198,543046871,540945825,605953642,0,0,0,0,0,0,0,0,0,0,0,0,0,0,0,0,0,0,0,0,0
546867160,544780115,542686246,540947954,605956293,0,0,0,0,0,0,0,0,0,0,0,0,0,0,0,0,0,0,0,0,0
681096179,544802185,609820773,540621890,538531615,0,0,0,0,0,0,0,0,0,0,0,0,0,0,0,0,0,0,0,0,0
546486651,544479182,542380181,540281180,0,0,0,0,0,0,0,0,0,0,0,0,0,0,0,0,0,0,0,0,0,0
546475905,544498392,542402209,540305770,538209587,0,0,0,0,0,0,0,0,0,0,0,0,0,0,0,0,0,0,0,0,0
546421177,544279359,676385558,540429034,739673281,0,0,0,0,0,0,0,0,0,0,0,0,0,0,0,0,0,0,0,0,0
545788631,678546917,609333460,540119748,538014900,0,0,0,0,0,0,0,0,0,0,0,0,0,0,0,0,0,0,0,0,0
612902099,544328191,542223090,540118245,538013144,0,0,0,0,0,0,0,0,0,0,0,0,0,0,0,0,0,0,0,0,0
545797604,543691133,541591131,540118268,672229873,0,0,0,0,0,0,0,0,0,0,0,0,0,0,0,0,0,0,0,0,0
545794915,611252401,542171902,540060147,537948392,0,0,0,0,0,0,0,0,0,0,0,0,0,0,0,0,0,0,0,0,0
545804622,544127118,542030929,539934740,0,0,0,0,0,0,0,0,0,0,0,0,0,0,0,0,0,0,0,0,0,0
545807723,544122001,609133643,539927814,0,0,0,0,0,0,0,0,0,0,0,0,0,0,0,0,0,0,0,0,0,0
545817280,543726167,541631027,539535888,537808357,0,0,0,0,0,0,0,0,0,0,0,0,0,0,0,0,0,0,0,0,0
545845619,544051362,541943647,539835676,0,0,0,0,0,0,0,0,0,0,0,0,0,0,0,0,0,0,0,0,0,0
545827824,677961383,675868558,539557750,537464414,0,0,0,0,0,0,0,0,0,0,0,0,0,0,0,0,0,0,0,0,0
545826811,610854311,541653644,539561072,537469268,0,0,0,0,0,0,0,0,0,0,0,0,0,0,0,0,0,0,0,0,0
543348713,541253593,673375946,537063098,0,0,0,0,0,0,0,0,0,0,0,0,0,0,0,0,0,0,0,0,0,0
744665565,541242573,539146172,537049771,0,0,0,0,0,0,0,0,0,0,0,0,0,0,0,0,0,0,0,0,0,0
543328464,541230523,539132581,604143503,0,0,0,0,0,0,0,0,0,0,0,0,0,0,0,0,0,0,0,0,0,0
678954204,675413994,673311962,536992202,0,0,0,0,0,0,0,0,0,0,0,0,0,0,0,0,0,0,0,0,0,0
544742600,542642607,539086333,536982770,0,0,0,0,0,0,0,0,0,0,0,0,0,0,0,0,0,0,0,0,0,0
544743615,609752484,607652234,536979187,0,0,0,0,0,0,0,0,0,0,0,0,0,0,0,0,0,0,0,0,0,0
544765423,676886751,540572879,538476480,0,0,0,0,0,0,0,0,0,0,0,0,0,0,0,0,0,0,0,0,0,0
544770757,542675375,540579738,538484100,0,0,0,0,0,0,0,0,0,0,0,0,0,0,0,0,0,0,0,0,0,0
544792565,542701028,540608467,538516673,0,0,0,0,0,0,0,0,0,0,0,0,0,0,0,0,0,0,0,0,0,0
544796155,609812717,674829280,538519762,0,0,0,0,0,0,0,0,0,0,0,0,0,0,0,0,0,0,0,0,0,0
544398031,542303415,540208800,538114184,0,0,0,0,0,0,0,0,0,0,0,0,0,0,0,0,0,0,0,0,0,0
544355028,542253761,540152750,538051482,0,0,0,0,0,0,0,0,0,0,0,0,0,0,0,0,0,0,0,0,0,0
543743247,541986259,539884959,604891499,0,0,0,0,0,0,0,0,0,0,0,0,0,0,0,0,0,0,0,0,0,0
589492715,788720626,585295610,0,0,0,0,0,0,0,0,0,0,0,0,0,0,0,0,0,0,0,0,0,0,0
589479918,721599733,585284348,0,0,0,0,0,0,0,0,0,0,0,0,0,0,0,0,0,0,0,0,0,0,0
722317283,653124085,583595021,0,0,0,0,0,0,0,0,0,0,0,0,0,0,0,0,0,0,0,0,0,0,0
585284348,583193076,581490934,0,0,0,0,0,0,0,0,0,0,0,0,0,0,0,0,0,0,0,0,0,0,0
567364779,565276359,697405152,0,0,0,0,0,0,0,0,0,0,0,0,0,0,0,0,0,0,0,0,0,0,0
561099502,559012600,556272850,0,0,0,0,0,0,0,0,0,0,0,0,0,0,0,0,0,0,0,0,0,0,0
558108062,555927333,620934816,0,0,0,0,0,0,0,0,0,0,0,0,0,0,0,0,0,0,0,0,0,0,0
690755920,755626010,753463018,0,0,0,0,0,0,0,0,0,0,0,0,0,0,0,0,0,0,0,0,0,0,0
690785758,688499060,753068016,0,0,0,0,0,0,0,0,0,0,0,0,0,0,0,0,0,0,0,0,0,0,0
615689213,747901146,679147257,0,0,0,0,0,0,0,0,0,0,0,0,0,0,0,0,0,0,0,0,0,0,0
546927704,545045133,542929997,0,0,0,0,0,0,0,0,0,0,0,0,0,0,0,0,0,0,0,0,0,0,0
613588057,544492631,542395394,0,0,0,0,0,0,0,0,0,0,0,0,0,0,0,0,0,0,0,0,0,0,0
675475447,539546111,537452276,0,0,0,0,0,0,0,0,0,0,0,0,0,0,0,0,0,0,0,0,0,0,0
675475447,539163369,537452276,0,0,0,0,0,0,0,0,0,0,0,0,0,0,0,0,0,0,0,0,0,0,0
542681015,540585110,538489205,0,0,0,0,0,0,0,0,0,0,0,0,0,0,0,0,0,0,0,0,0,0,0
542681533,540588217,605603764,0,0,0,0,0,0,0,0,0,0,0,0,0,0,0,0,0,0,0,0,0,0,0
542284535,540187114,538089950,0,0,0,0,0,0,0,0,0,0,0,0,0,0,0,0,0,0,0,0,0,0,0
609391261,540184965,538087276,0,0,0,0,0,0,0,0,0,0,0,0,0,0,0,0,0,0,0,0,0,0,0
609391261,607293063,538086000,0,0,0,0,0,0,0,0,0,0,0,0,0,0,0,0,0,0,0,0,0,0,0
742917627,540161789,538061809,0,0,0,0,0,0,0,0,0,0,0,0,0,0,0,0,0,0,0,0,0,0,0
