0,1,2,3,4,5,6,7,8,9,10,11,12,13,14,15,16,17,18,19,20,21,22,23,24,25
589923457,654929808,585718176,583615664,648616399,579400175,576910059,0,0,0,0,0,0,0,0,0,0,0,0,0,0,0,0,0,0,0
589997748,587888321,585778895,583669724,581548792,579003999,576901543,574801111,572702191,0,0,0,0,0,0,0,0,0,0,0,0,0,0,0,0,0
589474747,654486215,585279956,583182561,581084667,0,0,0,0,0,0,0,0,0,0,0,0,0,0,0,0,0,0,0,0,0
589474485,587377088,585279691,583182293,581084907,0,0,0,0,0,0,0,0,0,0,0,0,0,0,0,0,0,0,0,0,0
723797974,587483378,585276693,784505904,581082216,578985119,576888008,574790883,572693745,570596606,0,0,0,0,0,0,0,0,0,0,0,0,0,0,0,0
589598968,587356952,585261105,583165514,581070972,578976430,576881364,574785261,572688890,0,0,0,0,0,0,0,0,0,0,0,0,0,0,0,0,0
589461681,587365309,585268938,583172311,581076720,0,0,0,0,0,0,0,0,0,0,0,0,0,0,0,0,0,0,0,0,0
589402447,587307631,585213326,583119272,0,0,0,0,0,0,0,0,0,0,0,0,0,0,0,0,0,0,0,0,0,0
656513442,721529002,585218740,583125952,581037272,578947570,645399775,576197362,0,0,0,0,0,0,0,0,0,0,0,0,0,0,0,0,0,0
589389195,587298201,585206952,583115703,581030613,578945011,578292185,710416625,574103805,0,0,0,0,0,0,0,0,0,0,0,0,0,0,0,0,0
590878688,588783080,586687471,584591863,0,0,0,0,0,0,0,0,0,0,0,0,0,0,0,0,0,0,0,0,0,0
589340731,587253330,585166185,583077759,580999851,578922199,576839671,708318153,572005851,704128749,567816447,0,0,0,0,0,0,0,0,0,0,0,0,0,0,0
590879334,588783223,586687368,584591256,582496438,580401621,578305771,576209658,0,0,0,0,0,0,0,0,0,0,0,0,0,0,0,0,0,0
590888891,588792262,586695376,584598747,582502383,0,0,0,0,0,0,0,0,0,0,0,0,0,0,0,0,0,0,0,0,0
658429420,588787211,586691108,584595261,582500208,580405155,578309321,576213218,574116335,773346043,0,0,0,0,0,0,0,0,0,0,0,0,0,0,0,0
658423329,589216840,587119470,585021844,650032612,580407099,578310777,576214178,574117302,572020427,569923808,567826932,0,0,0,0,0,0,0,0,0,0,0,0,0,0
590910415,588812505,586714339,584616173,0,0,0,0,0,0,0,0,0,0,0,0,0,0,0,0,0,0,0,0,0,0
591240196,790474285,587055447,584962945,582875349,647554605,578341740,576239766,574140331,572040896,704158933,634950633,565742334,0,0,0,0,0,0,0,0,0,0,0,0,0
590937141,588837194,653846110,584637299,582534557,580431814,578330341,576230394,0,0,0,0,0,0,0,0,0,0,0,0,0,0,0,0,0,0
590931395,588830155,586728915,584627675,582522604,580417276,0,0,0,0,0,0,0,0,0,0,0,0,0,0,0,0,0,0,0,0
658062414,588852321,586751092,584649863,582545324,714657746,578337006,0,0,0,0,0,0,0,0,0,0,0,0,0,0,0,0,0,0,0
591192404,589103224,587013788,584924864,582582798,714687062,578360204,576255664,574154434,639162068,569951975,702068473,0,0,0,0,0,0,0,0,0,0,0,0,0,0
590938071,588838880,720956648,584639216,582154477,0,0,0,0,0,0,0,0,0,0,0,0,0,0,0,0,0,0,0,0,0
590945989,588844496,586743771,718860262,582155501,0,0,0,0,0,0,0,0,0,0,0,0,0,0,0,0,0,0,0,0,0
590948059,588847077,586746095,584645625,716368864,0,0,0,0,0,0,0,0,0,0,0,0,0,0,0,0,0,0,0,0,0
590540718,588441788,720560586,584244184,582143731,0,0,0,0,0,0,0,0,0,0,0,0,0,0,0,0,0,0,0,0,0
725286036,723175076,721064116,584735684,582611684,647165490,712170883,575852216,573753043,571653870,0,0,0,0,0,0,0,0,0,0,0,0,0,0,0,0
590525886,588428234,586330839,651342051,582135037,0,0,0,0,0,0,0,0,0,0,0,0,0,0,0,0,0,0,0,0,0
657727977,588431626,586333988,651344957,582137457,580038820,577940682,575842788,573745393,571647741,0,0,0,0,0,0,0,0,0,0,0,0,0,0,0,0
590515377,588417982,586320842,584223447,582125809,0,0,0,0,0,0,0,0,0,0,0,0,0,0,0,0,0,0,0,0,0
590645071,588546675,586448280,584350140,582120972,580026197,577930892,642943664,573738179,571641557,569544935,567448313,0,0,0,0,0,0,0,0,0,0,0,0,0,0
590496081,588400482,586304883,584209284,582114982,580020936,577926114,710047987,573733883,0,0,0,0,0,0,0,0,0,0,0,0,0,0,0,0,0
590494039,655507303,586302840,584207240,582113193,580019401,712142306,575829234,573732858,0,0,0,0,0,0,0,0,0,0,0,0,0,0,0,0,0
590674383,588574187,653395469,718410281,582101857,580011161,645027778,575825118,573729516,571633914,0,0,0,0,0,0,0,0,0,0,0,0,0,0,0,0
724714645,588401060,586305203,584209346,649223647,0,0,0,0,0,0,0,0,0,0,0,0,0,0,0,0,0,0,0,0,0
657565269,588364907,586273665,584182167,582096067,580010479,0,0,0,0,0,0,0,0,0,0,0,0,0,0,0,0,0,0,0,0
590483691,722607092,586295293,583535603,0,0,0,0,0,0,0,0,0,0,0,0,0,0,0,0,0,0,0,0,0,0
657576412,588374759,586281713,584188155,581440996,0,0,0,0,0,0,0,0,0,0,0,0,0,0,0,0,0,0,0,0,0
590419572,588329861,586239894,718367654,582067400,579984873,577243593,575150565,573055475,0,0,0,0,0,0,0,0,0,0,0,0,0,0,0,0,0
589831634,587735773,585639912,583544308,0,0,0,0,0,0,0,0,0,0,0,0,0,0,0,0,0,0,0,0,0,0
589833668,587737550,585641433,583545316,581450233,0,0,0,0,0,0,0,0,0,0,0,0,0,0,0,0,0,0,0,0,0
590380218,588291780,586203598,584115161,582034924,579955455,577246049,575151491,573055636,570959782,568863927,566768328,564672473,629685482,560480764,0,0,0,0,0,0,0,0,0,0,0
590276799,588178140,586079737,583542556,581448022,579353488,577258428,575162585,640174823,570969590,0,0,0,0,0,0,0,0,0,0,0,0,0,0,0,0
656952725,587746978,585650095,650662075,581456597,579359982,0,0,0,0,0,0,0,0,0,0,0,0,0,0,0,0,0,0,0,0
589843779,587747162,585650288,583553415,581457076,579360738,0,0,0,0,0,0,0,0,0,0,0,0,0,0,0,0,0,0,0,0
589846192,587749051,585652166,583555025,648567014,579361532,0,0,0,0,0,0,0,0,0,0,0,0,0,0,0,0,0,0,0,0
590258902,588161777,585653522,583556398,581459302,579362205,577265094,575167970,573070832,570973694,0,0,0,0,0,0,0,0,0,0,0,0,0,0,0,0
657360375,587757590,652768815,583562313,581464443,579366318,577268436,575170797,573073402,0,0,0,0,0,0,0,0,0,0,0,0,0,0,0,0,0
589854185,587756784,585659128,583561727,0,0,0,0,0,0,0,0,0,0,0,0,0,0,0,0,0,0,0,0,0,0
589889665,722007186,585688995,583588533,581484504,579380731,0,0,0,0,0,0,0,0,0,0,0,0,0,0,0,0,0,0,0,0
589900125,587798898,585697414,583596955,581491396,579385837,0,0,0,0,0,0,0,0,0,0,0,0,0,0,0,0,0,0,0,0
657259604,588061566,585972903,583884240,581525799,646520697,0,0,0,0,0,0,0,0,0,0,0,0,0,0,0,0,0,0,0,0
657024805,587813438,585710935,717825904,581500834,713610453,577287162,0,0,0,0,0,0,0,0,0,0,0,0,0,0,0,0,0,0,0
590153897,588064191,585974485,718102508,0,0,0,0,0,0,0,0,0,0,0,0,0,0,0,0,0,0,0,0,0,0
589887934,587787467,652796119,717804516,715700990,0,0,0,0,0,0,0,0,0,0,0,0,0,0,0,0,0,0,0,0,0
591326898,589228239,587129837,582495563,580401286,578306226,576210640,574114015,572017645,569921276,0,0,0,0,0,0,0,0,0,0,0,0,0,0,0,0
587527168,585426729,583326546,581223587,579120372,576867384,574773345,572677493,570581898,568486046,566390450,631403462,562199003,560103151,0,0,0,0,0,0,0,0,0,0,0,0
588966930,653963311,584741965,582614664,580487106,578367728,575859904,573759705,638768114,0,0,0,0,0,0,0,0,0,0,0,0,0,0,0,0,0
588251742,586167921,718301829,582013868,714160083,712082672,575146879,573052313,570957491,568862924,566768358,564673791,0,0,0,0,0,0,0,0,0,0,0,0,0,0
588148268,653161821,583956623,581861620,579368796,577269669,575171797,573073900,0,0,0,0,0,0,0,0,0,0,0,0,0,0,0,0,0,0
587130199,585031816,582931435,580401747,578307227,576211915,574115555,773346043,0,0,0,0,0,0,0,0,0,0,0,0,0,0,0,0,0,0
587059460,584967741,582880432,647547942,578334587,576232371,574132686,572033002,0,0,0,0,0,0,0,0,0,0,0,0,0,0,0,0,0,0
650907329,581596690,579468382,577347478,575234492,640238286,705242081,568919539,566424275,765648881,0,0,0,0,0,0,0,0,0,0,0,0,0,0,0,0
583322396,581218200,578966554,576874870,574781363,572686033,637699567,0,0,0,0,0,0,0,0,0,0,0,0,0,0,0,0,0,0,0
650454045,581236891,578952478,711081592,641882037,572679124,570585330,0,0,0,0,0,0,0,0,0,0,0,0,0,0,0,0,0,0,0
583432966,715522437,578903308,711047275,574748331,572658123,637677802,0,0,0,0,0,0,0,0,0,0,0,0,0,0,0,0,0,0,0
585006615,582910582,580814294,578319904,576222030,574124645,572027004,704147345,702049703,565734588,630746065,561539558,559442169,0,0,0,0,0,0,0,0,0,0,0,0,0
648711690,713684327,577340076,709440730,573116145,570618067,568515066,0,0,0,0,0,0,0,0,0,0,0,0,0,0,0,0,0,0,0
581612144,579479973,577357262,575242472,573136630,570619262,568518816,566418114,564317668,0,0,0,0,0,0,0,0,0,0,0,0,0,0,0,0,0
581266789,578931468,576849283,574762705,572670713,0,0,0,0,0,0,0,0,0,0,0,0,0,0,0,0,0,0,0,0,0
581314371,579195300,577081069,708936997,572628030,570536535,702662512,566353545,564262050,562170042,560078803,625096427,0,0,0,0,0,0,0,0,0,0,0,0,0,0
582914671,580818928,578315605,576218006,574120631,572023511,569926136,0,0,0,0,0,0,0,0,0,0,0,0,0,0,0,0,0,0,0
581969778,579903134,577828543,709963477,573656288,571566827,569477110,566757742,564663436,562569130,560474823,558380261,0,0,0,0,0,0,0,0,0,0,0,0,0,0
581890081,579787195,577254963,575160704,640173991,570969295,568873462,0,0,0,0,0,0,0,0,0,0,0,0,0,0,0,0,0,0,0
581872916,579775126,577677560,575166271,573069409,705190018,635984291,768105156,564681957,0,0,0,0,0,0,0,0,0,0,0,0,0,0,0,0,0
581871963,579774667,644372772,575167325,573070201,570973333,568876209,566779341,564682218,0,0,0,0,0,0,0,0,0,0,0,0,0,0,0,0,0
716063533,646863018,577279758,575180109,573081452,570983052,568884651,566785995,564687594,0,0,0,0,0,0,0,0,0,0,0,0,0,0,0,0,0
581753894,713900454,644444170,575224907,573121131,705234827,568914091,566810315,631815402,0,0,0,0,0,0,0,0,0,0,0,0,0,0,0,0,0
580932799,578870499,576798718,574101325,572006511,569911697,567816882,565722068,563627253,0,0,0,0,0,0,0,0,0,0,0,0,0,0,0,0,0
579510440,577398857,642401288,573362143,705487294,569177757,701303162,564994390,0,0,0,0,0,0,0,0,0,0,0,0,0,0,0,0,0,0
579141730,644144077,574760477,572666689,570572901,702696841,633494444,631400656,562198260,0,0,0,0,0,0,0,0,0,0,0,0,0,0,0,0,0
579268796,576752412,574680407,572595060,637619345,568425903,566341324,631365609,561518562,0,0,0,0,0,0,0,0,0,0,0,0,0,0,0,0,0
578828049,576776559,574708910,706844365,704762092,567811553,0,0,0,0,0,0,0,0,0,0,0,0,0,0,0,0,0,0,0,0
782044242,578637991,643661280,775515137,572085790,704200507,567880023,565777012,563675025,695789742,626578122,691583975,0,0,0,0,0,0,0,0,0,0,0,0,0,0
647784742,578610334,710750957,574203417,773422401,569988458,567880850,565773242,697884130,0,0,0,0,0,0,0,0,0,0,0,0,0,0,0,0,0
580655703,712810689,576325388,641326383,572108883,637109110,567891354,700000189,630783456,628290541,0,0,0,0,0,0,0,0,0,0,0,0,0,0,0,0
580142602,578045616,575840295,573743198,638754964,703766471,634560503,0,0,0,0,0,0,0,0,0,0,0,0,0,0,0,0,0,0,0
714418987,578092701,575987433,573708567,571615293,636631139,701646730,565335984,563242967,628258557,0,0,0,0,0,0,0,0,0,0,0,0,0,0,0,0
647337568,578113735,575784468,573693238,638710872,569510011,567418781,699545024,563236066,0,0,0,0,0,0,0,0,0,0,0,0,0,0,0,0,0
579897466,577829289,575750600,707880663,571575527,568852862,566759587,564666568,629682157,0,0,0,0,0,0,0,0,0,0,0,0,0,0,0,0,0
579707394,711839594,575532720,573439443,571345398,568911645,566810688,564709731,562608775,560507818,625515725,556305905,0,0,0,0,0,0,0,0,0,0,0,0,0,0
579691899,577612514,709437482,573117004,638123630,770238352,633917874,564706004,562602998,0,0,0,0,0,0,0,0,0,0,0,0,0,0,0,0,0
644621923,575459814,707387434,571050860,770258861,0,0,0,0,0,0,0,0,0,0,0,0,0,0,0,0,0,0,0,0,0
576994101,574898383,639804451,570598510,568501176,0,0,0,0,0,0,0,0,0,0,0,0,0,0,0,0,0,0,0,0,0
577029977,574926777,572826601,570576929,568482898,566388866,631403698,629309666,0,0,0,0,0,0,0,0,0,0,0,0,0,0,0,0,0,0
577061990,574955697,572853974,570551044,568458537,566365001,631381097,562179466,560086698,625102794,555901163,0,0,0,0,0,0,0,0,0,0,0,0,0,0,0
711365037,574669570,572586281,704719695,702636406,566335389,564252100,562168043,561512663,0,0,0,0,0,0,0,0,0,0,0,0,0,0,0,0,0
711365037,575022842,572586281,704719695,702636406,566335389,564252100,562168043,561512663,0,0,0,0,0,0,0,0,0,0,0,0,0,0,0,0,0
576744449,641794140,773933450,637638072,0,0,0,0,0,0,0,0,0,0,0,0,0,0,0,0,0,0,0,0,0,0
576743173,574685023,773933450,637638072,0,0,0,0,0,0,0,0,0,0,0,0,0,0,0,0,0,0,0,0,0,0
578655780,643678063,574476950,639493821,704510437,634975760,565764919,563662942,561561221,559459499,691575506,555256313,0,0,0,0,0,0,0,0,0,0,0,0,0,0
578628717,576548029,641567973,572085266,569979963,634983524,632878989,563664569,628667623,0,0,0,0,0,0,0,0,0,0,0,0,0,0,0,0,0
578597970,643639508,574201369,773415514,704194204,0,0,0,0,0,0,0,0,0,0,0,0,0,0,0,0,0,0,0,0,0
712816349,576312382,641308524,773413275,569973962,702079481,0,0,0,0,0,0,0,0,0,0,0,0,0,0,0,0,0,0,0,0
578553235,576487140,574244624,572131897,570019938,702124939,565794740,630790877,628289758,0,0,0,0,0,0,0,0,0,0,0,0,0,0,0,0,0
578571734,576373338,574278299,572183262,0,0,0,0,0,0,0,0,0,0,0,0,0,0,0,0,0,0,0,0,0,0
578108754,576000431,573898206,638713876,569513539,634531185,565330848,630348238,561147901,0,0,0,0,0,0,0,0,0,0,0,0,0,0,0,0,0
578148146,576032404,573926085,706037238,569493295,567405408,766643344,563229122,561140980,0,0,0,0,0,0,0,0,0,0,0,0,0,0,0,0,0
577621052,575533983,573441488,571008773,568906551,566804584,564702106,562600139,560498172,0,0,0,0,0,0,0,0,0,0,0,0,0,0,0,0,0
644718127,709747392,640220938,571006035,568900251,633903076,0,0,0,0,0,0,0,0,0,0,0,0,0,0,0,0,0,0,0,0
641991365,572787444,570610474,568511322,566412169,564313016,562213606,0,0,0,0,0,0,0,0,0,0,0,0,0,0,0,0,0,0,0
574884068,572708875,570610474,568512072,566413671,564315270,562216868,560118467,558019810,555920383,0,0,0,0,0,0,0,0,0,0,0,0,0,0,0,0
574985555,707096461,570772167,568443657,566356034,564267643,562180276,627201517,0,0,0,0,0,0,0,0,0,0,0,0,0,0,0,0,0,0
708873820,572583307,704727224,568436965,565718000,0,0,0,0,0,0,0,0,0,0,0,0,0,0,0,0,0,0,0,0,0
643746176,641647310,572015391,569920108,567824825,0,0,0,0,0,0,0,0,0,0,0,0,0,0,0,0,0,0,0,0,0
643480588,775584816,572144723,704249206,635027098,565804479,563690979,561181118,626184190,0,0,0,0,0,0,0,0,0,0,0,0,0,0,0,0,0
710302392,641074171,571554890,703697550,701622994,0,0,0,0,0,0,0,0,0,0,0,0,0,0,0,0,0,0,0,0,0
710302392,707847941,571554890,703697550,701622994,0,0,0,0,0,0,0,0,0,0,0,0,0,0,0,0,0,0,0,0,0
643222458,641098750,705753421,703682706,701612756,0,0,0,0,0,0,0,0,0,0,0,0,0,0,0,0,0,0,0,0,0
643222458,707823624,705753421,703682706,701612756,0,0,0,0,0,0,0,0,0,0,0,0,0,0,0,0,0,0,0,0,0
776785515,573375397,571292638,703172379,566843476,631841165,562621895,0,0,0,0,0,0,0,0,0,0,0,0,0,0,0,0,0,0,0
572797496,570700905,635713178,566507724,564411133,629320246,627222631,692233624,623027145,620929530,0,0,0,0,0,0,0,0,0,0,0,0,0,0,0,0
640047887,637933146,702928296,633704945,0,0,0,0,0,0,0,0,0,0,0,0,0,0,0,0,0,0,0,0,0,0
707161352,772153941,568711843,633704945,0,0,0,0,0,0,0,0,0,0,0,0,0,0,0,0,0,0,0,0,0,0
775870502,572445290,637455276,568247791,565723189,630736758,628641464,559437306,0,0,0,0,0,0,0,0,0,0,0,0,0,0,0,0,0,0
640967696,638870083,569663350,567565737,565467867,563253014,561156424,626168698,556963245,621975775,0,0,0,0,0,0,0,0,0,0,0,0,0,0,0,0
574018820,639010122,569783953,567667417,766594857,563191920,561115064,559037439,0,0,0,0,0,0,0,0,0,0,0,0,0,0,0,0,0,0
641128197,571902284,704002963,768995545,565266217,630297967,762438325,693251578,0,0,0,0,0,0,0,0,0,0,0,0,0,0,0,0,0,0
639552778,637452954,567822378,632837050,0,0,0,0,0,0,0,0,0,0,0,0,0,0,0,0,0,0,0,0,0,0
572184616,704265331,702129342,766700726,0,0,0,0,0,0,0,0,0,0,0,0,0,0,0,0,0,0,0,0,0,0
706048819,569723264,634724301,766636836,630332273,762463678,0,0,0,0,0,0,0,0,0,0,0,0,0,0,0,0,0,0,0,0
638508813,636407217,700990292,564680186,0,0,0,0,0,0,0,0,0,0,0,0,0,0,0,0,0,0,0,0,0,0
638507790,636406706,700990292,564680186,0,0,0,0,0,0,0,0,0,0,0,0,0,0,0,0,0,0,0,0,0,0
568678678,633678965,631570389,562173505,560088226,0,0,0,0,0,0,0,0,0,0,0,0,0,0,0,0,0,0,0,0,0
636796701,567585915,766810328,630350400,628258205,693274875,0,0,0,0,0,0,0,0,0,0,0,0,0,0,0,0,0,0,0,0
703599228,768638881,565243079,697390572,560473263,0,0,0,0,0,0,0,0,0,0,0,0,0,0,0,0,0,0,0,0,0
636405566,634307224,565099507,629688910,560484777,0,0,0,0,0,0,0,0,0,0,0,0,0,0,0,0,0,0,0,0,0
566598198,564482221,696378416,627190950,0,0,0,0,0,0,0,0,0,0,0,0,0,0,0,0,0,0,0,0,0,0
567557635,565461359,563364827,628269395,626172095,0,0,0,0,0,0,0,0,0,0,0,0,0,0,0,0,0,0,0,0,0
634745360,565524355,563211521,561128819,693264357,0,0,0,0,0,0,0,0,0,0,0,0,0,0,0,0,0,0,0,0,0
701868426,632644836,630311753,628231843,626152701,0,0,0,0,0,0,0,0,0,0,0,0,0,0,0,0,0,0,0,0,0
567652503,565538537,764525892,561119126,693255911,0,0,0,0,0,0,0,0,0,0,0,0,0,0,0,0,0,0,0,0,0
567130405,766371990,562621448,560512122,558403052,0,0,0,0,0,0,0,0,0,0,0,0,0,0,0,0,0,0,0,0,0
634199069,632122255,763971330,694745973,759737575,0,0,0,0,0,0,0,0,0,0,0,0,0,0,0,0,0,0,0,0,0
564146048,696307131,627141364,626528366,0,0,0,0,0,0,0,0,0,0,0,0,0,0,0,0,0,0,0,0,0,0
698361224,562088383,627141364,626528366,0,0,0,0,0,0,0,0,0,0,0,0,0,0,0,0,0,0,0,0,0,0
633231365,631138443,561547280,626555029,0,0,0,0,0,0,0,0,0,0,0,0,0,0,0,0,0,0,0,0,0,0
700116652,563760855,628290832,760400307,0,0,0,0,0,0,0,0,0,0,0,0,0,0,0,0,0,0,0,0,0,0
766319391,764251071,761858908,759734524,756598477,754529329,752702342,0,0,0,0,0,0,0,0,0,0,0,0,0,0,0,0,0,0,0
695780084,626602364,557668089,689760384,687634182,0,0,0,0,0,0,0,0,0,0,0,0,0,0,0,0,0,0,0,0,0
762451965,760318616,758185268,756445647,0,0,0,0,0,0,0,0,0,0,0,0,0,0,0,0,0,0,0,0,0,0
694729650,692649527,623754671,688748853,0,0,0,0,0,0,0,0,0,0,0,0,0,0,0,0,0,0,0,0,0,0
558038772,556330966,554244014,753484166,617180254,615094070,747432118,543975487,541867287,0,0,0,0,0,0,0,0,0,0,0,0,0,0,0,0,0
559436757,624446605,555238981,553566452,551471020,750701923,0,0,0,0,0,0,0,0,0,0,0,0,0,0,0,0,0,0,0,0
626922317,557724094,555266608,620270753,0,0,0,0,0,0,0,0,0,0,0,0,0,0,0,0,0,0,0,0,0,0
693713654,557430466,689582222,553299802,0,0,0,0,0,0,0,0,0,0,0,0,0,0,0,0,0,0,0,0,0,0
555898848,553796540,618802839,549591667,547489103,612702942,543512690,675638350,539328810,738563333,0,0,0,0,0,0,0,0,0,0,0,0,0,0,0,0
555890162,620894163,685898677,549576342,748797558,545350424,543546805,541457557,539367286,537277782,0,0,0,0,0,0,0,0,0,0,0,0,0,0,0,0
557328855,689444520,551658743,549549541,614549458,612417436,543176551,541067861,0,0,0,0,0,0,0,0,0,0,0,0,0,0,0,0,0,0
624450021,555243196,553145491,551047786,548950080,547272380,612285759,543080214,0,0,0,0,0,0,0,0,0,0,0,0,0,0,0,0,0,0
556958417,554858914,552759411,550659908,682777877,546612099,0,0,0,0,0,0,0,0,0,0,0,0,0,0,0,0,0,0,0,0
556316656,621334992,552135857,617153681,682172018,545877780,544030382,541926287,539822447,537719120,0,0,0,0,0,0,0,0,0,0,0,0,0,0,0,0
755157484,618850464,550068468,547990742,545951355,0,0,0,0,0,0,0,0,0,0,0,0,0,0,0,0,0,0,0,0,0
553827569,618844583,549643870,614660884,545946047,0,0,0,0,0,0,0,0,0,0,0,0,0,0,0,0,0,0,0,0,0
553808632,551708897,549609418,614618547,0,0,0,0,0,0,0,0,0,0,0,0,0,0,0,0,0,0,0,0,0,0
553804281,551696309,549588593,614590252,746944861,0,0,0,0,0,0,0,0,0,0,0,0,0,0,0,0,0,0,0,0,0
553798143,551696106,549594069,614600895,545380736,543268929,541166892,539064855,536962818,0,0,0,0,0,0,0,0,0,0,0,0,0,0,0,0,0
620895181,752993642,549547271,547736995,0,0,0,0,0,0,0,0,0,0,0,0,0,0,0,0,0,0,0,0,0,0
755095732,752963648,751178700,749116248,0,0,0,0,0,0,0,0,0,0,0,0,0,0,0,0,0,0,0,0,0,0
689075956,552758745,550659007,615668132,546454613,544349958,542429415,540334796,538240178,0,0,0,0,0,0,0,0,0,0,0,0,0,0,0,0,0
756164315,754036311,617983187,750134095,0,0,0,0,0,0,0,0,0,0,0,0,0,0,0,0,0,0,0,0,0,0
756154824,552690480,685119898,750173186,0,0,0,0,0,0,0,0,0,0,0,0,0,0,0,0,0,0,0,0,0,0
688396285,552077287,550640891,682755819,546425274,544311433,542208633,607214696,538003288,0,0,0,0,0,0,0,0,0,0,0,0,0,0,0,0,0
621305586,552099496,617111133,547905043,613327145,0,0,0,0,0,0,0,0,0,0,0,0,0,0,0,0,0,0,0,0,0
554206924,552119870,617490594,615383060,0,0,0,0,0,0,0,0,0,0,0,0,0,0,0,0,0,0,0,0,0,0
753065668,616758906,682197981,680157055,0,0,0,0,0,0,0,0,0,0,0,0,0,0,0,0,0,0,0,0,0,0
753065668,684276221,682197981,680157055,0,0,0,0,0,0,0,0,0,0,0,0,0,0,0,0,0,0,0,0,0,0
551721435,616732582,547526002,545544146,543448627,0,0,0,0,0,0,0,0,0,0,0,0,0,0,0,0,0,0,0,0,0
551713523,549611968,547510923,545569258,610592587,608499479,0,0,0,0,0,0,0,0,0,0,0,0,0,0,0,0,0,0,0,0
685907933,683795871,681683041,612758435,0,0,0,0,0,0,0,0,0,0,0,0,0,0,0,0,0,0,0,0,0,0
551690745,549587687,547485397,545370782,543255912,541152854,606158659,536946993,0,0,0,0,0,0,0,0,0,0,0,0,0,0,0,0,0,0
553156063,618172556,548971322,547234361,0,0,0,0,0,0,0,0,0,0,0,0,0,0,0,0,0,0,0,0,0,0
620270546,618180744,616090941,681434704,0,0,0,0,0,0,0,0,0,0,0,0,0,0,0,0,0,0,0,0,0,0
553161461,551072945,548984173,614320022,0,0,0,0,0,0,0,0,0,0,0,0,0,0,0,0,0,0,0,0,0,0
754495982,618194854,683219039,547178110,0,0,0,0,0,0,0,0,0,0,0,0,0,0,0,0,0,0,0,0,0,0
619902633,551118040,683261611,547015204,0,0,0,0,0,0,0,0,0,0,0,0,0,0,0,0,0,0,0,0,0,0
552782045,752018316,683243772,681207977,0,0,0,0,0,0,0,0,0,0,0,0,0,0,0,0,0,0,0,0,0,0
552769266,617780956,615683783,546477701,544380992,542284330,540187412,605309688,0,0,0,0,0,0,0,0,0,0,0,0,0,0,0,0,0,0
552745983,550643692,548541401,546429088,611424872,542213462,540110915,538008368,0,0,0,0,0,0,0,0,0,0,0,0,0,0,0,0,0,0
552109051,617122536,547918038,545826208,610842985,608747607,539543366,537447988,0,0,0,0,0,0,0,0,0,0,0,0,0,0,0,0,0,0
549646837,547939057,545864105,543789921,608809289,539610930,537521434,0,0,0,0,0,0,0,0,0,0,0,0,0,0,0,0,0,0,0
549642741,547550679,545864651,543791505,541702270,539613035,671741527,0,0,0,0,0,0,0,0,0,0,0,0,0,0,0,0,0,0,0
549629432,547533275,545439620,543345709,675467280,539234799,537136594,0,0,0,0,0,0,0,0,0,0,0,0,0,0,0,0,0,0,0
549614841,547516138,679631547,543311757,541213054,539114094,537015391,0,0,0,0,0,0,0,0,0,0,0,0,0,0,0,0,0,0,0
618156006,548948414,546846534,679402439,543089312,540993912,538898513,0,0,0,0,0,0,0,0,0,0,0,0,0,0,0,0,0,0,0
550683123,548589514,546502991,544858583,542771145,540684475,538597805,0,0,0,0,0,0,0,0,0,0,0,0,0,0,0,0,0,0,0
550635745,548524465,546382626,678849423,676767071,741793583,0,0,0,0,0,0,0,0,0,0,0,0,0,0,0,0,0,0,0,0
549981669,548541437,613527220,544294508,542188372,540082236,672194596,0,0,0,0,0,0,0,0,0,0,0,0,0,0,0,0,0,0,0
617098984,547889351,546419960,611405773,542191039,540085169,605088930,0,0,0,0,0,0,0,0,0,0,0,0,0,0,0,0,0,0,0
550003951,547907279,545811056,543714833,542019818,539922378,604933802,0,0,0,0,0,0,0,0,0,0,0,0,0,0,0,0,0,0,0
614640633,545437104,543342694,541246285,539150132,537053980,0,0,0,0,0,0,0,0,0,0,0,0,0,0,0,0,0,0,0,0
547514805,679625795,610584012,608489894,606395776,537192794,0,0,0,0,0,0,0,0,0,0,0,0,0,0,0,0,0,0,0,0
548943349,546837670,677480682,541159134,539055059,536950985,0,0,0,0,0,0,0,0,0,0,0,0,0,0,0,0,0,0,0,0
548943349,546837668,677480682,541159134,539055059,536950985,0,0,0,0,0,0,0,0,0,0,0,0,0,0,0,0,0,0,0,0
548566783,613574103,544363952,542265250,540166805,538068104,0,0,0,0,0,0,0,0,0,0,0,0,0,0,0,0,0,0,0,0
548563188,546460358,544357786,542259083,540160124,538061421,0,0,0,0,0,0,0,0,0,0,0,0,0,0,0,0,0,0,0,0
547900659,545800614,543700057,541601856,539503911,0,0,0,0,0,0,0,0,0,0,0,0,0,0,0,0,0,0,0,0,0
547914156,545822515,544100787,542001803,539902563,604912443,0,0,0,0,0,0,0,0,0,0,0,0,0,0,0,0,0,0,0,0
545439484,543344608,541248214,539151821,671273156,0,0,0,0,0,0,0,0,0,0,0,0,0,0,0,0,0,0,0,0,0
545430011,543332561,541235139,606246837,537040552,0,0,0,0,0,0,0,0,0,0,0,0,0,0,0,0,0,0,0,0,0
545413199,610567648,541360829,606371737,537164918,0,0,0,0,0,0,0,0,0,0,0,0,0,0,0,0,0,0,0,0,0
612531952,543322563,541224371,539126180,537027989,0,0,0,0,0,0,0,0,0,0,0,0,0,0,0,0,0,0,0,0,0
545406272,543477445,742711197,606400883,537199177,0,0,0,0,0,0,0,0,0,0,0,0,0,0,0,0,0,0,0,0,0
545414607,543310742,541211267,539111792,537012316,0,0,0,0,0,0,0,0,0,0,0,0,0,0,0,0,0,0,0,0,0
545350427,610655418,541457308,539367037,537277790,0,0,0,0,0,0,0,0,0,0,0,0,0,0,0,0,0,0,0,0,0
545396470,543279273,541175184,539071094,604075868,0,0,0,0,0,0,0,0,0,0,0,0,0,0,0,0,0,0,0,0,0
546856180,544758468,542661044,540563620,538466197,0,0,0,0,0,0,0,0,0,0,0,0,0,0,0,0,0,0,0,0,0
546856445,544758939,542661754,540564314,538466873,0,0,0,0,0,0,0,0,0,0,0,0,0,0,0,0,0,0,0,0,0
546863594,611878072,542673064,674794391,538480519,0,0,0,0,0,0,0,0,0,0,0,0,0,0,0,0,0,0,0,0,0
613977022,544775547,676897637,540584527,605597752,0,0,0,0,0,0,0,0,0,0,0,0,0,0,0,0,0,0,0,0,0
614310377,545077343,610078768,742188800,0,0,0,0,0,0,0,0,0,0,0,0,0,0,0,0,0,0,0,0,0,0
546877937,544787151,542692036,674814649,672719534,0,0,0,0,0,0,0,0,0,0,0,0,0,0,0,0,0,0,0,0,0
546466152,544364575,542266119,540317929,538222032,0,0,0,0,0,0,0,0,0,0,0,0,0,0,0,0,0,0,0,0,0
546465899,544364582,542266127,540318195,538222298,0,0,0,0,0,0,0,0,0,0,0,0,0,0,0,0,0,0,0,0,0
546467298,544366525,542268081,540169637,538071448,0,0,0,0,0,0,0,0,0,0,0,0,0,0,0,0,0,0,0,0,0
546447864,544341978,542241744,540141254,538041020,0,0,0,0,0,0,0,0,0,0,0,0,0,0,0,0,0,0,0,0,0
545792979,543689628,541590409,540132348,538030324,0,0,0,0,0,0,0,0,0,0,0,0,0,0,0,0,0,0,0,0,0
545806841,543709137,541611716,539514295,537417130,0,0,0,0,0,0,0,0,0,0,0,0,0,0,0,0,0,0,0,0,0
612917478,543711416,541614248,539517081,537419912,0,0,0,0,0,0,0,0,0,0,0,0,0,0,0,0,0,0,0,0,0
612933279,678308080,609097401,539886722,537785675,0,0,0,0,0,0,0,0,0,0,0,0,0,0,0,0,0,0,0,0,0
544747756,542649827,540551642,538453713,0,0,0,0,0,0,0,0,0,0,0,0,0,0,0,0,0,0,0,0,0,0
678624511,542688755,540594153,538499295,0,0,0,0,0,0,0,0,0,0,0,0,0,0,0,0,0,0,0,0,0,0
544392173,676513506,607308502,538103499,0,0,0,0,0,0,0,0,0,0,0,0,0,0,0,0,0,0,0,0,0,0
544396214,542301594,674424190,538111585,0,0,0,0,0,0,0,0,0,0,0,0,0,0,0,0,0,0,0,0,0,0
678603486,542289353,540192692,538096031,0,0,0,0,0,0,0,0,0,0,0,0,0,0,0,0,0,0,0,0,0,0
544383985,542287079,540190172,538093009,0,0,0,0,0,0,0,0,0,0,0,0,0,0,0,0,0,0,0,0,0,0
544379712,542282537,540184850,605312757,0,0,0,0,0,0,0,0,0,0,0,0,0,0,0,0,0,0,0,0,0,0
543717622,541620975,539524327,537427680,0,0,0,0,0,0,0,0,0,0,0,0,0,0,0,0,0,0,0,0,0,0
543731125,608746138,606652032,537449318,0,0,0,0,0,0,0,0,0,0,0,0,0,0,0,0,0,0,0,0,0,0
543732953,541639109,606654128,537451420,0,0,0,0,0,0,0,0,0,0,0,0,0,0,0,0,0,0,0,0,0,0
610846402,675862187,539551635,537458555,0,0,0,0,0,0,0,0,0,0,0,0,0,0,0,0,0,0,0,0,0,0
677962173,541652645,539559820,604576627,0,0,0,0,0,0,0,0,0,0,0,0,0,0,0,0,0,0,0,0,0,0
589482480,587384568,585286655,0,0,0,0,0,0,0,0,0,0,0,0,0,0,0,0,0,0,0,0,0,0,0
589860582,587762416,585664249,0,0,0,0,0,0,0,0,0,0,0,0,0,0,0,0,0,0,0,0,0,0,0
585381692,583284346,715305729,0,0,0,0,0,0,0,0,0,0,0,0,0,0,0,0,0,0,0,0,0,0,0
582879842,580788173,645452065,0,0,0,0,0,0,0,0,0,0,0,0,0,0,0,0,0,0,0,0,0,0,0
578945019,578292698,576197875,0,0,0,0,0,0,0,0,0,0,0,0,0,0,0,0,0,0,0,0,0,0,0
770009703,767684659,765615600,0,0,0,0,0,0,0,0,0,0,0,0,0,0,0,0,0,0,0,0,0,0,0
704045759,701556046,766622160,0,0,0,0,0,0,0,0,0,0,0,0,0,0,0,0,0,0,0,0,0,0,0
703611564,701564390,766000096,0,0,0,0,0,0,0,0,0,0,0,0,0,0,0,0,0,0,0,0,0,0,0
764188851,761898070,759748859,0,0,0,0,0,0,0,0,0,0,0,0,0,0,0,0,0,0,0,0,0,0,0
764153050,627710555,759773660,0,0,0,0,0,0,0,0,0,0,0,0,0,0,0,0,0,0,0,0,0,0,0
764036751,761891548,625134070,0,0,0,0,0,0,0,0,0,0,0,0,0,0,0,0,0,0,0,0,0,0,0
696944503,694792656,625134826,0,0,0,0,0,0,0,0,0,0,0,0,0,0,0,0,0,0,0,0,0,0,0
629444170,627209253,625119217,0,0,0,0,0,0,0,0,0,0,0,0,0,0,0,0,0,0,0,0,0,0,0
697648921,762642364,760361583,0,0,0,0,0,0,0,0,0,0,0,0,0,0,0,0,0,0,0,0,0,0,0
764869540,762362924,693207464,0,0,0,0,0,0,0,0,0,0,0,0,0,0,0,0,0,0,0,0,0,0,0
630111893,560482862,558388422,0,0,0,0,0,0,0,0,0,0,0,0,0,0,0,0,0,0,0,0,0,0,0
630107904,628009676,625498771,0,0,0,0,0,0,0,0,0,0,0,0,0,0,0,0,0,0,0,0,0,0,0
630077061,627615265,625509056,0,0,0,0,0,0,0,0,0,0,0,0,0,0,0,0,0,0,0,0,0,0,0
762879922,626922209,624806945,0,0,0,0,0,0,0,0,0,0,0,0,0,0,0,0,0,0,0,0,0,0,0
762909398,626647860,624706948,0,0,0,0,0,0,0,0,0,0,0,0,0,0,0,0,0,0,0,0,0,0,0
628250010,760535503,624239360,0,0,0,0,0,0,0,0,0,0,0,0,0,0,0,0,0,0,0,0,0,0,0
628252103,559028775,557124234,0,0,0,0,0,0,0,0,0,0,0,0,0,0,0,0,0,0,0,0,0,0,0
693997159,691610145,756602077,0,0,0,0,0,0,0,0,0,0,0,0,0,0,0,0,0,0,0,0,0,0,0
757260538,755599249,619337987,0,0,0,0,0,0,0,0,0,0,0,0,0,0,0,0,0,0,0,0,0,0,0
690760382,755632454,753481679,0,0,0,0,0,0,0,0,0,0,0,0,0,0,0,0,0,0,0,0,0,0,0
691830183,756673572,620318112,0,0,0,0,0,0,0,0,0,0,0,0,0,0,0,0,0,0,0,0,0,0,0
757599222,554808730,620106965,0,0,0,0,0,0,0,0,0,0,0,0,0,0,0,0,0,0,0,0,0,0,0
691036084,688980707,552086961,0,0,0,0,0,0,0,0,0,0,0,0,0,0,0,0,0,0,0,0,0,0,0
755583629,686621931,550264663,0,0,0,0,0,0,0,0,0,0,0,0,0,0,0,0,0,0,0,0,0,0,0
620934578,618841661,616829128,0,0,0,0,0,0,0,0,0,0,0,0,0,0,0,0,0,0,0,0,0,0,0
620910203,618970851,751103562,0,0,0,0,0,0,0,0,0,0,0,0,0,0,0,0,0,0,0,0,0,0,0
756607939,754549019,618454885,0,0,0,0,0,0,0,0,0,0,0,0,0,0,0,0,0,0,0,0,0,0,0
756827120,620363623,685323998,0,0,0,0,0,0,0,0,0,0,0,0,0,0,0,0,0,0,0,0,0,0,0
554884308,687457973,551203654,0,0,0,0,0,0,0,0,0,0,0,0,0,0,0,0,0,0,0,0,0,0,0
555024506,552739617,550657981,0,0,0,0,0,0,0,0,0,0,0,0,0,0,0,0,0,0,0,0,0,0,0
621301436,552091167,550425460,0,0,0,0,0,0,0,0,0,0,0,0,0,0,0,0,0,0,0,0,0,0,0
618841661,616829643,547619418,0,0,0,0,0,0,0,0,0,0,0,0,0,0,0,0,0,0,0,0,0,0,0
553573066,551478650,616493097,0,0,0,0,0,0,0,0,0,0,0,0,0,0,0,0,0,0,0,0,0,0,0
553166325,551078334,616099721,0,0,0,0,0,0,0,0,0,0,0,0,0,0,0,0,0,0,0,0,0,0,0
619873408,752120310,615809643,0,0,0,0,0,0,0,0,0,0,0,0,0,0,0,0,0,0,0,0,0,0,0
754028668,752220655,683058273,0,0,0,0,0,0,0,0,0,0,0,0,0,0,0,0,0,0,0,0,0,0,0
548945090,546844031,544743228,0,0,0,0,0,0,0,0,0,0,0,0,0,0,0,0,0,0,0,0,0,0,0
612499026,744845162,608542238,0,0,0,0,0,0,0,0,0,0,0,0,0,0,0,0,0,0,0,0,0,0,0
544798059,542670232,674759877,0,0,0,0,0,0,0,0,0,0,0,0,0,0,0,0,0,0,0,0,0,0,0
541250800,539155426,537060307,0,0,0,0,0,0,0,0,0,0,0,0,0,0,0,0,0,0,0,0,0,0,0
675462139,539148020,537051373,0,0,0,0,0,0,0,0,0,0,0,0,0,0,0,0,0,0,0,0,0,0,0
541223678,606234101,537027053,0,0,0,0,0,0,0,0,0,0,0,0,0,0,0,0,0,0,0,0,0,0,0
542302455,540206830,538111205,0,0,0,0,0,0,0,0,0,0,0,0,0,0,0,0,0,0,0,0,0,0,0
744061317,540671905,672826300,0,0,0,0,0,0,0,0,0,0,0,0,0,0,0,0,0,0,0,0,0,0,0
542287099,540189938,538093033,0,0,0,0,0,0,0,0,0,0,0,0,0,0,0,0,0,0,0,0,0,0,0
542280701,540183286,538086128,0,0,0,0,0,0,0,0,0,0,0,0,0,0,0,0,0,0,0,0,0,0,0
