0,1,2,3,4,5,6,7,8,9,10,11,12,13,14,15,16,17,18,19,20,21,22,23,24,25
589904273,654911393,585700531,583598787,581492965,0,0,0,0,0,0,0,0,0,0,0,0,0,0,0,0,0,0,0,0,0
589908364,587806109,585703854,583601343,581495009,579007994,0,0,0,0,0,0,0,0,0,0,0,0,0,0,0,0,0,0,0,0
724101098,587783667,585301481,583202035,0,0,0,0,0,0,0,0,0,0,0,0,0,0,0,0,0,0,0,0,0,0
589492702,587394024,585295345,583196411,0,0,0,0,0,0,0,0,0,0,0,0,0,0,0,0,0,0,0,0,0,0
589484203,587386294,585288386,583190221,648200163,578992634,0,0,0,0,0,0,0,0,0,0,0,0,0,0,0,0,0,0,0,0
589941236,587836413,585298732,650308170,581097863,578996419,644005104,0,0,0,0,0,0,0,0,0,0,0,0,0,0,0,0,0,0,0
589941236,721615630,585298732,650308170,581097863,578996419,644005104,0,0,0,0,0,0,0,0,0,0,0,0,0,0,0,0,0,0,0
589484109,587387493,786617212,583194004,0,0,0,0,0,0,0,0,0,0,0,0,0,0,0,0,0,0,0,0,0,0
589475113,587377467,719497806,583182944,581085573,646096810,576890568,574793180,572695781,570598639,568501241,0,0,0,0,0,0,0,0,0,0,0,0,0,0,0
589583414,587486039,585388665,583291547,581193950,646092584,576887131,574790013,572692878,570595999,769825455,566401728,564304849,562207713,560110578,0,0,0,0,0,0,0,0,0,0,0
589463350,587366729,585270108,583173487,581077396,576884950,641897193,572691443,704812028,0,0,0,0,0,0,0,0,0,0,0,0,0,0,0,0,0
723822710,587506580,585407921,583309263,648174096,578971212,576876408,574780821,572684452,570588083,568491713,700612816,564298719,696420078,560105981,0,0,0,0,0,0,0,0,0,0,0
589452868,654466139,585261683,717383562,581071801,578977767,0,0,0,0,0,0,0,0,0,0,0,0,0,0,0,0,0,0,0,0
723667041,721571447,786584715,717380256,581069258,578975731,0,0,0,0,0,0,0,0,0,0,0,0,0,0,0,0,0,0,0,0
589452176,587356574,585260972,583165115,581070553,578975734,0,0,0,0,0,0,0,0,0,0,0,0,0,0,0,0,0,0,0,0
589637063,587535845,786555145,583135784,581046372,578957984,576867277,574774507,0,0,0,0,0,0,0,0,0,0,0,0,0,0,0,0,0,0
589666330,587563838,585461601,583359108,581251531,578936600,576847437,574754928,572660609,570566035,568471460,566377142,564282567,562188249,627202538,0,0,0,0,0,0,0,0,0,0,0
589445345,587350250,585255155,583159804,0,0,0,0,0,0,0,0,0,0,0,0,0,0,0,0,0,0,0,0,0,0
589685374,721798050,585475270,717587945,0,0,0,0,0,0,0,0,0,0,0,0,0,0,0,0,0,0,0,0,0,0
656500035,587299157,585206887,717332345,581027484,578940607,576850137,574758122,572663538,704786427,704119283,567806716,0,0,0,0,0,0,0,0,0,0,0,0,0,0
589392721,587301477,585210233,717336717,648142773,578947806,576859644,576196093,0,0,0,0,0,0,0,0,0,0,0,0,0,0,0,0,0,0
589430996,587336414,652351207,583148017,582485492,0,0,0,0,0,0,0,0,0,0,0,0,0,0,0,0,0,0,0,0,0
589378873,587288655,585198437,784434810,581025190,578941906,576854515,576194284,574099962,0,0,0,0,0,0,0,0,0,0,0,0,0,0,0,0,0
589435898,588776153,653789667,584585710,0,0,0,0,0,0,0,0,0,0,0,0,0,0,0,0,0,0,0,0,0,0
723613599,587304621,585213115,583121865,648144869,647496137,578295531,0,0,0,0,0,0,0,0,0,0,0,0,0,0,0,0,0,0,0
589357149,587264362,585171062,717295746,580989850,0,0,0,0,0,0,0,0,0,0,0,0,0,0,0,0,0,0,0,0,0
589387191,587296451,585205711,583114972,581030644,580390073,712515294,576203767,0,0,0,0,0,0,0,0,0,0,0,0,0,0,0,0,0,0
590883297,588787178,586691059,584594940,0,0,0,0,0,0,0,0,0,0,0,0,0,0,0,0,0,0,0,0,0,0
589319833,587233960,652257207,583062727,648096485,578296438,710420643,641216441,572012240,569916903,567821310,0,0,0,0,0,0,0,0,0,0,0,0,0,0,0
590890403,588793520,586696381,584599497,582502625,580406007,0,0,0,0,0,0,0,0,0,0,0,0,0,0,0,0,0,0,0,0
591307403,589210279,587113155,585015775,582508060,580410964,578314110,576216986,574119848,572022710,569925572,567828434,565731296,563634158,561537020,0,0,0,0,0,0,0,0,0,0,0
590898132,588800734,586703592,584606450,0,0,0,0,0,0,0,0,0,0,0,0,0,0,0,0,0,0,0,0,0,0
590898986,588801856,586704471,584607341,582509977,580412869,578315750,576218365,0,0,0,0,0,0,0,0,0,0,0,0,0,0,0,0,0,0
590899812,588802422,586705032,584607642,582510015,580412387,578315007,0,0,0,0,0,0,0,0,0,0,0,0,0,0,0,0,0,0,0
590904802,588807402,586709745,584612089,0,0,0,0,0,0,0,0,0,0,0,0,0,0,0,0,0,0,0,0,0,0
590906835,588808926,586711016,584613106,0,0,0,0,0,0,0,0,0,0,0,0,0,0,0,0,0,0,0,0,0,0
590933096,588833148,586732945,584632996,582529995,580426995,0,0,0,0,0,0,0,0,0,0,0,0,0,0,0,0,0,0,0,0
590932862,588833166,586733214,584633519,649639887,580428528,0,0,0,0,0,0,0,0,0,0,0,0,0,0,0,0,0,0,0,0
658039187,588831136,586731693,584632505,649639887,0,0,0,0,0,0,0,0,0,0,0,0,0,0,0,0,0,0,0,0,0
590958620,588857648,586756420,584655448,582550401,647554985,578343112,576242140,574142950,572043760,569944826,0,0,0,0,0,0,0,0,0,0,0,0,0,0,0
590949236,588848261,586747030,584646567,783868361,647545835,0,0,0,0,0,0,0,0,0,0,0,0,0,0,0,0,0,0,0,0
658324179,589124589,586781708,718895909,649677399,580458634,578353071,576250567,574150866,572051165,569951464,567852019,699970046,0,0,0,0,0,0,0,0,0,0,0,0,0
658319087,588890635,721005089,584684343,649684322,580466574,578360495,576257989,574158287,572058074,569958117,567857904,565378805,0,0,0,0,0,0,0,0,0,0,0,0,0
590952856,655959976,586749113,584647369,582542056,580055550,0,0,0,0,0,0,0,0,0,0,0,0,0,0,0,0,0,0,0,0
590936027,588836323,586736875,584637426,582154227,0,0,0,0,0,0,0,0,0,0,0,0,0,0,0,0,0,0,0,0,0
658107966,588894548,586789993,584685438,582573480,580461522,578353903,575861984,640870895,571662335,0,0,0,0,0,0,0,0,0,0,0,0,0,0,0,0
590999908,588896627,586793090,584689553,716797359,580469965,578363364,576259827,573767359,571668171,703786712,567470052,565370864,563271932,0,0,0,0,0,0,0,0,0,0,0,0
591034908,588929328,653932611,584718167,582605182,580490918,578381251,643384534,574174176,572072938,569971444,567870206,565375431,563275736,561176296,559076601,0,0,0,0,0,0,0,0,0,0
590946542,588845814,586349493,584250308,582149089,580047614,0,0,0,0,0,0,0,0,0,0,0,0,0,0,0,0,0,0,0,0
658137961,588921979,586815117,584708767,716809666,580475110,577960090,575858369,573758932,571659495,569560059,0,0,0,0,0,0,0,0,0,0,0,0,0,0,0
590530879,588432980,586335081,584237182,582138281,580039635,645050098,0,0,0,0,0,0,0,0,0,0,0,0,0,0,0,0,0,0,0
590522771,588425632,586328237,718448570,582133460,580036077,0,0,0,0,0,0,0,0,0,0,0,0,0,0,0,0,0,0,0,0
590520982,588423844,720544178,584229312,582132188,580034808,0,0,0,0,0,0,0,0,0,0,0,0,0,0,0,0,0,0,0,0
590635049,588537425,586439801,584341922,716461299,580031820,577935240,642947761,573742023,638754012,569548274,0,0,0,0,0,0,0,0,0,0,0,0,0,0,0
590514196,588417580,586320708,584224092,582127756,580031676,645044192,575838457,0,0,0,0,0,0,0,0,0,0,0,0,0,0,0,0,0,0
590516439,588419553,653431530,584225780,0,0,0,0,0,0,0,0,0,0,0,0,0,0,0,0,0,0,0,0,0,0
590499088,588403496,586307903,584212054,649226884,580023731,645037526,575833070,573736698,0,0,0,0,0,0,0,0,0,0,0,0,0,0,0,0,0
590502519,588406664,720528536,584215209,582120651,580026094,0,0,0,0,0,0,0,0,0,0,0,0,0,0,0,0,0,0,0,0
590658519,655667955,586300438,584205618,582112874,580020131,645035213,575831530,573735416,0,0,0,0,0,0,0,0,0,0,0,0,0,0,0,0,0
590509023,588412647,787642606,584219638,0,0,0,0,0,0,0,0,0,0,0,0,0,0,0,0,0,0,0,0,0,0
657603169,588398705,586303104,584207503,582113453,580019403,577924578,575828977,573732601,0,0,0,0,0,0,0,0,0,0,0,0,0,0,0,0,0
590475574,588381516,586286946,584193144,582102692,580012240,577920240,0,0,0,0,0,0,0,0,0,0,0,0,0,0,0,0,0,0,0
590498280,588402415,586306550,584210685,0,0,0,0,0,0,0,0,0,0,0,0,0,0,0,0,0,0,0,0,0,0
791788319,588368438,586275148,651290466,582090897,0,0,0,0,0,0,0,0,0,0,0,0,0,0,0,0,0,0,0,0,0
590459692,588366657,653382487,584180334,582090909,580001485,0,0,0,0,0,0,0,0,0,0,0,0,0,0,0,0,0,0,0,0
590451773,588360272,653377636,584176249,582088867,580001485,577912301,0,0,0,0,0,0,0,0,0,0,0,0,0,0,0,0,0,0,0
657854864,588640946,586535123,718646773,649166398,579977858,577893812,575804630,573711846,571619063,0,0,0,0,0,0,0,0,0,0,0,0,0,0,0,0
590459532,588366233,586272934,718397363,582090446,580000232,577241842,0,0,0,0,0,0,0,0,0,0,0,0,0,0,0,0,0,0,0
590411321,588321361,586232169,584142978,582061745,579980253,577894911,0,0,0,0,0,0,0,0,0,0,0,0,0,0,0,0,0,0,0
590450149,655467245,586266358,584174335,581441203,579348699,577254906,0,0,0,0,0,0,0,0,0,0,0,0,0,0,0,0,0,0,0
590354280,588270973,720405136,584104100,582033355,579963123,577247648,709373141,707278576,0,0,0,0,0,0,0,0,0,0,0,0,0,0,0,0,0
724658677,587726912,585631830,583536748,581443994,579350727,577256425,0,0,0,0,0,0,0,0,0,0,0,0,0,0,0,0,0,0,0
724658677,588349436,585631830,583536748,581443994,579350727,577256425,0,0,0,0,0,0,0,0,0,0,0,0,0,0,0,0,0,0,0
590441983,587729733,585634396,583539058,715663007,646460620,644366062,0,0,0,0,0,0,0,0,0,0,0,0,0,0,0,0,0,0,0
590368480,588280808,586193391,584105975,581891016,577250898,575155832,573059723,570963614,568867505,566771396,564675287,562579178,560483069,0,0,0,0,0,0,0,0,0,0,0,0
590253738,588156874,586060266,583560464,581462864,579365009,577267393,642278881,0,0,0,0,0,0,0,0,0,0,0,0,0,0,0,0,0,0
589852496,587755108,585657465,583560077,581462198,0,0,0,0,0,0,0,0,0,0,0,0,0,0,0,0,0,0,0,0,0
589859555,587761644,585663733,583565823,0,0,0,0,0,0,0,0,0,0,0,0,0,0,0,0,0,0,0,0,0,0
589879310,721997858,585681207,583582283,581481332,579380637,577280700,575181520,573083355,570985445,568887279,566789114,0,0,0,0,0,0,0,0,0,0,0,0,0,0
590200037,587805190,585703714,583602238,581496949,579390893,577287126,575185650,0,0,0,0,0,0,0,0,0,0,0,0,0,0,0,0,0,0
589903174,587802456,585701738,583601020,581497248,579393220,577290719,575190001,573091066,0,0,0,0,0,0,0,0,0,0,0,0,0,0,0,0,0
587392768,652402975,583195456,581095040,578994110,576894189,0,0,0,0,0,0,0,0,0,0,0,0,0,0,0,0,0,0,0,0
587591459,585487432,583383149,581271735,578920457,576834113,574744166,572650617,570556556,568462750,566369200,564275651,562182358,560088809,557995259,0,0,0,0,0,0,0,0,0,0,0
587624724,585516609,583408494,581290183,713127208,576829035,574742936,572651438,570559172,568467419,566375921,0,0,0,0,0,0,0,0,0,0,0,0,0,0,0
588252095,586170320,718306272,582022397,579346482,577254539,575160518,573064932,0,0,0,0,0,0,0,0,0,0,0,0,0,0,0,0,0,0
722319104,653118000,583916898,581829059,579393577,577289074,575187107,573087419,570987987,635997163,0,0,0,0,0,0,0,0,0,0,0,0,0,0,0,0
588072964,585982771,583892579,581809603,646517032,577300849,642305185,573095610,570994642,770220266,0,0,0,0,0,0,0,0,0,0,0,0,0,0,0,0
652403216,583195694,648204392,713212835,576895695,574797036,572699131,0,0,0,0,0,0,0,0,0,0,0,0,0,0,0,0,0,0,0
585480221,717593671,581264796,579153649,643949111,574750306,572655992,570562445,568468899,566375352,564281806,696405731,560094457,0,0,0,0,0,0,0,0,0,0,0,0,0
654162730,584962400,649985740,580441917,645444751,576232901,574132960,572032763,0,0,0,0,0,0,0,0,0,0,0,0,0,0,0,0,0,0
586835185,651831482,783921740,714982870,712907650,0,0,0,0,0,0,0,0,0,0,0,0,0,0,0,0,0,0,0,0,0
586165754,583989036,581887398,579349797,577256577,575162046,573066205,570970364,0,0,0,0,0,0,0,0,0,0,0,0,0,0,0,0,0,0
583803283,581738219,713680968,577342345,575229109,573124043,571018721,568914423,566422507,0,0,0,0,0,0,0,0,0,0,0,0,0,0,0,0,0
650265497,581063613,578969823,576875511,0,0,0,0,0,0,0,0,0,0,0,0,0,0,0,0,0,0,0,0,0,0
583010118,580950918,578890949,576822003,576195467,572008917,637024506,0,0,0,0,0,0,0,0,0,0,0,0,0,0,0,0,0,0,0
651067680,581862518,646874828,577271314,575173694,573076307,570978921,703099263,701001876,564686762,562589376,560491733,558394091,0,0,0,0,0,0,0,0,0,0,0,0,0
583951627,581857399,579763171,577272888,575174510,573076617,570978724,568881087,566783194,564685301,0,0,0,0,0,0,0,0,0,0,0,0,0,0,0,0
583934730,581842275,579749820,577284612,575184944,573086534,570988124,703107442,566791560,564693150,562594741,560496331,558397921,623408375,0,0,0,0,0,0,0,0,0,0,0,0
583898406,716032403,713621764,577297750,575194252,707311272,570993091,568892638,566792185,0,0,0,0,0,0,0,0,0,0,0,0,0,0,0,0,0
581708596,646748825,577563878,575267102,573163063,638167888,568954730,566850435,564746141,696859574,560537549,692650723,623438583,0,0,0,0,0,0,0,0,0,0,0,0,0
581733344,713678926,711552413,575217875,640220653,570617830,0,0,0,0,0,0,0,0,0,0,0,0,0,0,0,0,0,0,0,0
581268836,579153372,576844093,574755449,572662935,704788149,568478163,633494512,0,0,0,0,0,0,0,0,0,0,0,0,0,0,0,0,0,0
580920509,578852314,710994671,574693629,574553061,0,0,0,0,0,0,0,0,0,0,0,0,0,0,0,0,0,0,0,0,0
715136447,578857449,578746548,777970939,0,0,0,0,0,0,0,0,0,0,0,0,0,0,0,0,0,0,0,0,0,0
580915919,578855921,578745777,777970939,572008778,0,0,0,0,0,0,0,0,0,0,0,0,0,0,0,0,0,0,0,0,0
582910038,580814798,578318892,576221032,574123398,572026020,569928386,634939615,767059453,0,0,0,0,0,0,0,0,0,0,0,0,0,0,0,0,0
582763255,580538681,712638310,576309892,574205587,572101538,569997489,567893184,565789135,561581293,693695997,556985312,554884090,0,0,0,0,0,0,0,0,0,0,0,0,0
582679848,580550242,712646286,710533547,708428218,773431752,570000087,567894758,632898292,563279256,695396024,559077592,556976888,0,0,0,0,0,0,0,0,0,0,0,0,0
649376875,647272177,577922654,575829409,573734083,571638756,0,0,0,0,0,0,0,0,0,0,0,0,0,0,0,0,0,0,0,0
582307627,647304355,578087934,642914626,707929953,571618943,636634269,567432124,565338586,630353912,0,0,0,0,0,0,0,0,0,0,0,0,0,0,0,0
648965455,579762372,577273376,642283610,573077112,570979221,568881330,566783439,564685548,0,0,0,0,0,0,0,0,0,0,0,0,0,0,0,0,0
579097214,576999661,574789696,572692837,570595978,769825455,566402005,631414010,0,0,0,0,0,0,0,0,0,0,0,0,0,0,0,0,0,0
579099410,577001360,709121251,572691221,637703230,635606376,633509778,564304061,562207207,0,0,0,0,0,0,0,0,0,0,0,0,0,0,0,0,0
579200018,577080721,709186276,572633622,704761663,568454505,566364306,698492604,562185702,0,0,0,0,0,0,0,0,0,0,0,0,0,0,0,0,0
713474477,577132270,574674976,773913397,570498124,568409699,566321274,564233106,562144938,560056770,557968602,555879410,555221210,553130236,0,0,0,0,0,0,0,0,0,0,0,0
579248370,576760628,708897882,572590702,570502017,568413332,566324648,564235963,562147278,560058594,557969909,557318588,555226333,553134334,0,0,0,0,0,0,0,0,0,0,0,0
578907323,576824023,574736106,572643571,570551037,569902254,567807424,565712850,630726884,628632310,0,0,0,0,0,0,0,0,0,0,0,0,0,0,0,0
578833059,576775883,708922089,773946613,569904254,567811243,565718742,0,0,0,0,0,0,0,0,0,0,0,0,0,0,0,0,0,0,0
578857452,578745308,576201540,574106998,639121575,569918425,0,0,0,0,0,0,0,0,0,0,0,0,0,0,0,0,0,0,0,0
580800344,645818088,643336780,574128765,572029613,569930717,0,0,0,0,0,0,0,0,0,0,0,0,0,0,0,0,0,0,0,0
580705059,779967170,576278576,775496805,639171738,704172240,0,0,0,0,0,0,0,0,0,0,0,0,0,0,0,0,0,0,0,0
580137317,645150676,575842855,573745229,638756467,636659097,567452608,699572455,0,0,0,0,0,0,0,0,0,0,0,0,0,0,0,0,0,0
580183845,578076576,575973109,640830759,571628114,636642940,567439784,565345492,0,0,0,0,0,0,0,0,0,0,0,0,0,0,0,0,0,0
580214625,578101203,575796008,573703502,571611764,636629146,634537408,565337063,0,0,0,0,0,0,0,0,0,0,0,0,0,0,0,0,0,0
579869438,577694530,575594629,573495975,571397577,569298923,564673076,562577238,560481401,558385308,623398078,554193121,0,0,0,0,0,0,0,0,0,0,0,0,0,0
579679830,577599153,575513069,573131279,705246253,568926027,633932393,698939272,562619046,560516548,558413794,0,0,0,0,0,0,0,0,0,0,0,0,0,0,0
577435040,642411462,707405274,705290989,568522526,633529187,564318377,562216174,0,0,0,0,0,0,0,0,0,0,0,0,0,0,0,0,0,0
711212921,574898897,639910909,570597938,568500574,566403210,564305846,696426210,0,0,0,0,0,0,0,0,0,0,0,0,0,0,0,0,0,0
577072244,574738180,639760455,570564235,568477646,0,0,0,0,0,0,0,0,0,0,0,0,0,0,0,0,0,0,0,0,0
577072244,574953979,639760455,570564235,568477646,0,0,0,0,0,0,0,0,0,0,0,0,0,0,0,0,0,0,0,0,0
577162726,708891220,706816647,637633978,702669039,567806406,0,0,0,0,0,0,0,0,0,0,0,0,0,0,0,0,0,0,0,0
645837067,643739250,574533030,572435418,569922833,567826245,565729401,764959149,561535970,0,0,0,0,0,0,0,0,0,0,0,0,0,0,0,0,0
645826924,576622286,574123778,572026163,569928547,567830932,767059652,563635445,0,0,0,0,0,0,0,0,0,0,0,0,0,0,0,0,0,0
712675836,643039922,708054781,638765649,569556636,567456231,0,0,0,0,0,0,0,0,0,0,0,0,0,0,0,0,0,0,0,0
712433826,576089326,573618204,571536194,636562280,567371407,632398517,630316507,694687471,0,0,0,0,0,0,0,0,0,0,0,0,0,0,0,0,0
644874642,575699128,707835082,571535836,569453294,566758206,564665465,562572724,627589103,0,0,0,0,0,0,0,0,0,0,0,0,0,0,0,0,0
577694558,575593159,573494011,570963251,568868200,566773149,631786705,0,0,0,0,0,0,0,0,0,0,0,0,0,0,0,0,0,0,0
577683797,575585431,640596664,571390170,703510011,566774817,564678210,629690467,560484997,558388390,556291784,621304041,0,0,0,0,0,0,0,0,0,0,0,0,0,0
711868748,575557529,573462463,571367141,568892175,566793269,631803227,562595458,627605416,558397647,623407861,0,0,0,0,0,0,0,0,0,0,0,0,0,0,0
778935065,709741700,573433273,571342318,703130918,633918811,631815568,562603206,560499963,0,0,0,0,0,0,0,0,0,0,0,0,0,0,0,0,0
577598800,709730458,573421247,571329508,568925965,566823474,564721495,562619004,560516257,558413766,0,0,0,0,0,0,0,0,0,0,0,0,0,0,0,0
574915888,572816246,637825468,568491281,566395994,631409313,629314025,0,0,0,0,0,0,0,0,0,0,0,0,0,0,0,0,0,0,0
574935332,639944270,570735226,568635560,700753109,631393801,562190388,560095838,558001287,555906480,620920535,0,0,0,0,0,0,0,0,0,0,0,0,0,0,0
642087584,639980506,771865373,568451671,633472656,564277449,0,0,0,0,0,0,0,0,0,0,0,0,0,0,0,0,0,0,0,0
575002406,572891759,704998840,568438539,633463636,564270238,562186727,0,0,0,0,0,0,0,0,0,0,0,0,0,0,0,0,0,0,0
576607568,641621903,572418255,704155154,567838034,632847505,630748113,0,0,0,0,0,0,0,0,0,0,0,0,0,0,0,0,0,0,0
576593976,574502297,639519994,637050460,702056125,0,0,0,0,0,0,0,0,0,0,0,0,0,0,0,0,0,0,0,0,0
710760714,775787379,639487964,569965127,769179312,0,0,0,0,0,0,0,0,0,0,0,0,0,0,0,0,0,0,0,0,0
576388716,574270345,639260838,570033604,567916001,565377371,563272622,0,0,0,0,0,0,0,0,0,0,0,0,0,0,0,0,0,0,0
575698943,640607423,570960677,568867976,768101611,0,0,0,0,0,0,0,0,0,0,0,0,0,0,0,0,0,0,0,0,0
642638420,573441464,638113565,568898691,633900521,0,0,0,0,0,0,0,0,0,0,0,0,0,0,0,0,0,0,0,0,0
573317434,571241600,703383494,633990157,698980691,696862617,560527582,0,0,0,0,0,0,0,0,0,0,0,0,0,0,0,0,0,0,0
640436379,638360542,568988964,566871399,564753066,562634733,0,0,0,0,0,0,0,0,0,0,0,0,0,0,0,0,0,0,0,0
573232170,571120454,703226210,566896765,564785817,562674101,694779857,692668141,555937710,553833703,0,0,0,0,0,0,0,0,0,0,0,0,0,0,0,0
639942943,637841268,635739593,633494569,631402110,562200788,0,0,0,0,0,0,0,0,0,0,0,0,0,0,0,0,0,0,0,0
572855298,637862455,568652653,633659554,564448728,562179351,627196236,557995138,690120376,553810158,0,0,0,0,0,0,0,0,0,0,0,0,0,0,0,0
639974927,570760794,568656036,633660142,631383362,696403085,560096471,0,0,0,0,0,0,0,0,0,0,0,0,0,0,0,0,0,0,0
574514972,639528013,570323327,769554096,566131682,563642135,561543752,693663097,557347242,555248859,0,0,0,0,0,0,0,0,0,0,0,0,0,0,0,0
641589594,706611401,637062712,702063527,0,0,0,0,0,0,0,0,0,0,0,0,0,0,0,0,0,0,0,0,0,0
574364765,706500237,637309116,702335467,565837852,630835017,561614198,626610850,691607503,756218846,0,0,0,0,0,0,0,0,0,0,0,0,0,0,0,0
573388570,638414448,636331463,701048096,564719991,629717709,0,0,0,0,0,0,0,0,0,0,0,0,0,0,0,0,0,0,0,0
572377906,570286183,702411933,767428307,563667981,561565507,559462777,624468910,622366437,0,0,0,0,0,0,0,0,0,0,0,0,0,0,0,0,0
706479725,704405936,568114675,565833272,697930107,561591742,559084772,0,0,0,0,0,0,0,0,0,0,0,0,0,0,0,0,0,0,0
571746413,636759215,567554546,565358910,764587136,561162435,0,0,0,0,0,0,0,0,0,0,0,0,0,0,0,0,0,0,0,0
569119170,701257967,564814368,696916302,761910396,692685995,690570200,553841345,0,0,0,0,0,0,0,0,0,0,0,0,0,0,0,0,0,0
568592512,566498257,564315948,629324668,627224780,0,0,0,0,0,0,0,0,0,0,0,0,0,0,0,0,0,0,0,0,0
635756817,633651342,631392279,763521172,0,0,0,0,0,0,0,0,0,0,0,0,0,0,0,0,0,0,0,0,0,0
635775817,633668771,564453629,629288801,627201723,0,0,0,0,0,0,0,0,0,0,0,0,0,0,0,0,0,0,0,0,0
570164841,568083864,566002630,698139125,695861798,559531860,557418881,555305903,553192924,550694635,0,0,0,0,0,0,0,0,0,0,0,0,0,0,0,0
703610547,567326420,565259253,562571670,0,0,0,0,0,0,0,0,0,0,0,0,0,0,0,0,0,0,0,0,0,0
767934561,765817544,763479355,761401506,0,0,0,0,0,0,0,0,0,0,0,0,0,0,0,0,0,0,0,0,0,0
634919230,565715035,563619703,561524372,559429040,557333709,555238377,0,0,0,0,0,0,0,0,0,0,0,0,0,0,0,0,0,0,0
567564872,632575430,630363474,628267473,0,0,0,0,0,0,0,0,0,0,0,0,0,0,0,0,0,0,0,0,0,0
701512946,565217535,563014061,762240248,558378823,623393938,554191326,0,0,0,0,0,0,0,0,0,0,0,0,0,0,0,0,0,0,0
701512946,565114465,563014061,762240248,558378823,623393938,554191326,0,0,0,0,0,0,0,0,0,0,0,0,0,0,0,0,0,0,0
633178398,631089246,629000350,694020063,557382690,622386274,553172131,551066851,0,0,0,0,0,0,0,0,0,0,0,0,0,0,0,0,0,0
632572230,630474943,695377221,760389054,0,0,0,0,0,0,0,0,0,0,0,0,0,0,0,0,0,0,0,0,0,0
565543429,630546247,561331337,626334154,556921365,554832727,619853464,550656474,0,0,0,0,0,0,0,0,0,0,0,0,0,0,0,0,0,0
562381596,627384681,558170294,555878157,553789786,551701672,616722421,0,0,0,0,0,0,0,0,0,0,0,0,0,0,0,0,0,0,0
698201936,561894802,626914003,557380632,555276122,553171354,618175450,680044983,544079078,541974179,539869280,537764381,0,0,0,0,0,0,0,0,0,0,0,0,0,0
764769350,561333148,626332401,758252625,554841767,552757245,0,0,0,0,0,0,0,0,0,0,0,0,0,0,0,0,0,0,0,0
563475460,628473932,559254933,557144029,554813234,552729725,617754823,0,0,0,0,0,0,0,0,0,0,0,0,0,0,0,0,0,0,0
562593265,694722164,625884651,623778671,0,0,0,0,0,0,0,0,0,0,0,0,0,0,0,0,0,0,0,0,0,0
562918155,627942233,558747304,556660470,554230854,619231636,0,0,0,0,0,0,0,0,0,0,0,0,0,0,0,0,0,0,0,0
560345380,625337980,690329813,553754424,618785935,750925543,0,0,0,0,0,0,0,0,0,0,0,0,0,0,0,0,0,0,0,0
695588904,760569964,758443439,689207284,0,0,0,0,0,0,0,0,0,0,0,0,0,0,0,0,0,0,0,0,0,0
627592900,558384499,556284705,554618566,619632500,550428707,0,0,0,0,0,0,0,0,0,0,0,0,0,0,0,0,0,0,0,0
560496537,558403632,623795644,621694035,0,0,0,0,0,0,0,0,0,0,0,0,0,0,0,0,0,0,0,0,0,0
560498360,625515103,623422983,554580901,619587404,0,0,0,0,0,0,0,0,0,0,0,0,0,0,0,0,0,0,0,0,0
558451912,690596747,554305358,552232211,0,0,0,0,0,0,0,0,0,0,0,0,0,0,0,0,0,0,0,0,0,0
558451912,556375700,554299489,686440238,550267123,682366145,0,0,0,0,0,0,0,0,0,0,0,0,0,0,0,0,0,0,0,0
625215467,623038030,620936614,551726591,0,0,0,0,0,0,0,0,0,0,0,0,0,0,0,0,0,0,0,0,0,0
759556369,690330494,621104873,685894241,683816397,0,0,0,0,0,0,0,0,0,0,0,0,0,0,0,0,0,0,0,0,0
626183275,624179964,756308879,552893219,0,0,0,0,0,0,0,0,0,0,0,0,0,0,0,0,0,0,0,0,0,0
625849426,623767763,554228307,686333650,0,0,0,0,0,0,0,0,0,0,0,0,0,0,0,0,0,0,0,0,0,0
623041209,688483318,552198091,617238431,682279540,0,0,0,0,0,0,0,0,0,0,0,0,0,0,0,0,0,0,0,0,0
555921845,620937022,618928840,616827986,0,0,0,0,0,0,0,0,0,0,0,0,0,0,0,0,0,0,0,0,0,0
757246181,553824914,551729983,616833770,614734231,0,0,0,0,0,0,0,0,0,0,0,0,0,0,0,0,0,0,0,0,0
690120397,620904806,551864831,616886168,547689011,0,0,0,0,0,0,0,0,0,0,0,0,0,0,0,0,0,0,0,0,0
690099926,755087220,752963856,684061868,749098824,0,0,0,0,0,0,0,0,0,0,0,0,0,0,0,0,0,0,0,0,0
689982870,687920067,551638768,551028559,548942804,0,0,0,0,0,0,0,0,0,0,0,0,0,0,0,0,0,0,0,0,0
691551731,555227000,685834201,549488307,748686221,0,0,0,0,0,0,0,0,0,0,0,0,0,0,0,0,0,0,0,0,0
691551731,687962367,685834201,549488307,748686221,0,0,0,0,0,0,0,0,0,0,0,0,0,0,0,0,0,0,0,0,0
624843314,555641249,553158927,618167164,616066539,0,0,0,0,0,0,0,0,0,0,0,0,0,0,0,0,0,0,0,0,0
624467708,622389644,754528284,685604513,549270320,0,0,0,0,0,0,0,0,0,0,0,0,0,0,0,0,0,0,0,0,0
557591730,689592584,687463772,752443056,682815456,0,0,0,0,0,0,0,0,0,0,0,0,0,0,0,0,0,0,0,0,0
758416022,554989554,552762456,617777075,0,0,0,0,0,0,0,0,0,0,0,0,0,0,0,0,0,0,0,0,0,0
758555603,756073772,619790203,751942602,0,0,0,0,0,0,0,0,0,0,0,0,0,0,0,0,0,0,0,0,0,0
556285676,621290904,552078405,550591739,682690786,680530583,0,0,0,0,0,0,0,0,0,0,0,0,0,0,0,0,0,0,0,0
556285371,554181444,619640769,550556664,682646493,0,0,0,0,0,0,0,0,0,0,0,0,0,0,0,0,0,0,0,0,0
623405270,621309555,619213840,617514147,615415105,0,0,0,0,0,0,0,0,0,0,0,0,0,0,0,0,0,0,0,0,0
623409901,554208668,552116298,550390766,548288668,0,0,0,0,0,0,0,0,0,0,0,0,0,0,0,0,0,0,0,0,0
556313059,554229641,753472047,617460682,548240496,0,0,0,0,0,0,0,0,0,0,0,0,0,0,0,0,0,0,0,0,0
556327868,755581253,552425411,617412940,0,0,0,0,0,0,0,0,0,0,0,0,0,0,0,0,0,0,0,0,0,0
553842157,552139489,550053309,547967896,545905962,543987891,541878927,673987690,537661252,0,0,0,0,0,0,0,0,0,0,0,0,0,0,0,0,0
688057307,686375632,550088078,749343820,0,0,0,0,0,0,0,0,0,0,0,0,0,0,0,0,0,0,0,0,0,0
553830339,618846339,549644868,614661124,680160202,0,0,0,0,0,0,0,0,0,0,0,0,0,0,0,0,0,0,0,0,0
553818367,685938650,616732597,547526034,545427242,543449021,541352603,539256444,537160029,0,0,0,0,0,0,0,0,0,0,0,0,0,0,0,0,0
553818367,618829234,549622118,547523865,612656175,0,0,0,0,0,0,0,0,0,0,0,0,0,0,0,0,0,0,0,0,0
620916424,618814091,549603150,547500817,545582167,0,0,0,0,0,0,0,0,0,0,0,0,0,0,0,0,0,0,0,0,0
553805520,618812053,549600859,547498528,612693868,0,0,0,0,0,0,0,0,0,0,0,0,0,0,0,0,0,0,0,0,0
555227350,685877980,549545145,681647508,545279525,0,0,0,0,0,0,0,0,0,0,0,0,0,0,0,0,0,0,0,0,0
555252196,620267427,551064675,548971043,547238489,0,0,0,0,0,0,0,0,0,0,0,0,0,0,0,0,0,0,0,0,0
621981634,619886705,550682913,615783886,0,0,0,0,0,0,0,0,0,0,0,0,0,0,0,0,0,0,0,0,0,0
554863821,619872897,617773366,548697833,546607367,0,0,0,0,0,0,0,0,0,0,0,0,0,0,0,0,0,0,0,0,0
621967277,619864657,550803444,548711320,0,0,0,0,0,0,0,0,0,0,0,0,0,0,0,0,0,0,0,0,0,0
689063385,552736916,617737551,548519691,546680379,0,0,0,0,0,0,0,0,0,0,0,0,0,0,0,0,0,0,0,0,0
621955055,552735405,684842858,749840934,546691161,0,0,0,0,0,0,0,0,0,0,0,0,0,0,0,0,0,0,0,0,0
554183898,552081059,549978475,548508146,546369200,678447215,542118233,0,0,0,0,0,0,0,0,0,0,0,0,0,0,0,0,0,0,0
554189255,552088711,549988168,548333311,680570358,0,0,0,0,0,0,0,0,0,0,0,0,0,0,0,0,0,0,0,0,0
621300177,552089177,550428627,548336728,0,0,0,0,0,0,0,0,0,0,0,0,0,0,0,0,0,0,0,0,0,0
554195418,552097699,549999724,547902005,613332615,0,0,0,0,0,0,0,0,0,0,0,0,0,0,0,0,0,0,0,0,0
554201333,552106185,617119645,547915378,613311462,544099940,542000696,539901452,0,0,0,0,0,0,0,0,0,0,0,0,0,0,0,0,0,0
755537907,552120007,550028699,547937390,546169569,611163740,541952048,674066691,0,0,0,0,0,0,0,0,0,0,0,0,0,0,0,0,0,0
755537907,552117213,617131719,547928754,545839984,543751214,541656088,539881467,537781221,0,0,0,0,0,0,0,0,0,0,0,0,0,0,0,0,0
618840557,549637069,547542701,545453644,543804387,541715417,539625934,604645827,0,0,0,0,0,0,0,0,0,0,0,0,0,0,0,0,0,0
553182952,551097022,683229078,681166875,545042072,610042224,540824903,0,0,0,0,0,0,0,0,0,0,0,0,0,0,0,0,0,0,0
552783596,550690501,548597663,546933466,544865704,542777496,674907783,672820342,0,0,0,0,0,0,0,0,0,0,0,0,0,0,0,0,0,0
619886078,550682078,548586942,546496093,542759675,540670963,538581227,0,0,0,0,0,0,0,0,0,0,0,0,0,0,0,0,0,0,0
552775131,684896943,548583554,613687288,544477042,542378310,0,0,0,0,0,0,0,0,0,0,0,0,0,0,0,0,0,0,0,0
619866860,550656198,548554399,613552427,611649459,542448013,540355430,538262847,0,0,0,0,0,0,0,0,0,0,0,0,0,0,0,0,0,0
686964208,550641099,615645093,747740469,544582081,542493084,607512950,605423185,0,0,0,0,0,0,0,0,0,0,0,0,0,0,0,0,0,0
619184612,550638319,548532948,546408835,678502707,609288216,607520249,538322910,0,0,0,0,0,0,0,0,0,0,0,0,0,0,0,0,0,0
549646843,682153206,545854652,543774083,743008880,539590750,537499211,0,0,0,0,0,0,0,0,0,0,0,0,0,0,0,0,0,0,0
551046911,548948711,546848159,544747607,542649407,0,0,0,0,0,0,0,0,0,0,0,0,0,0,0,0,0,0,0,0,0
550669555,548570573,546467929,544508897,609522106,607426707,538222445,0,0,0,0,0,0,0,0,0,0,0,0,0,0,0,0,0,0,0
684876794,548558304,546449811,611450951,542241582,540140821,538251255,0,0,0,0,0,0,0,0,0,0,0,0,0,0,0,0,0,0,0
549988863,547889650,545786313,544336881,542236393,540135649,538035161,0,0,0,0,0,0,0,0,0,0,0,0,0,0,0,0,0,0,0
684219371,547904464,545806722,543708979,541611545,539929336,537832413,0,0,0,0,0,0,0,0,0,0,0,0,0,0,0,0,0,0,0
681762003,545861882,543784406,675911370,539603134,537512626,0,0,0,0,0,0,0,0,0,0,0,0,0,0,0,0,0,0,0,0
547526896,545428916,543331192,541233764,539136592,537039164,0,0,0,0,0,0,0,0,0,0,0,0,0,0,0,0,0,0,0,0
548960248,613976250,544774268,542678376,540582483,538486590,0,0,0,0,0,0,0,0,0,0,0,0,0,0,0,0,0,0,0,0
682788863,546470598,544370062,542271612,540173161,672292438,0,0,0,0,0,0,0,0,0,0,0,0,0,0,0,0,0,0,0,0
547923188,545835962,543748992,675872621,539561049,537467462,0,0,0,0,0,0,0,0,0,0,0,0,0,0,0,0,0,0,0,0
545861320,745151773,676105436,539770020,0,0,0,0,0,0,0,0,0,0,0,0,0,0,0,0,0,0,0,0,0,0
612549864,610456255,675468978,539155364,604168342,0,0,0,0,0,0,0,0,0,0,0,0,0,0,0,0,0,0,0,0,0
545440190,543347068,541251174,539155281,537059387,0,0,0,0,0,0,0,0,0,0,0,0,0,0,0,0,0,0,0,0,0
545435846,543343898,608443101,606343843,537135979,0,0,0,0,0,0,0,0,0,0,0,0,0,0,0,0,0,0,0,0,0
679647221,543332048,541234628,606246071,537040043,0,0,0,0,0,0,0,0,0,0,0,0,0,0,0,0,0,0,0,0,0
545425909,543325103,541226647,539128448,604138856,0,0,0,0,0,0,0,0,0,0,0,0,0,0,0,0,0,0,0,0,0
545404604,543483594,608499063,606405155,0,0,0,0,0,0,0,0,0,0,0,0,0,0,0,0,0,0,0,0,0,0
545395905,543273036,541166885,539327226,537238995,0,0,0,0,0,0,0,0,0,0,0,0,0,0,0,0,0,0,0,0,0
545392055,744850937,675659452,673576830,537275969,0,0,0,0,0,0,0,0,0,0,0,0,0,0,0,0,0,0,0,0,0
545343242,543562354,608585029,539389468,0,0,0,0,0,0,0,0,0,0,0,0,0,0,0,0,0,0,0,0,0,0
679568746,677438770,541112099,673220372,0,0,0,0,0,0,0,0,0,0,0,0,0,0,0,0,0,0,0,0,0,0
546879701,679033610,543003837,540895354,538786616,0,0,0,0,0,0,0,0,0,0,0,0,0,0,0,0,0,0,0,0,0
681107652,611926860,676946981,540899317,605902285,0,0,0,0,0,0,0,0,0,0,0,0,0,0,0,0,0,0,0,0,0
546896622,679072851,609884959,540841699,538725808,0,0,0,0,0,0,0,0,0,0,0,0,0,0,0,0,0,0,0,0,0
546481030,611598024,609500297,540293963,538196492,0,0,0,0,0,0,0,0,0,0,0,0,0,0,0,0,0,0,0,0,0
546473725,544371892,542273179,540174467,605184618,0,0,0,0,0,0,0,0,0,0,0,0,0,0,0,0,0,0,0,0,0
546465979,544362356,542263132,540163908,672282156,0,0,0,0,0,0,0,0,0,0,0,0,0,0,0,0,0,0,0,0,0
546463451,544344361,542439915,540349360,672477045,0,0,0,0,0,0,0,0,0,0,0,0,0,0,0,0,0,0,0,0,0
613568449,544353405,542253158,540153167,538052920,0,0,0,0,0,0,0,0,0,0,0,0,0,0,0,0,0,0,0,0,0
680649354,544316218,609321759,741436164,739611109,0,0,0,0,0,0,0,0,0,0,0,0,0,0,0,0,0,0,0,0,0
546453482,678563775,542245808,674363553,538045587,0,0,0,0,0,0,0,0,0,0,0,0,0,0,0,0,0,0,0,0,0
546452468,611453900,542244799,540144562,605152676,0,0,0,0,0,0,0,0,0,0,0,0,0,0,0,0,0,0,0,0,0
546447843,544339381,542238118,540137111,538035847,0,0,0,0,0,0,0,0,0,0,0,0,0,0,0,0,0,0,0,0,0
546422182,544274951,542518224,674655643,538357862,0,0,0,0,0,0,0,0,0,0,0,0,0,0,0,0,0,0,0,0,0
545802193,543702687,541604750,539507070,537409133,0,0,0,0,0,0,0,0,0,0,0,0,0,0,0,0,0,0,0,0,0
545807599,543710151,541612730,539515565,671635872,0,0,0,0,0,0,0,0,0,0,0,0,0,0,0,0,0,0,0,0,0
545808875,610820298,541614272,539517109,537419690,0,0,0,0,0,0,0,0,0,0,0,0,0,0,0,0,0,0,0,0,0
545808875,543711949,541614272,539517109,537419690,0,0,0,0,0,0,0,0,0,0,0,0,0,0,0,0,0,0,0,0,0
545817574,543724213,541628325,539532436,537436548,0,0,0,0,0,0,0,0,0,0,0,0,0,0,0,0,0,0,0,0,0
545817084,543721954,541625561,539529168,537432775,0,0,0,0,0,0,0,0,0,0,0,0,0,0,0,0,0,0,0,0,0
545819616,543726515,541630628,740861333,537439111,0,0,0,0,0,0,0,0,0,0,0,0,0,0,0,0,0,0,0,0,0
545825952,610849822,541989611,539888320,537787797,0,0,0,0,0,0,0,0,0,0,0,0,0,0,0,0,0,0,0,0,0
610867617,541670527,539582045,537493819,0,0,0,0,0,0,0,0,0,0,0,0,0,0,0,0,0,0,0,0,0,0
543737343,675862510,539552477,537460172,0,0,0,0,0,0,0,0,0,0,0,0,0,0,0,0,0,0,0,0,0,0
543743220,541651682,539559375,604576444,0,0,0,0,0,0,0,0,0,0,0,0,0,0,0,0,0,0,0,0,0,0
543338995,541242597,539145942,537049544,0,0,0,0,0,0,0,0,0,0,0,0,0,0,0,0,0,0,0,0,0,0
543328470,541230531,673350320,537034654,0,0,0,0,0,0,0,0,0,0,0,0,0,0,0,0,0,0,0,0,0,0
543324670,541226225,539127779,537029333,0,0,0,0,0,0,0,0,0,0,0,0,0,0,0,0,0,0,0,0,0,0
544748774,542649295,540550072,605559457,0,0,0,0,0,0,0,0,0,0,0,0,0,0,0,0,0,0,0,0,0,0
544761013,542663829,540566900,538469715,0,0,0,0,0,0,0,0,0,0,0,0,0,0,0,0,0,0,0,0,0,0
611893509,610152359,540942677,605950978,0,0,0,0,0,0,0,0,0,0,0,0,0,0,0,0,0,0,0,0,0,0
544783898,542688527,742273788,538848497,0,0,0,0,0,0,0,0,0,0,0,0,0,0,0,0,0,0,0,0,0,0
678992620,542679266,540583640,538487757,0,0,0,0,0,0,0,0,0,0,0,0,0,0,0,0,0,0,0,0,0,0
544778218,542682846,540587730,538492359,0,0,0,0,0,0,0,0,0,0,0,0,0,0,0,0,0,0,0,0,0,0
544810716,609832897,741964454,538552203,0,0,0,0,0,0,0,0,0,0,0,0,0,0,0,0,0,0,0,0,0,0
544399850,542306259,607321532,538513903,0,0,0,0,0,0,0,0,0,0,0,0,0,0,0,0,0,0,0,0,0,0
544386505,676507570,607302299,672314245,0,0,0,0,0,0,0,0,0,0,0,0,0,0,0,0,0,0,0,0,0,0
544379357,542281669,607292588,538086036,0,0,0,0,0,0,0,0,0,0,0,0,0,0,0,0,0,0,0,0,0,0
544361166,743588545,540162996,538063783,0,0,0,0,0,0,0,0,0,0,0,0,0,0,0,0,0,0,0,0,0,0
745679525,743570249,540351211,538266255,0,0,0,0,0,0,0,0,0,0,0,0,0,0,0,0,0,0,0,0,0,0
610799078,541591260,674371327,538053879,0,0,0,0,0,0,0,0,0,0,0,0,0,0,0,0,0,0,0,0,0,0
543687102,542241525,607246052,538032852,0,0,0,0,0,0,0,0,0,0,0,0,0,0,0,0,0,0,0,0,0,0
543699117,541599885,539500397,537401165,0,0,0,0,0,0,0,0,0,0,0,0,0,0,0,0,0,0,0,0,0,0
544131566,542032071,539932833,537834108,0,0,0,0,0,0,0,0,0,0,0,0,0,0,0,0,0,0,0,0,0,0
543722181,541627049,539531918,537436786,0,0,0,0,0,0,0,0,0,0,0,0,0,0,0,0,0,0,0,0,0,0
543724529,541628646,539532764,537436881,0,0,0,0,0,0,0,0,0,0,0,0,0,0,0,0,0,0,0,0,0,0
589477605,587382256,719504634,0,0,0,0,0,0,0,0,0,0,0,0,0,0,0,0,0,0,0,0,0,0,0
589474543,587377142,585279741,0,0,0,0,0,0,0,0,0,0,0,0,0,0,0,0,0,0,0,0,0,0,0
591308036,589210417,654221916,0,0,0,0,0,0,0,0,0,0,0,0,0,0,0,0,0,0,0,0,0,0,0
591307778,656319278,654221916,0,0,0,0,0,0,0,0,0,0,0,0,0,0,0,0,0,0,0,0,0,0,0
589868783,587770359,585671679,0,0,0,0,0,0,0,0,0,0,0,0,0,0,0,0,0,0,0,0,0,0,0
582531283,580429804,578329599,0,0,0,0,0,0,0,0,0,0,0,0,0,0,0,0,0,0,0,0,0,0,0
580002750,577912799,575820277,0,0,0,0,0,0,0,0,0,0,0,0,0,0,0,0,0,0,0,0,0,0,0
711388996,776368803,774255569,0,0,0,0,0,0,0,0,0,0,0,0,0,0,0,0,0,0,0,0,0,0,0
638471270,636000261,633896614,0,0,0,0,0,0,0,0,0,0,0,0,0,0,0,0,0,0,0,0,0,0,0
771674214,567820579,632836834,0,0,0,0,0,0,0,0,0,0,0,0,0,0,0,0,0,0,0,0,0,0,0
704437578,702118928,565759707,0,0,0,0,0,0,0,0,0,0,0,0,0,0,0,0,0,0,0,0,0,0,0
567202665,632210674,629688442,0,0,0,0,0,0,0,0,0,0,0,0,0,0,0,0,0,0,0,0,0,0,0
565886797,563770479,561653904,0,0,0,0,0,0,0,0,0,0,0,0,0,0,0,0,0,0,0,0,0,0,0
632192798,562990330,761817039,0,0,0,0,0,0,0,0,0,0,0,0,0,0,0,0,0,0,0,0,0,0,0
764043381,694791367,759356619,0,0,0,0,0,0,0,0,0,0,0,0,0,0,0,0,0,0,0,0,0,0,0
562315182,627221073,625123046,0,0,0,0,0,0,0,0,0,0,0,0,0,0,0,0,0,0,0,0,0,0,0
696633638,694501867,692203712,0,0,0,0,0,0,0,0,0,0,0,0,0,0,0,0,0,0,0,0,0,0,0
631155518,629057504,626547585,0,0,0,0,0,0,0,0,0,0,0,0,0,0,0,0,0,0,0,0,0,0,0
562593745,761833770,625879415,0,0,0,0,0,0,0,0,0,0,0,0,0,0,0,0,0,0,0,0,0,0,0
759331321,690102793,621089056,0,0,0,0,0,0,0,0,0,0,0,0,0,0,0,0,0,0,0,0,0,0,0
759711991,556726984,688949218,0,0,0,0,0,0,0,0,0,0,0,0,0,0,0,0,0,0,0,0,0,0,0
757671341,755612204,753707936,0,0,0,0,0,0,0,0,0,0,0,0,0,0,0,0,0,0,0,0,0,0,0
757399088,621069537,753033122,0,0,0,0,0,0,0,0,0,0,0,0,0,0,0,0,0,0,0,0,0,0,0
624436405,687918777,551554166,0,0,0,0,0,0,0,0,0,0,0,0,0,0,0,0,0,0,0,0,0,0,0
553952552,618957766,616724338,0,0,0,0,0,0,0,0,0,0,0,0,0,0,0,0,0,0,0,0,0,0,0
755066996,551606056,684104665,0,0,0,0,0,0,0,0,0,0,0,0,0,0,0,0,0,0,0,0,0,0,0
622646286,553482688,752413038,0,0,0,0,0,0,0,0,0,0,0,0,0,0,0,0,0,0,0,0,0,0,0
621976275,619877906,550785878,0,0,0,0,0,0,0,0,0,0,0,0,0,0,0,0,0,0,0,0,0,0,0
621341338,686660068,751640892,0,0,0,0,0,0,0,0,0,0,0,0,0,0,0,0,0,0,0,0,0,0,0
551688960,616724338,681759208,0,0,0,0,0,0,0,0,0,0,0,0,0,0,0,0,0,0,0,0,0,0,0
753020405,549584840,547475609,0,0,0,0,0,0,0,0,0,0,0,0,0,0,0,0,0,0,0,0,0,0,0
753020405,549586132,681697459,0,0,0,0,0,0,0,0,0,0,0,0,0,0,0,0,0,0,0,0,0,0,0
551661549,683754171,681629834,0,0,0,0,0,0,0,0,0,0,0,0,0,0,0,0,0,0,0,0,0,0,0
553189437,618523331,549311830,0,0,0,0,0,0,0,0,0,0,0,0,0,0,0,0,0,0,0,0,0,0,0
620547665,752457221,548991931,0,0,0,0,0,0,0,0,0,0,0,0,0,0,0,0,0,0,0,0,0,0,0
754714572,618275151,683229908,0,0,0,0,0,0,0,0,0,0,0,0,0,0,0,0,0,0,0,0,0,0,0
754067639,617735767,750076406,0,0,0,0,0,0,0,0,0,0,0,0,0,0,0,0,0,0,0,0,0,0,0
754031531,684790343,683037666,0,0,0,0,0,0,0,0,0,0,0,0,0,0,0,0,0,0,0,0,0,0,0
686831946,684787366,749219567,0,0,0,0,0,0,0,0,0,0,0,0,0,0,0,0,0,0,0,0,0,0,0
684807909,548471494,613418858,0,0,0,0,0,0,0,0,0,0,0,0,0,0,0,0,0,0,0,0,0,0,0
679630216,610590359,608500040,0,0,0,0,0,0,0,0,0,0,0,0,0,0,0,0,0,0,0,0,0,0,0
542651647,540552688,538453473,0,0,0,0,0,0,0,0,0,0,0,0,0,0,0,0,0,0,0,0,0,0,0
542663935,540567031,538469871,0,0,0,0,0,0,0,0,0,0,0,0,0,0,0,0,0,0,0,0,0,0,0
542684670,540589302,538493934,0,0,0,0,0,0,0,0,0,0,0,0,0,0,0,0,0,0,0,0,0,0,0
542695146,741928667,538509004,0,0,0,0,0,0,0,0,0,0,0,0,0,0,0,0,0,0,0,0,0,0,0
541601526,539502825,537404124,0,0,0,0,0,0,0,0,0,0,0,0,0,0,0,0,0,0,0,0,0,0,0
541608186,606619377,537412841,0,0,0,0,0,0,0,0,0,0,0,0,0,0,0,0,0,0,0,0,0,0,0
541615027,606626713,537420928,0,0,0,0,0,0,0,0,0,0,0,0,0,0,0,0,0,0,0,0,0,0,0
