0,1,2,3,4,5,6,7,8,9,10,11,12,13,14,15,16,17,18,19,20,21,22,23,24,25
589956684,587853405,787075950,583645568,581534626,579423940,577316574,575212527,573112311,637729224,568520918,566421731,698540017,562223102,0,0,0,0,0,0,0,0,0,0,0,0
590086900,587912208,720021799,583696191,0,0,0,0,0,0,0,0,0,0,0,0,0,0,0,0,0,0,0,0,0,0
590086904,587912211,585804073,583696191,782903657,713676694,577345719,709455309,0,0,0,0,0,0,0,0,0,0,0,0,0,0,0,0,0,0
589901298,587800824,585300645,583201970,581101516,579001062,576901369,0,0,0,0,0,0,0,0,0,0,0,0,0,0,0,0,0,0,0
589485509,587387344,585289179,583191013,581091835,0,0,0,0,0,0,0,0,0,0,0,0,0,0,0,0,0,0,0,0,0
589933818,587397410,585298744,583200077,581099896,578999714,576900290,709019095,572703458,570605548,568507639,0,0,0,0,0,0,0,0,0,0,0,0,0,0,0
656583741,587377487,585280097,583182707,581085079,578987451,576890070,709010151,706912752,704815609,0,0,0,0,0,0,0,0,0,0,0,0,0,0,0,0
589469093,587372209,585275068,583178184,581081311,578984439,0,0,0,0,0,0,0,0,0,0,0,0,0,0,0,0,0,0,0,0
589457737,587363159,585268581,583173491,581080468,0,0,0,0,0,0,0,0,0,0,0,0,0,0,0,0,0,0,0,0,0
656726928,587518637,719636681,583319525,581057060,578964573,576870792,574775972,572680114,570584001,568488143,566392029,564296171,562200313,0,0,0,0,0,0,0,0,0,0,0,0
589451172,587355312,585259195,583163335,581068766,578974197,0,0,0,0,0,0,0,0,0,0,0,0,0,0,0,0,0,0,0,0
723659404,721564057,719468710,583155891,581062349,578968807,576874491,0,0,0,0,0,0,0,0,0,0,0,0,0,0,0,0,0,0,0
589647549,587546327,652553712,717342993,581036868,578947447,576856734,574763704,572668869,570573778,568478686,566383595,564288760,0,0,0,0,0,0,0,0,0,0,0,0,0
589426787,587332981,585238151,650253208,581053628,646071775,711088122,0,0,0,0,0,0,0,0,0,0,0,0,0,0,0,0,0,0,0
589433247,587338667,585243831,583148995,581056731,578964467,0,0,0,0,0,0,0,0,0,0,0,0,0,0,0,0,0,0,0,0
589376293,654394427,585194834,583104105,581020054,578936004,576848102,708975101,574096862,572002539,569908216,0,0,0,0,0,0,0,0,0,0,0,0,0,0,0
589406933,587313885,585220838,583127534,581038591,580391112,578297312,576202224,574106104,0,0,0,0,0,0,0,0,0,0,0,0,0,0,0,0,0
589365473,587274473,719401713,583093753,582486583,580393581,578299540,576204717,574108602,572012487,637025236,567820001,565723886,563627771,0,0,0,0,0,0,0,0,0,0,0,0
590885826,588789451,653801684,584596446,582500593,0,0,0,0,0,0,0,0,0,0,0,0,0,0,0,0,0,0,0,0,0
590918066,723037118,586720970,584622294,582522350,0,0,0,0,0,0,0,0,0,0,0,0,0,0,0,0,0,0,0,0,0
591228896,588873220,586771488,584669500,582562422,580454833,578350559,576248061,573763825,638772989,0,0,0,0,0,0,0,0,0,0,0,0,0,0,0,0
591228896,723354111,586771488,584669500,582562422,580454833,578350559,576248061,573763825,638772989,0,0,0,0,0,0,0,0,0,0,0,0,0,0,0,0
590977839,588875842,586773588,584671334,582564235,580457136,578353100,576250847,574151144,572051441,569573110,0,0,0,0,0,0,0,0,0,0,0,0,0,0,0
590975596,588872829,586770318,584667551,582559425,580452066,712564219,575860212,640869630,0,0,0,0,0,0,0,0,0,0,0,0,0,0,0,0,0
590539683,588441263,720560570,584244678,582144989,580045556,0,0,0,0,0,0,0,0,0,0,0,0,0,0,0,0,0,0,0,0
590656204,588556776,586302986,584208166,582115934,580023702,577930176,575835356,573739241,571643127,0,0,0,0,0,0,0,0,0,0,0,0,0,0,0,0
590476749,588382423,586287841,584193771,582102783,0,0,0,0,0,0,0,0,0,0,0,0,0,0,0,0,0,0,0,0,0
590785611,588679791,586573971,584468407,582018312,0,0,0,0,0,0,0,0,0,0,0,0,0,0,0,0,0,0,0,0,0
589827814,587731950,585636085,717757949,0,0,0,0,0,0,0,0,0,0,0,0,0,0,0,0,0,0,0,0,0,0
590431147,588339381,586247615,584156105,582069982,579983603,577243576,575149006,573053401,570957540,568861935,566766330,0,0,0,0,0,0,0,0,0,0,0,0,0,0
589829578,587733716,585637855,583542249,581447678,0,0,0,0,0,0,0,0,0,0,0,0,0,0,0,0,0,0,0,0,0
590254042,588157177,585657886,583560509,581462908,579365051,577267433,0,0,0,0,0,0,0,0,0,0,0,0,0,0,0,0,0,0,0
589852355,587754953,719875024,583560150,581462500,579364849,577267195,0,0,0,0,0,0,0,0,0,0,0,0,0,0,0,0,0,0,0
585434893,583335223,581230986,579126750,576861732,574768205,572672866,570577527,568482188,700604321,564291254,562195915,560100576,558005237,0,0,0,0,0,0,0,0,0,0,0,0
721261077,584951358,582863760,647885283,578352423,576250448,574151013,572051321,569951886,567852194,565752759,563653067,561553631,559453939,0,0,0,0,0,0,0,0,0,0,0,0
586446104,584348225,582249362,580150755,577931047,575834704,640846948,571641209,569544590,567447714,565351095,697471948,561157600,693278453,0,0,0,0,0,0,0,0,0,0,0,0
586031375,583936825,581844622,579752419,577282088,575182674,573084520,570986109,568887954,566789543,564691388,562592977,560494822,558396411,0,0,0,0,0,0,0,0,0,0,0,0
650911586,581730732,579659256,577361715,776578391,573148523,638153854,568941714,566838182,564734650,562631374,694746082,625533686,555937267,0,0,0,0,0,0,0,0,0,0,0,0
583361285,715470176,579144123,576847367,641863988,572660811,570566498,568472185,566377872,631392166,562188989,560094676,558000107,0,0,0,0,0,0,0,0,0,0,0,0,0
583438104,581314175,579190758,643921978,574729582,572639368,570548899,568458685,566367703,564277490,563609851,0,0,0,0,0,0,0,0,0,0,0,0,0,0,0
581612907,646596503,577370296,575259087,573154778,571050725,568946416,566426983,564327042,562227102,560127161,558027220,690145008,0,0,0,0,0,0,0,0,0,0,0,0,0
715393920,579081941,576899100,574800710,572702812,570604913,568507014,566409115,698528945,562213574,560115675,558017777,0,0,0,0,0,0,0,0,0,0,0,0,0,0
581368779,578848299,576780653,708919960,572615086,771854275,568440537,566353390,563613905,561522423,0,0,0,0,0,0,0,0,0,0,0,0,0,0,0,0
650010459,580808137,578324511,576225621,574127729,572029580,569931687,769160130,632844509,563637497,0,0,0,0,0,0,0,0,0,0,0,0,0,0,0,0
647868313,712577314,576252539,641258663,572047316,0,0,0,0,0,0,0,0,0,0,0,0,0,0,0,0,0,0,0,0,0
580137584,645150143,575944948,573746454,571649328,636660810,567454565,565357439,563260058,561162421,559064785,758293740,0,0,0,0,0,0,0,0,0,0,0,0,0,0
580306511,645285049,642841608,573646124,571560272,703691892,567388312,565302459,563216350,560469245,0,0,0,0,0,0,0,0,0,0,0,0,0,0,0,0
579937102,577852289,575763619,573670581,571577798,569485015,567391976,565299193,562566042,560473002,558379962,556286922,688411610,0,0,0,0,0,0,0,0,0,0,0,0,0
579881353,644919982,642840518,640751314,571554014,703683050,567376629,564660325,562566278,560471974,558377671,623392487,0,0,0,0,0,0,0,0,0,0,0,0,0,0
579726627,644747931,575549164,707314456,638105408,636004969,566795922,564695738,562595553,0,0,0,0,0,0,0,0,0,0,0,0,0,0,0,0,0
778330816,709010179,572699681,570606656,635622494,564327067,562627064,560522472,0,0,0,0,0,0,0,0,0,0,0,0,0,0,0,0,0,0
778330816,574899195,572699681,570606656,635622494,564327067,562627064,560522472,0,0,0,0,0,0,0,0,0,0,0,0,0,0,0,0,0,0
712431383,576093795,573985416,706095023,569770196,701880570,565263402,563177810,628200569,626114210,556919497,621941998,0,0,0,0,0,0,0,0,0,0,0,0,0,0
578195627,576075248,774955541,705760307,703674447,0,0,0,0,0,0,0,0,0,0,0,0,0,0,0,0,0,0,0,0,0
575335796,573225606,705332889,703222443,566894014,564784080,562673378,627671540,625144174,555933603,553831895,0,0,0,0,0,0,0,0,0,0,0,0,0,0,0
642686534,707698287,571383704,569286593,567189482,564682775,562585663,560488552,556294330,621306082,0,0,0,0,0,0,0,0,0,0,0,0,0,0,0,0
707417416,571091806,568983924,566876555,564768673,562660537,761878992,558444520,555940022,553837024,0,0,0,0,0,0,0,0,0,0,0,0,0,0,0,0
570426230,568344715,566263456,564181941,696318154,560018399,557936884,557318216,555226501,620243650,0,0,0,0,0,0,0,0,0,0,0,0,0,0,0,0
773520078,637190362,567969255,700074739,563745023,626188829,556979544,621988242,552778957,0,0,0,0,0,0,0,0,0,0,0,0,0,0,0,0,0
571930340,569391374,701530158,699450957,563153260,561074317,558995374,556916688,756163058,0,0,0,0,0,0,0,0,0,0,0,0,0,0,0,0,0
570315822,568220770,633234326,564030155,561548804,559449913,557351022,555251875,553152984,0,0,0,0,0,0,0,0,0,0,0,0,0,0,0,0,0
569245445,634260546,565058689,562965951,560873213,692629565,556310394,554208696,552106999,0,0,0,0,0,0,0,0,0,0,0,0,0,0,0,0,0
702319712,767356089,630831636,628709742,559480009,0,0,0,0,0,0,0,0,0,0,0,0,0,0,0,0,0,0,0,0,0
567542199,565446883,563271191,695389763,559073135,556973978,554875078,552775922,0,0,0,0,0,0,0,0,0,0,0,0,0,0,0,0,0,0
566025534,765280432,628711203,626589592,0,0,0,0,0,0,0,0,0,0,0,0,0,0,0,0,0,0,0,0,0,0
632565581,563360957,561163321,626173609,0,0,0,0,0,0,0,0,0,0,0,0,0,0,0,0,0,0,0,0,0,0
565507131,697622650,628411831,559201014,556941630,621958524,0,0,0,0,0,0,0,0,0,0,0,0,0,0,0,0,0,0,0,0
565509928,697625196,561304751,559201777,556941630,0,0,0,0,0,0,0,0,0,0,0,0,0,0,0,0,0,0,0,0,0
696973454,694851756,692730057,690609127,553841473,551736993,0,0,0,0,0,0,0,0,0,0,0,0,0,0,0,0,0,0,0,0
563194521,695324342,626126805,691145712,554178554,0,0,0,0,0,0,0,0,0,0,0,0,0,0,0,0,0,0,0,0,0
562999868,628010637,625912798,556291629,554195322,552098758,0,0,0,0,0,0,0,0,0,0,0,0,0,0,0,0,0,0,0,0
630088455,560885610,558791628,623409455,621309073,0,0,0,0,0,0,0,0,0,0,0,0,0,0,0,0,0,0,0,0,0
764245814,560833156,558746833,757664032,554230127,686339518,0,0,0,0,0,0,0,0,0,0,0,0,0,0,0,0,0,0,0,0
563786455,628777704,693768699,554883400,552781464,617788648,0,0,0,0,0,0,0,0,0,0,0,0,0,0,0,0,0,0,0,0
561780800,626797487,758825506,555397784,0,0,0,0,0,0,0,0,0,0,0,0,0,0,0,0,0,0,0,0,0,0
692857255,757750275,688512092,619273393,750972386,0,0,0,0,0,0,0,0,0,0,0,0,0,0,0,0,0,0,0,0,0
625897808,758021050,554204195,619213963,550005493,0,0,0,0,0,0,0,0,0,0,0,0,0,0,0,0,0,0,0,0,0
690676998,755646811,753508785,750972354,0,0,0,0,0,0,0,0,0,0,0,0,0,0,0,0,0,0,0,0,0,0
757083089,687922682,620687081,618149016,0,0,0,0,0,0,0,0,0,0,0,0,0,0,0,0,0,0,0,0,0,0
624866353,622767546,620255043,551050187,0,0,0,0,0,0,0,0,0,0,0,0,0,0,0,0,0,0,0,0,0,0
691930163,622733230,620279593,618173348,0,0,0,0,0,0,0,0,0,0,0,0,0,0,0,0,0,0,0,0,0,0
624223273,622117286,552749616,617770413,0,0,0,0,0,0,0,0,0,0,0,0,0,0,0,0,0,0,0,0,0,0
557191750,689286589,619816254,751962548,0,0,0,0,0,0,0,0,0,0,0,0,0,0,0,0,0,0,0,0,0,0
620923619,618821215,751076315,614766678,0,0,0,0,0,0,0,0,0,0,0,0,0,0,0,0,0,0,0,0,0,0
756855859,754799299,752423761,750286305,0,0,0,0,0,0,0,0,0,0,0,0,0,0,0,0,0,0,0,0,0,0
549995249,547895500,545790300,544293117,542186483,540080361,537973727,0,0,0,0,0,0,0,0,0,0,0,0,0,0,0,0,0,0,0
548528837,546394451,544612572,540443023,0,0,0,0,0,0,0,0,0,0,0,0,0,0,0,0,0,0,0,0,0,0
612979649,543835431,541877483,539759287,0,0,0,0,0,0,0,0,0,0,0,0,0,0,0,0,0,0,0,0,0,0
545434602,543340668,541244250,539148087,537051413,0,0,0,0,0,0,0,0,0,0,0,0,0,0,0,0,0,0,0,0,0
545426655,543325284,541226811,539128338,537164261,0,0,0,0,0,0,0,0,0,0,0,0,0,0,0,0,0,0,0,0,0
612534234,543322986,541224260,606234142,671385333,0,0,0,0,0,0,0,0,0,0,0,0,0,0,0,0,0,0,0,0,0
545407419,677505822,608507622,740635570,604328318,0,0,0,0,0,0,0,0,0,0,0,0,0,0,0,0,0,0,0,0,0
545409999,610401086,608297230,539303643,537213355,0,0,0,0,0,0,0,0,0,0,0,0,0,0,0,0,0,0,0,0,0
546835454,543296216,541195979,539094974,536993969,0,0,0,0,0,0,0,0,0,0,0,0,0,0,0,0,0,0,0,0,0
612488882,744558860,541462738,606491290,537302115,0,0,0,0,0,0,0,0,0,0,0,0,0,0,0,0,0,0,0,0,0
612481967,744551961,608579044,539389875,604418177,0,0,0,0,0,0,0,0,0,0,0,0,0,0,0,0,0,0,0,0,0
748220077,545088724,610085518,675082824,605862145,0,0,0,0,0,0,0,0,0,0,0,0,0,0,0,0,0,0,0,0,0
546892769,544831842,542746936,741988621,538769115,0,0,0,0,0,0,0,0,0,0,0,0,0,0,0,0,0,0,0,0,0
546501557,679068325,542769283,540688738,672825920,0,0,0,0,0,0,0,0,0,0,0,0,0,0,0,0,0,0,0,0,0
546486270,544402337,542308736,540629235,538540773,0,0,0,0,0,0,0,0,0,0,0,0,0,0,0,0,0,0,0,0,0
546486270,611505295,542301803,540207174,538112545,0,0,0,0,0,0,0,0,0,0,0,0,0,0,0,0,0,0,0,0,0
546480637,544384654,542287977,540191300,538094623,0,0,0,0,0,0,0,0,0,0,0,0,0,0,0,0,0,0,0,0,0
613588413,611611321,542409568,540316422,0,0,0,0,0,0,0,0,0,0,0,0,0,0,0,0,0,0,0,0,0,0
613578167,544514552,609530297,540328571,538235452,0,0,0,0,0,0,0,0,0,0,0,0,0,0,0,0,0,0,0,0,0
545788157,678556105,542233262,540127892,538022521,0,0,0,0,0,0,0,0,0,0,0,0,0,0,0,0,0,0,0,0,0
612910788,543697967,609148659,539944896,537849996,0,0,0,0,0,0,0,0,0,0,0,0,0,0,0,0,0,0,0,0,0
545806755,543707904,676244928,539930506,604942675,0,0,0,0,0,0,0,0,0,0,0,0,0,0,0,0,0,0,0,0,0
545806755,544124151,676244928,539930506,604942675,0,0,0,0,0,0,0,0,0,0,0,0,0,0,0,0,0,0,0,0,0
680026819,543712810,676239599,539924668,537827209,0,0,0,0,0,0,0,0,0,0,0,0,0,0,0,0,0,0,0,0,0
545810413,677932670,541618521,539521844,537425423,0,0,0,0,0,0,0,0,0,0,0,0,0,0,0,0,0,0,0,0,0
545813738,543721591,541626192,606639656,537435392,0,0,0,0,0,0,0,0,0,0,0,0,0,0,0,0,0,0,0,0,0
545818105,610839189,608745076,539542355,537448242,0,0,0,0,0,0,0,0,0,0,0,0,0,0,0,0,0,0,0,0,0
545829320,610861107,609084409,539871432,604876182,0,0,0,0,0,0,0,0,0,0,0,0,0,0,0,0,0,0,0,0,0
545829338,543752280,541661485,673788674,537768142,0,0,0,0,0,0,0,0,0,0,0,0,0,0,0,0,0,0,0,0,0
545837531,543752359,541658773,673783427,537472625,0,0,0,0,0,0,0,0,0,0,0,0,0,0,0,0,0,0,0,0,0
613595863,611507003,542303752,538579710,0,0,0,0,0,0,0,0,0,0,0,0,0,0,0,0,0,0,0,0,0,0
677973736,541666516,539576768,671704748,0,0,0,0,0,0,0,0,0,0,0,0,0,0,0,0,0,0,0,0,0,0
610457566,541253835,539159223,537064356,0,0,0,0,0,0,0,0,0,0,0,0,0,0,0,0,0,0,0,0,0,0
543337147,541240480,539143814,671264876,0,0,0,0,0,0,0,0,0,0,0,0,0,0,0,0,0,0,0,0,0,0
543314136,541213890,539113388,537013142,0,0,0,0,0,0,0,0,0,0,0,0,0,0,0,0,0,0,0,0,0,0
543306943,541205414,539103628,537002098,0,0,0,0,0,0,0,0,0,0,0,0,0,0,0,0,0,0,0,0,0,0
610377686,742485664,673267051,536939575,0,0,0,0,0,0,0,0,0,0,0,0,0,0,0,0,0,0,0,0,0,0
544746478,542647002,540547526,538448050,0,0,0,0,0,0,0,0,0,0,0,0,0,0,0,0,0,0,0,0,0,0
611867604,676879036,607672995,538466699,0,0,0,0,0,0,0,0,0,0,0,0,0,0,0,0,0,0,0,0,0,0
544769193,676891786,607688042,538484811,0,0,0,0,0,0,0,0,0,0,0,0,0,0,0,0,0,0,0,0,0,0
544772754,609786733,540582985,538488100,0,0,0,0,0,0,0,0,0,0,0,0,0,0,0,0,0,0,0,0,0,0
544771755,542676621,540581487,538486353,0,0,0,0,0,0,0,0,0,0,0,0,0,0,0,0,0,0,0,0,0,0
611888854,609795262,540592806,538499470,0,0,0,0,0,0,0,0,0,0,0,0,0,0,0,0,0,0,0,0,0,0
544406262,542693104,540600799,605617102,0,0,0,0,0,0,0,0,0,0,0,0,0,0,0,0,0,0,0,0,0,0
544396528,542300901,540205017,538109390,0,0,0,0,0,0,0,0,0,0,0,0,0,0,0,0,0,0,0,0,0,0
611488456,542281904,540184215,538086270,0,0,0,0,0,0,0,0,0,0,0,0,0,0,0,0,0,0,0,0,0,0
544373136,542274938,674394468,538078798,0,0,0,0,0,0,0,0,0,0,0,0,0,0,0,0,0,0,0,0,0,0
544349672,542246611,540144318,672258729,0,0,0,0,0,0,0,0,0,0,0,0,0,0,0,0,0,0,0,0,0,0
543702520,608712935,539505367,537406662,0,0,0,0,0,0,0,0,0,0,0,0,0,0,0,0,0,0,0,0,0,0
543712728,541615810,539518892,537421974,0,0,0,0,0,0,0,0,0,0,0,0,0,0,0,0,0,0,0,0,0,0
543720876,675842958,606638704,537434195,0,0,0,0,0,0,0,0,0,0,0,0,0,0,0,0,0,0,0,0,0,0
581861784,579363386,577261234,0,0,0,0,0,0,0,0,0,0,0,0,0,0,0,0,0,0,0,0,0,0,0
578486247,710584310,641367293,0,0,0,0,0,0,0,0,0,0,0,0,0,0,0,0,0,0,0,0,0,0,0
642016038,639925448,637685880,0,0,0,0,0,0,0,0,0,0,0,0,0,0,0,0,0,0,0,0,0,0,0
643475053,708471175,572140961,0,0,0,0,0,0,0,0,0,0,0,0,0,0,0,0,0,0,0,0,0,0,0
710584177,574253705,572140961,0,0,0,0,0,0,0,0,0,0,0,0,0,0,0,0,0,0,0,0,0,0,0
773145402,771014084,701675356,0,0,0,0,0,0,0,0,0,0,0,0,0,0,0,0,0,0,0,0,0,0,0
697735975,762728551,693503400,0,0,0,0,0,0,0,0,0,0,0,0,0,0,0,0,0,0,0,0,0,0,0
630038282,762180552,759742083,0,0,0,0,0,0,0,0,0,0,0,0,0,0,0,0,0,0,0,0,0,0,0
694866865,692742096,556400623,0,0,0,0,0,0,0,0,0,0,0,0,0,0,0,0,0,0,0,0,0,0,0
693133135,556845189,756100282,0,0,0,0,0,0,0,0,0,0,0,0,0,0,0,0,0,0,0,0,0,0,0
556698555,554200623,552102051,0,0,0,0,0,0,0,0,0,0,0,0,0,0,0,0,0,0,0,0,0,0,0
756202746,754555892,685409193,0,0,0,0,0,0,0,0,0,0,0,0,0,0,0,0,0,0,0,0,0,0,0
622113573,620008648,617771641,0,0,0,0,0,0,0,0,0,0,0,0,0,0,0,0,0,0,0,0,0,0,0
555155300,753980177,751940531,0,0,0,0,0,0,0,0,0,0,0,0,0,0,0,0,0,0,0,0,0,0,0
755818008,619542491,751368346,0,0,0,0,0,0,0,0,0,0,0,0,0,0,0,0,0,0,0,0,0,0,0
754785891,685328428,750300153,0,0,0,0,0,0,0,0,0,0,0,0,0,0,0,0,0,0,0,0,0,0,0
754622177,617800717,615691254,0,0,0,0,0,0,0,0,0,0,0,0,0,0,0,0,0,0,0,0,0,0,0
754622177,550764796,615691254,0,0,0,0,0,0,0,0,0,0,0,0,0,0,0,0,0,0,0,0,0,0,0
746689419,677794494,742828665,0,0,0,0,0,0,0,0,0,0,0,0,0,0,0,0,0,0,0,0,0,0,0
546486754,544397395,609411619,0,0,0,0,0,0,0,0,0,0,0,0,0,0,0,0,0,0,0,0,0,0,0
546464127,544524921,609542689,0,0,0,0,0,0,0,0,0,0,0,0,0,0,0,0,0,0,0,0,0,0,0
613521328,745964259,542567584,0,0,0,0,0,0,0,0,0,0,0,0,0,0,0,0,0,0,0,0,0,0,0
546410470,678461805,542124357,0,0,0,0,0,0,0,0,0,0,0,0,0,0,0,0,0,0,0,0,0,0,0
543749509,541654373,539559236,0,0,0,0,0,0,0,0,0,0,0,0,0,0,0,0,0,0,0,0,0,0,0
609417726,540592883,538499301,0,0,0,0,0,0,0,0,0,0,0,0,0,0,0,0,0,0,0,0,0,0,0
541591291,540161276,739387119,0,0,0,0,0,0,0,0,0,0,0,0,0,0,0,0,0,0,0,0,0,0,0
541595380,539495397,671613142,0,0,0,0,0,0,0,0,0,0,0,0,0,0,0,0,0,0,0,0,0,0,0
