0,1,2,3,4,5,6,7,8,9,10,11,12,13,14,15,16,17,18,19,20,21,22,23,24,25
590131794,588038261,720161943,583850935,581760761,579465537,577362803,575261587,707380388,571063988,568965316,566866644,0,0,0,0,0,0,0,0,0,0,0,0,0,0
590099498,588014163,585928828,583843749,648878326,579439693,577324682,575215794,573112775,571010523,703125232,566424572,0,0,0,0,0,0,0,0,0,0,0,0,0,0
589889751,722007520,585689832,583589616,581105909,0,0,0,0,0,0,0,0,0,0,0,0,0,0,0,0,0,0,0,0,0
657066506,587852836,585747261,717859414,581528200,579414458,577306079,575201016,572716270,570616061,0,0,0,0,0,0,0,0,0,0,0,0,0,0,0,0
590132958,588040697,585769754,650776372,581560938,0,0,0,0,0,0,0,0,0,0,0,0,0,0,0,0,0,0,0,0,0
589937566,587831472,719943107,583619542,0,0,0,0,0,0,0,0,0,0,0,0,0,0,0,0,0,0,0,0,0,0
589481665,587383755,719503574,583188192,581089525,0,0,0,0,0,0,0,0,0,0,0,0,0,0,0,0,0,0,0,0,0
589590506,587371798,585281851,717409633,0,0,0,0,0,0,0,0,0,0,0,0,0,0,0,0,0,0,0,0,0,0
589467862,587370975,585274088,583177201,0,0,0,0,0,0,0,0,0,0,0,0,0,0,0,0,0,0,0,0,0,0
589605102,587351309,585255717,650268989,581066350,578972575,576877763,641891291,572686056,570589684,0,0,0,0,0,0,0,0,0,0,0,0,0,0,0,0
589453660,587357805,585261950,583165839,581071281,578976468,576881134,574785279,0,0,0,0,0,0,0,0,0,0,0,0,0,0,0,0,0,0
589450169,587354820,719476944,583163611,581069556,0,0,0,0,0,0,0,0,0,0,0,0,0,0,0,0,0,0,0,0,0
589426294,587332229,585237396,583143587,581052611,578961634,711086841,0,0,0,0,0,0,0,0,0,0,0,0,0,0,0,0,0,0,0
723869681,587308050,719433772,583124294,581037946,578950830,576861397,574769648,572675069,0,0,0,0,0,0,0,0,0,0,0,0,0,0,0,0,0
589437176,587342591,586680552,584585202,0,0,0,0,0,0,0,0,0,0,0,0,0,0,0,0,0,0,0,0,0,0
589437176,588775646,586680552,584585202,0,0,0,0,0,0,0,0,0,0,0,0,0,0,0,0,0,0,0,0,0,0
589427190,587333117,653788609,584584654,582491110,0,0,0,0,0,0,0,0,0,0,0,0,0,0,0,0,0,0,0,0,0
590878635,588780471,586683075,651695308,0,0,0,0,0,0,0,0,0,0,0,0,0,0,0,0,0,0,0,0,0,0
725095856,722999996,586686407,584590547,649604841,0,0,0,0,0,0,0,0,0,0,0,0,0,0,0,0,0,0,0,0,0
589362673,587272696,587136735,585037566,582490434,580397186,578303153,574111969,572015857,0,0,0,0,0,0,0,0,0,0,0,0,0,0,0,0,0
590890897,588793760,720914351,651708605,582502875,647515128,0,0,0,0,0,0,0,0,0,0,0,0,0,0,0,0,0,0,0,0
590892704,588795822,586698939,718819785,582505700,580409087,0,0,0,0,0,0,0,0,0,0,0,0,0,0,0,0,0,0,0,0
725130904,790141092,720934065,584618174,0,0,0,0,0,0,0,0,0,0,0,0,0,0,0,0,0,0,0,0,0,0
591258175,589164387,587070600,719193772,582885877,580436802,712552313,576234398,574135472,572036802,569938132,567839205,565740534,0,0,0,0,0,0,0,0,0,0,0,0,0
658360152,589158010,587064988,584971453,582545669,647549768,578338427,576237469,574138542,639148479,569940689,634950626,565742580,0,0,0,0,0,0,0,0,0,0,0,0,0
590913236,588814813,586716647,584618224,0,0,0,0,0,0,0,0,0,0,0,0,0,0,0,0,0,0,0,0,0,0
590919855,588821179,586722503,651732435,582523116,0,0,0,0,0,0,0,0,0,0,0,0,0,0,0,0,0,0,0,0,0
591200508,588898842,653902642,584688715,582575996,580463278,578355155,576250348,574149369,638776312,0,0,0,0,0,0,0,0,0,0,0,0,0,0,0,0
590949358,588848374,586747390,584250298,582149080,580047862,0,0,0,0,0,0,0,0,0,0,0,0,0,0,0,0,0,0,0,0
590628961,588527494,586426028,584324562,582154278,580470747,578358719,0,0,0,0,0,0,0,0,0,0,0,0,0,0,0,0,0,0,0
590520463,588423069,586325675,584228282,582131158,580034033,0,0,0,0,0,0,0,0,0,0,0,0,0,0,0,0,0,0,0,0
590653098,588555211,586457323,584207122,582111826,580016787,0,0,0,0,0,0,0,0,0,0,0,0,0,0,0,0,0,0,0,0
590713629,789937218,586507880,584405134,582296538,714207277,577900390,575808908,573714591,571620274,569525957,567431640,565337323,563242750,0,0,0,0,0,0,0,0,0,0,0,0
657509185,588311894,653331818,584134527,582055080,579975377,577891312,642256080,640161505,638066930,0,0,0,0,0,0,0,0,0,0,0,0,0,0,0,0
657580015,588377592,585630906,583535816,581442788,0,0,0,0,0,0,0,0,0,0,0,0,0,0,0,0,0,0,0,0,0
589842730,721963582,585649234,650661222,581456015,579359673,577263064,575166189,573069303,0,0,0,0,0,0,0,0,0,0,0,0,0,0,0,0,0
589854027,587756639,652767859,583561608,648572592,579365593,644376822,0,0,0,0,0,0,0,0,0,0,0,0,0,0,0,0,0,0,0
589878392,587779209,585679770,583580587,581479117,579377646,0,0,0,0,0,0,0,0,0,0,0,0,0,0,0,0,0,0,0,0
589877939,587779777,652790222,583583196,581483768,0,0,0,0,0,0,0,0,0,0,0,0,0,0,0,0,0,0,0,0,0
587497510,585398865,583300221,581200342,578979895,576884345,641897381,639800763,570595282,568498408,633510398,0,0,0,0,0,0,0,0,0,0,0,0,0,0,0
587269850,585182691,583095020,582484556,0,0,0,0,0,0,0,0,0,0,0,0,0,0,0,0,0,0,0,0,0,0
654316687,585124255,583040432,580970448,713116912,578291528,576198524,574103445,572008367,704131017,567818467,632832252,0,0,0,0,0,0,0,0,0,0,0,0,0,0
588670994,720781371,584456548,582340023,714172432,577872718,575785591,573693580,638710176,569508533,701633994,565324255,563231988,0,0,0,0,0,0,0,0,0,0,0,0,0
588029446,585943093,650965348,581779907,646540326,577318509,575210908,707326900,571006923,568904674,566802169,0,0,0,0,0,0,0,0,0,0,0,0,0,0,0
585556371,583444410,580957198,578889051,711031702,574731709,572642000,570552036,568461559,567804884,767039216,0,0,0,0,0,0,0,0,0,0,0,0,0,0,0
651570457,582344312,580226263,577869861,575783252,573691244,772925827,569507483,567414707,699540427,563230947,561138939,0,0,0,0,0,0,0,0,0,0,0,0,0,0
648840794,579663042,577354773,575243593,640248419,705252990,568931224,566826930,698941132,629727973,694352119,0,0,0,0,0,0,0,0,0,0,0,0,0,0,0
581192988,713313187,643996431,641899857,639802994,570597267,635609268,566403285,564305909,0,0,0,0,0,0,0,0,0,0,0,0,0,0,0,0,0
648088749,578907610,576829178,576195733,574101420,572007107,569912026,0,0,0,0,0,0,0,0,0,0,0,0,0,0,0,0,0,0,0
582896930,580801421,578706137,576233744,574136106,572038723,569941085,567843447,0,0,0,0,0,0,0,0,0,0,0,0,0,0,0,0,0,0
649961023,580768170,578681082,576254261,708371280,572053098,569952645,567852192,565751739,630760149,561550576,0,0,0,0,0,0,0,0,0,0,0,0,0,0,0
581815645,579729861,577300759,575198027,573098341,638107262,770224792,701015986,564698572,562598630,0,0,0,0,0,0,0,0,0,0,0,0,0,0,0,0
648875920,579691246,577331256,575223655,573121150,571018901,568917164,633923523,564712411,562609906,0,0,0,0,0,0,0,0,0,0,0,0,0,0,0,0
579081110,576986860,574800429,639811401,570604390,568506499,700626079,564310460,562212313,560114422,0,0,0,0,0,0,0,0,0,0,0,0,0,0,0,0
579087151,711209388,641904647,572698161,570600539,635611780,767731630,564307416,0,0,0,0,0,0,0,0,0,0,0,0,0,0,0,0,0,0
713377894,577048278,574750505,572657999,704783476,568473754,566381759,564289509,0,0,0,0,0,0,0,0,0,0,0,0,0,0,0,0,0,0
579207274,644196808,574716175,639735342,570536526,702664301,566356877,564266156,629285067,560086251,0,0,0,0,0,0,0,0,0,0,0,0,0,0,0,0
580126307,578032324,575850762,573752617,571654216,569556071,567457926,632468388,563261635,561163489,0,0,0,0,0,0,0,0,0,0,0,0,0,0,0,0
580260123,578137495,576023018,640786714,571589701,569501295,567412123,565323718,630344176,0,0,0,0,0,0,0,0,0,0,0,0,0,0,0,0,0
578291551,710414995,574102187,572007107,569912026,0,0,0,0,0,0,0,0,0,0,0,0,0,0,0,0,0,0,0,0,0
779980341,576570012,574479567,572066565,637072440,769186155,565755807,563652050,0,0,0,0,0,0,0,0,0,0,0,0,0,0,0,0,0,0
578578418,576340527,708449867,572124775,570016131,769234078,565798841,630799316,561581808,626191832,0,0,0,0,0,0,0,0,0,0,0,0,0,0,0,0
578055201,575956601,573858725,571761104,636651523,567446319,565349722,563253381,628265648,626169307,0,0,0,0,0,0,0,0,0,0,0,0,0,0,0,0
578066039,575965393,573866494,571632691,703755104,634551180,565347001,563251686,0,0,0,0,0,0,0,0,0,0,0,0,0,0,0,0,0,0
577921211,575825363,573729248,571633388,569537273,0,0,0,0,0,0,0,0,0,0,0,0,0,0,0,0,0,0,0,0,0
577698835,642706053,573497791,571398392,568864820,566770285,564675494,629689566,0,0,0,0,0,0,0,0,0,0,0,0,0,0,0,0,0,0
577696577,575595930,573497030,571398130,566769227,564673909,562578590,560483016,558387441,0,0,0,0,0,0,0,0,0,0,0,0,0,0,0,0,0
577657955,642673093,640577782,570984747,568885852,566786957,631797182,629698287,0,0,0,0,0,0,0,0,0,0,0,0,0,0,0,0,0,0
644743744,709763754,640562398,570997526,568896587,633904511,564694964,562594024,0,0,0,0,0,0,0,0,0,0,0,0,0,0,0,0,0,0
574954801,572852580,570751128,568648908,566368264,564276284,562184560,560092580,625109720,0,0,0,0,0,0,0,0,0,0,0,0,0,0,0,0,0
575073254,572543515,704685384,635500916,566315425,564239309,562163193,561516750,0,0,0,0,0,0,0,0,0,0,0,0,0,0,0,0,0,0
576463195,708602771,572307404,570032392,567916866,700018302,563684538,762895605,0,0,0,0,0,0,0,0,0,0,0,0,0,0,0,0,0,0
709924189,573625211,571543193,569461687,701597653,699515890,629678294,0,0,0,0,0,0,0,0,0,0,0,0,0,0,0,0,0,0,0
575694812,573614571,571534330,566764357,631779975,562577610,0,0,0,0,0,0,0,0,0,0,0,0,0,0,0,0,0,0,0,0
573238639,705341319,569008800,566894009,564779985,696882922,694350954,558029743,555926260,0,0,0,0,0,0,0,0,0,0,0,0,0,0,0,0,0
572817225,570718099,568618974,767721009,564299387,562204355,0,0,0,0,0,0,0,0,0,0,0,0,0,0,0,0,0,0,0,0
641466607,773504790,704281659,702167135,767162241,563721380,695824584,693710316,556984275,0,0,0,0,0,0,0,0,0,0,0,0,0,0,0,0,0
640959023,571753335,636765374,634560783,565354583,563257247,762486502,0,0,0,0,0,0,0,0,0,0,0,0,0,0,0,0,0,0,0
570731813,568631907,566531745,564431586,562194733,627209583,625115314,623021302,0,0,0,0,0,0,0,0,0,0,0,0,0,0,0,0,0,0
570838039,635829107,566601680,698455863,763489171,761412848,0,0,0,0,0,0,0,0,0,0,0,0,0,0,0,0,0,0,0,0
705088982,568362780,633401433,631330455,763477717,0,0,0,0,0,0,0,0,0,0,0,0,0,0,0,0,0,0,0,0,0
704646253,568359312,700507319,631328224,561519780,0,0,0,0,0,0,0,0,0,0,0,0,0,0,0,0,0,0,0,0,0
571344699,569252218,567159737,699284984,763932730,560504442,692620473,556301305,0,0,0,0,0,0,0,0,0,0,0,0,0,0,0,0,0,0
635760209,633654964,631388450,629299589,761428200,0,0,0,0,0,0,0,0,0,0,0,0,0,0,0,0,0,0,0,0,0
635814934,767916676,564474355,629276781,627198171,0,0,0,0,0,0,0,0,0,0,0,0,0,0,0,0,0,0,0,0,0
570262559,568178564,566094569,697886542,561558962,0,0,0,0,0,0,0,0,0,0,0,0,0,0,0,0,0,0,0,0,0
569395011,634425958,632347786,697377710,695299537,693221620,623389411,0,0,0,0,0,0,0,0,0,0,0,0,0,0,0,0,0,0,0
569384031,701533836,699465657,764506341,560474834,0,0,0,0,0,0,0,0,0,0,0,0,0,0,0,0,0,0,0,0,0
569265240,567172283,698913567,562594690,627602404,0,0,0,0,0,0,0,0,0,0,0,0,0,0,0,0,0,0,0,0,0
636335405,634246519,565048769,562622221,627626070,692629664,556306921,0,0,0,0,0,0,0,0,0,0,0,0,0,0,0,0,0,0,0
636320515,567129206,632155881,562617949,627615184,0,0,0,0,0,0,0,0,0,0,0,0,0,0,0,0,0,0,0,0,0
770530599,768449683,631842560,562621293,627616985,0,0,0,0,0,0,0,0,0,0,0,0,0,0,0,0,0,0,0,0,0
701238482,766138673,562674830,694754539,0,0,0,0,0,0,0,0,0,0,0,0,0,0,0,0,0,0,0,0,0,0
633648442,631544762,562193991,761429959,0,0,0,0,0,0,0,0,0,0,0,0,0,0,0,0,0,0,0,0,0,0
767888748,564454112,629290591,560096980,0,0,0,0,0,0,0,0,0,0,0,0,0,0,0,0,0,0,0,0,0,0
633784409,698771111,763757811,560023114,557951383,555878629,622332915,0,0,0,0,0,0,0,0,0,0,0,0,0,0,0,0,0,0,0
635360585,633261715,564053982,561528618,559433077,557338304,0,0,0,0,0,0,0,0,0,0,0,0,0,0,0,0,0,0,0,0
568157768,633187001,765006890,762893211,0,0,0,0,0,0,0,0,0,0,0,0,0,0,0,0,0,0,0,0,0,0
634680650,565472442,630359093,628264612,0,0,0,0,0,0,0,0,0,0,0,0,0,0,0,0,0,0,0,0,0,0
701529400,565234023,563155861,561078463,693219301,556277217,0,0,0,0,0,0,0,0,0,0,0,0,0,0,0,0,0,0,0,0
699170177,562881238,694796333,692673666,690551767,0,0,0,0,0,0,0,0,0,0,0,0,0,0,0,0,0,0,0,0,0
564509464,696612991,560280807,692189273,690108608,0,0,0,0,0,0,0,0,0,0,0,0,0,0,0,0,0,0,0,0,0
565744534,630753974,561545687,559446264,0,0,0,0,0,0,0,0,0,0,0,0,0,0,0,0,0,0,0,0,0,0
763714148,560275410,759300939,757219512,0,0,0,0,0,0,0,0,0,0,0,0,0,0,0,0,0,0,0,0,0,0
763231395,693675683,623422858,688779376,0,0,0,0,0,0,0,0,0,0,0,0,0,0,0,0,0,0,0,0,0,0
692941568,757984160,621323327,753413088,0,0,0,0,0,0,0,0,0,0,0,0,0,0,0,0,0,0,0,0,0,0
623009527,620893057,685886220,684023959,547728162,0,0,0,0,0,0,0,0,0,0,0,0,0,0,0,0,0,0,0,0,0
623397876,688402546,619637475,682651115,0,0,0,0,0,0,0,0,0,0,0,0,0,0,0,0,0,0,0,0,0,0
687975383,752955020,683717695,547793133,0,0,0,0,0,0,0,0,0,0,0,0,0,0,0,0,0,0,0,0,0,0
756593866,620296025,618513629,616399213,0,0,0,0,0,0,0,0,0,0,0,0,0,0,0,0,0,0,0,0,0,0
622381038,553194906,685336133,683492070,0,0,0,0,0,0,0,0,0,0,0,0,0,0,0,0,0,0,0,0,0,0
621974780,686990487,617788721,750002379,0,0,0,0,0,0,0,0,0,0,0,0,0,0,0,0,0,0,0,0,0,0
554859770,552756400,550653030,548549660,546634300,0,0,0,0,0,0,0,0,0,0,0,0,0,0,0,0,0,0,0,0,0
554178022,686949371,550618833,548505256,680577325,678877613,0,0,0,0,0,0,0,0,0,0,0,0,0,0,0,0,0,0,0,0
618841847,549639637,547546034,545877227,678024384,608827313,539629475,604649876,0,0,0,0,0,0,0,0,0,0,0,0,0,0,0,0,0,0
553151722,752382648,548960647,614364393,545153621,543054883,0,0,0,0,0,0,0,0,0,0,0,0,0,0,0,0,0,0,0,0
552749303,550642891,548536479,546412059,544586389,609607273,540409918,538321683,0,0,0,0,0,0,0,0,0,0,0,0,0,0,0,0,0,0
619851494,550633652,749851265,546676710,544614989,609638682,0,0,0,0,0,0,0,0,0,0,0,0,0,0,0,0,0,0,0,0
686297318,549978290,682744307,680607423,544253579,542143097,540032615,537922134,0,0,0,0,0,0,0,0,0,0,0,0,0,0,0,0,0,0
619206133,617107382,615008375,546229170,0,0,0,0,0,0,0,0,0,0,0,0,0,0,0,0,0,0,0,0,0,0
552098271,617109426,615011461,546223606,544129134,609141568,539936531,0,0,0,0,0,0,0,0,0,0,0,0,0,0,0,0,0,0,0
619213818,550009560,547914165,545822795,544100570,542001335,539902356,537803120,0,0,0,0,0,0,0,0,0,0,0,0,0,0,0,0,0,0
619217904,550015178,547921316,545834034,544084665,541984148,539884141,672001095,0,0,0,0,0,0,0,0,0,0,0,0,0,0,0,0,0,0
552118775,550028243,547937711,612968514,544049358,609054377,539841669,537737825,0,0,0,0,0,0,0,0,0,0,0,0,0,0,0,0,0,0
549586421,547479770,545351818,543224377,675334430,539009283,537291747,0,0,0,0,0,0,0,0,0,0,0,0,0,0,0,0,0,0,0
549988596,547887577,546428913,544310725,542206646,540102567,537998232,0,0,0,0,0,0,0,0,0,0,0,0,0,0,0,0,0,0,0
547534074,545436091,543338368,541241708,539145048,604156995,0,0,0,0,0,0,0,0,0,0,0,0,0,0,0,0,0,0,0,0
547530233,612543420,543338368,541241708,539145048,604156995,0,0,0,0,0,0,0,0,0,0,0,0,0,0,0,0,0,0,0,0
548947158,748610301,677402859,541070303,0,0,0,0,0,0,0,0,0,0,0,0,0,0,0,0,0,0,0,0,0,0
548966131,546887761,545119907,543016556,540912949,0,0,0,0,0,0,0,0,0,0,0,0,0,0,0,0,0,0,0,0,0
616076266,546890810,679332993,543011398,540907275,0,0,0,0,0,0,0,0,0,0,0,0,0,0,0,0,0,0,0,0,0
548576215,546478097,544493636,542396930,0,0,0,0,0,0,0,0,0,0,0,0,0,0,0,0,0,0,0,0,0,0
548569042,546476179,544383059,542287422,540191529,538095892,0,0,0,0,0,0,0,0,0,0,0,0,0,0,0,0,0,0,0,0
548571386,546470325,544369011,609379675,540172357,538073902,0,0,0,0,0,0,0,0,0,0,0,0,0,0,0,0,0,0,0,0
548568823,546466225,544363626,542264659,540165691,538066724,0,0,0,0,0,0,0,0,0,0,0,0,0,0,0,0,0,0,0,0
615002586,680630269,544275651,542164912,540054428,672161417,0,0,0,0,0,0,0,0,0,0,0,0,0,0,0,0,0,0,0,0
547907065,612920192,544116223,542018263,539920559,604931718,0,0,0,0,0,0,0,0,0,0,0,0,0,0,0,0,0,0,0,0
547911147,612930649,544099776,542000015,539900254,537800749,0,0,0,0,0,0,0,0,0,0,0,0,0,0,0,0,0,0,0,0
547920591,680060699,678284381,541963041,0,0,0,0,0,0,0,0,0,0,0,0,0,0,0,0,0,0,0,0,0,0
749254646,545857914,544043255,609045709,539830437,537724028,0,0,0,0,0,0,0,0,0,0,0,0,0,0,0,0,0,0,0,0
545450974,543759844,541668565,539577287,537486009,0,0,0,0,0,0,0,0,0,0,0,0,0,0,0,0,0,0,0,0,0
545443835,543351511,608364746,539160254,537064626,0,0,0,0,0,0,0,0,0,0,0,0,0,0,0,0,0,0,0,0,0
679643592,610435721,608337777,539130969,671250753,0,0,0,0,0,0,0,0,0,0,0,0,0,0,0,0,0,0,0,0,0
545394667,543278253,541174424,539070851,536967023,0,0,0,0,0,0,0,0,0,0,0,0,0,0,0,0,0,0,0,0,0
545363886,543240808,541135185,539030331,536924710,0,0,0,0,0,0,0,0,0,0,0,0,0,0,0,0,0,0,0,0,0
545363886,677458796,675353174,539030848,536924970,0,0,0,0,0,0,0,0,0,0,0,0,0,0,0,0,0,0,0,0,0
546854313,544756281,542659092,540978919,538881730,0,0,0,0,0,0,0,0,0,0,0,0,0,0,0,0,0,0,0,0,0
613976428,612281490,610188109,608094214,0,0,0,0,0,0,0,0,0,0,0,0,0,0,0,0,0,0,0,0,0,0
546865367,544771744,542675854,540579707,538483817,0,0,0,0,0,0,0,0,0,0,0,0,0,0,0,0,0,0,0,0,0
681090680,544782359,543047407,675165903,538849455,0,0,0,0,0,0,0,0,0,0,0,0,0,0,0,0,0,0,0,0,0
681090680,544783644,543045621,540945878,605954997,0,0,0,0,0,0,0,0,0,0,0,0,0,0,0,0,0,0,0,0,0
546868451,544776114,542680481,540584849,605598080,0,0,0,0,0,0,0,0,0,0,0,0,0,0,0,0,0,0,0,0,0
546876904,544799591,676925756,540617745,605927645,0,0,0,0,0,0,0,0,0,0,0,0,0,0,0,0,0,0,0,0,0
546887905,544808854,676935549,540627045,538536268,0,0,0,0,0,0,0,0,0,0,0,0,0,0,0,0,0,0,0,0,0
546895602,611930288,609841050,607751812,672771438,0,0,0,0,0,0,0,0,0,0,0,0,0,0,0,0,0,0,0,0,0
546895602,544820920,542731428,540642191,538552698,0,0,0,0,0,0,0,0,0,0,0,0,0,0,0,0,0,0,0,0,0
546910181,544845470,676976774,607780974,672803415,0,0,0,0,0,0,0,0,0,0,0,0,0,0,0,0,0,0,0,0,0
546468044,544365969,542267261,540168554,538069846,0,0,0,0,0,0,0,0,0,0,0,0,0,0,0,0,0,0,0,0,0
613574367,544359828,542259835,540159842,538059849,0,0,0,0,0,0,0,0,0,0,0,0,0,0,0,0,0,0,0,0,0
680648588,544304399,609590753,540394680,538307215,0,0,0,0,0,0,0,0,0,0,0,0,0,0,0,0,0,0,0,0,0
612898519,544333553,542230243,674344406,672241096,0,0,0,0,0,0,0,0,0,0,0,0,0,0,0,0,0,0,0,0,0
545794026,543691197,541592238,539493280,538041340,0,0,0,0,0,0,0,0,0,0,0,0,0,0,0,0,0,0,0,0,0
545795824,543693766,541595064,539496107,537397405,0,0,0,0,0,0,0,0,0,0,0,0,0,0,0,0,0,0,0,0,0
545805311,543706572,541608891,539510954,537413274,0,0,0,0,0,0,0,0,0,0,0,0,0,0,0,0,0,0,0,0,0
612917483,543708083,541609888,539511693,537413242,0,0,0,0,0,0,0,0,0,0,0,0,0,0,0,0,0,0,0,0,0
545818071,543725965,541630325,606643548,537439044,0,0,0,0,0,0,0,0,0,0,0,0,0,0,0,0,0,0,0,0,0
545832407,543744420,541650067,539555971,671678578,0,0,0,0,0,0,0,0,0,0,0,0,0,0,0,0,0,0,0,0,0
610450528,541245506,539149092,604161797,0,0,0,0,0,0,0,0,0,0,0,0,0,0,0,0,0,0,0,0,0,0
543334655,608346356,539140586,537043423,0,0,0,0,0,0,0,0,0,0,0,0,0,0,0,0,0,0,0,0,0,0
543327863,541230178,539132493,537034808,0,0,0,0,0,0,0,0,0,0,0,0,0,0,0,0,0,0,0,0,0,0
543317472,541218773,539119818,537021119,0,0,0,0,0,0,0,0,0,0,0,0,0,0,0,0,0,0,0,0,0,0
543309310,541209846,539110381,537010917,0,0,0,0,0,0,0,0,0,0,0,0,0,0,0,0,0,0,0,0,0,0
544756987,542659566,674779618,538464469,0,0,0,0,0,0,0,0,0,0,0,0,0,0,0,0,0,0,0,0,0,0
746110966,542689773,540594915,538500057,0,0,0,0,0,0,0,0,0,0,0,0,0,0,0,0,0,0,0,0,0,0
611914461,542714061,607731645,538531245,0,0,0,0,0,0,0,0,0,0,0,0,0,0,0,0,0,0,0,0,0,0
544394468,542298584,540202700,538106560,0,0,0,0,0,0,0,0,0,0,0,0,0,0,0,0,0,0,0,0,0,0
544400275,609414273,540211056,538532090,0,0,0,0,0,0,0,0,0,0,0,0,0,0,0,0,0,0,0,0,0,0
544390890,542294748,607307469,538102463,0,0,0,0,0,0,0,0,0,0,0,0,0,0,0,0,0,0,0,0,0,0
678594969,676497284,741508462,672301913,0,0,0,0,0,0,0,0,0,0,0,0,0,0,0,0,0,0,0,0,0,0
544368604,542269644,540170684,538071468,0,0,0,0,0,0,0,0,0,0,0,0,0,0,0,0,0,0,0,0,0,0
678483009,609264928,540046593,538353117,0,0,0,0,0,0,0,0,0,0,0,0,0,0,0,0,0,0,0,0,0,0
678483009,542157869,540049692,537941517,0,0,0,0,0,0,0,0,0,0,0,0,0,0,0,0,0,0,0,0,0,0
543695328,541596370,539497155,537398196,0,0,0,0,0,0,0,0,0,0,0,0,0,0,0,0,0,0,0,0,0,0
543709146,541616534,606632529,537431053,0,0,0,0,0,0,0,0,0,0,0,0,0,0,0,0,0,0,0,0,0,0
590692765,588369440,586282139,0,0,0,0,0,0,0,0,0,0,0,0,0,0,0,0,0,0,0,0,0,0,0
581463741,579366622,577269240,0,0,0,0,0,0,0,0,0,0,0,0,0,0,0,0,0,0,0,0,0,0,0
705356146,703223455,566874061,0,0,0,0,0,0,0,0,0,0,0,0,0,0,0,0,0,0,0,0,0,0,0
564159563,763436688,694279382,0,0,0,0,0,0,0,0,0,0,0,0,0,0,0,0,0,0,0,0,0,0,0
766943860,764473091,762417285,0,0,0,0,0,0,0,0,0,0,0,0,0,0,0,0,0,0,0,0,0,0,0
766943860,630587638,762417285,0,0,0,0,0,0,0,0,0,0,0,0,0,0,0,0,0,0,0,0,0,0,0
699417214,697362875,761796243,0,0,0,0,0,0,0,0,0,0,0,0,0,0,0,0,0,0,0,0,0,0,0
632142895,562945167,627964909,0,0,0,0,0,0,0,0,0,0,0,0,0,0,0,0,0,0,0,0,0,0,0
765377164,628641588,760764385,0,0,0,0,0,0,0,0,0,0,0,0,0,0,0,0,0,0,0,0,0,0,0
765328950,561563648,760777419,0,0,0,0,0,0,0,0,0,0,0,0,0,0,0,0,0,0,0,0,0,0,0
698107119,762962549,760411591,0,0,0,0,0,0,0,0,0,0,0,0,0,0,0,0,0,0,0,0,0,0,0
697669729,695324970,760368099,0,0,0,0,0,0,0,0,0,0,0,0,0,0,0,0,0,0,0,0,0,0,0
764832411,762400333,760354801,0,0,0,0,0,0,0,0,0,0,0,0,0,0,0,0,0,0,0,0,0,0,0
761707031,759564728,690066536,0,0,0,0,0,0,0,0,0,0,0,0,0,0,0,0,0,0,0,0,0,0,0
694605520,692113737,757172406,0,0,0,0,0,0,0,0,0,0,0,0,0,0,0,0,0,0,0,0,0,0,0
558135382,623018532,553817318,0,0,0,0,0,0,0,0,0,0,0,0,0,0,0,0,0,0,0,0,0,0,0
626862358,759015382,622388113,0,0,0,0,0,0,0,0,0,0,0,0,0,0,0,0,0,0,0,0,0,0,0
625497238,556281397,554628807,0,0,0,0,0,0,0,0,0,0,0,0,0,0,0,0,0,0,0,0,0,0,0
760114556,623410990,688417764,0,0,0,0,0,0,0,0,0,0,0,0,0,0,0,0,0,0,0,0,0,0,0
756633284,620365903,752628174,0,0,0,0,0,0,0,0,0,0,0,0,0,0,0,0,0,0,0,0,0,0,0
756201692,619892092,617799964,0,0,0,0,0,0,0,0,0,0,0,0,0,0,0,0,0,0,0,0,0,0,0
621983084,687000645,617799964,0,0,0,0,0,0,0,0,0,0,0,0,0,0,0,0,0,0,0,0,0,0,0
686962666,751952519,749832485,0,0,0,0,0,0,0,0,0,0,0,0,0,0,0,0,0,0,0,0,0,0,0
753411312,751939287,615562576,0,0,0,0,0,0,0,0,0,0,0,0,0,0,0,0,0,0,0,0,0,0,0
550038780,547965883,546081775,0,0,0,0,0,0,0,0,0,0,0,0,0,0,0,0,0,0,0,0,0,0,0
683855833,547549570,545928359,0,0,0,0,0,0,0,0,0,0,0,0,0,0,0,0,0,0,0,0,0,0,0
617108681,547900260,546231081,0,0,0,0,0,0,0,0,0,0,0,0,0,0,0,0,0,0,0,0,0,0,0
679543461,543182419,541069879,0,0,0,0,0,0,0,0,0,0,0,0,0,0,0,0,0,0,0,0,0,0,0
679543461,543181650,541068599,0,0,0,0,0,0,0,0,0,0,0,0,0,0,0,0,0,0,0,0,0,0,0
541248511,539152376,537056240,0,0,0,0,0,0,0,0,0,0,0,0,0,0,0,0,0,0,0,0,0,0,0
608338581,539125098,537020991,0,0,0,0,0,0,0,0,0,0,0,0,0,0,0,0,0,0,0,0,0,0,0
542300302,607308399,538099025,0,0,0,0,0,0,0,0,0,0,0,0,0,0,0,0,0,0,0,0,0,0,0
609380422,674390567,739400967,0,0,0,0,0,0,0,0,0,0,0,0,0,0,0,0,0,0,0,0,0,0,0
541630716,539534835,537438955,0,0,0,0,0,0,0,0,0,0,0,0,0,0,0,0,0,0,0,0,0,0,0
