0,1,2,3,4,5,6,7,8,9,10,11,12,13,14,15,16,17,18,19,20,21,22,23,24,25
589945360,587841575,585737534,583633749,581522819,579411889,711523027,575201514,573101046,570619894,0,0,0,0,0,0,0,0,0,0,0,0,0,0,0,0
589925481,587823226,585721227,583618972,581511615,0,0,0,0,0,0,0,0,0,0,0,0,0,0,0,0,0,0,0,0,0
589928803,587826037,585723272,583620506,581512125,0,0,0,0,0,0,0,0,0,0,0,0,0,0,0,0,0,0,0,0,0
589479749,587381848,585284204,583186559,581088165,713207500,576891881,574794236,0,0,0,0,0,0,0,0,0,0,0,0,0,0,0,0,0,0
589598480,587500860,585404262,583307408,581211616,578965815,643976817,0,0,0,0,0,0,0,0,0,0,0,0,0,0,0,0,0,0,0
589629209,587529536,585428839,583328399,581224671,713177398,643976817,776100761,572678829,0,0,0,0,0,0,0,0,0,0,0,0,0,0,0,0,0
589450625,587354008,585257899,583162298,581067990,578973939,0,0,0,0,0,0,0,0,0,0,0,0,0,0,0,0,0,0,0,0
589436814,587341981,585247403,583152569,581060310,578968051,0,0,0,0,0,0,0,0,0,0,0,0,0,0,0,0,0,0,0,0
589692198,587587149,585482355,583377305,581264615,578928443,576843125,574752924,572659631,570566339,568473046,566379753,765612796,0,0,0,0,0,0,0,0,0,0,0,0,0
589685118,587581087,652585663,717590241,581013545,646039915,711062685,574754751,572661455,570567904,568474608,0,0,0,0,0,0,0,0,0,0,0,0,0,0,0
589406339,587313812,719438756,650237622,648150493,714605534,0,0,0,0,0,0,0,0,0,0,0,0,0,0,0,0,0,0,0,0
589436407,588776920,586684125,584591074,582502124,578322940,0,0,0,0,0,0,0,0,0,0,0,0,0,0,0,0,0,0,0,0
589365064,587274842,585184877,650203776,648121255,0,0,0,0,0,0,0,0,0,0,0,0,0,0,0,0,0,0,0,0,0
589363787,587273566,585183856,583094403,648121255,0,0,0,0,0,0,0,0,0,0,0,0,0,0,0,0,0,0,0,0,0
589418722,721542889,585232113,583138298,582486991,580393709,0,0,0,0,0,0,0,0,0,0,0,0,0,0,0,0,0,0,0,0
589418722,587324907,585232113,583138298,582486991,580393709,0,0,0,0,0,0,0,0,0,0,0,0,0,0,0,0,0,0,0,0
657989086,723001831,586688239,718809848,0,0,0,0,0,0,0,0,0,0,0,0,0,0,0,0,0,0,0,0,0,0
589408240,721532920,586678399,584583056,582490034,580396756,578302702,0,0,0,0,0,0,0,0,0,0,0,0,0,0,0,0,0,0,0
590874491,588778890,720900761,651696296,582493383,580399333,578304508,0,0,0,0,0,0,0,0,0,0,0,0,0,0,0,0,0,0,0
589311378,587224994,585138354,650160577,580976608,578900987,578293317,576199282,574103944,572008351,569912757,567817420,565721826,563626488,0,0,0,0,0,0,0,0,0,0,0,0
590888065,588791446,586694828,584598209,582502124,0,0,0,0,0,0,0,0,0,0,0,0,0,0,0,0,0,0,0,0,0
658423703,589217204,587119312,585021676,582502955,647515749,578310545,576213934,574117053,572020171,569923290,567826408,565729526,0,0,0,0,0,0,0,0,0,0,0,0,0
590895227,723015818,586701210,718821801,716724935,580410341,578313468,0,0,0,0,0,0,0,0,0,0,0,0,0,0,0,0,0,0,0
590900181,588802782,586705383,584608240,0,0,0,0,0,0,0,0,0,0,0,0,0,0,0,0,0,0,0,0,0,0
590915934,723034992,586719107,584620693,582521016,580421083,578322164,0,0,0,0,0,0,0,0,0,0,0,0,0,0,0,0,0,0,0
590917499,588819082,586720410,584621993,582522055,714639845,578322940,0,0,0,0,0,0,0,0,0,0,0,0,0,0,0,0,0,0,0
590973515,588871005,586768750,584666239,582558370,580451272,712564197,576244217,573765373,0,0,0,0,0,0,0,0,0,0,0,0,0,0,0,0,0
590979142,588875864,586772586,584669052,783885214,0,0,0,0,0,0,0,0,0,0,0,0,0,0,0,0,0,0,0,0,0
590947056,588846327,586745854,584250303,649258457,580048884,0,0,0,0,0,0,0,0,0,0,0,0,0,0,0,0,0,0,0,0
590955999,588854760,586753521,584253348,582152131,580050659,577950458,0,0,0,0,0,0,0,0,0,0,0,0,0,0,0,0,0,0,0
591019202,656022732,586809303,584703969,716808183,580054105,577952648,575852712,640863160,571655881,569557466,701676779,565360892,0,0,0,0,0,0,0,0,0,0,0,0,0
590613448,588517347,586421246,584240928,582141782,580042636,577943988,575845839,573748188,571650538,703770359,0,0,0,0,0,0,0,0,0,0,0,0,0,0,0
590515938,588419050,653431026,584225275,0,0,0,0,0,0,0,0,0,0,0,0,0,0,0,0,0,0,0,0,0,0
590498832,588403239,586307646,584212053,582118018,580023728,577928656,575833062,573736434,571640061,0,0,0,0,0,0,0,0,0,0,0,0,0,0,0,0
590496529,588400935,586305342,584209748,582115713,580021678,577926864,710048998,573735153,571638780,0,0,0,0,0,0,0,0,0,0,0,0,0,0,0,0
590751749,588647718,586544197,785766759,0,0,0,0,0,0,0,0,0,0,0,0,0,0,0,0,0,0,0,0,0,0
590454311,722579004,586268753,584175973,582088078,0,0,0,0,0,0,0,0,0,0,0,0,0,0,0,0,0,0,0,0,0
590424841,588334112,586243383,651261518,649177468,579984554,577896653,575805668,573711855,638726650,0,0,0,0,0,0,0,0,0,0,0,0,0,0,0,0
657910332,655801441,586583686,584474795,582354420,647052099,644972666,575778719,573687473,571596483,569505237,567413223,565321977,0,0,0,0,0,0,0,0,0,0,0,0,0
589832599,587736740,719858354,583544768,581449947,579355126,0,0,0,0,0,0,0,0,0,0,0,0,0,0,0,0,0,0,0,0
589836466,587740350,585644234,583548117,648561644,0,0,0,0,0,0,0,0,0,0,0,0,0,0,0,0,0,0,0,0,0
589845100,587748221,585651342,650663070,581457600,579360993,577264378,0,0,0,0,0,0,0,0,0,0,0,0,0,0,0,0,0,0,0
724089405,587773265,585674597,583575928,581475999,579375560,577275878,575176954,0,0,0,0,0,0,0,0,0,0,0,0,0,0,0,0,0,0
589878738,587779547,585680357,583581166,0,0,0,0,0,0,0,0,0,0,0,0,0,0,0,0,0,0,0,0,0,0
587216692,585131338,583045984,580972428,578897847,576818392,574733038,572641785,571998615,569904302,567809989,565715676,563621363,0,0,0,0,0,0,0,0,0,0,0,0,0
589096985,587007555,584918893,582838721,580474649,578365015,643368320,574158997,572057770,569956543,702072788,565754089,563652862,0,0,0,0,0,0,0,0,0,0,0,0,0
588883439,586779640,651360071,649258616,0,0,0,0,0,0,0,0,0,0,0,0,0,0,0,0,0,0,0,0,0,0
588584977,586484025,584384097,582279344,580174591,577911105,575817322,573721982,571626642,569531302,567435962,632449486,563245283,561149943,0,0,0,0,0,0,0,0,0,0,0,0
585893216,583809158,581737937,579469089,577353050,642351743,640248210,705253285,568932024,633937355,564724958,562622193,627242215,0,0,0,0,0,0,0,0,0,0,0,0,0
583803742,581735350,579469074,577350996,575239552,573135254,571030956,568926658,566822360,564718830,629339372,0,0,0,0,0,0,0,0,0,0,0,0,0,0,0
584763160,582633287,580504439,712600475,643378354,574164414,572059850,569954774,567849953,565744877,697857529,0,0,0,0,0,0,0,0,0,0,0,0,0,0,0
584354827,582255208,580155333,577926930,575831104,640843607,571638383,569541766,567445406,565349045,630361292,561156068,760386043,0,0,0,0,0,0,0,0,0,0,0,0,0
581622085,579490683,711585958,575253954,573148112,571042527,568936941,566831355,564326067,629333716,560123894,0,0,0,0,0,0,0,0,0,0,0,0,0,0,0
581369048,578845999,576776810,708915090,706827174,637630393,702651085,700563169,631366644,563609775,561518036,559426298,0,0,0,0,0,0,0,0,0,0,0,0,0,0
580947601,645987516,576802526,574719987,572630014,571999851,569905543,567811235,565716927,563622363,561527799,0,0,0,0,0,0,0,0,0,0,0,0,0,0,0
581824066,579735986,577294859,642301763,573093472,570993788,568894360,566794676,564694992,562595564,0,0,0,0,0,0,0,0,0,0,0,0,0,0,0,0
581789254,579709623,711533328,575210056,573109348,571008127,568906651,566805175,564703954,696820206,0,0,0,0,0,0,0,0,0,0,0,0,0,0,0,0
579137541,577035655,574935262,706878482,570565437,635578728,700592020,564278975,562183403,0,0,0,0,0,0,0,0,0,0,0,0,0,0,0,0,0
579269418,577140622,642131152,707132914,570496027,568409660,767649629,564236671,562150048,560063425,557976035,0,0,0,0,0,0,0,0,0,0,0,0,0,0,0
647273587,578063569,710042646,573729333,569537651,701659538,632455089,697468113,628263663,0,0,0,0,0,0,0,0,0,0,0,0,0,0,0,0,0
778445340,575002235,572894890,570787545,568429073,566342208,564255343,629276830,560080590,692211198,0,0,0,0,0,0,0,0,0,0,0,0,0,0,0,0
578089756,710204013,640994965,706003646,569685990,567426071,565331775,630346599,561143696,559049656,556955616,0,0,0,0,0,0,0,0,0,0,0,0,0,0,0
578089574,575985589,640994012,571615756,636631091,567428699,632443778,563241386,628256465,559054073,0,0,0,0,0,0,0,0,0,0,0,0,0,0,0,0
577645168,575553983,640568552,638102037,568893247,566793576,766020240,0,0,0,0,0,0,0,0,0,0,0,0,0,0,0,0,0,0,0
574893698,572797104,570700511,568504598,633515588,564308851,562210978,560113104,558015231,0,0,0,0,0,0,0,0,0,0,0,0,0,0,0,0,0
576618053,641631096,572425900,570329566,567833107,565734982,563636854,561538472,559440602,0,0,0,0,0,0,0,0,0,0,0,0,0,0,0,0,0
576477816,708612518,706529748,570032134,635030323,700027745,630807694,561587388,559476713,0,0,0,0,0,0,0,0,0,0,0,0,0,0,0,0,0
576475379,574257433,572145723,704251741,769249662,565811616,563699906,561588196,559084237,0,0,0,0,0,0,0,0,0,0,0,0,0,0,0,0,0
709891318,573503525,638512739,569304226,634313696,562575200,560480670,625495004,0,0,0,0,0,0,0,0,0,0,0,0,0,0,0,0,0,0
575595568,707714407,571398047,569299414,698891081,562578048,560482742,558387437,0,0,0,0,0,0,0,0,0,0,0,0,0,0,0,0,0,0
575582536,573485952,571389112,569292271,566773803,564676960,562580883,558388983,0,0,0,0,0,0,0,0,0,0,0,0,0,0,0,0,0,0
575557958,573462651,638476463,569272548,566791964,564692817,694712251,558395376,0,0,0,0,0,0,0,0,0,0,0,0,0,0,0,0,0,0
575519839,573428625,638446275,569245686,566815532,564712542,629718416,560506307,558403317,0,0,0,0,0,0,0,0,0,0,0,0,0,0,0,0,0
777704589,708444129,772980889,701081523,0,0,0,0,0,0,0,0,0,0,0,0,0,0,0,0,0,0,0,0,0,0
573838691,638851734,569647050,634660093,565361978,563263598,561164963,559066584,0,0,0,0,0,0,0,0,0,0,0,0,0,0,0,0,0,0
772466443,636130869,768230495,699004553,562668979,694768605,558035130,0,0,0,0,0,0,0,0,0,0,0,0,0,0,0,0,0,0,0
570726670,568626264,566526625,631536105,629307195,627212675,558009036,0,0,0,0,0,0,0,0,0,0,0,0,0,0,0,0,0,0,0
639294856,570069409,702170553,700054993,697938666,628290900,760405151,556975082,0,0,0,0,0,0,0,0,0,0,0,0,0,0,0,0,0,0
571476344,569399186,567322285,565245128,697384931,560467309,759703483,0,0,0,0,0,0,0,0,0,0,0,0,0,0,0,0,0,0,0
570993698,568893768,701011565,766020240,0,0,0,0,0,0,0,0,0,0,0,0,0,0,0,0,0,0,0,0,0,0
571320108,770558069,567143103,564721675,629725012,560510622,558404840,0,0,0,0,0,0,0,0,0,0,0,0,0,0,0,0,0,0,0
704444194,635252074,633169587,697917952,762914891,559477400,557365733,0,0,0,0,0,0,0,0,0,0,0,0,0,0,0,0,0,0,0
704295993,635068258,565840524,697939893,561603294,693301168,0,0,0,0,0,0,0,0,0,0,0,0,0,0,0,0,0,0,0,0
771159195,701928410,766556193,697374560,561084831,559012829,0,0,0,0,0,0,0,0,0,0,0,0,0,0,0,0,0,0,0,0
566863797,698969554,696857071,560131014,0,0,0,0,0,0,0,0,0,0,0,0,0,0,0,0,0,0,0,0,0,0
767577502,564174007,763423439,627128040,557322340,756558002,0,0,0,0,0,0,0,0,0,0,0,0,0,0,0,0,0,0,0,0
633257773,631159182,561951218,626545497,557341120,0,0,0,0,0,0,0,0,0,0,0,0,0,0,0,0,0,0,0,0,0
566024481,563951493,628987880,559484237,0,0,0,0,0,0,0,0,0,0,0,0,0,0,0,0,0,0,0,0,0,0
700118331,697987701,561639854,760835559,624088789,0,0,0,0,0,0,0,0,0,0,0,0,0,0,0,0,0,0,0,0,0
767222936,697987003,762969565,760411701,556979115,0,0,0,0,0,0,0,0,0,0,0,0,0,0,0,0,0,0,0,0,0
565558860,697662122,561099539,559019889,624048334,0,0,0,0,0,0,0,0,0,0,0,0,0,0,0,0,0,0,0,0,0
699241504,562937206,560850635,558429474,690539384,554214349,0,0,0,0,0,0,0,0,0,0,0,0,0,0,0,0,0,0,0,0
763703315,761592482,625092671,555901646,0,0,0,0,0,0,0,0,0,0,0,0,0,0,0,0,0,0,0,0,0,0
697989503,762967733,693727468,758305747,0,0,0,0,0,0,0,0,0,0,0,0,0,0,0,0,0,0,0,0,0,0
562924547,627948652,558755543,623437121,688435883,0,0,0,0,0,0,0,0,0,0,0,0,0,0,0,0,0,0,0,0,0
558529556,690612845,688477638,551736831,0,0,0,0,0,0,0,0,0,0,0,0,0,0,0,0,0,0,0,0,0,0
618845166,617165553,682205369,680192272,0,0,0,0,0,0,0,0,0,0,0,0,0,0,0,0,0,0,0,0,0,0
753403390,550635983,682731890,748051544,0,0,0,0,0,0,0,0,0,0,0,0,0,0,0,0,0,0,0,0,0,0
549649146,547942610,680099141,544010929,676119170,539791954,537682466,0,0,0,0,0,0,0,0,0,0,0,0,0,0,0,0,0,0,0
752024049,750324165,546954513,545017425,0,0,0,0,0,0,0,0,0,0,0,0,0,0,0,0,0,0,0,0,0,0
548969711,546891115,545116894,610122161,540909957,538806361,0,0,0,0,0,0,0,0,0,0,0,0,0,0,0,0,0,0,0,0
548564460,546451813,611643354,609550509,540349569,538257492,0,0,0,0,0,0,0,0,0,0,0,0,0,0,0,0,0,0,0,0
548553971,546429813,678786548,542481098,540393120,605414006,0,0,0,0,0,0,0,0,0,0,0,0,0,0,0,0,0,0,0,0
682108837,546391032,544243653,676347316,0,0,0,0,0,0,0,0,0,0,0,0,0,0,0,0,0,0,0,0,0,0
547910141,545816992,543724612,541628966,539533320,604920035,0,0,0,0,0,0,0,0,0,0,0,0,0,0,0,0,0,0,0,0
547912155,612930390,544100809,676219037,607010928,537802564,0,0,0,0,0,0,0,0,0,0,0,0,0,0,0,0,0,0,0,0
545449975,543753441,541662160,673788608,537479855,0,0,0,0,0,0,0,0,0,0,0,0,0,0,0,0,0,0,0,0,0
545440990,543348894,541253513,539157876,537062495,0,0,0,0,0,0,0,0,0,0,0,0,0,0,0,0,0,0,0,0,0
545396414,543282798,541179987,673294649,536974110,0,0,0,0,0,0,0,0,0,0,0,0,0,0,0,0,0,0,0,0,0
546836404,543265756,541161167,539056578,536952245,0,0,0,0,0,0,0,0,0,0,0,0,0,0,0,0,0,0,0,0,0
546901194,679046266,542739551,674868037,672779050,0,0,0,0,0,0,0,0,0,0,0,0,0,0,0,0,0,0,0,0,0
546498551,544799466,542706141,540613583,538521026,0,0,0,0,0,0,0,0,0,0,0,0,0,0,0,0,0,0,0,0,0
546502099,679031256,542723274,540632765,538542257,0,0,0,0,0,0,0,0,0,0,0,0,0,0,0,0,0,0,0,0,0
546499031,544811240,542720218,540629453,538538432,0,0,0,0,0,0,0,0,0,0,0,0,0,0,0,0,0,0,0,0,0
546488039,544395432,542299795,540204158,538108521,0,0,0,0,0,0,0,0,0,0,0,0,0,0,0,0,0,0,0,0,0
546486228,544392331,542296178,540200026,538103873,0,0,0,0,0,0,0,0,0,0,0,0,0,0,0,0,0,0,0,0,0
546480103,611491751,542285714,540188797,538091624,0,0,0,0,0,0,0,0,0,0,0,0,0,0,0,0,0,0,0,0,0
546474981,544375204,542277262,540179321,538081123,0,0,0,0,0,0,0,0,0,0,0,0,0,0,0,0,0,0,0,0,0
680688339,544369289,542270834,540172380,605183557,0,0,0,0,0,0,0,0,0,0,0,0,0,0,0,0,0,0,0,0,0
546469336,544366736,542268024,540169056,538070344,0,0,0,0,0,0,0,0,0,0,0,0,0,0,0,0,0,0,0,0,0
545799932,543698635,541599931,539501227,537402778,0,0,0,0,0,0,0,0,0,0,0,0,0,0,0,0,0,0,0,0,0
545798342,543696249,541597280,539498566,0,0,0,0,0,0,0,0,0,0,0,0,0,0,0,0,0,0,0,0,0,0
545810928,610823613,541618093,539521180,537424523,0,0,0,0,0,0,0,0,0,0,0,0,0,0,0,0,0,0,0,0,0
545818043,543725673,541630285,539534642,537439255,0,0,0,0,0,0,0,0,0,0,0,0,0,0,0,0,0,0,0,0,0
545825996,543737731,675861099,539549267,537455163,0,0,0,0,0,0,0,0,0,0,0,0,0,0,0,0,0,0,0,0,0
545833914,610858600,541656141,539563314,537470487,0,0,0,0,0,0,0,0,0,0,0,0,0,0,0,0,0,0,0,0,0
545840313,543758438,608775498,539574831,537483027,0,0,0,0,0,0,0,0,0,0,0,0,0,0,0,0,0,0,0,0,0
544782564,542687958,540593352,538498746,0,0,0,0,0,0,0,0,0,0,0,0,0,0,0,0,0,0,0,0,0,0
544395826,542298133,540284914,538187476,0,0,0,0,0,0,0,0,0,0,0,0,0,0,0,0,0,0,0,0,0,0
544493479,542397559,540300869,538204179,0,0,0,0,0,0,0,0,0,0,0,0,0,0,0,0,0,0,0,0,0,0
544380659,542283238,674403546,538088654,0,0,0,0,0,0,0,0,0,0,0,0,0,0,0,0,0,0,0,0,0,0
544377076,542279144,540181212,538083536,0,0,0,0,0,0,0,0,0,0,0,0,0,0,0,0,0,0,0,0,0,0
658400347,589196662,587102352,0,0,0,0,0,0,0,0,0,0,0,0,0,0,0,0,0,0,0,0,0,0,0
590694131,588363028,586270509,0,0,0,0,0,0,0,0,0,0,0,0,0,0,0,0,0,0,0,0,0,0,0
791191264,789093096,585668593,0,0,0,0,0,0,0,0,0,0,0,0,0,0,0,0,0,0,0,0,0,0,0
589220373,654231615,585025385,0,0,0,0,0,0,0,0,0,0,0,0,0,0,0,0,0,0,0,0,0,0,0
586347821,584652281,582493415,0,0,0,0,0,0,0,0,0,0,0,0,0,0,0,0,0,0,0,0,0,0,0
584335112,582237283,580139708,0,0,0,0,0,0,0,0,0,0,0,0,0,0,0,0,0,0,0,0,0,0,0
577527708,709673448,774508305,0,0,0,0,0,0,0,0,0,0,0,0,0,0,0,0,0,0,0,0,0,0,0
577261699,575173836,640190192,0,0,0,0,0,0,0,0,0,0,0,0,0,0,0,0,0,0,0,0,0,0,0
709513386,707381721,637726335,0,0,0,0,0,0,0,0,0,0,0,0,0,0,0,0,0,0,0,0,0,0,0
710545892,640870714,638762954,0,0,0,0,0,0,0,0,0,0,0,0,0,0,0,0,0,0,0,0,0,0,0
568774663,566641543,564212497,0,0,0,0,0,0,0,0,0,0,0,0,0,0,0,0,0,0,0,0,0,0,0
565306129,563241334,561177820,0,0,0,0,0,0,0,0,0,0,0,0,0,0,0,0,0,0,0,0,0,0,0
559546897,557420143,756619467,0,0,0,0,0,0,0,0,0,0,0,0,0,0,0,0,0,0,0,0,0,0,0
624857660,555653097,620258450,0,0,0,0,0,0,0,0,0,0,0,0,0,0,0,0,0,0,0,0,0,0,0
618848934,684310228,682258830,0,0,0,0,0,0,0,0,0,0,0,0,0,0,0,0,0,0,0,0,0,0,0
618845083,684315379,682266558,0,0,0,0,0,0,0,0,0,0,0,0,0,0,0,0,0,0,0,0,0,0,0
618837481,549637494,547546627,0,0,0,0,0,0,0,0,0,0,0,0,0,0,0,0,0,0,0,0,0,0,0
551711960,616713044,614777298,0,0,0,0,0,0,0,0,0,0,0,0,0,0,0,0,0,0,0,0,0,0,0
618817252,616706156,614787572,0,0,0,0,0,0,0,0,0,0,0,0,0,0,0,0,0,0,0,0,0,0,0
753010932,683767692,748741923,0,0,0,0,0,0,0,0,0,0,0,0,0,0,0,0,0,0,0,0,0,0,0
752997840,683740229,682006458,0,0,0,0,0,0,0,0,0,0,0,0,0,0,0,0,0,0,0,0,0,0,0
619881460,550678311,548678749,0,0,0,0,0,0,0,0,0,0,0,0,0,0,0,0,0,0,0,0,0,0,0
552766959,617770262,750032707,0,0,0,0,0,0,0,0,0,0,0,0,0,0,0,0,0,0,0,0,0,0,0
619220679,617136683,749602433,0,0,0,0,0,0,0,0,0,0,0,0,0,0,0,0,0,0,0,0,0,0,0
616739239,547535693,545525565,0,0,0,0,0,0,0,0,0,0,0,0,0,0,0,0,0,0,0,0,0,0,0
616718772,614613856,545586276,0,0,0,0,0,0,0,0,0,0,0,0,0,0,0,0,0,0,0,0,0,0,0
551058404,548966290,681457042,0,0,0,0,0,0,0,0,0,0,0,0,0,0,0,0,0,0,0,0,0,0,0
684859389,615632830,546363395,0,0,0,0,0,0,0,0,0,0,0,0,0,0,0,0,0,0,0,0,0,0,0
541253103,606266596,537062106,0,0,0,0,0,0,0,0,0,0,0,0,0,0,0,0,0,0,0,0,0,0,0
541221370,539122674,537023977,0,0,0,0,0,0,0,0,0,0,0,0,0,0,0,0,0,0,0,0,0,0,0
610177531,540970967,538873522,0,0,0,0,0,0,0,0,0,0,0,0,0,0,0,0,0,0,0,0,0,0,0
