0,1,2,3,4,5,6,7,8,9,10,11,12,13,14,15,16,17,18,19,20,21,22,23,24,25
589908353,587806609,585704865,717820850,581497810,579391730,0,0,0,0,0,0,0,0,0,0,0,0,0,0,0,0,0,0,0,0
724333483,588028103,585940195,583671812,715774523,579441266,577330332,575223991,573122245,571020499,568918753,566817774,564716028,562229229,0,0,0,0,0,0,0,0,0,0,0,0
589925513,587823511,585721253,583618995,581512142,579405033,577300990,574811622,572712688,704831482,0,0,0,0,0,0,0,0,0,0,0,0,0,0,0,0
589930955,587827669,719941856,583620843,581105809,579003329,576902117,574802173,0,0,0,0,0,0,0,0,0,0,0,0,0,0,0,0,0,0
589485017,587387106,585289194,717408754,0,0,0,0,0,0,0,0,0,0,0,0,0,0,0,0,0,0,0,0,0,0
589476311,587378912,585281257,583183858,0,0,0,0,0,0,0,0,0,0,0,0,0,0,0,0,0,0,0,0,0,0
589587285,587489655,585392026,583294396,581078280,578981964,576885632,574788770,572691892,570595013,568497878,566400999,564304120,0,0,0,0,0,0,0,0,0,0,0,0,0
589456414,587360565,652373324,583168612,581073554,578978754,576883175,574787071,0,0,0,0,0,0,0,0,0,0,0,0,0,0,0,0,0,0
723861987,587543035,585221401,583128625,581039713,713167760,576859316,574766284,572671192,570576100,568481008,633494779,0,0,0,0,0,0,0,0,0,0,0,0,0,0
723861987,587314434,585221401,583128625,581039713,713167760,576859316,574766284,572671192,570576100,568481008,633494779,0,0,0,0,0,0,0,0,0,0,0,0,0,0
589412486,587319702,585226918,583134134,648154069,646065653,0,0,0,0,0,0,0,0,0,0,0,0,0,0,0,0,0,0,0,0
589724044,587615154,719723735,583397885,580997711,646033306,576845266,641868023,574096362,0,0,0,0,0,0,0,0,0,0,0,0,0,0,0,0,0
791068621,587634405,652246019,583050780,0,0,0,0,0,0,0,0,0,0,0,0,0,0,0,0,0,0,0,0,0,0
589330299,587242890,585155481,717285544,580989382,578911203,576828410,576194698,708317085,572004271,569909186,634922964,565718759,563623674,0,0,0,0,0,0,0,0,0,0,0,0
591300256,589203645,587107035,585010424,649621301,580414573,578316951,643328434,574122179,572024786,569927393,567830000,699950335,0,0,0,0,0,0,0,0,0,0,0,0,0
590902548,588805166,586707529,584609891,582512024,580413901,578316020,0,0,0,0,0,0,0,0,0,0,0,0,0,0,0,0,0,0,0
591279533,589184200,587088611,652102141,582527033,580426606,578326935,576228018,574129855,572031949,569934042,567835880,565737973,0,0,0,0,0,0,0,0,0,0,0,0,0
590916211,588817795,586719378,584620962,582521281,580421599,645431542,0,0,0,0,0,0,0,0,0,0,0,0,0,0,0,0,0,0,0
658023624,588816340,586717664,584619244,0,0,0,0,0,0,0,0,0,0,0,0,0,0,0,0,0,0,0,0,0,0
658060859,588850768,653858405,785974906,582544037,580438735,712553199,0,0,0,0,0,0,0,0,0,0,0,0,0,0,0,0,0,0,0
590949276,588848554,586747320,584646854,582542307,580437247,0,0,0,0,0,0,0,0,0,0,0,0,0,0,0,0,0,0,0,0
590964584,588863352,653870728,584660377,582554553,580448986,578344690,575862520,0,0,0,0,0,0,0,0,0,0,0,0,0,0,0,0,0,0
590542302,722660841,653453043,584245246,0,0,0,0,0,0,0,0,0,0,0,0,0,0,0,0,0,0,0,0,0,0
590535392,588437225,586338802,584240635,0,0,0,0,0,0,0,0,0,0,0,0,0,0,0,0,0,0,0,0,0,0
591029963,588922838,586815969,584709611,582154257,647160414,577950361,642959295,573752019,571653606,703772666,0,0,0,0,0,0,0,0,0,0,0,0,0,0,0
590616507,588520406,653532912,584238354,582139465,580040831,577942440,575844548,573746897,571649247,703769324,567454202,0,0,0,0,0,0,0,0,0,0,0,0,0,0
590517400,588420520,720541112,584226503,582129895,0,0,0,0,0,0,0,0,0,0,0,0,0,0,0,0,0,0,0,0,0
590472716,588378401,586284343,584189516,649207158,580007073,577914561,575820503,573724897,571629292,569533687,0,0,0,0,0,0,0,0,0,0,0,0,0,0,0
791803441,588382793,586289249,584195705,582105769,580015577,577923581,0,0,0,0,0,0,0,0,0,0,0,0,0,0,0,0,0,0,0
590475386,588381065,653394840,584191400,582100165,580008929,577915894,0,0,0,0,0,0,0,0,0,0,0,0,0,0,0,0,0,0,0
657822411,655719908,586508541,584160029,582073679,579987585,577897638,575805887,573711564,571616984,569522661,701645809,632442621,0,0,0,0,0,0,0,0,0,0,0,0,0
590435349,588343594,586251839,718377556,582073469,579987110,577897413,575805658,573711332,571616751,568852987,0,0,0,0,0,0,0,0,0,0,0,0,0,0,0
590474230,588380926,585632712,583537623,581444596,0,0,0,0,0,0,0,0,0,0,0,0,0,0,0,0,0,0,0,0,0
590474230,654836665,585632712,583537623,581444596,0,0,0,0,0,0,0,0,0,0,0,0,0,0,0,0,0,0,0,0,0
589827763,587732161,585636815,583541469,581447672,0,0,0,0,0,0,0,0,0,0,0,0,0,0,0,0,0,0,0,0,0
590423475,588332478,586241480,584150483,582065641,579339407,577246387,575151819,640165078,638069218,703082222,566768890,0,0,0,0,0,0,0,0,0,0,0,0,0,0
590409926,722537425,586229981,718358504,581436747,0,0,0,0,0,0,0,0,0,0,0,0,0,0,0,0,0,0,0,0,0
590388917,588299970,653320141,584122329,582041327,579340610,577247859,575153300,573057444,570961588,568865733,566769877,564674022,562578166,0,0,0,0,0,0,0,0,0,0,0,0
724057227,587743128,652755365,583549875,581454030,579357929,577261821,0,0,0,0,0,0,0,0,0,0,0,0,0,0,0,0,0,0,0
590234117,588138541,586043221,583947645,581853901,579375137,577275741,575176837,573078937,638089900,568883136,566785236,564687336,562589436,0,0,0,0,0,0,0,0,0,0,0,0
590226707,588131901,586037096,583942290,581849831,579377984,577277312,642286506,573079487,570981078,635991532,0,0,0,0,0,0,0,0,0,0,0,0,0,0,0
589861335,721980895,585665254,583567086,581468156,0,0,0,0,0,0,0,0,0,0,0,0,0,0,0,0,0,0,0,0,0
791189705,654873813,585666530,650676973,0,0,0,0,0,0,0,0,0,0,0,0,0,0,0,0,0,0,0,0,0,0
589880613,587781433,585682253,583583073,581481864,579380656,577280207,575181027,573082861,570984695,0,0,0,0,0,0,0,0,0,0,0,0,0,0,0,0
590218741,587788304,719906342,583588924,581486952,579384981,577284534,575184844,573086423,638096866,703107310,566791417,0,0,0,0,0,0,0,0,0,0,0,0,0,0
590179865,588088127,585996390,583904652,581818073,579403819,644408421,575197068,573097375,570997427,568897734,566797785,564698092,0,0,0,0,0,0,0,0,0,0,0,0,0
589915684,587813435,585711186,583608937,581501847,579395269,577290728,575188479,0,0,0,0,0,0,0,0,0,0,0,0,0,0,0,0,0,0
589078283,586991674,584905064,649936836,580480806,578368107,576260505,574158769,572056520,704171743,567851766,0,0,0,0,0,0,0,0,0,0,0,0,0,0,0
588674598,586561675,584449520,649160131,0,0,0,0,0,0,0,0,0,0,0,0,0,0,0,0,0,0,0,0,0,0
722919761,586593396,584484759,582364381,781259305,577853022,575767681,573676178,571584932,569493685,567402183,565310936,697436393,561127419,558372863,0,0,0,0,0,0,0,0,0,0,0
722923242,586167312,584085296,582018672,714168752,644986079,710013183,573053400,570960374,0,0,0,0,0,0,0,0,0,0,0,0,0,0,0,0,0
586566175,584458063,582339502,579957524,577877084,575791244,640808611,571607483,569515987,567424491,0,0,0,0,0,0,0,0,0,0,0,0,0,0,0,0
787928325,584492593,582371463,714468574,577847845,575763024,573672038,571581051,770816400,701616550,699525563,563216593,561125350,559034363,0,0,0,0,0,0,0,0,0,0,0,0
586602870,584491426,582365434,579937881,577862555,642889417,707908577,638060218,568860120,566769142,0,0,0,0,0,0,0,0,0,0,0,0,0,0,0,0
586024984,651039554,581839256,713965549,577285937,642294875,573087601,570988934,568890267,566791856,564693189,629703386,560496112,0,0,0,0,0,0,0,0,0,0,0,0,0
583021864,648064611,578888863,576815052,574733290,572644089,571999139,637014721,567812576,565719294,0,0,0,0,0,0,0,0,0,0,0,0,0,0,0,0
584856653,717006764,580512015,578392662,576280966,574176414,572072118,569967566,567863782,565759230,0,0,0,0,0,0,0,0,0,0,0,0,0,0,0,0
584844397,784109543,580512360,578387909,575862147,775083942,571653067,569548272,0,0,0,0,0,0,0,0,0,0,0,0,0,0,0,0,0,0
584504047,581991470,579920486,577842320,575758252,573667514,638685896,569486295,567395813,565305075,562563775,560470233,625485554,0,0,0,0,0,0,0,0,0,0,0,0,0
581232496,579124215,576867428,574775975,572681673,570587371,0,0,0,0,0,0,0,0,0,0,0,0,0,0,0,0,0,0,0,0
648389918,579162535,576837141,574750553,572658555,570566813,568475072,566383330,0,0,0,0,0,0,0,0,0,0,0,0,0,0,0,0,0,0
580975954,713117832,576819632,574733003,572641241,570549479,568457717,565709779,563616232,561522430,0,0,0,0,0,0,0,0,0,0,0,0,0,0,0,0
582880291,580790411,578698457,643347985,574140204,572041542,569942880,567843962,565745300,563646383,561547465,559448547,624458492,0,0,0,0,0,0,0,0,0,0,0,0,0
582819138,647849381,578657264,576274726,641281854,572071255,569969520,567868553,699984289,563664826,561563090,559461355,0,0,0,0,0,0,0,0,0,0,0,0,0,0
716875039,580520052,578393268,576275934,775495155,571666372,636672747,0,0,0,0,0,0,0,0,0,0,0,0,0,0,0,0,0,0,0
582406036,580278248,577825582,709960792,573653869,571564418,636583830,567385515,565296320,563206868,561117417,559027198,556277758,0,0,0,0,0,0,0,0,0,0,0,0,0
581971905,579910383,644802279,575156018,573061718,570967417,568873116,566778814,0,0,0,0,0,0,0,0,0,0,0,0,0,0,0,0,0,0
581883165,646891195,644367414,575163270,573067181,570971093,568874749,0,0,0,0,0,0,0,0,0,0,0,0,0,0,0,0,0,0,0
581807198,713939645,577307145,575204921,573104721,571004777,636013440,566804376,698921904,696821704,627612896,625512696,0,0,0,0,0,0,0,0,0,0,0,0,0,0
579462226,711559312,575229113,640233165,571019490,568915447,566423014,0,0,0,0,0,0,0,0,0,0,0,0,0,0,0,0,0,0,0
579105897,577006809,574783274,572686927,570590836,568494489,633507005,631410914,0,0,0,0,0,0,0,0,0,0,0,0,0,0,0,0,0,0
713064929,576775417,643757513,574549483,569909809,567814993,565720178,563625108,561530294,559434966,557338867,0,0,0,0,0,0,0,0,0,0,0,0,0,0,0
580149689,577932061,642944858,573739129,571642520,636654518,567449045,565352180,0,0,0,0,0,0,0,0,0,0,0,0,0,0,0,0,0,0
580137094,645161166,643073022,573721629,0,0,0,0,0,0,0,0,0,0,0,0,0,0,0,0,0,0,0,0,0,0
646836275,644751826,575192128,573090677,638098089,635996382,0,0,0,0,0,0,0,0,0,0,0,0,0,0,0,0,0,0,0,0
713599401,577281224,575181789,573083623,570985458,568887036,0,0,0,0,0,0,0,0,0,0,0,0,0,0,0,0,0,0,0,0
579685206,711822520,575518969,573125150,571022398,568919647,566817919,631824031,562612416,560509664,0,0,0,0,0,0,0,0,0,0,0,0,0,0,0,0
579663923,577585555,709718995,573410547,571038487,568934967,566831447,564727927,562625175,694739127,625526743,623423223,0,0,0,0,0,0,0,0,0,0,0,0,0,0
644237346,575012977,572906904,570800576,568693992,633436183,631348287,629260647,560063888,557975480,555887584,0,0,0,0,0,0,0,0,0,0,0,0,0,0,0
578677423,576573395,574472931,706589939,704206344,567894809,565801003,563706685,561612622,0,0,0,0,0,0,0,0,0,0,0,0,0,0,0,0,0
577249384,575156650,573061835,570966764,0,0,0,0,0,0,0,0,0,0,0,0,0,0,0,0,0,0,0,0,0,0
575439670,573355369,638379932,703403728,701085702,564758073,562647916,560538015,692646097,0,0,0,0,0,0,0,0,0,0,0,0,0,0,0,0,0
643116853,641009809,706012142,569519189,634541233,0,0,0,0,0,0,0,0,0,0,0,0,0,0,0,0,0,0,0,0,0
575550813,573457050,638472150,636003094,566793812,564693393,763919566,0,0,0,0,0,0,0,0,0,0,0,0,0,0,0,0,0,0,0
575547190,573452899,571358608,703482045,701387754,564699419,562599752,560500341,558400930,556301263,554201852,0,0,0,0,0,0,0,0,0,0,0,0,0,0,0
639937805,570728541,635736748,566527485,564293207,562199719,627215351,0,0,0,0,0,0,0,0,0,0,0,0,0,0,0,0,0,0,0
640007433,637901886,568687219,633690280,564475870,562156316,560067921,557978758,555890363,620910575,0,0,0,0,0,0,0,0,0,0,0,0,0,0,0,0
706743695,771781038,702600910,700528877,563617160,628636908,0,0,0,0,0,0,0,0,0,0,0,0,0,0,0,0,0,0,0,0
641536354,706569163,637094962,769195162,0,0,0,0,0,0,0,0,0,0,0,0,0,0,0,0,0,0,0,0,0,0
574408008,773662133,569998114,702093198,632862713,0,0,0,0,0,0,0,0,0,0,0,0,0,0,0,0,0,0,0,0,0
640832801,638739554,569537443,567444196,0,0,0,0,0,0,0,0,0,0,0,0,0,0,0,0,0,0,0,0,0,0
573937177,571832650,636836987,567623597,632627934,630317592,628227913,559028603,556938924,554849246,0,0,0,0,0,0,0,0,0,0,0,0,0,0,0,0
707800757,571499459,569415633,567331809,565247984,563163903,560469821,558376307,623391659,621298148,0,0,0,0,0,0,0,0,0,0,0,0,0,0,0,0
573485891,772714381,636398808,768103459,564680300,562583989,0,0,0,0,0,0,0,0,0,0,0,0,0,0,0,0,0,0,0,0
640525580,571325506,569234038,634251690,632160223,629730327,694735948,558415489,623421365,554209515,0,0,0,0,0,0,0,0,0,0,0,0,0,0,0,0
637922862,568706148,566598298,765817040,562143760,627166278,557971069,757210291,553797354,0,0,0,0,0,0,0,0,0,0,0,0,0,0,0,0,0
570438359,568359907,566281459,698419967,698284002,0,0,0,0,0,0,0,0,0,0,0,0,0,0,0,0,0,0,0,0,0
638902575,703910499,567592087,565491403,697450247,561139259,559045743,556952227,621967830,0,0,0,0,0,0,0,0,0,0,0,0,0,0,0,0,0
704666040,568378326,700525043,563618174,628637415,0,0,0,0,0,0,0,0,0,0,0,0,0,0,0,0,0,0,0,0,0
568691496,566583664,564476088,562158089,560070993,759311000,690115808,0,0,0,0,0,0,0,0,0,0,0,0,0,0,0,0,0,0,0
570171723,769419395,566014140,563935477,628737584,0,0,0,0,0,0,0,0,0,0,0,0,0,0,0,0,0,0,0,0,0
636749537,634573867,565364844,697482668,561165036,0,0,0,0,0,0,0,0,0,0,0,0,0,0,0,0,0,0,0,0,0
569820608,567705580,565227552,563148364,695285880,626097827,758236111,554829563,0,0,0,0,0,0,0,0,0,0,0,0,0,0,0,0,0,0
566927772,699013578,696882679,560125365,0,0,0,0,0,0,0,0,0,0,0,0,0,0,0,0,0,0,0,0,0,0
700483149,698423704,696365541,628624050,0,0,0,0,0,0,0,0,0,0,0,0,0,0,0,0,0,0,0,0,0,0
701931615,699801800,563169340,762430884,0,0,0,0,0,0,0,0,0,0,0,0,0,0,0,0,0,0,0,0,0,0
564949307,697089928,695012565,759801635,556357744,621349051,0,0,0,0,0,0,0,0,0,0,0,0,0,0,0,0,0,0,0,0
766264754,697080814,560599596,558481255,556362146,755569629,618847742,0,0,0,0,0,0,0,0,0,0,0,0,0,0,0,0,0,0,0
564038703,561942145,626954452,557345834,555247742,553149906,0,0,0,0,0,0,0,0,0,0,0,0,0,0,0,0,0,0,0,0
630472534,695484855,559063587,624075139,554868964,0,0,0,0,0,0,0,0,0,0,0,0,0,0,0,0,0,0,0,0,0
697747511,695619486,626070800,691113848,554829790,0,0,0,0,0,0,0,0,0,0,0,0,0,0,0,0,0,0,0,0,0
562968634,627985042,558783467,623416133,621314718,552104695,0,0,0,0,0,0,0,0,0,0,0,0,0,0,0,0,0,0,0,0
763172180,626881485,624505670,622385343,0,0,0,0,0,0,0,0,0,0,0,0,0,0,0,0,0,0,0,0,0,0
628934723,559756993,624516669,756609210,0,0,0,0,0,0,0,0,0,0,0,0,0,0,0,0,0,0,0,0,0,0
628928091,761078483,758737738,622393538,0,0,0,0,0,0,0,0,0,0,0,0,0,0,0,0,0,0,0,0,0,0
560862495,625881232,623424768,755538287,619216606,0,0,0,0,0,0,0,0,0,0,0,0,0,0,0,0,0,0,0,0,0
560506827,692638577,623443734,554554290,753772119,0,0,0,0,0,0,0,0,0,0,0,0,0,0,0,0,0,0,0,0,0
625221736,623127263,553824611,618834138,0,0,0,0,0,0,0,0,0,0,0,0,0,0,0,0,0,0,0,0,0,0
557958137,690059488,553725893,685828266,616603535,547378805,0,0,0,0,0,0,0,0,0,0,0,0,0,0,0,0,0,0,0,0
559077593,556987293,555308524,553226960,551145141,549062810,748338758,0,0,0,0,0,0,0,0,0,0,0,0,0,0,0,0,0,0,0
558385913,556286675,621296300,552088198,549988960,547889722,680457664,678473202,542148586,540041698,537934810,0,0,0,0,0,0,0,0,0,0,0,0,0,0,0
558409205,556318925,554228646,686356094,550047319,547957040,546145714,544027965,609032981,0,0,0,0,0,0,0,0,0,0,0,0,0,0,0,0,0
557329654,555228118,553126581,549570541,547464924,679560363,543221113,541115496,673227607,536904519,0,0,0,0,0,0,0,0,0,0,0,0,0,0,0,0
556292587,554194892,552097196,549999757,547902061,545803278,611236008,542030473,539933546,537836875,0,0,0,0,0,0,0,0,0,0,0,0,0,0,0,0
553807000,551702824,549761208,547670856,0,0,0,0,0,0,0,0,0,0,0,0,0,0,0,0,0,0,0,0,0,0
553797595,551688081,616687943,614804475,612743967,0,0,0,0,0,0,0,0,0,0,0,0,0,0,0,0,0,0,0,0,0
555240952,553140133,551039058,549379829,679485676,0,0,0,0,0,0,0,0,0,0,0,0,0,0,0,0,0,0,0,0,0
622349532,553139315,685691902,549381012,0,0,0,0,0,0,0,0,0,0,0,0,0,0,0,0,0,0,0,0,0,0
555251437,553159057,685284405,549342926,0,0,0,0,0,0,0,0,0,0,0,0,0,0,0,0,0,0,0,0,0,0
689500124,687434363,618260506,549230256,0,0,0,0,0,0,0,0,0,0,0,0,0,0,0,0,0,0,0,0,0,0
756620254,754563958,752506638,549191836,0,0,0,0,0,0,0,0,0,0,0,0,0,0,0,0,0,0,0,0,0,0
554870755,552775299,617788962,615787201,0,0,0,0,0,0,0,0,0,0,0,0,0,0,0,0,0,0,0,0,0,0
554855673,552755425,550655176,548554928,546448743,544342558,542243077,540343272,538248399,0,0,0,0,0,0,0,0,0,0,0,0,0,0,0,0,0
756144013,754014994,550895769,750157342,0,0,0,0,0,0,0,0,0,0,0,0,0,0,0,0,0,0,0,0,0,0
554209727,552117629,617134395,548286705,613283629,0,0,0,0,0,0,0,0,0,0,0,0,0,0,0,0,0,0,0,0,0
755558550,686365025,684281131,548240364,546103883,0,0,0,0,0,0,0,0,0,0,0,0,0,0,0,0,0,0,0,0,0
618817001,549606857,547505577,612505416,677707237,541395654,606411431,537209225,0,0,0,0,0,0,0,0,0,0,0,0,0,0,0,0,0,0
618816253,549607405,547507676,545402282,677514616,541197159,606206806,536997958,0,0,0,0,0,0,0,0,0,0,0,0,0,0,0,0,0,0
553146097,551048412,548950983,546852233,544753739,542656054,540558624,538461195,0,0,0,0,0,0,0,0,0,0,0,0,0,0,0,0,0,0
553179858,752422546,549013331,748489611,0,0,0,0,0,0,0,0,0,0,0,0,0,0,0,0,0,0,0,0,0,0
619902410,551103455,549022904,546974786,612109764,0,0,0,0,0,0,0,0,0,0,0,0,0,0,0,0,0,0,0,0,0
552774340,617787520,548582718,546578547,0,0,0,0,0,0,0,0,0,0,0,0,0,0,0,0,0,0,0,0,0,0
552748764,617752752,548539013,546648319,544573820,609593168,540394789,0,0,0,0,0,0,0,0,0,0,0,0,0,0,0,0,0,0,0
552099279,550001562,682121573,613329855,544125217,0,0,0,0,0,0,0,0,0,0,0,0,0,0,0,0,0,0,0,0,0
550690558,548598497,681126860,544834193,542744446,540654698,672782423,0,0,0,0,0,0,0,0,0,0,0,0,0,0,0,0,0,0,0
550668012,682787023,546467705,544366372,542267655,540316390,538220746,0,0,0,0,0,0,0,0,0,0,0,0,0,0,0,0,0,0,0
550008292,547911890,545817499,543723109,608735826,539530560,537434414,0,0,0,0,0,0,0,0,0,0,0,0,0,0,0,0,0,0,0
681712364,612486309,543259485,541155141,539051309,536947221,0,0,0,0,0,0,0,0,0,0,0,0,0,0,0,0,0,0,0,0
548935407,746710238,543269810,608275875,539064213,536961414,0,0,0,0,0,0,0,0,0,0,0,0,0,0,0,0,0,0,0,0
547465162,679552369,677422613,541485554,539399124,604421812,0,0,0,0,0,0,0,0,0,0,0,0,0,0,0,0,0,0,0,0
548579318,546483148,544386721,542289811,540192902,538095992,0,0,0,0,0,0,0,0,0,0,0,0,0,0,0,0,0,0,0,0
548571897,546471092,678587758,542271831,540173375,538074920,0,0,0,0,0,0,0,0,0,0,0,0,0,0,0,0,0,0,0,0
545864913,678006432,675916432,539608958,604627821,0,0,0,0,0,0,0,0,0,0,0,0,0,0,0,0,0,0,0,0,0
545453479,543782867,541694402,673823665,537517728,0,0,0,0,0,0,0,0,0,0,0,0,0,0,0,0,0,0,0,0,0
545447122,543356061,541666557,606682868,537481196,0,0,0,0,0,0,0,0,0,0,0,0,0,0,0,0,0,0,0,0,0
545441224,543349875,541254487,539159355,537063967,0,0,0,0,0,0,0,0,0,0,0,0,0,0,0,0,0,0,0,0,0
746763485,543341742,541245342,539148686,537052031,0,0,0,0,0,0,0,0,0,0,0,0,0,0,0,0,0,0,0,0,0
545413492,610581741,541379522,539285911,0,0,0,0,0,0,0,0,0,0,0,0,0,0,0,0,0,0,0,0,0,0
545386858,744847277,742761583,673567283,0,0,0,0,0,0,0,0,0,0,0,0,0,0,0,0,0,0,0,0,0,0
746710619,543525780,541440594,539355153,0,0,0,0,0,0,0,0,0,0,0,0,0,0,0,0,0,0,0,0,0,0
679577488,744894449,541489342,673628042,0,0,0,0,0,0,0,0,0,0,0,0,0,0,0,0,0,0,0,0,0,0
546838756,543272643,541167020,539061141,738281598,0,0,0,0,0,0,0,0,0,0,0,0,0,0,0,0,0,0,0,0,0
613947573,543246795,541136822,539027617,671135116,0,0,0,0,0,0,0,0,0,0,0,0,0,0,0,0,0,0,0,0,0
613563012,544533242,542441421,540349344,538257010,0,0,0,0,0,0,0,0,0,0,0,0,0,0,0,0,0,0,0,0,0
546458025,544342028,542440916,540348832,605367147,0,0,0,0,0,0,0,0,0,0,0,0,0,0,0,0,0,0,0,0,0
546463735,544352926,542251136,540149347,538048581,0,0,0,0,0,0,0,0,0,0,0,0,0,0,0,0,0,0,0,0,0
546463735,678581222,542265053,540166356,672285388,0,0,0,0,0,0,0,0,0,0,0,0,0,0,0,0,0,0,0,0,0
546454737,544348060,542247819,540147833,538047847,0,0,0,0,0,0,0,0,0,0,0,0,0,0,0,0,0,0,0,0,0
546454737,544347555,542245779,540144768,538042225,0,0,0,0,0,0,0,0,0,0,0,0,0,0,0,0,0,0,0,0,0
546457580,544351421,542251182,540150943,538050703,0,0,0,0,0,0,0,0,0,0,0,0,0,0,0,0,0,0,0,0,0
546457591,544351953,676469700,540152248,538052267,0,0,0,0,0,0,0,0,0,0,0,0,0,0,0,0,0,0,0,0,0
545794548,610802134,541594829,539496387,537397945,0,0,0,0,0,0,0,0,0,0,0,0,0,0,0,0,0,0,0,0,0
545794536,543693512,541595069,539496626,0,0,0,0,0,0,0,0,0,0,0,0,0,0,0,0,0,0,0,0,0,0
680002701,544295618,676402349,540074649,672181128,0,0,0,0,0,0,0,0,0,0,0,0,0,0,0,0,0,0,0,0,0
680002701,544295622,676402349,540074902,605073022,0,0,0,0,0,0,0,0,0,0,0,0,0,0,0,0,0,0,0,0,0
545803948,543704647,541606949,539934460,604946650,0,0,0,0,0,0,0,0,0,0,0,0,0,0,0,0,0,0,0,0,0
545811654,543716691,742946860,539919358,537821400,0,0,0,0,0,0,0,0,0,0,0,0,0,0,0,0,0,0,0,0,0
545812643,543717944,541621781,607026921,537819846,0,0,0,0,0,0,0,0,0,0,0,0,0,0,0,0,0,0,0,0,0
545830011,678299843,609089160,606986318,537774612,0,0,0,0,0,0,0,0,0,0,0,0,0,0,0,0,0,0,0,0,0
545821155,543731102,541636487,539541616,738773336,0,0,0,0,0,0,0,0,0,0,0,0,0,0,0,0,0,0,0,0,0
545823955,543732893,541637772,539542650,537447528,0,0,0,0,0,0,0,0,0,0,0,0,0,0,0,0,0,0,0,0,0
545824247,543733199,541638082,539542965,604556711,0,0,0,0,0,0,0,0,0,0,0,0,0,0,0,0,0,0,0,0,0
677969647,541659871,606677455,537477312,0,0,0,0,0,0,0,0,0,0,0,0,0,0,0,0,0,0,0,0,0,0
610439128,541232582,539134899,537037216,0,0,0,0,0,0,0,0,0,0,0,0,0,0,0,0,0,0,0,0,0,0
543331064,541233644,539136224,537038804,0,0,0,0,0,0,0,0,0,0,0,0,0,0,0,0,0,0,0,0,0,0
544749562,542651635,540553707,538455780,0,0,0,0,0,0,0,0,0,0,0,0,0,0,0,0,0,0,0,0,0,0
544749496,542650782,540552068,538453354,0,0,0,0,0,0,0,0,0,0,0,0,0,0,0,0,0,0,0,0,0,0
611862223,542655421,674774955,538459289,0,0,0,0,0,0,0,0,0,0,0,0,0,0,0,0,0,0,0,0,0,0
611866100,542659812,540562132,605573571,0,0,0,0,0,0,0,0,0,0,0,0,0,0,0,0,0,0,0,0,0,0
544781814,542686700,540591586,672714200,0,0,0,0,0,0,0,0,0,0,0,0,0,0,0,0,0,0,0,0,0,0
544400876,542305506,540210135,538114765,0,0,0,0,0,0,0,0,0,0,0,0,0,0,0,0,0,0,0,0,0,0
544392957,542296566,540200175,538103784,0,0,0,0,0,0,0,0,0,0,0,0,0,0,0,0,0,0,0,0,0,0
544371377,542272406,540173435,672292192,0,0,0,0,0,0,0,0,0,0,0,0,0,0,0,0,0,0,0,0,0,0
544351753,542425564,540328370,538231176,0,0,0,0,0,0,0,0,0,0,0,0,0,0,0,0,0,0,0,0,0,0
543719911,541623262,539526614,537430221,0,0,0,0,0,0,0,0,0,0,0,0,0,0,0,0,0,0,0,0,0,0
656585456,587378936,585281535,0,0,0,0,0,0,0,0,0,0,0,0,0,0,0,0,0,0,0,0,0,0,0
590881778,588785657,586689535,0,0,0,0,0,0,0,0,0,0,0,0,0,0,0,0,0,0,0,0,0,0,0
705330224,770301575,701054432,0,0,0,0,0,0,0,0,0,0,0,0,0,0,0,0,0,0,0,0,0,0,0
704987229,635763441,633485715,0,0,0,0,0,0,0,0,0,0,0,0,0,0,0,0,0,0,0,0,0,0,0
704987229,568455936,633485715,0,0,0,0,0,0,0,0,0,0,0,0,0,0,0,0,0,0,0,0,0,0,0
571660865,703777163,634567380,0,0,0,0,0,0,0,0,0,0,0,0,0,0,0,0,0,0,0,0,0,0,0
638877755,636782032,634543219,0,0,0,0,0,0,0,0,0,0,0,0,0,0,0,0,0,0,0,0,0,0,0
631527515,629314582,627218882,0,0,0,0,0,0,0,0,0,0,0,0,0,0,0,0,0,0,0,0,0,0,0
564472576,763685044,761415289,0,0,0,0,0,0,0,0,0,0,0,0,0,0,0,0,0,0,0,0,0,0,0
631619351,696601798,761400962,0,0,0,0,0,0,0,0,0,0,0,0,0,0,0,0,0,0,0,0,0,0,0
564575433,562076439,560006234,0,0,0,0,0,0,0,0,0,0,0,0,0,0,0,0,0,0,0,0,0,0,0
565201726,764472202,695306454,0,0,0,0,0,0,0,0,0,0,0,0,0,0,0,0,0,0,0,0,0,0,0
765336434,628667680,626558672,0,0,0,0,0,0,0,0,0,0,0,0,0,0,0,0,0,0,0,0,0,0,0
627596141,625911498,623814709,0,0,0,0,0,0,0,0,0,0,0,0,0,0,0,0,0,0,0,0,0,0,0
694747008,760059626,623718496,0,0,0,0,0,0,0,0,0,0,0,0,0,0,0,0,0,0,0,0,0,0,0
558112593,623032089,553822419,0,0,0,0,0,0,0,0,0,0,0,0,0,0,0,0,0,0,0,0,0,0,0
559799322,624826313,756591992,0,0,0,0,0,0,0,0,0,0,0,0,0,0,0,0,0,0,0,0,0,0,0
758240420,756408036,754365472,0,0,0,0,0,0,0,0,0,0,0,0,0,0,0,0,0,0,0,0,0,0,0
556291562,554190920,619627927,0,0,0,0,0,0,0,0,0,0,0,0,0,0,0,0,0,0,0,0,0,0,0
686930368,550584191,548456253,0,0,0,0,0,0,0,0,0,0,0,0,0,0,0,0,0,0,0,0,0,0,0
548575478,613584456,544498328,0,0,0,0,0,0,0,0,0,0,0,0,0,0,0,0,0,0,0,0,0,0,0
546835787,543191733,541073821,0,0,0,0,0,0,0,0,0,0,0,0,0,0,0,0,0,0,0,0,0,0,0
543771282,541677958,539584636,0,0,0,0,0,0,0,0,0,0,0,0,0,0,0,0,0,0,0,0,0,0,0
544498328,609508437,540300819,0,0,0,0,0,0,0,0,0,0,0,0,0,0,0,0,0,0,0,0,0,0,0
541245946,539150061,537054177,0,0,0,0,0,0,0,0,0,0,0,0,0,0,0,0,0,0,0,0,0,0,0
541636088,539541485,537446626,0,0,0,0,0,0,0,0,0,0,0,0,0,0,0,0,0,0,0,0,0,0,0
