0,1,2,3,4,5,6,7,8,9,10,11,12,13,14,15,16,17,18,19,20,21,22,23,24,25
589482719,587384808,719504369,583188729,0,0,0,0,0,0,0,0,0,0,0,0,0,0,0,0,0,0,0,0,0,0
589959119,587855832,585752033,583647977,581107244,579005794,576905354,641914788,572707762,570609343,568511181,566413018,631423463,562216437,0,0,0,0,0,0,0,0,0,0,0,0
589612221,587512543,585250312,583155754,581064046,578972082,576879077,0,0,0,0,0,0,0,0,0,0,0,0,0,0,0,0,0,0,0
589457590,587361475,719483088,583169501,648183286,0,0,0,0,0,0,0,0,0,0,0,0,0,0,0,0,0,0,0,0,0
589457375,721578727,585264879,583168760,0,0,0,0,0,0,0,0,0,0,0,0,0,0,0,0,0,0,0,0,0,0
589429260,587334696,585241156,583147360,581057176,578967248,576875770,0,0,0,0,0,0,0,0,0,0,0,0,0,0,0,0,0,0,0
589682526,587576968,652580273,717583323,715241014,578943626,576858569,641878771,0,0,0,0,0,0,0,0,0,0,0,0,0,0,0,0,0,0
589399410,587307908,585216406,583124904,581039308,578952689,645401334,0,0,0,0,0,0,0,0,0,0,0,0,0,0,0,0,0,0,0
723963966,587636327,585526160,583415993,580981011,578909798,576832164,574748110,572656611,570565879,569902318,0,0,0,0,0,0,0,0,0,0,0,0,0,0,0
723612808,587303062,585211045,583119027,581032143,578945003,576196072,574100722,572005372,0,0,0,0,0,0,0,0,0,0,0,0,0,0,0,0,0
589382828,587292602,719420103,583112149,581028848,580389814,578297822,576204281,0,0,0,0,0,0,0,0,0,0,0,0,0,0,0,0,0,0
589358751,721487790,719400126,717312462,581016813,580389784,578298832,576205813,0,0,0,0,0,0,0,0,0,0,0,0,0,0,0,0,0,0
589366222,587278041,585189605,717318897,582486370,580395175,645411546,576208637,0,0,0,0,0,0,0,0,0,0,0,0,0,0,0,0,0,0
591327903,723447225,587131091,585032685,582493479,714616412,578303620,576207775,574111148,572014777,569918151,702039252,565725153,697846255,561532156,0,0,0,0,0,0,0,0,0,0,0
591237254,589144999,721270471,584960743,582553645,580447597,578343325,576241341,574141645,639151069,569942509,567843069,0,0,0,0,0,0,0,0,0,0,0,0,0,0
590928277,588829090,586729903,584630716,582529494,580428272,0,0,0,0,0,0,0,0,0,0,0,0,0,0,0,0,0,0,0,0
591233528,588868628,586766891,584664897,716776045,580452249,578348219,576246226,574146525,572047081,569947381,0,0,0,0,0,0,0,0,0,0,0,0,0,0,0
591219181,588880910,586776873,584672836,716779899,580452274,578345435,576241655,0,0,0,0,0,0,0,0,0,0,0,0,0,0,0,0,0,0
590940116,588840925,586740966,584640751,582154473,0,0,0,0,0,0,0,0,0,0,0,0,0,0,0,0,0,0,0,0,0
590998686,588895146,586791861,584688321,716796375,580468974,712580095,575860406,573761730,571663054,569564378,567465703,565367027,563268351,0,0,0,0,0,0,0,0,0,0,0,0
591025071,588918204,586811081,584704982,582588400,580054639,577952424,575851982,640861921,571654389,0,0,0,0,0,0,0,0,0,0,0,0,0,0,0,0
590524060,588426665,586329269,584231873,582134233,580036592,0,0,0,0,0,0,0,0,0,0,0,0,0,0,0,0,0,0,0,0
724695937,722601618,586290340,584196790,716324313,580016637,0,0,0,0,0,0,0,0,0,0,0,0,0,0,0,0,0,0,0,0
590444632,588352361,586260347,584168076,582080942,579993552,577903593,575144434,573049595,0,0,0,0,0,0,0,0,0,0,0,0,0,0,0,0,0
590413325,588324392,586235971,718365279,582068374,714206413,577904118,0,0,0,0,0,0,0,0,0,0,0,0,0,0,0,0,0,0,0
590399310,722529892,586224506,584137360,716277692,579982825,577245908,575154427,0,0,0,0,0,0,0,0,0,0,0,0,0,0,0,0,0,0
589833085,587737228,585641115,583545002,581450184,579355110,577259516,0,0,0,0,0,0,0,0,0,0,0,0,0,0,0,0,0,0,0
590269669,588172286,585643292,583546421,648558951,579353497,577256893,642268885,573062882,0,0,0,0,0,0,0,0,0,0,0,0,0,0,0,0,0
590269669,587740163,585643292,583546421,648558951,579353497,577256893,642268885,573062882,0,0,0,0,0,0,0,0,0,0,0,0,0,0,0,0,0
590250312,588153972,586057632,583961036,648573224,579366016,577267906,575170286,0,0,0,0,0,0,0,0,0,0,0,0,0,0,0,0,0,0
656961641,587755385,585657992,583560599,581462965,579365331,577267946,575170553,0,0,0,0,0,0,0,0,0,0,0,0,0,0,0,0,0,0
589869152,587770737,585672322,583573907,648582836,579374038,577274863,0,0,0,0,0,0,0,0,0,0,0,0,0,0,0,0,0,0,0
589910299,722026799,585708099,583607127,648610943,579397800,577294790,575193818,573094628,570995694,568896504,0,0,0,0,0,0,0,0,0,0,0,0,0,0,0
589206319,587109471,585012624,582916338,0,0,0,0,0,0,0,0,0,0,0,0,0,0,0,0,0,0,0,0,0,0
589206319,587109472,585012624,582916080,0,0,0,0,0,0,0,0,0,0,0,0,0,0,0,0,0,0,0,0,0,0
718281414,581991385,579919083,577839609,0,0,0,0,0,0,0,0,0,0,0,0,0,0,0,0,0,0,0,0,0,0
716479311,580160685,578060786,710044711,573730878,571634772,569538411,567442050,565345945,563249584,561153479,559057374,556961270,0,0,0,0,0,0,0,0,0,0,0,0,0
582864012,580780024,578346061,574142624,572041917,771267802,567840760,0,0,0,0,0,0,0,0,0,0,0,0,0,0,0,0,0,0,0
649770449,580537065,578420218,573762573,571663912,569565251,634575197,565367672,563269011,561170094,559071433,556972516,621982718,0,0,0,0,0,0,0,0,0,0,0,0,0
646724078,577384793,575262109,573151676,571040987,635633293,0,0,0,0,0,0,0,0,0,0,0,0,0,0,0,0,0,0,0,0
579524676,577386637,575262649,707368911,571040230,770255869,0,0,0,0,0,0,0,0,0,0,0,0,0,0,0,0,0,0,0,0
579097127,576999347,574789913,639801927,637704822,568499110,566402261,0,0,0,0,0,0,0,0,0,0,0,0,0,0,0,0,0,0,0
579241699,643888456,708924550,639731109,637646532,635561955,565712105,0,0,0,0,0,0,0,0,0,0,0,0,0,0,0,0,0,0,0
647284057,578068971,575823189,573729157,638743733,569540838,0,0,0,0,0,0,0,0,0,0,0,0,0,0,0,0,0,0,0,0
579877237,577819565,709965524,707881448,571579643,635967902,566766543,0,0,0,0,0,0,0,0,0,0,0,0,0,0,0,0,0,0,0
712917038,576607652,708730847,572036637,569936984,567837331,565737678,0,0,0,0,0,0,0,0,0,0,0,0,0,0,0,0,0,0,0
578131560,576019901,573915367,571589657,636608835,701627758,565319576,563229890,628249068,0,0,0,0,0,0,0,0,0,0,0,0,0,0,0,0,0
577652555,575558556,573462980,571367660,568891672,633901632,564693609,562594705,560495801,558396897,0,0,0,0,0,0,0,0,0,0,0,0,0,0,0,0
643639656,708668867,706301727,771295865,567855316,0,0,0,0,0,0,0,0,0,0,0,0,0,0,0,0,0,0,0,0,0
642677848,573473727,570979623,635989645,633890804,0,0,0,0,0,0,0,0,0,0,0,0,0,0,0,0,0,0,0,0,0
573239612,571122525,569005439,566888352,564772034,562654948,761459099,625135593,0,0,0,0,0,0,0,0,0,0,0,0,0,0,0,0,0,0
641495683,639431148,771332182,702093759,0,0,0,0,0,0,0,0,0,0,0,0,0,0,0,0,0,0,0,0,0,0
705464683,770504657,768188728,698954140,696447996,0,0,0,0,0,0,0,0,0,0,0,0,0,0,0,0,0,0,0,0,0
570868525,635865691,566645387,564534202,562423785,560019488,625045070,555852926,553769645,685903068,0,0,0,0,0,0,0,0,0,0,0,0,0,0,0,0
570954057,568858465,566763129,564667536,562572199,627585470,558381270,556285677,0,0,0,0,0,0,0,0,0,0,0,0,0,0,0,0,0,0
569653293,567556705,565460118,630472138,561161992,626173500,556967025,689087142,619880922,0,0,0,0,0,0,0,0,0,0,0,0,0,0,0,0,0
563986219,629005941,559807680,624486668,555272791,553168033,618171883,0,0,0,0,0,0,0,0,0,0,0,0,0,0,0,0,0,0,0
561265685,626277997,557072582,554869801,552772226,617783514,0,0,0,0,0,0,0,0,0,0,0,0,0,0,0,0,0,0,0,0
761017725,691841237,756673581,754547331,685312218,0,0,0,0,0,0,0,0,0,0,0,0,0,0,0,0,0,0,0,0,0
555913946,553815453,551716960,616727331,614754275,612660780,0,0,0,0,0,0,0,0,0,0,0,0,0,0,0,0,0,0,0,0
686355952,751392934,749321821,546049913,0,0,0,0,0,0,0,0,0,0,0,0,0,0,0,0,0,0,0,0,0,0
551737329,550046206,615075799,545922661,745278442,0,0,0,0,0,0,0,0,0,0,0,0,0,0,0,0,0,0,0,0,0
551737329,549649835,615075799,545922661,745278442,0,0,0,0,0,0,0,0,0,0,0,0,0,0,0,0,0,0,0,0,0
552766962,550668500,548570039,546469216,611477001,542410216,607423178,538218669,0,0,0,0,0,0,0,0,0,0,0,0,0,0,0,0,0,0
549605870,681719496,612493909,543509215,541418681,673545619,537237358,0,0,0,0,0,0,0,0,0,0,0,0,0,0,0,0,0,0,0
549595384,681704657,545354075,677773026,675687099,539384212,537299053,0,0,0,0,0,0,0,0,0,0,0,0,0,0,0,0,0,0,0
684885753,615676872,613571127,544517283,743749490,540328770,538234386,0,0,0,0,0,0,0,0,0,0,0,0,0,0,0,0,0,0,0
550008052,615020767,545817763,543723878,541627729,539531581,537435433,0,0,0,0,0,0,0,0,0,0,0,0,0,0,0,0,0,0,0
550013428,547918560,545827747,543737190,541642322,539547197,537452329,0,0,0,0,0,0,0,0,0,0,0,0,0,0,0,0,0,0,0
550029275,682160294,545877000,544019297,541912108,0,0,0,0,0,0,0,0,0,0,0,0,0,0,0,0,0,0,0,0,0
547544813,612968676,543786669,675915163,539608456,537519222,0,0,0,0,0,0,0,0,0,0,0,0,0,0,0,0,0,0,0,0
547543261,545867504,543798207,541710255,539622302,671751310,0,0,0,0,0,0,0,0,0,0,0,0,0,0,0,0,0,0,0,0
547518460,545413035,543307610,541207615,539107620,604116488,0,0,0,0,0,0,0,0,0,0,0,0,0,0,0,0,0,0,0,0
548954326,546857296,545168066,610179476,540973414,538875704,0,0,0,0,0,0,0,0,0,0,0,0,0,0,0,0,0,0,0,0
548962789,546873465,544784141,543045089,540945341,538845339,0,0,0,0,0,0,0,0,0,0,0,0,0,0,0,0,0,0,0,0
548573438,546474444,544375450,542277769,674397561,538082152,0,0,0,0,0,0,0,0,0,0,0,0,0,0,0,0,0,0,0,0
547912670,545821039,611212020,609113294,539905448,537806722,0,0,0,0,0,0,0,0,0,0,0,0,0,0,0,0,0,0,0,0
545447866,543358320,608788466,539588840,537498078,0,0,0,0,0,0,0,0,0,0,0,0,0,0,0,0,0,0,0,0,0
545447866,543770621,608788466,539588840,537498078,0,0,0,0,0,0,0,0,0,0,0,0,0,0,0,0,0,0,0,0,0
545398662,677723313,541419115,673549860,0,0,0,0,0,0,0,0,0,0,0,0,0,0,0,0,0,0,0,0,0,0
545409262,543281757,742499628,673540856,537237448,0,0,0,0,0,0,0,0,0,0,0,0,0,0,0,0,0,0,0,0,0
546838748,543282412,541179873,539077333,536974794,0,0,0,0,0,0,0,0,0,0,0,0,0,0,0,0,0,0,0,0,0
546854891,544756658,542658975,607670412,605572985,0,0,0,0,0,0,0,0,0,0,0,0,0,0,0,0,0,0,0,0,0
546854862,678974343,609768047,540561752,538464064,0,0,0,0,0,0,0,0,0,0,0,0,0,0,0,0,0,0,0,0,0
546878961,544817980,543001079,675109051,605890942,0,0,0,0,0,0,0,0,0,0,0,0,0,0,0,0,0,0,0,0,0
546484678,544390011,609402722,540197450,672318769,0,0,0,0,0,0,0,0,0,0,0,0,0,0,0,0,0,0,0,0,0
613585098,544374814,609512417,540307624,538211695,0,0,0,0,0,0,0,0,0,0,0,0,0,0,0,0,0,0,0,0,0
546469346,544368568,676487850,540171932,538073486,0,0,0,0,0,0,0,0,0,0,0,0,0,0,0,0,0,0,0,0,0
680677811,544353375,542252867,607261479,538052108,0,0,0,0,0,0,0,0,0,0,0,0,0,0,0,0,0,0,0,0,0
546454502,544344747,542243991,607251587,538041456,0,0,0,0,0,0,0,0,0,0,0,0,0,0,0,0,0,0,0,0,0
546439362,544322422,542218588,674332227,538010665,0,0,0,0,0,0,0,0,0,0,0,0,0,0,0,0,0,0,0,0,0
545819315,610841609,609107144,539897232,537796440,0,0,0,0,0,0,0,0,0,0,0,0,0,0,0,0,0,0,0,0,0
543353772,541260171,539577586,537488867,0,0,0,0,0,0,0,0,0,0,0,0,0,0,0,0,0,0,0,0,0,0
543330783,541233098,539135413,537037728,0,0,0,0,0,0,0,0,0,0,0,0,0,0,0,0,0,0,0,0,0,0
543292926,675405292,539082458,671194824,0,0,0,0,0,0,0,0,0,0,0,0,0,0,0,0,0,0,0,0,0,0
544753992,542657836,540562193,538879725,0,0,0,0,0,0,0,0,0,0,0,0,0,0,0,0,0,0,0,0,0,0
544757338,542664510,540571934,538479362,0,0,0,0,0,0,0,0,0,0,0,0,0,0,0,0,0,0,0,0,0,0
544768237,542672097,540575700,538479560,0,0,0,0,0,0,0,0,0,0,0,0,0,0,0,0,0,0,0,0,0,0
544788443,542694349,540600510,538506416,0,0,0,0,0,0,0,0,0,0,0,0,0,0,0,0,0,0,0,0,0,0
544791024,542697444,540603608,605618379,0,0,0,0,0,0,0,0,0,0,0,0,0,0,0,0,0,0,0,0,0,0
544393446,609406169,540201421,538105280,0,0,0,0,0,0,0,0,0,0,0,0,0,0,0,0,0,0,0,0,0,0
745461409,743365748,607052614,604956952,0,0,0,0,0,0,0,0,0,0,0,0,0,0,0,0,0,0,0,0,0,0
543717879,675838959,539524839,537428190,0,0,0,0,0,0,0,0,0,0,0,0,0,0,0,0,0,0,0,0,0,0
543728803,541634944,539541085,604556089,0,0,0,0,0,0,0,0,0,0,0,0,0,0,0,0,0,0,0,0,0,0
590877165,588781300,586685435,0,0,0,0,0,0,0,0,0,0,0,0,0,0,0,0,0,0,0,0,0,0,0
589205801,587108952,652121223,0,0,0,0,0,0,0,0,0,0,0,0,0,0,0,0,0,0,0,0,0,0,0
638723114,636635267,567438300,0,0,0,0,0,0,0,0,0,0,0,0,0,0,0,0,0,0,0,0,0,0,0
701946970,766908639,764516466,0,0,0,0,0,0,0,0,0,0,0,0,0,0,0,0,0,0,0,0,0,0,0
559231576,557119198,689058163,0,0,0,0,0,0,0,0,0,0,0,0,0,0,0,0,0,0,0,0,0,0,0
623993206,756431340,754383457,0,0,0,0,0,0,0,0,0,0,0,0,0,0,0,0,0,0,0,0,0,0,0
618831230,616843502,614746205,0,0,0,0,0,0,0,0,0,0,0,0,0,0,0,0,0,0,0,0,0,0,0
620600154,618524153,750306966,0,0,0,0,0,0,0,0,0,0,0,0,0,0,0,0,0,0,0,0,0,0,0
754079465,684855674,615632906,0,0,0,0,0,0,0,0,0,0,0,0,0,0,0,0,0,0,0,0,0,0,0
619210420,550005571,548310982,0,0,0,0,0,0,0,0,0,0,0,0,0,0,0,0,0,0,0,0,0,0,0
617789107,615694944,546570343,0,0,0,0,0,0,0,0,0,0,0,0,0,0,0,0,0,0,0,0,0,0,0
543702384,541601558,539942322,0,0,0,0,0,0,0,0,0,0,0,0,0,0,0,0,0,0,0,0,0,0,0
541238013,539141104,537043938,0,0,0,0,0,0,0,0,0,0,0,0,0,0,0,0,0,0,0,0,0,0,0
542672849,540576707,538480565,0,0,0,0,0,0,0,0,0,0,0,0,0,0,0,0,0,0,0,0,0,0,0
542297848,540201966,538106084,0,0,0,0,0,0,0,0,0,0,0,0,0,0,0,0,0,0,0,0,0,0,0
