0,1,2,3,4,5,6,7,8,9,10,11,12,13,14,15,16,17,18,19,20,21,22,23,24,25
589899937,587799214,585698490,583598279,581494495,579390456,0,0,0,0,0,0,0,0,0,0,0,0,0,0,0,0,0,0,0,0
656600643,654501976,585294446,583195779,581095341,578995159,576895735,0,0,0,0,0,0,0,0,0,0,0,0,0,0,0,0,0,0,0
724166761,587842804,652375577,583134782,715184776,0,0,0,0,0,0,0,0,0,0,0,0,0,0,0,0,0,0,0,0,0
589470121,587372982,585276100,583178961,581082092,0,0,0,0,0,0,0,0,0,0,0,0,0,0,0,0,0,0,0,0,0
589462093,587365985,652378484,583173512,581078192,713200088,576886261,0,0,0,0,0,0,0,0,0,0,0,0,0,0,0,0,0,0,0
589635107,587534153,585433198,583333011,581228511,646065200,576864617,574771086,639784608,570580403,568485062,700607448,564294635,562199294,0,0,0,0,0,0,0,0,0,0,0,0
589434706,587343734,585253018,583162044,0,0,0,0,0,0,0,0,0,0,0,0,0,0,0,0,0,0,0,0,0,0
589402114,587309594,585217329,583124809,581037176,578948775,576858826,574766306,639780589,570576889,0,0,0,0,0,0,0,0,0,0,0,0,0,0,0,0
589672340,587569331,585466065,583362800,581021492,578936945,576848544,574757822,572663757,704787420,568475883,566381819,0,0,0,0,0,0,0,0,0,0,0,0,0,0
589419172,587325872,585232317,717356489,581048289,713176057,0,0,0,0,0,0,0,0,0,0,0,0,0,0,0,0,0,0,0,0
589404663,588775521,586680179,584585092,582491560,714615499,645412069,576207863,0,0,0,0,0,0,0,0,0,0,0,0,0,0,0,0,0,0
589404663,587311871,586680179,584585092,582491560,714615499,645412069,576207863,0,0,0,0,0,0,0,0,0,0,0,0,0,0,0,0,0,0
590885830,588789457,586693085,651705575,582501117,0,0,0,0,0,0,0,0,0,0,0,0,0,0,0,0,0,0,0,0,0
590931799,588832360,720950649,584633738,582532012,580430286,578329832,576230393,0,0,0,0,0,0,0,0,0,0,0,0,0,0,0,0,0,0
591237046,589143758,654159589,584957693,582558259,580453219,578350727,576249503,574150315,572051127,569951939,567853007,565753819,563654631,561555443,559456255,0,0,0,0,0,0,0,0,0,0
591199526,656216646,587017063,719143815,717059271,580475404,645477947,710483291,574165355,572065147,569965707,567865242,565765034,563664826,561564618,559464410,758690793,622372858,0,0,0,0,0,0,0,0
590930681,588831231,586347499,584248563,0,0,0,0,0,0,0,0,0,0,0,0,0,0,0,0,0,0,0,0,0,0
590930681,588446178,586347499,584248563,0,0,0,0,0,0,0,0,0,0,0,0,0,0,0,0,0,0,0,0,0,0
725159129,588841697,586742760,584643056,582540799,580054002,0,0,0,0,0,0,0,0,0,0,0,0,0,0,0,0,0,0,0,0
590531494,588434611,586337727,584240844,582144484,580047868,0,0,0,0,0,0,0,0,0,0,0,0,0,0,0,0,0,0,0,0
590615452,588519610,586423768,584327670,716357175,714258802,0,0,0,0,0,0,0,0,0,0,0,0,0,0,0,0,0,0,0,0
590498934,588403334,586307734,584212134,582117831,580023272,0,0,0,0,0,0,0,0,0,0,0,0,0,0,0,0,0,0,0,0
657798913,588588844,586487383,584385922,582280409,580003383,577912695,575819938,573725112,571630285,569535458,768766967,0,0,0,0,0,0,0,0,0,0,0,0,0,0
589832395,721954005,585640416,583544555,0,0,0,0,0,0,0,0,0,0,0,0,0,0,0,0,0,0,0,0,0,0
590428109,655445974,586246112,584154857,716287484,579343518,577249985,575155161,573059301,705180913,568867324,0,0,0,0,0,0,0,0,0,0,0,0,0,0,0
590413506,588323277,586233816,584144611,582062842,579343762,577251007,575156702,573061101,570965244,0,0,0,0,0,0,0,0,0,0,0,0,0,0,0,0
589857735,587760082,585662173,583564264,581465855,0,0,0,0,0,0,0,0,0,0,0,0,0,0,0,0,0,0,0,0,0
589880613,587781180,652790355,583582059,581480090,579378120,577277419,0,0,0,0,0,0,0,0,0,0,0,0,0,0,0,0,0,0,0
589864654,654875095,585668065,583569898,581470461,0,0,0,0,0,0,0,0,0,0,0,0,0,0,0,0,0,0,0,0,0
589883720,587784027,585684591,583585154,581483689,579381455,577280748,642290174,0,0,0,0,0,0,0,0,0,0,0,0,0,0,0,0,0,0
589888327,587788887,585689447,583590006,581488278,579386550,577285839,575186399,573087975,638098671,703109112,0,0,0,0,0,0,0,0,0,0,0,0,0,0,0
589883285,587783588,585683890,583584193,581481950,579379707,0,0,0,0,0,0,0,0,0,0,0,0,0,0,0,0,0,0,0,0
589893463,587793002,585693309,583592848,581488822,579385052,644391672,0,0,0,0,0,0,0,0,0,0,0,0,0,0,0,0,0,0,0
657027629,587817283,585715799,650722926,581506973,0,0,0,0,0,0,0,0,0,0,0,0,0,0,0,0,0,0,0,0,0
587989996,585813003,583703332,648690007,579459978,577344177,642343626,640240343,571028197,568924914,566821631,698543311,629333990,560124670,0,0,0,0,0,0,0,0,0,0,0,0
588041257,585953621,583865473,581787610,579425847,577314425,709426085,707324091,571004625,568902631,566800637,0,0,0,0,0,0,0,0,0,0,0,0,0,0,0
585294698,650305148,581096353,578996679,576897508,574798839,0,0,0,0,0,0,0,0,0,0,0,0,0,0,0,0,0,0,0,0
586424526,584327918,582140212,714258802,0,0,0,0,0,0,0,0,0,0,0,0,0,0,0,0,0,0,0,0,0,0
584457473,649452883,580230053,578120162,642883090,573681191,571588412,569495376,567402341,565309306,563216270,561122723,626138551,556936652,554843617,686968310,0,0,0,0,0,0,0,0,0,0
584502007,581995584,579926915,644959923,575769041,573679328,638698992,635964079,566761936,564668913,0,0,0,0,0,0,0,0,0,0,0,0,0,0,0,0
581322081,579199684,576803350,574719303,706846304,570538105,568447634,566356907,765592003,629283804,560084470,559416575,0,0,0,0,0,0,0,0,0,0,0,0,0,0
582652605,580525790,578407414,575861544,707979844,772989536,569564029,567464858,0,0,0,0,0,0,0,0,0,0,0,0,0,0,0,0,0,0
582326603,580212406,577881101,710010434,573700189,571606647,703731601,567421356,565328582,630344928,561143291,0,0,0,0,0,0,0,0,0,0,0,0,0,0,0
646510791,577299175,575197436,572715766,0,0,0,0,0,0,0,0,0,0,0,0,0,0,0,0,0,0,0,0,0,0
580688625,578416968,643407999,574191771,572084406,569977041,567869676,565375459,0,0,0,0,0,0,0,0,0,0,0,0,0,0,0,0,0,0
580146238,578048909,643060417,573854683,571757556,703762964,567448109,632459845,563253854,561156983,559059856,556962986,554866115,552769245,550672374,0,0,0,0,0,0,0,0,0,0,0
577547886,575471031,573383391,571062281,636064046,566848083,564740984,562634142,627636674,558420711,0,0,0,0,0,0,0,0,0,0,0,0,0,0,0,0
577539777,642574843,573173023,705282110,703173472,566847873,564740260,562632642,0,0,0,0,0,0,0,0,0,0,0,0,0,0,0,0,0,0
577539777,575281152,573173023,705282110,703173472,566847873,564740260,562632642,0,0,0,0,0,0,0,0,0,0,0,0,0,0,0,0,0,0
577432610,709527378,573199722,571089794,703198106,566870450,564760522,696868066,627244688,558032579,555929333,0,0,0,0,0,0,0,0,0,0,0,0,0,0,0
576983881,574888858,572792770,570696682,568508186,566410050,564311914,629322385,627224249,558017250,0,0,0,0,0,0,0,0,0,0,0,0,0,0,0,0
577049353,642053221,639951764,637850563,568640499,566375723,631391578,562189706,560096698,558003946,0,0,0,0,0,0,0,0,0,0,0,0,0,0,0,0
577149658,574670123,572587855,771831412,702640282,0,0,0,0,0,0,0,0,0,0,0,0,0,0,0,0,0,0,0,0,0
577149148,641779500,572587857,771831412,702640282,0,0,0,0,0,0,0,0,0,0,0,0,0,0,0,0,0,0,0,0,0
578312487,576236363,574149981,572063598,704194176,702107793,565803939,0,0,0,0,0,0,0,0,0,0,0,0,0,0,0,0,0,0,0
712888071,643695013,775822325,639159367,771273367,769169639,0,0,0,0,0,0,0,0,0,0,0,0,0,0,0,0,0,0,0,0
645191685,575979872,573879693,571779772,636788714,634540833,632446544,563243391,561149102,559054813,0,0,0,0,0,0,0,0,0,0,0,0,0,0,0,0
577676940,575579118,573070625,638082641,568876930,566780081,564682976,0,0,0,0,0,0,0,0,0,0,0,0,0,0,0,0,0,0,0
577560677,575480498,573392344,638163202,568948265,566842191,698953845,562630299,560524993,558418919,0,0,0,0,0,0,0,0,0,0,0,0,0,0,0,0
574932296,572831116,570729937,568480544,633496421,564294827,562201840,0,0,0,0,0,0,0,0,0,0,0,0,0,0,0,0,0,0,0
710531066,573763601,571663681,770890606,567464858,0,0,0,0,0,0,0,0,0,0,0,0,0,0,0,0,0,0,0,0,0
575694432,707828342,571527052,569442466,701576378,699492818,764518121,560467880,558376669,0,0,0,0,0,0,0,0,0,0,0,0,0,0,0,0,0
706928666,570612029,568512864,566413955,564315046,562215881,560116972,0,0,0,0,0,0,0,0,0,0,0,0,0,0,0,0,0,0,0
572802844,570704722,635715975,633618877,564412407,562210617,627222130,625124779,555918310,0,0,0,0,0,0,0,0,0,0,0,0,0,0,0,0,0
707796948,571497441,569415663,567333885,699329249,627584350,558381468,556287706,0,0,0,0,0,0,0,0,0,0,0,0,0,0,0,0,0,0
571128449,569012380,701114039,698998737,562665196,627241327,692246201,0,0,0,0,0,0,0,0,0,0,0,0,0,0,0,0,0,0,0
569791008,634785896,565563824,630558455,695311945,760340880,624042455,0,0,0,0,0,0,0,0,0,0,0,0,0,0,0,0,0,0,0
702408480,633209204,564010441,561563423,626568051,557354952,0,0,0,0,0,0,0,0,0,0,0,0,0,0,0,0,0,0,0,0
631576393,696579999,560256501,625096021,555898796,0,0,0,0,0,0,0,0,0,0,0,0,0,0,0,0,0,0,0,0,0
564143196,696290692,560002987,692149973,555227316,0,0,0,0,0,0,0,0,0,0,0,0,0,0,0,0,0,0,0,0,0
632592227,630490087,628259192,626167548,0,0,0,0,0,0,0,0,0,0,0,0,0,0,0,0,0,0,0,0,0,0
562330640,627339671,625115692,555912885,0,0,0,0,0,0,0,0,0,0,0,0,0,0,0,0,0,0,0,0,0,0
763686475,560252871,625100877,757231303,0,0,0,0,0,0,0,0,0,0,0,0,0,0,0,0,0,0,0,0,0,0
562890588,762138581,759785805,623451847,688042734,0,0,0,0,0,0,0,0,0,0,0,0,0,0,0,0,0,0,0,0,0
555933857,688493806,686429887,684366737,0,0,0,0,0,0,0,0,0,0,0,0,0,0,0,0,0,0,0,0,0,0
623027704,755149491,551727215,549631274,547630051,0,0,0,0,0,0,0,0,0,0,0,0,0,0,0,0,0,0,0,0,0
622995197,755095481,551650934,750859314,547749868,545714465,0,0,0,0,0,0,0,0,0,0,0,0,0,0,0,0,0,0,0,0
758286587,621966228,619863597,550804678,548713055,0,0,0,0,0,0,0,0,0,0,0,0,0,0,0,0,0,0,0,0,0
690488776,621910718,686870085,752278219,0,0,0,0,0,0,0,0,0,0,0,0,0,0,0,0,0,0,0,0,0,0
757632497,755551839,753790911,751676973,0,0,0,0,0,0,0,0,0,0,0,0,0,0,0,0,0,0,0,0,0,0
688457948,619277713,617206087,749520883,0,0,0,0,0,0,0,0,0,0,0,0,0,0,0,0,0,0,0,0,0,0
620912358,618805924,549590626,681702688,612718935,0,0,0,0,0,0,0,0,0,0,0,0,0,0,0,0,0,0,0,0,0
553801694,551693975,549586255,547479302,0,0,0,0,0,0,0,0,0,0,0,0,0,0,0,0,0,0,0,0,0,0
555237119,553132980,551028584,681653978,545281416,0,0,0,0,0,0,0,0,0,0,0,0,0,0,0,0,0,0,0,0,0
555236342,553131682,551026766,547426512,679483509,0,0,0,0,0,0,0,0,0,0,0,0,0,0,0,0,0,0,0,0,0
554868961,619881121,550675554,548578851,546585443,0,0,0,0,0,0,0,0,0,0,0,0,0,0,0,0,0,0,0,0,0
621975002,619876759,617778516,615680273,546597190,0,0,0,0,0,0,0,0,0,0,0,0,0,0,0,0,0,0,0,0,0
621948852,619837790,550617352,548756400,0,0,0,0,0,0,0,0,0,0,0,0,0,0,0,0,0,0,0,0,0,0
689033394,754017882,684785155,750144681,0,0,0,0,0,0,0,0,0,0,0,0,0,0,0,0,0,0,0,0,0,0
554188511,552087722,549986933,547886144,546373615,544234950,743450809,0,0,0,0,0,0,0,0,0,0,0,0,0,0,0,0,0,0,0
551704567,549602265,547499708,545387876,543275020,541409770,539317708,537225647,0,0,0,0,0,0,0,0,0,0,0,0,0,0,0,0,0,0
620254694,551047870,548949909,546850329,612286613,543081069,540984388,538887707,0,0,0,0,0,0,0,0,0,0,0,0,0,0,0,0,0,0
619859965,617754067,615648169,680634412,544580268,542491778,540403289,739640622,0,0,0,0,0,0,0,0,0,0,0,0,0,0,0,0,0,0
552123866,550035370,615055226,546151138,544027986,541922082,0,0,0,0,0,0,0,0,0,0,0,0,0,0,0,0,0,0,0,0
616717563,547507171,679614103,610395725,541185077,539083548,537212158,0,0,0,0,0,0,0,0,0,0,0,0,0,0,0,0,0,0,0
616712174,681718742,545389709,610386499,541175595,673291027,537222646,0,0,0,0,0,0,0,0,0,0,0,0,0,0,0,0,0,0,0
551054819,548958653,546864972,545157843,543059629,540961159,605971809,0,0,0,0,0,0,0,0,0,0,0,0,0,0,0,0,0,0,0
618178537,548978118,546897756,545111786,744335558,540906403,538803583,0,0,0,0,0,0,0,0,0,0,0,0,0,0,0,0,0,0,0
547525628,545426880,543328132,541230448,539132764,537035080,0,0,0,0,0,0,0,0,0,0,0,0,0,0,0,0,0,0,0,0
548943332,546839450,543262714,541159154,539055593,536952289,0,0,0,0,0,0,0,0,0,0,0,0,0,0,0,0,0,0,0,0
548595181,681119467,746148543,542730673,674857122,538548371,0,0,0,0,0,0,0,0,0,0,0,0,0,0,0,0,0,0,0,0
681112295,544822425,542733951,674862950,538556748,0,0,0,0,0,0,0,0,0,0,0,0,0,0,0,0,0,0,0,0,0
546482425,745713589,542290591,540193928,538097522,0,0,0,0,0,0,0,0,0,0,0,0,0,0,0,0,0,0,0,0,0
546461881,544359294,542260330,540161110,605171010,0,0,0,0,0,0,0,0,0,0,0,0,0,0,0,0,0,0,0,0,0
612923632,543721648,541625754,539529859,537433965,0,0,0,0,0,0,0,0,0,0,0,0,0,0,0,0,0,0,0,0,0
545831382,543748228,541655145,539562573,537470002,0,0,0,0,0,0,0,0,0,0,0,0,0,0,0,0,0,0,0,0,0
677569274,541256177,673378280,537065183,0,0,0,0,0,0,0,0,0,0,0,0,0,0,0,0,0,0,0,0,0,0
543358927,541654510,539560929,537468373,0,0,0,0,0,0,0,0,0,0,0,0,0,0,0,0,0,0,0,0,0,0
543358813,608804831,673834692,671754920,0,0,0,0,0,0,0,0,0,0,0,0,0,0,0,0,0,0,0,0,0,0
544783837,542689996,607704762,538502057,0,0,0,0,0,0,0,0,0,0,0,0,0,0,0,0,0,0,0,0,0,0
544390908,542294768,540198883,538102742,0,0,0,0,0,0,0,0,0,0,0,0,0,0,0,0,0,0,0,0,0,0
610808572,742927344,606611428,537403864,0,0,0,0,0,0,0,0,0,0,0,0,0,0,0,0,0,0,0,0,0,0
610851480,608763233,539565355,739098091,0,0,0,0,0,0,0,0,0,0,0,0,0,0,0,0,0,0,0,0,0,0
590517225,588420338,586323451,0,0,0,0,0,0,0,0,0,0,0,0,0,0,0,0,0,0,0,0,0,0,0
583418274,580973647,713113331,0,0,0,0,0,0,0,0,0,0,0,0,0,0,0,0,0,0,0,0,0,0,0
577358986,575240383,774458585,0,0,0,0,0,0,0,0,0,0,0,0,0,0,0,0,0,0,0,0,0,0,0
568348282,566274717,765526463,0,0,0,0,0,0,0,0,0,0,0,0,0,0,0,0,0,0,0,0,0,0,0
570080129,635066258,700052900,0,0,0,0,0,0,0,0,0,0,0,0,0,0,0,0,0,0,0,0,0,0,0
569222546,567140335,564718924,0,0,0,0,0,0,0,0,0,0,0,0,0,0,0,0,0,0,0,0,0,0,0
759594573,757147140,755097516,0,0,0,0,0,0,0,0,0,0,0,0,0,0,0,0,0,0,0,0,0,0,0
759594573,757451253,755097516,0,0,0,0,0,0,0,0,0,0,0,0,0,0,0,0,0,0,0,0,0,0,0
625842018,757666819,755548071,0,0,0,0,0,0,0,0,0,0,0,0,0,0,0,0,0,0,0,0,0,0,0
758942939,756656494,552791792,0,0,0,0,0,0,0,0,0,0,0,0,0,0,0,0,0,0,0,0,0,0,0
624265776,756145940,619862504,0,0,0,0,0,0,0,0,0,0,0,0,0,0,0,0,0,0,0,0,0,0,0
757630356,554212609,619595358,0,0,0,0,0,0,0,0,0,0,0,0,0,0,0,0,0,0,0,0,0,0,0
757630356,621699315,619595358,0,0,0,0,0,0,0,0,0,0,0,0,0,0,0,0,0,0,0,0,0,0,0
622356146,553151784,618564494,0,0,0,0,0,0,0,0,0,0,0,0,0,0,0,0,0,0,0,0,0,0,0
554212467,619593182,550378073,0,0,0,0,0,0,0,0,0,0,0,0,0,0,0,0,0,0,0,0,0,0,0
553165410,685652193,616437098,0,0,0,0,0,0,0,0,0,0,0,0,0,0,0,0,0,0,0,0,0,0,0
552791792,551096799,616128176,0,0,0,0,0,0,0,0,0,0,0,0,0,0,0,0,0,0,0,0,0,0,0
619845543,617748532,615828929,0,0,0,0,0,0,0,0,0,0,0,0,0,0,0,0,0,0,0,0,0,0,0
551119867,549044188,681228415,0,0,0,0,0,0,0,0,0,0,0,0,0,0,0,0,0,0,0,0,0,0,0
614655933,545908900,543872821,0,0,0,0,0,0,0,0,0,0,0,0,0,0,0,0,0,0,0,0,0,0,0
542288892,540191985,538095334,0,0,0,0,0,0,0,0,0,0,0,0,0,0,0,0,0,0,0,0,0,0,0
542284277,540186857,538089693,0,0,0,0,0,0,0,0,0,0,0,0,0,0,0,0,0,0,0,0,0,0,0
