0,1,2,3,4,5,6,7,8,9,10,11,12,13,14,15,16,17,18,19,20,21,22,23,24,25
589907371,587806135,585704899,583603407,581498856,579008741,576906749,0,0,0,0,0,0,0,0,0,0,0,0,0,0,0,0,0,0,0
589901306,587397274,652407464,583199671,581098964,578998513,0,0,0,0,0,0,0,0,0,0,0,0,0,0,0,0,0,0,0,0
589605388,587506485,585407582,583308934,581208280,578972720,576878189,574782870,572686506,704807871,568494035,566397671,564301564,0,0,0,0,0,0,0,0,0,0,0,0,0
656544601,587341164,585246334,583151760,581059508,578967511,643982834,0,0,0,0,0,0,0,0,0,0,0,0,0,0,0,0,0,0,0
589451992,587356129,585260266,583164659,0,0,0,0,0,0,0,0,0,0,0,0,0,0,0,0,0,0,0,0,0,0
589427559,587333495,585238919,583145111,581054393,578963419,576871157,0,0,0,0,0,0,0,0,0,0,0,0,0,0,0,0,0,0,0
589669871,587291149,585199909,583108668,581023851,578938776,0,0,0,0,0,0,0,0,0,0,0,0,0,0,0,0,0,0,0,0
589392201,587300444,585208943,583117442,648140200,578944975,643964651,574764287,574097144,0,0,0,0,0,0,0,0,0,0,0,0,0,0,0,0,0
589372578,587282351,585192124,583101897,581018595,578935293,578293942,576199890,574104543,572008941,569913594,0,0,0,0,0,0,0,0,0,0,0,0,0,0,0
658000952,588795468,586698592,584601972,582505372,580408772,578312162,576215286,0,0,0,0,0,0,0,0,0,0,0,0,0,0,0,0,0,0
725502538,589189230,587093650,584998070,582904062,580422475,645432192,576224676,574126774,572028872,569930970,567833068,565735166,0,0,0,0,0,0,0,0,0,0,0,0,0
590914261,588815838,586717671,584619248,0,0,0,0,0,0,0,0,0,0,0,0,0,0,0,0,0,0,0,0,0,0
725136840,588820434,586721757,584623079,582522875,0,0,0,0,0,0,0,0,0,0,0,0,0,0,0,0,0,0,0,0,0
591207097,723334357,587026418,584684819,582574156,580463236,578355631,576252363,574151897,572051176,569950710,0,0,0,0,0,0,0,0,0,0,0,0,0,0,0
590533607,588435695,586337527,584239359,0,0,0,0,0,0,0,0,0,0,0,0,0,0,0,0,0,0,0,0,0,0
657784948,655685525,586476215,651484631,582099488,580008802,577916564,575822773,573727173,571631829,569536230,567440886,0,0,0,0,0,0,0,0,0,0,0,0,0,0
590411621,588321142,720449159,584141976,582059706,579977691,577891829,575147469,573052379,705175018,568862457,0,0,0,0,0,0,0,0,0,0,0,0,0,0,0
657371951,588165462,653176955,651079329,581872878,579360064,577263482,575166624,573069747,570972871,568875738,566778861,0,0,0,0,0,0,0,0,0,0,0,0,0,0
590220175,588125615,787357646,583936750,648593714,579382386,577281441,575181505,573083089,638093536,568886256,0,0,0,0,0,0,0,0,0,0,0,0,0,0,0
656975547,587768517,585670350,650680791,581472746,579373565,0,0,0,0,0,0,0,0,0,0,0,0,0,0,0,0,0,0,0,0
589894935,722011694,585694276,583593563,581489544,579385781,577284055,575183854,573084921,0,0,0,0,0,0,0,0,0,0,0,0,0,0,0,0,0
656989916,587781605,585682158,583582710,0,0,0,0,0,0,0,0,0,0,0,0,0,0,0,0,0,0,0,0,0,0
587210328,585125483,717258367,580968358,713113037,576816875,574732286,574097022,572002198,569907630,702030534,565718238,563623670,0,0,0,0,0,0,0,0,0,0,0,0,0
585117316,583033494,580963258,578891741,711032311,576194400,574099322,572004499,704127148,567814596,565719772,630733812,0,0,0,0,0,0,0,0,0,0,0,0,0,0
586578690,584469039,716565130,580226021,577872689,575787360,573695863,571604368,569512105,634529217,565328346,764562674,0,0,0,0,0,0,0,0,0,0,0,0,0,0
586063118,583966014,581868956,579771898,577265990,575168885,573071757,570974372,568877244,633888979,564682987,0,0,0,0,0,0,0,0,0,0,0,0,0,0,0
585921536,583836205,648871305,579687142,577334323,709443428,640231804,705237654,568917935,633923528,564711650,562608380,0,0,0,0,0,0,0,0,0,0,0,0,0,0
583725696,581604511,579483326,577369045,575259877,573156589,571053557,568523836,566424659,564325482,562226306,560127129,692245681,555929033,553829856,551730936,0,0,0,0,0,0,0,0,0,0
585016587,650028656,580822231,578313256,576216412,574119285,572022158,569925031,567827904,565730777,563633650,0,0,0,0,0,0,0,0,0,0,0,0,0,0,0
718580004,649369988,580159973,577923637,575828581,573732477,772962965,569540526,567444422,565348318,563252214,0,0,0,0,0,0,0,0,0,0,0,0,0,0,0
718627877,582300549,580190950,577898293,575807590,573713534,571619478,703743150,634540486,565337567,563243511,0,0,0,0,0,0,0,0,0,0,0,0,0,0,0
651557385,582332271,580216020,577878824,575791194,573698932,705823373,569513382,634529983,565328857,764562674,0,0,0,0,0,0,0,0,0,0,0,0,0,0,0
718116894,581814146,579729126,577300790,575197800,573097601,705215130,568897459,566797260,698914789,562597118,0,0,0,0,0,0,0,0,0,0,0,0,0,0,0
582229096,580134606,577943587,575845462,573747568,571649930,636660899,567454397,565356759,630367984,0,0,0,0,0,0,0,0,0,0,0,0,0,0,0,0
582282597,647285707,577910304,575817556,573722734,571627656,636641697,567437755,565342677,697465327,0,0,0,0,0,0,0,0,0,0,0,0,0,0,0,0
581984229,647026941,644803060,575152694,573057108,570961522,568866192,566770606,564675020,696797162,0,0,0,0,0,0,0,0,0,0,0,0,0,0,0,0
581984229,579795866,644803060,575152694,573057108,570961522,568866192,566770606,564675020,696797162,0,0,0,0,0,0,0,0,0,0,0,0,0,0,0,0
716200957,579790999,577690099,575156020,573060179,570964337,568868495,566772653,564676811,562580969,0,0,0,0,0,0,0,0,0,0,0,0,0,0,0,0
580183565,578078592,575976397,573876723,571623457,569528904,567434606,565340052,563245499,561150945,0,0,0,0,0,0,0,0,0,0,0,0,0,0,0,0
714421340,712312256,575799050,573705515,571612492,569519213,634535054,699550640,563239889,561146866,0,0,0,0,0,0,0,0,0,0,0,0,0,0,0,0
576848565,574756296,572661457,570566619,635580900,566377198,564282616,0,0,0,0,0,0,0,0,0,0,0,0,0,0,0,0,0,0,0
644265943,574659873,572576577,570492514,568408962,700543139,564242115,696376292,760747492,0,0,0,0,0,0,0,0,0,0,0,0,0,0,0,0,0
577656692,575562950,573467631,570986012,568887365,566788718,564690071,629700288,627601641,0,0,0,0,0,0,0,0,0,0,0,0,0,0,0,0,0
576610130,574514565,572419255,570323690,634947359,565739602,563640965,561542071,559443434,0,0,0,0,0,0,0,0,0,0,0,0,0,0,0,0,0
576369562,574257324,572145087,704250577,567921635,700027126,563277925,561175712,559073754,0,0,0,0,0,0,0,0,0,0,0,0,0,0,0,0,0
573854226,571756369,636767374,768887500,632462612,630365523,561159571,626171345,0,0,0,0,0,0,0,0,0,0,0,0,0,0,0,0,0,0
573935127,571829077,703940499,567616721,632416024,630327126,561130389,559042259,0,0,0,0,0,0,0,0,0,0,0,0,0,0,0,0,0,0
570724879,568625499,566525862,564426481,562199110,560104337,558009820,0,0,0,0,0,0,0,0,0,0,0,0,0,0,0,0,0,0,0
572004427,569909612,567814541,565719726,563624655,561529840,0,0,0,0,0,0,0,0,0,0,0,0,0,0,0,0,0,0,0,0
638457912,569256830,567164356,564703756,562602066,560500632,558399198,0,0,0,0,0,0,0,0,0,0,0,0,0,0,0,0,0,0,0
571318579,636338808,634250430,564723464,562617679,694729622,558406365,0,0,0,0,0,0,0,0,0,0,0,0,0,0,0,0,0,0,0
569040642,701147678,631928377,562709077,560598641,558488717,690595753,554267589,686374626,550046462,547544549,0,0,0,0,0,0,0,0,0,0,0,0,0,0,0
635805974,633695851,631585728,696377632,560075381,557991370,0,0,0,0,0,0,0,0,0,0,0,0,0,0,0,0,0,0,0,0
570244153,702377094,566074832,765014042,0,0,0,0,0,0,0,0,0,0,0,0,0,0,0,0,0,0,0,0,0,0
704301972,702182832,767172299,697945063,561182023,626186652,691191283,0,0,0,0,0,0,0,0,0,0,0,0,0,0,0,0,0,0,0
700822040,631600250,562378206,560067405,625094832,0,0,0,0,0,0,0,0,0,0,0,0,0,0,0,0,0,0,0,0,0
568159023,700292488,765317088,628686906,559468947,691576556,0,0,0,0,0,0,0,0,0,0,0,0,0,0,0,0,0,0,0,0
634845876,565206784,630246978,695286149,0,0,0,0,0,0,0,0,0,0,0,0,0,0,0,0,0,0,0,0,0,0
634845876,565611767,630246978,695286149,0,0,0,0,0,0,0,0,0,0,0,0,0,0,0,0,0,0,0,0,0,0
700104786,563760517,561634487,760833769,758307532,0,0,0,0,0,0,0,0,0,0,0,0,0,0,0,0,0,0,0,0,0
697308670,628022704,558381130,623398628,0,0,0,0,0,0,0,0,0,0,0,0,0,0,0,0,0,0,0,0,0,0
562933867,627962351,625529714,623416054,0,0,0,0,0,0,0,0,0,0,0,0,0,0,0,0,0,0,0,0,0,0
626887710,624799847,555603121,553515258,618195013,548979855,0,0,0,0,0,0,0,0,0,0,0,0,0,0,0,0,0,0,0,0
626825482,557637207,622665635,553477103,551115836,549001352,0,0,0,0,0,0,0,0,0,0,0,0,0,0,0,0,0,0,0,0
558906459,556829564,554752669,552675006,550598112,547885988,0,0,0,0,0,0,0,0,0,0,0,0,0,0,0,0,0,0,0,0
555880819,620897944,551697854,549606627,0,0,0,0,0,0,0,0,0,0,0,0,0,0,0,0,0,0,0,0,0,0
758532626,555090023,687191484,684818459,615632240,0,0,0,0,0,0,0,0,0,0,0,0,0,0,0,0,0,0,0,0,0
556309948,554216343,552122738,550029133,0,0,0,0,0,0,0,0,0,0,0,0,0,0,0,0,0,0,0,0,0,0
753069042,684266452,547972759,680304344,0,0,0,0,0,0,0,0,0,0,0,0,0,0,0,0,0,0,0,0,0,0
753061884,616756914,749292510,680142444,0,0,0,0,0,0,0,0,0,0,0,0,0,0,0,0,0,0,0,0,0,0
552092889,549989999,682551546,680541916,0,0,0,0,0,0,0,0,0,0,0,0,0,0,0,0,0,0,0,0,0,0
550032599,547947931,680352735,745325100,0,0,0,0,0,0,0,0,0,0,0,0,0,0,0,0,0,0,0,0,0,0
547511793,545399440,543287598,541185294,539305193,537213128,0,0,0,0,0,0,0,0,0,0,0,0,0,0,0,0,0,0,0,0
547508718,612502410,543279399,541176070,539315168,537223871,0,0,0,0,0,0,0,0,0,0,0,0,0,0,0,0,0,0,0,0
548943597,546835059,677455314,608239555,539023285,536915622,0,0,0,0,0,0,0,0,0,0,0,0,0,0,0,0,0,0,0,0
548943597,545366271,677455314,608239555,539023285,536915622,0,0,0,0,0,0,0,0,0,0,0,0,0,0,0,0,0,0,0,0
682812399,614022602,746173310,542759781,607780939,538584882,0,0,0,0,0,0,0,0,0,0,0,0,0,0,0,0,0,0,0,0
545444062,543353250,541258126,539163002,537481721,0,0,0,0,0,0,0,0,0,0,0,0,0,0,0,0,0,0,0,0,0
545430739,543333266,541236092,606247526,537041489,0,0,0,0,0,0,0,0,0,0,0,0,0,0,0,0,0,0,0,0,0
545424875,543324853,541226659,539128465,604139135,0,0,0,0,0,0,0,0,0,0,0,0,0,0,0,0,0,0,0,0,0
545417964,543314615,541215142,539115924,537016706,0,0,0,0,0,0,0,0,0,0,0,0,0,0,0,0,0,0,0,0,0
546841072,543289848,608296941,606194914,536984024,0,0,0,0,0,0,0,0,0,0,0,0,0,0,0,0,0,0,0,0,0
546841072,611844535,608296941,606194914,536984024,0,0,0,0,0,0,0,0,0,0,0,0,0,0,0,0,0,0,0,0,0
546866420,544774078,542678699,540583065,672704902,0,0,0,0,0,0,0,0,0,0,0,0,0,0,0,0,0,0,0,0,0
546871266,544781986,542687373,540592759,538498146,0,0,0,0,0,0,0,0,0,0,0,0,0,0,0,0,0,0,0,0,0
546498288,544801005,744035040,540616405,538524105,0,0,0,0,0,0,0,0,0,0,0,0,0,0,0,0,0,0,0,0,0
546502104,544809942,542718663,540627384,538535849,0,0,0,0,0,0,0,0,0,0,0,0,0,0,0,0,0,0,0,0,0
681138166,544857281,542770607,674902173,672816267,0,0,0,0,0,0,0,0,0,0,0,0,0,0,0,0,0,0,0,0,0
546920440,544856776,542770104,540684200,672815769,0,0,0,0,0,0,0,0,0,0,0,0,0,0,0,0,0,0,0,0,0
680681888,678576702,542259230,540325881,538231513,0,0,0,0,0,0,0,0,0,0,0,0,0,0,0,0,0,0,0,0,0
680013263,543692172,541592949,539493727,672241406,0,0,0,0,0,0,0,0,0,0,0,0,0,0,0,0,0,0,0,0,0
545817334,543724740,541629109,539533477,537437846,0,0,0,0,0,0,0,0,0,0,0,0,0,0,0,0,0,0,0,0,0
543330024,541232347,539134927,537037250,0,0,0,0,0,0,0,0,0,0,0,0,0,0,0,0,0,0,0,0,0,0
543325050,608334397,606234881,604276418,0,0,0,0,0,0,0,0,0,0,0,0,0,0,0,0,0,0,0,0,0,0
543329013,541231338,539133663,537035988,0,0,0,0,0,0,0,0,0,0,0,0,0,0,0,0,0,0,0,0,0,0
543318758,541217478,539116199,604123783,0,0,0,0,0,0,0,0,0,0,0,0,0,0,0,0,0,0,0,0,0,0
545187193,543092035,608105740,603982075,0,0,0,0,0,0,0,0,0,0,0,0,0,0,0,0,0,0,0,0,0,0
544771022,542677409,607692660,605599047,0,0,0,0,0,0,0,0,0,0,0,0,0,0,0,0,0,0,0,0,0,0
544770559,542674677,540578794,538482912,0,0,0,0,0,0,0,0,0,0,0,0,0,0,0,0,0,0,0,0,0,0
544782783,542692749,540602204,538510892,0,0,0,0,0,0,0,0,0,0,0,0,0,0,0,0,0,0,0,0,0,0
544781272,542690990,540600452,538509403,0,0,0,0,0,0,0,0,0,0,0,0,0,0,0,0,0,0,0,0,0,0
610803418,541592760,674359551,739362285,0,0,0,0,0,0,0,0,0,0,0,0,0,0,0,0,0,0,0,0,0,0
543736568,541642221,539547874,537453527,0,0,0,0,0,0,0,0,0,0,0,0,0,0,0,0,0,0,0,0,0,0
590472127,722596298,586285013,0,0,0,0,0,0,0,0,0,0,0,0,0,0,0,0,0,0,0,0,0,0,0
580925885,578862559,576790008,0,0,0,0,0,0,0,0,0,0,0,0,0,0,0,0,0,0,0,0,0,0,0
761969586,625599215,623036861,0,0,0,0,0,0,0,0,0,0,0,0,0,0,0,0,0,0,0,0,0,0,0
761670498,759263526,757211098,0,0,0,0,0,0,0,0,0,0,0,0,0,0,0,0,0,0,0,0,0,0,0
561318559,760354610,758272952,0,0,0,0,0,0,0,0,0,0,0,0,0,0,0,0,0,0,0,0,0,0,0
695007571,759788044,623433930,0,0,0,0,0,0,0,0,0,0,0,0,0,0,0,0,0,0,0,0,0,0,0
762106695,759794436,757654214,0,0,0,0,0,0,0,0,0,0,0,0,0,0,0,0,0,0,0,0,0,0,0
618833879,549629553,614642953,0,0,0,0,0,0,0,0,0,0,0,0,0,0,0,0,0,0,0,0,0,0,0
618822322,750935598,547660459,0,0,0,0,0,0,0,0,0,0,0,0,0,0,0,0,0,0,0,0,0,0,0
685913854,750893340,614836031,0,0,0,0,0,0,0,0,0,0,0,0,0,0,0,0,0,0,0,0,0,0,0
754467041,683745790,681606357,0,0,0,0,0,0,0,0,0,0,0,0,0,0,0,0,0,0,0,0,0,0,0
620681796,752799413,548944935,0,0,0,0,0,0,0,0,0,0,0,0,0,0,0,0,0,0,0,0,0,0,0
620255452,551046701,616479343,0,0,0,0,0,0,0,0,0,0,0,0,0,0,0,0,0,0,0,0,0,0,0
620657487,551453372,548959785,0,0,0,0,0,0,0,0,0,0,0,0,0,0,0,0,0,0,0,0,0,0,0
754502135,685332845,683477719,0,0,0,0,0,0,0,0,0,0,0,0,0,0,0,0,0,0,0,0,0,0,0
619880672,617784897,615791525,0,0,0,0,0,0,0,0,0,0,0,0,0,0,0,0,0,0,0,0,0,0,0
754069440,685062142,615891767,0,0,0,0,0,0,0,0,0,0,0,0,0,0,0,0,0,0,0,0,0,0,0
619620407,617522870,615013173,0,0,0,0,0,0,0,0,0,0,0,0,0,0,0,0,0,0,0,0,0,0,0
551060938,616078453,547233645,0,0,0,0,0,0,0,0,0,0,0,0,0,0,0,0,0,0,0,0,0,0,0
752424941,683246509,748434657,0,0,0,0,0,0,0,0,0,0,0,0,0,0,0,0,0,0,0,0,0,0,0
617759193,548539793,747991477,0,0,0,0,0,0,0,0,0,0,0,0,0,0,0,0,0,0,0,0,0,0,0
550643919,615639936,680899988,0,0,0,0,0,0,0,0,0,0,0,0,0,0,0,0,0,0,0,0,0,0,0
545426427,610586815,608499800,0,0,0,0,0,0,0,0,0,0,0,0,0,0,0,0,0,0,0,0,0,0,0
610352808,541123193,539001673,0,0,0,0,0,0,0,0,0,0,0,0,0,0,0,0,0,0,0,0,0,0,0
746147929,676976446,674912804,0,0,0,0,0,0,0,0,0,0,0,0,0,0,0,0,0,0,0,0,0,0,0
542665207,540568543,538472135,0,0,0,0,0,0,0,0,0,0,0,0,0,0,0,0,0,0,0,0,0,0,0
