0,1,2,3,4,5,6,7,8,9,10,11,12,13,14,15,16,17,18,19,20,21,22,23,24,25
589879801,587398121,585299440,583200759,0,0,0,0,0,0,0,0,0,0,0,0,0,0,0,0,0,0,0,0,0,0
589879801,587780862,585299440,583200759,0,0,0,0,0,0,0,0,0,0,0,0,0,0,0,0,0,0,0,0,0,0
589914545,587813307,585712326,583611088,581506020,579401721,778236123,574810091,0,0,0,0,0,0,0,0,0,0,0,0,0,0,0,0,0,0
589913789,587812549,585711309,583610326,581505256,646119109,778236123,574810091,0,0,0,0,0,0,0,0,0,0,0,0,0,0,0,0,0,0
657062505,587850104,585746822,583643285,715751345,579424206,577317604,575214066,573113849,570620096,568521164,566422232,564323300,629332719,694342652,0,0,0,0,0,0,0,0,0,0,0
589954941,587851914,585748630,583645091,581535420,579425494,577318634,575215095,572718000,570619069,568520393,566421462,564322530,629332719,694342652,0,0,0,0,0,0,0,0,0,0,0
724215380,587892067,585786226,717898113,648675487,579452606,577342677,575236836,640244203,571033843,635633281,566425234,564326307,562227124,560128197,558029014,555930087,553830904,0,0,0,0,0,0,0,0
589955294,587852517,585749228,717863412,648214319,579004512,576904836,574805660,572707752,570609588,568511680,566413516,631424472,562217445,558021373,0,0,0,0,0,0,0,0,0,0,0
589485462,721605023,585289384,650300081,581092037,578992856,576894182,574796015,572698356,570600696,702720765,0,0,0,0,0,0,0,0,0,0,0,0,0,0,0
656590738,587384222,585286314,583188661,581090252,578991843,576893941,0,0,0,0,0,0,0,0,0,0,0,0,0,0,0,0,0,0,0
589569175,587473079,585376982,583280629,648198458,578990969,711110311,572697557,570599909,568502516,0,0,0,0,0,0,0,0,0,0,0,0,0,0,0,0
589572523,587475652,585379036,583282420,581088556,578990429,576892545,574795162,572697766,570600370,568502974,633514442,564308183,562210787,560113391,558015996,0,0,0,0,0,0,0,0,0,0
589473515,587376114,585278968,583181567,0,0,0,0,0,0,0,0,0,0,0,0,0,0,0,0,0,0,0,0,0,0
723678937,587364833,585268201,583171825,0,0,0,0,0,0,0,0,0,0,0,0,0,0,0,0,0,0,0,0,0,0
589460957,587363040,719482851,583166952,0,0,0,0,0,0,0,0,0,0,0,0,0,0,0,0,0,0,0,0,0,0
589414675,587320870,585227065,583133004,715259762,578951320,576859060,574765255,639778512,570574298,568478691,700600813,564287734,562192127,0,0,0,0,0,0,0,0,0,0,0,0
589418807,587324745,585230683,583136621,581044625,578953907,576861645,574767838,572672486,637685742,568481271,566385663,0,0,0,0,0,0,0,0,0,0,0,0,0,0
589423029,587328703,585234376,583139538,581047781,578956280,578291703,0,0,0,0,0,0,0,0,0,0,0,0,0,0,0,0,0,0,0
589428443,587333603,585238250,583143665,582484447,580391155,0,0,0,0,0,0,0,0,0,0,0,0,0,0,0,0,0,0,0,0
589417692,587323875,585229802,583135729,582484418,580390874,578296556,576201208,574105086,0,0,0,0,0,0,0,0,0,0,0,0,0,0,0,0,0
589413615,587320053,585226746,584581791,582487994,580394197,578299625,576204022,708325373,0,0,0,0,0,0,0,0,0,0,0,0,0,0,0,0,0
590880957,723002310,586688464,584592345,582497003,580401662,0,0,0,0,0,0,0,0,0,0,0,0,0,0,0,0,0,0,0,0
590887852,588791222,586694592,651706826,582502111,580406003,0,0,0,0,0,0,0,0,0,0,0,0,0,0,0,0,0,0,0,0
590891461,588794833,586698204,584601575,582505214,0,0,0,0,0,0,0,0,0,0,0,0,0,0,0,0,0,0,0,0,0
590889534,588792398,586695518,584598638,582502286,580406190,578309830,710430678,574116062,572019174,569922286,634934262,565728511,0,0,0,0,0,0,0,0,0,0,0,0,0
591288192,589192355,587096775,585000938,582520118,580420221,578320818,576222422,574124519,572026617,0,0,0,0,0,0,0,0,0,0,0,0,0,0,0,0
590928146,588829221,653838904,584631116,582530162,580429464,578329525,576230600,574132434,572034523,637045220,567838446,565740280,0,0,0,0,0,0,0,0,0,0,0,0,0
590938282,588839348,586739646,584640200,582538205,647544817,0,0,0,0,0,0,0,0,0,0,0,0,0,0,0,0,0,0,0,0
591167304,589078118,586988932,584899746,582817758,781822494,578387019,576281961,574180728,572079751,569978517,567877540,565776307,563675330,561574865,559473632,557372398,555271421,0,0,0,0,0,0,0,0
591147786,589059885,586971983,584884081,582805686,580506368,578395187,576288853,641295718,572085112,704200841,567881370,565779627,563677628,561576653,559474654,557372911,756218105,0,0,0,0,0,0,0,0
590536423,588437741,586339060,584240123,0,0,0,0,0,0,0,0,0,0,0,0,0,0,0,0,0,0,0,0,0,0
590518463,588421321,586324434,584227292,582130415,0,0,0,0,0,0,0,0,0,0,0,0,0,0,0,0,0,0,0,0,0
590508477,588411850,586315478,584219106,649232634,0,0,0,0,0,0,0,0,0,0,0,0,0,0,0,0,0,0,0,0,0
724937833,588617607,586514854,718629572,582068231,579982660,577894002,575801744,573707423,638721966,569518782,567424461,565330140,563235819,561141498,0,0,0,0,0,0,0,0,0,0,0
590478240,588383149,586288826,651303366,582103008,580011770,0,0,0,0,0,0,0,0,0,0,0,0,0,0,0,0,0,0,0,0
590420924,722548165,720457678,718367190,582065640,579981562,577244343,575149520,707271132,570957799,568862194,566766589,0,0,0,0,0,0,0,0,0,0,0,0,0,0
589844849,587747967,585651084,583554202,648566196,579360719,644372707,575166961,573069816,570972926,0,0,0,0,0,0,0,0,0,0,0,0,0,0,0,0
590243188,588147088,586050731,583954375,581470724,579371835,577273444,575175552,573077902,638089115,568882857,566785207,564687557,562589907,560492513,625503726,556297212,0,0,0,0,0,0,0,0,0
589860452,587762546,585664896,583566990,581468331,579369927,644380636,575174123,573076466,570979065,0,0,0,0,0,0,0,0,0,0,0,0,0,0,0,0
589858499,587760591,585662683,583564775,581466110,0,0,0,0,0,0,0,0,0,0,0,0,0,0,0,0,0,0,0,0,0
657320964,588118062,586023511,718147200,581838803,579387179,577285225,709402515,573086119,705204924,568888528,566789605,564690937,0,0,0,0,0,0,0,0,0,0,0,0,0
590190418,588096370,586002065,583908271,648926439,0,0,0,0,0,0,0,0,0,0,0,0,0,0,0,0,0,0,0,0,0
587559173,585457193,583355469,581249172,579142621,576847642,574754366,572659792,570564963,568470133,700592775,564280217,696403115,694308285,557995727,555900897,553806067,0,0,0,0,0,0,0,0,0
585518081,583408695,581288099,578913814,576834919,574749853,706875576,570566867,568475630,0,0,0,0,0,0,0,0,0,0,0,0,0,0,0,0,0
585121830,583039042,715188089,578900913,576824796,574741752,574095780,572002240,569908700,702032888,0,0,0,0,0,0,0,0,0,0,0,0,0,0,0,0
586683946,584588094,582493287,580398735,578303405,643316417,574111180,572014550,569917920,567821546,565724916,563628542,0,0,0,0,0,0,0,0,0,0,0,0,0,0
586599160,584083231,716241503,579964063,0,0,0,0,0,0,0,0,0,0,0,0,0,0,0,0,0,0,0,0,0,0
586170427,584083278,582006132,579928473,577846453,709977032,573667282,569482980,634499821,565298679,562562974,694685873,558373572,623387607,621292522,552088830,0,0,0,0,0,0,0,0,0,0
583805299,581730486,646764793,577366065,575257683,707372388,571051892,568949125,566846358,564743590,562640567,694755529,558435033,556333033,554230266,551743217,0,0,0,0,0,0,0,0,0,0
581734372,579476002,577362766,575254378,707369336,571049094,568946323,566843809,564741295,562638525,560536011,558433498,556332010,554229754,551743217,0,0,0,0,0,0,0,0,0,0,0
581610415,646594036,576985029,574896888,572693016,570591537,0,0,0,0,0,0,0,0,0,0,0,0,0,0,0,0,0,0,0,0
581174871,579080620,576985581,574801695,572703797,570605899,568508001,566410102,564312204,696432033,694334134,558018508,555920609,553822966,0,0,0,0,0,0,0,0,0,0,0,0
582275377,580173450,712289486,710189562,573721111,571625261,636638274,567433816,565337966,563242116,561146265,559050414,556954564,0,0,0,0,0,0,0,0,0,0,0,0,0
582284294,580180580,578078378,575977689,573878769,638729231,703742503,567429439,565334102,563238765,628252292,559047836,556952499,554857162,552761825,550666232,0,0,0,0,0,0,0,0,0,0
582286657,580181405,578078178,575811864,573716783,571621702,636635228,567431284,565335947,630349729,561145528,559050447,556955110,554859773,0,0,0,0,0,0,0,0,0,0,0,0
579155547,577046467,574750480,572656691,570563669,702688120,566377625,564284603,562191837,560099071,0,0,0,0,0,0,0,0,0,0,0,0,0,0,0,0
713058228,576765646,574683359,572592871,570503152,568413177,0,0,0,0,0,0,0,0,0,0,0,0,0,0,0,0,0,0,0,0
580555796,578425445,576306585,641307059,572089805,637090022,701691826,0,0,0,0,0,0,0,0,0,0,0,0,0,0,0,0,0,0,0
714782233,779756901,576309401,574199986,572090572,637090022,701691826,0,0,0,0,0,0,0,0,0,0,0,0,0,0,0,0,0,0,0
580311186,578187993,575715855,707845159,571539262,569450070,567361645,565273221,563184796,561096627,559008202,556919777,689048312,552082939,0,0,0,0,0,0,0,0,0,0,0,0
579748916,577655170,575560375,573464529,571368427,568891402,566793252,564694846,562596697,560498291,558400141,556301991,554203585,552105435,617116149,0,0,0,0,0,0,0,0,0,0,0
579395156,577297009,575198852,573101199,571003804,568905897,0,0,0,0,0,0,0,0,0,0,0,0,0,0,0,0,0,0,0,0
579407147,577303385,709419384,573102471,571003029,568903843,566804655,698923195,0,0,0,0,0,0,0,0,0,0,0,0,0,0,0,0,0,0
577503588,642534811,640447415,571251155,569163759,566893584,564787500,764007239,627682915,558467199,556360347,554253495,552146643,684258287,547548655,0,0,0,0,0,0,0,0,0,0,0
711650490,642425037,573209303,571102688,568996074,566889459,631892476,0,0,0,0,0,0,0,0,0,0,0,0,0,0,0,0,0,0,0
578582869,710736040,641545681,572356091,569986344,702090322,632868731,630755237,561532623,559419129,0,0,0,0,0,0,0,0,0,0,0,0,0,0,0,0
645670290,643596467,574402244,572316885,570230758,568145655,565812493,563703326,561594159,626593855,557376849,689485410,553158771,685267332,548940694,0,0,0,0,0,0,0,0,0,0,0
577783773,575701738,573612272,571522806,703651581,567211203,565112037,0,0,0,0,0,0,0,0,0,0,0,0,0,0,0,0,0,0,0
577771988,575693286,573604847,638626297,569307796,567208890,699327456,0,0,0,0,0,0,0,0,0,0,0,0,0,0,0,0,0,0,0
577769185,709909232,573604343,571406958,569307796,567208890,699327456,0,0,0,0,0,0,0,0,0,0,0,0,0,0,0,0,0,0,0
574881949,572785848,570690004,568594160,566416147,631426862,562219594,560121190,558023042,690142109,553826489,551728085,750956272,0,0,0,0,0,0,0,0,0,0,0,0,0
574907942,572816454,570725479,568634503,566543526,698670278,562361831,560060943,557957423,555853903,0,0,0,0,0,0,0,0,0,0,0,0,0,0,0,0
574949189,572849003,570748306,635756472,566546911,631383053,562180660,560087130,625102464,555900071,553806541,551713011,0,0,0,0,0,0,0,0,0,0,0,0,0,0
574976054,707089249,704984716,635771319,633667554,564266262,562176321,627195499,557996950,0,0,0,0,0,0,0,0,0,0,0,0,0,0,0,0,0
777288789,573859968,571757483,569655255,567458827,565366839,0,0,0,0,0,0,0,0,0,0,0,0,0,0,0,0,0,0,0,0
576066602,775289420,571858542,569754256,567649714,565545172,697658358,695310367,559002945,556912995,554823301,552732583,550642632,548552682,0,0,0,0,0,0,0,0,0,0,0,0
573208048,571101424,568995572,566889205,0,0,0,0,0,0,0,0,0,0,0,0,0,0,0,0,0,0,0,0,0,0
573849110,571752300,636764354,567452964,565355387,0,0,0,0,0,0,0,0,0,0,0,0,0,0,0,0,0,0,0,0,0
641053975,571842109,569739106,567636102,699750827,630539214,561327092,559010850,556919879,621937003,552737169,550646454,0,0,0,0,0,0,0,0,0,0,0,0,0,0
573582639,571496002,569409622,567322985,565236604,697367695,561062818,626085045,556889290,554802653,552715761,751308988,614999525,0,0,0,0,0,0,0,0,0,0,0,0,0
640509457,571308857,569217376,567125639,632142766,764268757,560536065,558433576,757658190,621337973,619235484,550023875,547921386,0,0,0,0,0,0,0,0,0,0,0,0,0
573376768,571288626,569200228,634220694,766350024,630044154,560540208,692651874,556329108,621332165,619226359,0,0,0,0,0,0,0,0,0,0,0,0,0,0,0
572191900,570064318,702154208,766702636,563270308,0,0,0,0,0,0,0,0,0,0,0,0,0,0,0,0,0,0,0,0,0
706011659,569694260,567594589,565494662,563394735,561294807,559039496,0,0,0,0,0,0,0,0,0,0,0,0,0,0,0,0,0,0,0
638907179,569693583,567588594,632442976,630353603,0,0,0,0,0,0,0,0,0,0,0,0,0,0,0,0,0,0,0,0,0
568596568,566500480,631512999,562307791,627320566,558021670,623032397,553825397,551727260,549629123,547530987,0,0,0,0,0,0,0,0,0,0,0,0,0,0,0
568340779,700473411,631279706,562086002,560001161,557915553,555830712,553745872,551661288,750259634,0,0,0,0,0,0,0,0,0,0,0,0,0,0,0,0
570185281,769425002,566011541,698142399,561837800,693757206,557432384,622433898,0,0,0,0,0,0,0,0,0,0,0,0,0,0,0,0,0,0
567041323,699175511,697091714,560790191,692923100,556377104,554267200,552157296,550048161,749266385,0,0,0,0,0,0,0,0,0,0,0,0,0,0,0,0
635186835,700211640,563910108,561658116,760874280,557438285,555327857,0,0,0,0,0,0,0,0,0,0,0,0,0,0,0,0,0,0,0
567131175,565039189,562946948,560854963,558761954,623437076,554226244,552124019,550022050,615028945,0,0,0,0,0,0,0,0,0,0,0,0,0,0,0,0
564419105,562321749,560224393,692344509,556029425,553816878,551720290,616732565,681744585,0,0,0,0,0,0,0,0,0,0,0,0,0,0,0,0,0
631574044,629467270,560250865,625103462,0,0,0,0,0,0,0,0,0,0,0,0,0,0,0,0,0,0,0,0,0,0
698801548,696683192,560347365,557908506,555832646,0,0,0,0,0,0,0,0,0,0,0,0,0,0,0,0,0,0,0,0,0
562307912,560211842,558115773,555922945,688042300,551726200,549627828,547529712,0,0,0,0,0,0,0,0,0,0,0,0,0,0,0,0,0,0
562310700,560214630,558118303,623130840,553822746,618833745,549627018,547529664,0,0,0,0,0,0,0,0,0,0,0,0,0,0,0,0,0,0
562390057,761611873,558181018,556076498,553777171,685904203,0,0,0,0,0,0,0,0,0,0,0,0,0,0,0,0,0,0,0,0
562391336,560286560,625290648,556077009,620885522,685904203,0,0,0,0,0,0,0,0,0,0,0,0,0,0,0,0,0,0,0,0
563614029,561518954,559423879,624437923,555233984,553138909,551044090,0,0,0,0,0,0,0,0,0,0,0,0,0,0,0,0,0,0,0
631045905,561849159,693979517,624783538,555587304,687424545,0,0,0,0,0,0,0,0,0,0,0,0,0,0,0,0,0,0,0,0
563883186,696019418,626678534,557456943,756671319,754558591,685337001,0,0,0,0,0,0,0,0,0,0,0,0,0,0,0,0,0,0,0
765206185,696016852,760897539,557456943,0,0,0,0,0,0,0,0,0,0,0,0,0,0,0,0,0,0,0,0,0,0
630914852,561692495,693796472,691682721,555352009,754564337,684907585,749909122,0,0,0,0,0,0,0,0,0,0,0,0,0,0,0,0,0,0
562960925,560868975,558776769,556313620,621320549,552109751,0,0,0,0,0,0,0,0,0,0,0,0,0,0,0,0,0,0,0,0
559790389,557700470,555610551,553520120,685300028,683195773,0,0,0,0,0,0,0,0,0,0,0,0,0,0,0,0,0,0,0,0
558377295,556281968,554186642,686309044,684213719,547900665,0,0,0,0,0,0,0,0,0,0,0,0,0,0,0,0,0,0,0,0
557360377,622384306,687407468,752431654,750623191,547162118,0,0,0,0,0,0,0,0,0,0,0,0,0,0,0,0,0,0,0,0
624031402,689013041,620090295,752239678,0,0,0,0,0,0,0,0,0,0,0,0,0,0,0,0,0,0,0,0,0,0
553939224,551840377,616850394,547523142,0,0,0,0,0,0,0,0,0,0,0,0,0,0,0,0,0,0,0,0,0,0
555639118,553544607,551450096,616071491,0,0,0,0,0,0,0,0,0,0,0,0,0,0,0,0,0,0,0,0,0,0
555512599,620547185,685580748,750356775,0,0,0,0,0,0,0,0,0,0,0,0,0,0,0,0,0,0,0,0,0,0
555398264,754603419,685374143,683252963,0,0,0,0,0,0,0,0,0,0,0,0,0,0,0,0,0,0,0,0,0,0
689612733,754600917,685372142,749924390,0,0,0,0,0,0,0,0,0,0,0,0,0,0,0,0,0,0,0,0,0,0
689363193,619745088,550569600,682721472,0,0,0,0,0,0,0,0,0,0,0,0,0,0,0,0,0,0,0,0,0,0
688793656,619599504,751732200,547900223,0,0,0,0,0,0,0,0,0,0,0,0,0,0,0,0,0,0,0,0,0,0
619228144,550026965,615043769,545852007,677987348,541959921,539857621,537755321,0,0,0,0,0,0,0,0,0,0,0,0,0,0,0,0,0,0
549632249,547538124,612558919,678032366,541728226,606751190,671773899,0,0,0,0,0,0,0,0,0,0,0,0,0,0,0,0,0,0,0
550674419,548577719,546587135,544488777,0,0,0,0,0,0,0,0,0,0,0,0,0,0,0,0,0,0,0,0,0,0
549987835,547887591,546436856,544323541,542221001,540118461,538016176,0,0,0,0,0,0,0,0,0,0,0,0,0,0,0,0,0,0,0
550012411,547917032,545825454,543733875,541638495,539543116,537447992,0,0,0,0,0,0,0,0,0,0,0,0,0,0,0,0,0,0,0
548547324,747745168,611398182,676715518,540410586,605433014,0,0,0,0,0,0,0,0,0,0,0,0,0,0,0,0,0,0,0,0
545434804,543434964,541336202,539237440,0,0,0,0,0,0,0,0,0,0,0,0,0,0,0,0,0,0,0,0,0,0
545404833,744829097,742743383,606439941,0,0,0,0,0,0,0,0,0,0,0,0,0,0,0,0,0,0,0,0,0,0
546843903,611848653,542640317,539093239,536991726,0,0,0,0,0,0,0,0,0,0,0,0,0,0,0,0,0,0,0,0,0
546864575,545152760,543052473,608061049,605960762,0,0,0,0,0,0,0,0,0,0,0,0,0,0,0,0,0,0,0,0,0
546864575,678993921,543052473,608061049,605960762,0,0,0,0,0,0,0,0,0,0,0,0,0,0,0,0,0,0,0,0,0
613602244,544403317,542308442,540637176,538546927,0,0,0,0,0,0,0,0,0,0,0,0,0,0,0,0,0,0,0,0,0
677573332,541655031,539563751,537473239,0,0,0,0,0,0,0,0,0,0,0,0,0,0,0,0,0,0,0,0,0,0
543346937,541253850,539160763,537467898,0,0,0,0,0,0,0,0,0,0,0,0,0,0,0,0,0,0,0,0,0,0
678008308,541719506,673865136,604685198,0,0,0,0,0,0,0,0,0,0,0,0,0,0,0,0,0,0,0,0,0,0
543329269,541231332,539133395,537035458,0,0,0,0,0,0,0,0,0,0,0,0,0,0,0,0,0,0,0,0,0,0
610430860,608329802,539120137,537174724,0,0,0,0,0,0,0,0,0,0,0,0,0,0,0,0,0,0,0,0,0,0
543320030,541221328,539122626,537024181,0,0,0,0,0,0,0,0,0,0,0,0,0,0,0,0,0,0,0,0,0,0
543308282,742529498,539098555,536993180,0,0,0,0,0,0,0,0,0,0,0,0,0,0,0,0,0,0,0,0,0,0
611853790,542645968,540547266,538448307,0,0,0,0,0,0,0,0,0,0,0,0,0,0,0,0,0,0,0,0,0,0
544746872,542646329,540995057,673118642,0,0,0,0,0,0,0,0,0,0,0,0,0,0,0,0,0,0,0,0,0,0
544768105,542672693,540963321,538864326,0,0,0,0,0,0,0,0,0,0,0,0,0,0,0,0,0,0,0,0,0,0
611890839,676910924,675152887,740156587,0,0,0,0,0,0,0,0,0,0,0,0,0,0,0,0,0,0,0,0,0,0
746111134,542697300,540609290,538823350,0,0,0,0,0,0,0,0,0,0,0,0,0,0,0,0,0,0,0,0,0,0
679033983,676959017,540872905,538754163,0,0,0,0,0,0,0,0,0,0,0,0,0,0,0,0,0,0,0,0,0,0
746130645,542724514,540644718,739891514,0,0,0,0,0,0,0,0,0,0,0,0,0,0,0,0,0,0,0,0,0,0
678610425,542299604,674423982,605222025,0,0,0,0,0,0,0,0,0,0,0,0,0,0,0,0,0,0,0,0,0,0
544392437,542297567,540202442,538107572,0,0,0,0,0,0,0,0,0,0,0,0,0,0,0,0,0,0,0,0,0,0
544402510,676973553,540684500,538613686,0,0,0,0,0,0,0,0,0,0,0,0,0,0,0,0,0,0,0,0,0,0
544384764,542288353,607300550,538095276,0,0,0,0,0,0,0,0,0,0,0,0,0,0,0,0,0,0,0,0,0,0
611494336,609398149,607302218,605206031,0,0,0,0,0,0,0,0,0,0,0,0,0,0,0,0,0,0,0,0,0,0
544384651,542288188,540293867,605304731,0,0,0,0,0,0,0,0,0,0,0,0,0,0,0,0,0,0,0,0,0,0
611476971,609374400,540162966,538060395,0,0,0,0,0,0,0,0,0,0,0,0,0,0,0,0,0,0,0,0,0,0
611419471,542193670,607516602,538329457,0,0,0,0,0,0,0,0,0,0,0,0,0,0,0,0,0,0,0,0,0,0
544340173,743553174,741439584,739325994,0,0,0,0,0,0,0,0,0,0,0,0,0,0,0,0,0,0,0,0,0,0
543705853,541607142,539508687,537410231,0,0,0,0,0,0,0,0,0,0,0,0,0,0,0,0,0,0,0,0,0,0
586023101,583928029,648603170,0,0,0,0,0,0,0,0,0,0,0,0,0,0,0,0,0,0,0,0,0,0,0
778858549,575451251,640470929,0,0,0,0,0,0,0,0,0,0,0,0,0,0,0,0,0,0,0,0,0,0,0
573430027,638438493,636337586,0,0,0,0,0,0,0,0,0,0,0,0,0,0,0,0,0,0,0,0,0,0,0
569651429,567461650,565368372,0,0,0,0,0,0,0,0,0,0,0,0,0,0,0,0,0,0,0,0,0,0,0
569680721,567584885,565489306,0,0,0,0,0,0,0,0,0,0,0,0,0,0,0,0,0,0,0,0,0,0,0
565489306,563391677,561294048,0,0,0,0,0,0,0,0,0,0,0,0,0,0,0,0,0,0,0,0,0,0,0
565039641,562955437,560515390,0,0,0,0,0,0,0,0,0,0,0,0,0,0,0,0,0,0,0,0,0,0,0
563726432,561605281,559483363,0,0,0,0,0,0,0,0,0,0,0,0,0,0,0,0,0,0,0,0,0,0,0
560732106,558508100,556359871,0,0,0,0,0,0,0,0,0,0,0,0,0,0,0,0,0,0,0,0,0,0,0
696013152,559532075,557372922,0,0,0,0,0,0,0,0,0,0,0,0,0,0,0,0,0,0,0,0,0,0,0
689622789,687480421,685338309,0,0,0,0,0,0,0,0,0,0,0,0,0,0,0,0,0,0,0,0,0,0,0
553506923,685316443,548576687,0,0,0,0,0,0,0,0,0,0,0,0,0,0,0,0,0,0,0,0,0,0,0
552796096,685359739,750542824,0,0,0,0,0,0,0,0,0,0,0,0,0,0,0,0,0,0,0,0,0,0,0
552863359,550769878,615695159,0,0,0,0,0,0,0,0,0,0,0,0,0,0,0,0,0,0,0,0,0,0,0
753452272,684267157,615083066,0,0,0,0,0,0,0,0,0,0,0,0,0,0,0,0,0,0,0,0,0,0,0
547503474,545540795,543861499,0,0,0,0,0,0,0,0,0,0,0,0,0,0,0,0,0,0,0,0,0,0,0
545371132,543194238,675287892,0,0,0,0,0,0,0,0,0,0,0,0,0,0,0,0,0,0,0,0,0,0,0
747791301,544373997,542278649,0,0,0,0,0,0,0,0,0,0,0,0,0,0,0,0,0,0,0,0,0,0,0
541239023,539142110,537045453,0,0,0,0,0,0,0,0,0,0,0,0,0,0,0,0,0,0,0,0,0,0,0
541221624,539122926,537024229,0,0,0,0,0,0,0,0,0,0,0,0,0,0,0,0,0,0,0,0,0,0,0
542648826,674766309,538448591,0,0,0,0,0,0,0,0,0,0,0,0,0,0,0,0,0,0,0,0,0,0,0
542659826,674779348,538463670,0,0,0,0,0,0,0,0,0,0,0,0,0,0,0,0,0,0,0,0,0,0,0
542668264,540572367,605585077,0,0,0,0,0,0,0,0,0,0,0,0,0,0,0,0,0,0,0,0,0,0,0
542267391,741492714,538065110,0,0,0,0,0,0,0,0,0,0,0,0,0,0,0,0,0,0,0,0,0,0,0
