0,1,2,3,4,5,6,7,8,9,10,11,12,13,14,15,16,17,18,19,20,21,22,23,24,25
589900777,587800817,585700600,583600383,581103049,713220067,576902645,0,0,0,0,0,0,0,0,0,0,0,0,0,0,0,0,0,0,0
589651602,587550124,585448647,583347426,581032736,578944086,576852606,574759577,572664486,570569652,568474561,633488590,564284636,562189802,627203831,0,0,0,0,0,0,0,0,0,0,0
590905680,588808032,586710385,584612481,582514337,580416193,578318297,643329512,574123248,572025848,0,0,0,0,0,0,0,0,0,0,0,0,0,0,0,0
590935783,588836334,586736885,584637436,649261042,0,0,0,0,0,0,0,0,0,0,0,0,0,0,0,0,0,0,0,0,0
590514882,588417995,586321109,584224222,649236465,0,0,0,0,0,0,0,0,0,0,0,0,0,0,0,0,0,0,0,0,0
590504891,655517636,586312398,584216024,582120683,580025342,0,0,0,0,0,0,0,0,0,0,0,0,0,0,0,0,0,0,0,0
657588801,588385106,586290531,584195700,582103190,580010935,577917393,575822561,573726442,571630578,569534459,0,0,0,0,0,0,0,0,0,0,0,0,0,0,0
590479999,588385164,586290329,584195750,582103488,580010970,577917421,575822586,0,0,0,0,0,0,0,0,0,0,0,0,0,0,0,0,0,0
590461651,588368091,720492259,584181227,581435584,713560283,577248752,575153662,0,0,0,0,0,0,0,0,0,0,0,0,0,0,0,0,0,0
589841885,587745253,652757228,583551732,0,0,0,0,0,0,0,0,0,0,0,0,0,0,0,0,0,0,0,0,0,0
589850047,587752648,585655249,583558106,581460717,579363071,0,0,0,0,0,0,0,0,0,0,0,0,0,0,0,0,0,0,0,0
589881362,587782183,585683259,583584079,581483128,579382176,0,0,0,0,0,0,0,0,0,0,0,0,0,0,0,0,0,0,0,0
589884447,587785010,585685572,583586135,581484155,579382176,0,0,0,0,0,0,0,0,0,0,0,0,0,0,0,0,0,0,0,0
590185008,655201361,585999731,583906964,581818838,579404830,577301840,575200113,573100929,571001490,636010914,701020339,564703428,562603988,560504549,558405365,0,0,0,0,0,0,0,0,0,0
589889091,587789395,585689700,583590005,581488022,579386040,577285329,575185890,573087467,570989043,568890876,0,0,0,0,0,0,0,0,0,0,0,0,0,0,0
586685239,584589130,582494578,580399769,578304439,576208587,574111957,572015326,569918696,567822322,565725692,0,0,0,0,0,0,0,0,0,0,0,0,0,0,0
587083288,584988223,650003852,580801498,712548377,576231744,574133587,572035686,637046393,567839373,699958944,563643316,561545159,693664475,557348590,0,0,0,0,0,0,0,0,0,0,0
583600853,581498353,579005663,576903924,0,0,0,0,0,0,0,0,0,0,0,0,0,0,0,0,0,0,0,0,0,0
581241927,646094605,577314760,642303076,640193842,638084608,569297606,0,0,0,0,0,0,0,0,0,0,0,0,0,0,0,0,0,0,0
581307949,579191437,711296468,574720267,572628259,570536251,568444243,633461098,564260226,562167706,560075186,557983177,555891169,688016633,0,0,0,0,0,0,0,0,0,0,0,0
579097365,576999792,574902699,572805577,570708455,568497420,633509417,564303431,562206565,694327171,558012577,555915455,553818589,551721724,0,0,0,0,0,0,0,0,0,0,0,0
579145905,577041392,574752798,572658226,570564167,568469854,767702133,0,0,0,0,0,0,0,0,0,0,0,0,0,0,0,0,0,0,0
579165019,577056938,574952415,639754752,570552603,568459061,633473615,564271466,562177924,560084639,557991097,555897811,553804270,0,0,0,0,0,0,0,0,0,0,0,0,0
577526365,575447709,573359549,638380251,703399931,566875422,698986814,696880476,560556411,558450074,556343736,688455384,619239928,0,0,0,0,0,0,0,0,0,0,0,0,0
712877375,576571009,574477985,572384705,570291680,568197631,565768227,563667266,561566305,693683073,557364385,622372289,553162466,0,0,0,0,0,0,0,0,0,0,0,0,0
711987331,575692702,573605548,571518649,569431494,567344595,632365535,563169773,695300346,558370662,556276877,554183093,552089308,0,0,0,0,0,0,0,0,0,0,0,0,0
577640323,642654132,640557259,705569255,568907782,0,0,0,0,0,0,0,0,0,0,0,0,0,0,0,0,0,0,0,0,0
575000073,640004658,570791772,635796357,566583471,564479192,629260041,694278707,557971036,622989189,553790127,551700184,0,0,0,0,0,0,0,0,0,0,0,0,0,0
709768419,573453820,571000600,568902959,566804553,564706661,562608769,560510111,692627901,556310232,0,0,0,0,0,0,0,0,0,0,0,0,0,0,0,0
709768419,707316225,571000600,568902959,566804553,564706661,562608769,560510111,692627901,556310232,0,0,0,0,0,0,0,0,0,0,0,0,0,0,0,0
571891324,569783968,567676611,632678374,563161875,561075511,693206876,556903297,689034918,552730829,751307003,0,0,0,0,0,0,0,0,0,0,0,0,0,0,0
569640052,567544220,565448646,563353070,561170975,626180935,556973169,689092250,552776132,550677485,0,0,0,0,0,0,0,0,0,0,0,0,0,0,0,0
703104941,701007035,631800520,562593750,694713317,625506548,0,0,0,0,0,0,0,0,0,0,0,0,0,0,0,0,0,0,0,0
565040649,697166921,560857225,558765769,556323852,621329996,552118413,550015693,0,0,0,0,0,0,0,0,0,0,0,0,0,0,0,0,0,0
629471010,627368550,625266091,623163632,553796671,551704964,616722120,0,0,0,0,0,0,0,0,0,0,0,0,0,0,0,0,0,0,0
563904324,561823617,626851518,624770043,622430267,754534520,551094710,683199731,0,0,0,0,0,0,0,0,0,0,0,0,0,0,0,0,0,0
548530079,546676214,678836816,542535706,0,0,0,0,0,0,0,0,0,0,0,0,0,0,0,0,0,0,0,0,0,0
545423606,543312983,541210916,539279343,604295613,0,0,0,0,0,0,0,0,0,0,0,0,0,0,0,0,0,0,0,0,0
546836711,543291884,675408867,673308121,536989904,0,0,0,0,0,0,0,0,0,0,0,0,0,0,0,0,0,0,0,0,0
546840556,610334575,675323200,538985491,671545314,0,0,0,0,0,0,0,0,0,0,0,0,0,0,0,0,0,0,0,0,0
613975799,544793098,543031217,608035169,605930258,0,0,0,0,0,0,0,0,0,0,0,0,0,0,0,0,0,0,0,0,0
546471628,544371609,542273417,540175480,538077287,0,0,0,0,0,0,0,0,0,0,0,0,0,0,0,0,0,0,0,0,0
611870342,609773652,540567842,538875112,0,0,0,0,0,0,0,0,0,0,0,0,0,0,0,0,0,0,0,0,0,0
589457134,587360756,585264635,0,0,0,0,0,0,0,0,0,0,0,0,0,0,0,0,0,0,0,0,0,0,0
590898412,588801267,586703865,0,0,0,0,0,0,0,0,0,0,0,0,0,0,0,0,0,0,0,0,0,0,0
581828882,579738737,577646266,0,0,0,0,0,0,0,0,0,0,0,0,0,0,0,0,0,0,0,0,0,0,0
613982927,612220791,610109960,0,0,0,0,0,0,0,0,0,0,0,0,0,0,0,0,0,0,0,0,0,0,0
