0,1,2,3,4,5,6,7,8,9,10,11,12,13,14,15,16,17,18,19,20,21,22,23,24,25
589889499,587789795,585689836,583589877,581104626,0,0,0,0,0,0,0,0,0,0,0,0,0,0,0,0,0,0,0,0,0
589918882,587817135,585715387,717831368,581507553,579010500,576908767,574808561,572709882,0,0,0,0,0,0,0,0,0,0,0,0,0,0,0,0,0
589490402,654500842,585293555,583195131,0,0,0,0,0,0,0,0,0,0,0,0,0,0,0,0,0,0,0,0,0,0
589981468,587874356,585766988,583660388,581543061,780751814,577312747,574813643,572713439,637721843,0,0,0,0,0,0,0,0,0,0,0,0,0,0,0,0
589906391,587805152,585704169,583602930,581105093,579003364,576902907,0,0,0,0,0,0,0,0,0,0,0,0,0,0,0,0,0,0,0
589930920,587828148,585725376,583622604,581514212,646514684,576907987,574807785,572709108,570610431,0,0,0,0,0,0,0,0,0,0,0,0,0,0,0,0
656600522,587392982,585294305,583195628,0,0,0,0,0,0,0,0,0,0,0,0,0,0,0,0,0,0,0,0,0,0
589928403,587825884,585723109,583620590,581105804,579004087,574803691,572705270,0,0,0,0,0,0,0,0,0,0,0,0,0,0,0,0,0,0
589960892,587856838,585752017,583647196,581534706,579007090,576905887,574805950,706925005,570608860,568510443,566411770,0,0,0,0,0,0,0,0,0,0,0,0,0,0
589484181,587386018,585288112,583190205,581091288,578992371,0,0,0,0,0,0,0,0,0,0,0,0,0,0,0,0,0,0,0,0
589486934,587388776,585290362,583192205,581092785,578993365,576894704,0,0,0,0,0,0,0,0,0,0,0,0,0,0,0,0,0,0,0
656598542,587391015,585292351,583193431,581093512,578993336,576894171,574795763,572698111,0,0,0,0,0,0,0,0,0,0,0,0,0,0,0,0,0
589577301,587480441,585383580,717504448,715301903,578986838,576889228,574792111,572694721,570597587,702717925,566403063,0,0,0,0,0,0,0,0,0,0,0,0,0,0
589593915,587496034,719615880,583300526,581072898,578977617,0,0,0,0,0,0,0,0,0,0,0,0,0,0,0,0,0,0,0,0
589596165,721715504,585399386,583301253,581201624,578977840,576882795,641895825,572690340,570593719,568497098,700617950,564303601,0,0,0,0,0,0,0,0,0,0,0,0,0
656707390,587499620,585400970,583302833,581071879,578977617,0,0,0,0,0,0,0,0,0,0,0,0,0,0,0,0,0,0,0,0
589598411,587500005,585261317,583165470,581070673,578975875,576880808,574784706,572688078,570591451,568494823,700615924,0,0,0,0,0,0,0,0,0,0,0,0,0,0
589605256,587507366,652518082,583310816,581063713,578969948,576875656,574780325,572683955,570587842,568491729,566395616,564299248,0,0,0,0,0,0,0,0,0,0,0,0,0
656728734,587519677,585419484,583319291,581058368,578967168,576874159,641888462,572683743,568492031,0,0,0,0,0,0,0,0,0,0,0,0,0,0,0,0
589454820,587358956,585263092,583167229,0,0,0,0,0,0,0,0,0,0,0,0,0,0,0,0,0,0,0,0,0,0
589439146,587344310,786575810,583154383,581061864,0,0,0,0,0,0,0,0,0,0,0,0,0,0,0,0,0,0,0,0,0
589712715,587606895,585500819,717613239,581280254,713133387,576832384,574744483,572651957,637667526,568465880,566373354,698498299,0,0,0,0,0,0,0,0,0,0,0,0,0
589409166,587316124,585223081,717347510,581040849,578951148,576860159,643304697,0,0,0,0,0,0,0,0,0,0,0,0,0,0,0,0,0,0
589397873,587305857,585213585,583121569,581034433,578946785,576857081,576194800,574099706,0,0,0,0,0,0,0,0,0,0,0,0,0,0,0,0,0
589757013,587648373,585539734,717648567,580964096,645998146,576809332,574723733,572632486,570540982,568449735,566358232,564266216,562174713,561513443,559420666,0,0,0,0,0,0,0,0,0,0
589318730,587233375,585148020,583062664,580988083,578914271,578290040,0,0,0,0,0,0,0,0,0,0,0,0,0,0,0,0,0,0,0
589315702,721448585,652254875,583060909,580986827,578913514,578290040,576197287,0,0,0,0,0,0,0,0,0,0,0,0,0,0,0,0,0,0
589301164,587214519,719345345,583040972,580964833,578887670,576196918,574101067,572005215,569909620,567813768,565718173,563622321,561526726,559430874,557335279,0,0,0,0,0,0,0,0,0,0
590893613,588796740,586699867,584602993,582506399,580409804,645421806,0,0,0,0,0,0,0,0,0,0,0,0,0,0,0,0,0,0,0
590895176,588798041,586700905,584603770,582506906,580410043,578313172,576216293,574119149,572022005,569924862,0,0,0,0,0,0,0,0,0,0,0,0,0,0,0
590898455,588801326,720921670,584607070,582510223,647521725,578315487,576218103,0,0,0,0,0,0,0,0,0,0,0,0,0,0,0,0,0,0
590901461,588803808,586706410,584608757,0,0,0,0,0,0,0,0,0,0,0,0,0,0,0,0,0,0,0,0,0,0
591289405,589193831,587098000,585002170,582519057,580419428,645429154,576221900,574124001,572026358,0,0,0,0,0,0,0,0,0,0,0,0,0,0,0,0
591287325,589191489,587095654,584999818,582905299,580421664,578322775,576224379,574126733,572028831,637040049,567833540,565735638,563637992,561540090,0,0,0,0,0,0,0,0,0,0,0
591295218,588811281,586713643,584616261,582518393,580420525,578323156,0,0,0,0,0,0,0,0,0,0,0,0,0,0,0,0,0,0,0
591281521,589185936,587090607,584995022,582525457,580425039,578325373,576226460,574128556,572030651,569932747,567834842,565736938,563639033,0,0,0,0,0,0,0,0,0,0,0,0
590914175,588816014,586717596,651728298,582520008,580420581,578321915,0,0,0,0,0,0,0,0,0,0,0,0,0,0,0,0,0,0,0
591252433,589159147,586749706,584648740,582545240,580440716,712555699,576237261,574138330,572039399,637049331,567840511,0,0,0,0,0,0,0,0,0,0,0,0,0,0
591225893,589134159,587042680,584951202,582865140,0,0,0,0,0,0,0,0,0,0,0,0,0,0,0,0,0,0,0,0,0
591227205,656244327,721261193,584951980,582865392,580453694,578349686,777574298,574148012,639156925,0,0,0,0,0,0,0,0,0,0,0,0,0,0,0,0
591246045,589153272,586754840,718871090,716766056,580442781,578339013,576237536,574138093,572038906,0,0,0,0,0,0,0,0,0,0,0,0,0,0,0,0
590934707,588834490,586734529,584634311,649640148,580428258,578326508,576226547,0,0,0,0,0,0,0,0,0,0,0,0,0,0,0,0,0,0
590930403,655939818,586731250,651740665,0,0,0,0,0,0,0,0,0,0,0,0,0,0,0,0,0,0,0,0,0,0
590965115,588863370,586761624,584659879,582553797,580448227,577961959,575860985,0,0,0,0,0,0,0,0,0,0,0,0,0,0,0,0,0,0
591010650,588906602,586802809,718916232,582587816,580476871,578369502,576265710,574165238,572064766,569569987,701688528,565371870,563272427,561173241,0,0,0,0,0,0,0,0,0,0,0
591043133,588934994,586826856,718936189,582600104,580480723,578366963,575860920,573760973,571661027,569561080,0,0,0,0,0,0,0,0,0,0,0,0,0,0,0
591058045,588950157,653951132,584734380,582615498,580497896,712602111,575859313,573760389,571661466,569562543,567463620,565364698,563265775,0,0,0,0,0,0,0,0,0,0,0,0
590534186,588436031,720555347,718457191,582140560,580041401,577942743,575844587,573747190,0,0,0,0,0,0,0,0,0,0,0,0,0,0,0,0,0
590533934,588435779,586337623,584239468,582140309,580041407,577942750,575844595,573746941,0,0,0,0,0,0,0,0,0,0,0,0,0,0,0,0,0
590531105,588433209,586335058,584237162,582138267,580039372,577940976,0,0,0,0,0,0,0,0,0,0,0,0,0,0,0,0,0,0,0
590613900,588517802,653530568,584325607,582141226,580042087,577943445,575845299,573747650,571650002,569552353,567454704,565357055,0,0,0,0,0,0,0,0,0,0,0,0,0
590520790,588423647,586326504,584229105,0,0,0,0,0,0,0,0,0,0,0,0,0,0,0,0,0,0,0,0,0,0
590626333,588529471,586432609,584335491,649347783,580035091,577937734,575840360,573743225,571645834,569548699,567451564,565354173,630365902,561159904,559062769,0,0,0,0,0,0,0,0,0,0
724738112,588423250,586326116,584228726,582131610,580034239,577937114,575839980,573742582,571645439,0,0,0,0,0,0,0,0,0,0,0,0,0,0,0,0
590514384,588417498,586320611,584223724,582127359,0,0,0,0,0,0,0,0,0,0,0,0,0,0,0,0,0,0,0,0,0
657617331,588412096,586315981,584219610,716341747,0,0,0,0,0,0,0,0,0,0,0,0,0,0,0,0,0,0,0,0,0
657611736,588406753,586310634,584214771,0,0,0,0,0,0,0,0,0,0,0,0,0,0,0,0,0,0,0,0,0,0
590471838,588378539,586284985,584191175,582101475,0,0,0,0,0,0,0,0,0,0,0,0,0,0,0,0,0,0,0,0,0
590479294,588384457,586290389,584196321,582105336,0,0,0,0,0,0,0,0,0,0,0,0,0,0,0,0,0,0,0,0,0
590435110,588343861,586252612,584161362,582076017,579990672,577901734,0,0,0,0,0,0,0,0,0,0,0,0,0,0,0,0,0,0,0
590772544,722881642,586555795,785775291,582040594,579964002,712100256,710014153,573704157,705830128,568856316,0,0,0,0,0,0,0,0,0,0,0,0,0,0,0
590456186,588363401,586270616,584177831,582089157,579999716,577241587,0,0,0,0,0,0,0,0,0,0,0,0,0,0,0,0,0,0,0
590451833,588359304,586266775,718391718,582086084,579997410,577906936,575147773,0,0,0,0,0,0,0,0,0,0,0,0,0,0,0,0,0,0
590482919,588388335,586293495,651307774,581440510,0,0,0,0,0,0,0,0,0,0,0,0,0,0,0,0,0,0,0,0,0
590791528,588681867,586572463,584462804,582030630,579958128,577879464,575795148,573703390,705830128,568856316,0,0,0,0,0,0,0,0,0,0,0,0,0,0,0
590441846,588349829,586257555,584165538,582078400,579991517,577901043,575146216,707268594,570955771,0,0,0,0,0,0,0,0,0,0,0,0,0,0,0,0
657579478,588376543,586282728,584188144,581437146,713562099,0,0,0,0,0,0,0,0,0,0,0,0,0,0,0,0,0,0,0,0
590445718,588353699,586261424,584169405,716299735,579994097,577244129,575150325,573054974,0,0,0,0,0,0,0,0,0,0,0,0,0,0,0,0,0
590400833,722528594,586220387,584130420,582047894,579965113,712096466,575789027,573695468,571601908,568853188,633867473,631772639,629677549,627582715,0,0,0,0,0,0,0,0,0,0,0
590438067,588346303,586254538,584163029,582076651,579340212,577247444,642261993,573057524,705179391,0,0,0,0,0,0,0,0,0,0,0,0,0,0,0,0
589843882,587746999,719867844,650662353,0,0,0,0,0,0,0,0,0,0,0,0,0,0,0,0,0,0,0,0,0,0
590254519,588157652,586060785,650668818,581462604,579364997,577267375,642278858,573072600,570975206,568878068,0,0,0,0,0,0,0,0,0,0,0,0,0,0,0
590249202,587760658,585663789,583565897,715685763,0,0,0,0,0,0,0,0,0,0,0,0,0,0,0,0,0,0,0,0,0
590242424,588146328,586050232,583954136,581470494,579371102,577272462,575174318,573076670,570978766,635989982,566783471,564685823,0,0,0,0,0,0,0,0,0,0,0,0,0
589860647,654871611,585664848,583566949,581468303,780696248,711488984,0,0,0,0,0,0,0,0,0,0,0,0,0,0,0,0,0,0,0
589857452,587759800,719879620,650673103,581465831,579367423,0,0,0,0,0,0,0,0,0,0,0,0,0,0,0,0,0,0,0,0
589856741,587759085,585661429,583563774,0,0,0,0,0,0,0,0,0,0,0,0,0,0,0,0,0,0,0,0,0,0
590218209,587788800,585689113,583589170,648595300,646492567,577282494,575182551,707301604,570985456,568887037,0,0,0,0,0,0,0,0,0,0,0,0,0,0,0
590218209,588123642,585689113,583589170,648595300,646492567,577282494,575182551,707301604,570985456,568887037,0,0,0,0,0,0,0,0,0,0,0,0,0,0,0
590205304,588112278,586019252,583925714,581494036,713607249,577287040,575186336,573087409,570988482,568889555,0,0,0,0,0,0,0,0,0,0,0,0,0,0,0
724385288,588077103,585986390,583895676,581811403,579408414,577303129,575199871,573099666,772326053,568899513,566799310,631807970,562599160,0,0,0,0,0,0,0,0,0,0,0,0
589894445,587793732,585693531,583592819,581488289,0,0,0,0,0,0,0,0,0,0,0,0,0,0,0,0,0,0,0,0,0
589896231,587795007,585694295,583593328,581488289,0,0,0,0,0,0,0,0,0,0,0,0,0,0,0,0,0,0,0,0,0
589915215,587813473,585711731,583609989,581503914,579398350,577294313,575192571,0,0,0,0,0,0,0,0,0,0,0,0,0,0,0,0,0,0
585442331,583339856,581232571,578955565,576866429,574774706,572680141,704803304,568492031,0,0,0,0,0,0,0,0,0,0,0,0,0,0,0,0,0
585111134,583029109,648071330,578894800,576820210,576194170,574099864,639114677,569911507,634926064,0,0,0,0,0,0,0,0,0,0,0,0,0,0,0,0
586294192,584199357,582106840,580014322,0,0,0,0,0,0,0,0,0,0,0,0,0,0,0,0,0,0,0,0,0,0
586600456,584491059,649478281,647357663,577850151,575765330,707891816,638691965,569492115,634509992,565310142,697435860,628236009,559036159,0,0,0,0,0,0,0,0,0,0,0,0
585967628,583879491,581800624,713631265,644413042,575198378,573096902,705212642,568893182,0,0,0,0,0,0,0,0,0,0,0,0,0,0,0,0,0
583422739,581304431,579186124,711031065,641836103,572635487,570543734,769778573,566360485,564267964,562176467,627193578,0,0,0,0,0,0,0,0,0,0,0,0,0,0
584768426,582641611,580515819,577959193,642966866,573758831,571659916,569560744,567461573,632471265,563263230,0,0,0,0,0,0,0,0,0,0,0,0,0,0,0
584226929,582130070,580032955,577935831,575838697,573741554,571644412,0,0,0,0,0,0,0,0,0,0,0,0,0,0,0,0,0,0,0
718150683,581842829,579382274,577280341,575179916,573081256,570982596,568883935,566785275,0,0,0,0,0,0,0,0,0,0,0,0,0,0,0,0,0
583896354,581811845,579727336,577302071,642307688,573098625,570998170,568897971,566797772,564697573,629706238,0,0,0,0,0,0,0,0,0,0,0,0,0,0,0
715838564,579481508,577353428,709452789,572715904,704832169,568513234,566412028,0,0,0,0,0,0,0,0,0,0,0,0,0,0,0,0,0,0
581100305,578999381,711117192,574800554,572702651,570604492,568506589,566408430,564310527,0,0,0,0,0,0,0,0,0,0,0,0,0,0,0,0,0
715436803,579117164,577016250,574916591,639788048,570583339,568487237,566391391,564295289,562199443,694321069,558007495,690129121,620924410,0,0,0,0,0,0,0,0,0,0,0,0
581345300,579214735,577093611,776038703,572623438,570534509,568445324,566356395,564266698,629286633,0,0,0,0,0,0,0,0,0,0,0,0,0,0,0,0
580912950,713075839,576792245,708934106,572629996,570543358,637012378,567811012,632827373,0,0,0,0,0,0,0,0,0,0,0,0,0,0,0,0,0
782268294,578879419,576808162,574728700,574096756,572002967,637018040,567815386,632830459,0,0,0,0,0,0,0,0,0,0,0,0,0,0,0,0,0
582913132,580817383,578316873,643328134,641230501,639133124,569926883,0,0,0,0,0,0,0,0,0,0,0,0,0,0,0,0,0,0,0
582661041,580533202,578414060,576301565,573764398,571665228,569565802,701684104,565367206,563267780,561168610,0,0,0,0,0,0,0,0,0,0,0,0,0,0,0
582276912,580172702,578070257,575819311,573723979,571628646,636642177,567437981,699560376,563247571,561152238,0,0,0,0,0,0,0,0,0,0,0,0,0,0,0
582329870,580212877,712318701,575794997,640811092,638718580,636626324,567425204,565332948,697458420,0,0,0,0,0,0,0,0,0,0,0,0,0,0,0,0
783645022,580203474,644999471,575801705,573709190,571616419,569523904,634540252,565338617,0,0,0,0,0,0,0,0,0,0,0,0,0,0,0,0,0
716264368,579967187,577883374,642254770,573051076,638065109,703078887,566766328,0,0,0,0,0,0,0,0,0,0,0,0,0,0,0,0,0,0
581969721,579912064,577843637,575765976,707896297,772917754,770184892,633874658,0,0,0,0,0,0,0,0,0,0,0,0,0,0,0,0,0,0
581445206,579350920,577256110,575160263,640172755,570967520,568871149,566774521,0,0,0,0,0,0,0,0,0,0,0,0,0,0,0,0,0,0
581868580,579771782,577674959,575168517,573071134,570974006,568876879,566779495,564682368,562585241,560488114,625499850,556293859,554196732,0,0,0,0,0,0,0,0,0,0,0,0
581719812,713880981,711564035,575229262,0,0,0,0,0,0,0,0,0,0,0,0,0,0,0,0,0,0,0,0,0,0
579091211,576994690,574898386,572801530,570598442,568501074,566403706,564306337,562208969,560111601,0,0,0,0,0,0,0,0,0,0,0,0,0,0,0,0
579097384,577002133,642014431,774016010,570592560,0,0,0,0,0,0,0,0,0,0,0,0,0,0,0,0,0,0,0,0,0
646211376,644112537,642014431,774016010,570592560,0,0,0,0,0,0,0,0,0,0,0,0,0,0,0,0,0,0,0,0,0
579101780,577003439,709123308,572689170,570592560,635604814,566399085,564302475,629314729,560109000,625121254,0,0,0,0,0,0,0,0,0,0,0,0,0,0,0
646234176,577022125,642029813,572675874,570580806,568485738,566390670,564295602,562200535,560105467,0,0,0,0,0,0,0,0,0,0,0,0,0,0,0,0
579205120,577078941,641838606,572642627,771881591,568466860,566379489,0,0,0,0,0,0,0,0,0,0,0,0,0,0,0,0,0,0,0
580821779,578724470,576627128,574530009,572432890,569925151,567828033,565730914,563633796,628645541,693657031,557342441,0,0,0,0,0,0,0,0,0,0,0,0,0,0
580578967,578452408,576335309,574228440,572122082,570015212,567908088,565376586,563276399,628284820,559075770,624084447,0,0,0,0,0,0,0,0,0,0,0,0,0,0
580017668,577924958,575831448,573735860,571640017,636652525,0,0,0,0,0,0,0,0,0,0,0,0,0,0,0,0,0,0,0,0
781541710,712322225,575998706,573697819,571604795,569511516,567418748,632434844,563233468,695358428,559048188,0,0,0,0,0,0,0,0,0,0,0,0,0,0,0
714465034,578128518,643125719,775008776,571592497,569502554,567412099,565322412,563232725,0,0,0,0,0,0,0,0,0,0,0,0,0,0,0,0,0
579738940,644756636,575554525,573459197,570993953,568895041,566795873,564696705,562597537,560498369,692616929,0,0,0,0,0,0,0,0,0,0,0,0,0,0,0
579689855,577613299,575216965,640222059,571009938,568905913,566801888,0,0,0,0,0,0,0,0,0,0,0,0,0,0,0,0,0,0,0
644135462,642034294,572826271,570727111,568627951,566385695,631399495,562195568,560100504,558005696,555910633,0,0,0,0,0,0,0,0,0,0,0,0,0,0,0
577041454,574937981,572837797,637846476,568637428,566377508,564283468,629298547,627204507,558001603,555907819,0,0,0,0,0,0,0,0,0,0,0,0,0,0,0
711347833,709222369,706822686,704740178,568440198,566357690,564274414,630720764,0,0,0,0,0,0,0,0,0,0,0,0,0,0,0,0,0,0
645811833,710827734,574134535,572035381,637045090,567837072,632847037,563639019,0,0,0,0,0,0,0,0,0,0,0,0,0,0,0,0,0,0
578650450,710782369,574473417,572381936,569970716,702086211,565765739,630771858,561560250,559457506,0,0,0,0,0,0,0,0,0,0,0,0,0,0,0,0
578452565,576330629,574221981,773438900,570002892,567893475,565784058,563275710,0,0,0,0,0,0,0,0,0,0,0,0,0,0,0,0,0,0
712668076,710542802,708432357,572103415,569568856,634575758,766691782,563263743,0,0,0,0,0,0,0,0,0,0,0,0,0,0,0,0,0,0
578034986,643048311,640951966,571746757,569650412,567457562,565359681,630370663,561163918,559066037,556968156,0,0,0,0,0,0,0,0,0,0,0,0,0,0,0
577281369,575182984,640195232,570989754,0,0,0,0,0,0,0,0,0,0,0,0,0,0,0,0,0,0,0,0,0,0
577594879,575231821,707342452,571017881,770239422,0,0,0,0,0,0,0,0,0,0,0,0,0,0,0,0,0,0,0,0,0
709626833,707546611,705327383,568995895,566883160,766096247,562655898,694760129,558429932,0,0,0,0,0,0,0,0,0,0,0,0,0,0,0,0,0
575335946,640324660,772421983,568975246,566854333,698951152,696439795,0,0,0,0,0,0,0,0,0,0,0,0,0,0,0,0,0,0,0
574884342,706926363,570610232,702729302,566413171,631423632,562216110,627226571,558019049,0,0,0,0,0,0,0,0,0,0,0,0,0,0,0,0,0
642024215,639924849,637825483,568491568,700614538,564302052,0,0,0,0,0,0,0,0,0,0,0,0,0,0,0,0,0,0,0,0
575033941,572925568,637926826,568709590,566313993,564228148,562142303,560056714,557970869,757210848,0,0,0,0,0,0,0,0,0,0,0,0,0,0,0,0
777959396,574114312,572017702,569921092,567824482,565728128,630740381,628643771,559438297,557341687,0,0,0,0,0,0,0,0,0,0,0,0,0,0,0,0
643724581,641629047,572424905,569931549,567832943,565734337,0,0,0,0,0,0,0,0,0,0,0,0,0,0,0,0,0,0,0,0
576602704,574507642,572412580,570317518,568222456,565745190,563646032,561546874,559447972,557348814,555249912,0,0,0,0,0,0,0,0,0,0,0,0,0,0,0
710765875,574457440,706584205,570275770,568184807,632887319,630784068,628681328,626577820,624474056,555261428,0,0,0,0,0,0,0,0,0,0,0,0,0,0,0
576066889,708175233,571847865,569737970,567384115,565299820,563215524,628239324,0,0,0,0,0,0,0,0,0,0,0,0,0,0,0,0,0,0
777440791,775325781,571884435,569769937,567357463,699496021,563199379,628228304,0,0,0,0,0,0,0,0,0,0,0,0,0,0,0,0,0,0
575683197,573597069,705728668,569425068,567338940,565252043,563165915,561079787,693211386,556274827,554181814,619197409,0,0,0,0,0,0,0,0,0,0,0,0,0,0
575165353,573068474,638080458,568874715,566777836,564680957,0,0,0,0,0,0,0,0,0,0,0,0,0,0,0,0,0,0,0,0
642603845,640518543,571324377,703142949,566817391,564708537,0,0,0,0,0,0,0,0,0,0,0,0,0,0,0,0,0,0,0,0
575444544,573357159,571269774,703399349,567094492,564768519,562661678,694772309,558447740,556340899,554234569,552127728,0,0,0,0,0,0,0,0,0,0,0,0,0,0
775793427,572374848,570282604,568190104,566097860,631113455,628680478,559469898,557367925,622375072,754491083,551062775,0,0,0,0,0,0,0,0,0,0,0,0,0,0
574450981,572359760,570268538,568177572,566086351,563995385,561579815,626586449,557374332,555271334,553168336,551065083,0,0,0,0,0,0,0,0,0,0,0,0,0,0
573881132,571781212,569681292,567581117,632590061,563241767,762473815,626161800,556958138,554863339,0,0,0,0,0,0,0,0,0,0,0,0,0,0,0,0
573889538,571788106,636795281,701802457,632443178,563241586,628257977,0,0,0,0,0,0,0,0,0,0,0,0,0,0,0,0,0,0,0
573054531,570959984,635974557,566771147,564676856,0,0,0,0,0,0,0,0,0,0,0,0,0,0,0,0,0,0,0,0,0
573463811,571368250,569272945,567177641,565082080,562594075,560495186,558396296,556297663,621308150,0,0,0,0,0,0,0,0,0,0,0,0,0,0,0,0
640479259,638399608,569211861,768163634,564722576,696824813,0,0,0,0,0,0,0,0,0,0,0,0,0,0,0,0,0,0,0,0
571133524,636121210,634000287,564771526,696868334,627237563,0,0,0,0,0,0,0,0,0,0,0,0,0,0,0,0,0,0,0,0
570801693,635801190,566582960,765799929,629271629,560077463,625101792,0,0,0,0,0,0,0,0,0,0,0,0,0,0,0,0,0,0,0
570451298,769708176,566311103,698458861,563611022,561526009,0,0,0,0,0,0,0,0,0,0,0,0,0,0,0,0,0,0,0,0
773175139,771058633,567396923,699536033,0,0,0,0,0,0,0,0,0,0,0,0,0,0,0,0,0,0,0,0,0,0
568599368,566504098,564408828,562212449,627222715,0,0,0,0,0,0,0,0,0,0,0,0,0,0,0,0,0,0,0,0,0
770042439,700815280,765569059,763493772,694308599,0,0,0,0,0,0,0,0,0,0,0,0,0,0,0,0,0,0,0,0,0
769656798,700489978,633271455,563619639,628638926,0,0,0,0,0,0,0,0,0,0,0,0,0,0,0,0,0,0,0,0,0
570301747,635317368,566115261,563655940,695771976,559452811,624460494,0,0,0,0,0,0,0,0,0,0,0,0,0,0,0,0,0,0,0
771559174,635257167,566064024,698196961,561589293,0,0,0,0,0,0,0,0,0,0,0,0,0,0,0,0,0,0,0,0,0
570185175,567955481,700052569,630822552,561592280,559079141,0,0,0,0,0,0,0,0,0,0,0,0,0,0,0,0,0,0,0,0
569649200,567553139,565457079,563361019,628272456,626174348,556967376,0,0,0,0,0,0,0,0,0,0,0,0,0,0,0,0,0,0,0
569141266,701281119,564985772,764233976,694775367,625549971,757651680,0,0,0,0,0,0,0,0,0,0,0,0,0,0,0,0,0,0,0
567020129,766275246,764204283,560581962,558458774,556335330,0,0,0,0,0,0,0,0,0,0,0,0,0,0,0,0,0,0,0,0
566527322,631536067,629307960,627213985,0,0,0,0,0,0,0,0,0,0,0,0,0,0,0,0,0,0,0,0,0,0
568163893,633184630,563987640,561899514,559479102,557373055,555267008,0,0,0,0,0,0,0,0,0,0,0,0,0,0,0,0,0,0,0
567543186,565448401,563268890,628278361,559069849,624079064,0,0,0,0,0,0,0,0,0,0,0,0,0,0,0,0,0,0,0,0
567676951,632674907,563454881,628452582,559002931,556919671,689053370,552752638,0,0,0,0,0,0,0,0,0,0,0,0,0,0,0,0,0,0
766271894,562880247,761900376,625553592,0,0,0,0,0,0,0,0,0,0,0,0,0,0,0,0,0,0,0,0,0,0
766847528,764737705,628237623,626154168,0,0,0,0,0,0,0,0,0,0,0,0,0,0,0,0,0,0,0,0,0,0
766869325,764753350,695336012,626147779,0,0,0,0,0,0,0,0,0,0,0,0,0,0,0,0,0,0,0,0,0,0
629484813,694486385,759488724,555888451,553801382,0,0,0,0,0,0,0,0,0,0,0,0,0,0,0,0,0,0,0,0,0
763710540,627381439,759302717,623002798,0,0,0,0,0,0,0,0,0,0,0,0,0,0,0,0,0,0,0,0,0,0
562383464,627380947,557975882,623002291,0,0,0,0,0,0,0,0,0,0,0,0,0,0,0,0,0,0,0,0,0,0
562486431,694578155,557904191,690053002,687984853,0,0,0,0,0,0,0,0,0,0,0,0,0,0,0,0,0,0,0,0,0
764264220,560850814,625871839,556322882,621324708,0,0,0,0,0,0,0,0,0,0,0,0,0,0,0,0,0,0,0,0,0
560255269,558144877,556034228,688141052,685960268,0,0,0,0,0,0,0,0,0,0,0,0,0,0,0,0,0,0,0,0,0
561798940,761065386,758745654,555286210,0,0,0,0,0,0,0,0,0,0,0,0,0,0,0,0,0,0,0,0,0,0
561285199,626293452,624065367,554863830,0,0,0,0,0,0,0,0,0,0,0,0,0,0,0,0,0,0,0,0,0,0
560903444,558806638,623817670,554192927,552096883,617109702,0,0,0,0,0,0,0,0,0,0,0,0,0,0,0,0,0,0,0,0
625081988,757177603,755344514,753271297,0,0,0,0,0,0,0,0,0,0,0,0,0,0,0,0,0,0,0,0,0,0
625090762,757192819,755076380,686137284,549841517,547762710,0,0,0,0,0,0,0,0,0,0,0,0,0,0,0,0,0,0,0,0
626167799,758284961,621966923,552893940,617908637,548705863,0,0,0,0,0,0,0,0,0,0,0,0,0,0,0,0,0,0,0,0
626314030,557102981,555000796,552753470,617770389,548569837,0,0,0,0,0,0,0,0,0,0,0,0,0,0,0,0,0,0,0,0
757651190,688474770,753516845,751616957,548162905,0,0,0,0,0,0,0,0,0,0,0,0,0,0,0,0,0,0,0,0,0
555903197,620909741,551698558,616705101,547493917,545588872,0,0,0,0,0,0,0,0,0,0,0,0,0,0,0,0,0,0,0,0
555892673,553780834,752995842,616910497,614827841,0,0,0,0,0,0,0,0,0,0,0,0,0,0,0,0,0,0,0,0,0
757208721,553764629,619015577,549830686,0,0,0,0,0,0,0,0,0,0,0,0,0,0,0,0,0,0,0,0,0,0
757193937,687960968,752945726,684080115,749118377,0,0,0,0,0,0,0,0,0,0,0,0,0,0,0,0,0,0,0,0,0
758684864,756602415,754839186,618509312,0,0,0,0,0,0,0,0,0,0,0,0,0,0,0,0,0,0,0,0,0,0
557378769,689525863,754792945,551342728,549217824,0,0,0,0,0,0,0,0,0,0,0,0,0,0,0,0,0,0,0,0,0
557372402,689514657,620331343,685580788,616352930,0,0,0,0,0,0,0,0,0,0,0,0,0,0,0,0,0,0,0,0,0
623825758,554617032,552091954,617106587,0,0,0,0,0,0,0,0,0,0,0,0,0,0,0,0,0,0,0,0,0,0
624441581,622339513,553128581,547439583,545302695,543165038,0,0,0,0,0,0,0,0,0,0,0,0,0,0,0,0,0,0,0,0
622875282,755027645,551635433,616048568,0,0,0,0,0,0,0,0,0,0,0,0,0,0,0,0,0,0,0,0,0,0
755134697,551707337,549606570,547505546,545397547,543487431,541393063,539299464,537206120,0,0,0,0,0,0,0,0,0,0,0,0,0,0,0,0,0
688211556,618988518,750921333,614623991,0,0,0,0,0,0,0,0,0,0,0,0,0,0,0,0,0,0,0,0,0,0
756209149,754529753,551138954,549073978,0,0,0,0,0,0,0,0,0,0,0,0,0,0,0,0,0,0,0,0,0,0
555370947,687461862,617803358,615697108,0,0,0,0,0,0,0,0,0,0,0,0,0,0,0,0,0,0,0,0,0,0
621283034,754056170,550616254,548502418,613464075,745991809,0,0,0,0,0,0,0,0,0,0,0,0,0,0,0,0,0,0,0,0
551730424,549636811,547543197,545890807,543827916,675959998,539656880,604680098,0,0,0,0,0,0,0,0,0,0,0,0,0,0,0,0,0,0
551700861,616707396,547495948,545587295,0,0,0,0,0,0,0,0,0,0,0,0,0,0,0,0,0,0,0,0,0,0
553147881,551050427,548952973,547268090,545171311,543074113,540977171,0,0,0,0,0,0,0,0,0,0,0,0,0,0,0,0,0,0,0
552787173,684912578,549001207,681147835,679076991,542770284,674899288,538593349,0,0,0,0,0,0,0,0,0,0,0,0,0,0,0,0,0,0
552778470,550682826,548587438,546495577,544403460,540666875,538576117,0,0,0,0,0,0,0,0,0,0,0,0,0,0,0,0,0,0,0
552755708,550653661,548551615,680657249,611437314,542453215,540360895,538268575,0,0,0,0,0,0,0,0,0,0,0,0,0,0,0,0,0,0
552101630,550004714,547908053,545811864,543715675,541618758,539522098,537425182,0,0,0,0,0,0,0,0,0,0,0,0,0,0,0,0,0,0
549598206,547482813,746967799,677817397,0,0,0,0,0,0,0,0,0,0,0,0,0,0,0,0,0,0,0,0,0,0
549986280,547884747,546424290,544304818,542200226,674313361,672208769,0,0,0,0,0,0,0,0,0,0,0,0,0,0,0,0,0,0,0
550613488,548504283,546371740,544238175,542128971,0,0,0,0,0,0,0,0,0,0,0,0,0,0,0,0,0,0,0,0,0
549992946,615000259,680628475,678495433,542169528,540060327,672168854,0,0,0,0,0,0,0,0,0,0,0,0,0,0,0,0,0,0,0
550003455,547906280,545809059,543712093,541614918,539517999,537420823,0,0,0,0,0,0,0,0,0,0,0,0,0,0,0,0,0,0,0
550023925,615040222,545847963,543764056,541671489,539578923,537486356,0,0,0,0,0,0,0,0,0,0,0,0,0,0,0,0,0,0,0
681766099,545885102,543830349,541747501,539664653,537666533,0,0,0,0,0,0,0,0,0,0,0,0,0,0,0,0,0,0,0,0
547507695,545404814,610411053,541203213,606393065,537188554,0,0,0,0,0,0,0,0,0,0,0,0,0,0,0,0,0,0,0,0
614604772,545359697,543553466,541468809,740711255,537300774,0,0,0,0,0,0,0,0,0,0,0,0,0,0,0,0,0,0,0,0
548956655,613969593,678982277,542667891,540570977,538474320,0,0,0,0,0,0,0,0,0,0,0,0,0,0,0,0,0,0,0,0
548963462,546870812,545150634,610160774,540953187,538854719,0,0,0,0,0,0,0,0,0,0,0,0,0,0,0,0,0,0,0,0
548599288,546894810,544809135,676933793,540623251,0,0,0,0,0,0,0,0,0,0,0,0,0,0,0,0,0,0,0,0,0
548595435,546928549,544874550,677009681,540830180,538718143,0,0,0,0,0,0,0,0,0,0,0,0,0,0,0,0,0,0,0,0
682813413,681149857,544880684,677152765,540822487,538709936,0,0,0,0,0,0,0,0,0,0,0,0,0,0,0,0,0,0,0,0
547884248,546410930,678489931,609270056,540049926,538351840,0,0,0,0,0,0,0,0,0,0,0,0,0,0,0,0,0,0,0,0
547892724,680643575,678513594,542187942,540080530,537972606,0,0,0,0,0,0,0,0,0,0,0,0,0,0,0,0,0,0,0,0
545851603,610894958,675917133,539612972,604634890,0,0,0,0,0,0,0,0,0,0,0,0,0,0,0,0,0,0,0,0,0
545437668,543343282,541247138,539150994,537054850,0,0,0,0,0,0,0,0,0,0,0,0,0,0,0,0,0,0,0,0,0
545434614,543339205,675460277,539146149,537049493,0,0,0,0,0,0,0,0,0,0,0,0,0,0,0,0,0,0,0,0,0
545428462,610439108,541232823,539135145,537037724,0,0,0,0,0,0,0,0,0,0,0,0,0,0,0,0,0,0,0,0,0
545412087,543309272,541210318,539111364,537012410,0,0,0,0,0,0,0,0,0,0,0,0,0,0,0,0,0,0,0,0,0
545400548,677511616,608303283,606203047,536993947,0,0,0,0,0,0,0,0,0,0,0,0,0,0,0,0,0,0,0,0,0
546849019,544737356,541144809,539033302,536921284,0,0,0,0,0,0,0,0,0,0,0,0,0,0,0,0,0,0,0,0,0
546849019,543256827,541144809,539033302,536921284,0,0,0,0,0,0,0,0,0,0,0,0,0,0,0,0,0,0,0,0,0
546854650,544756686,676876735,540561584,538464162,0,0,0,0,0,0,0,0,0,0,0,0,0,0,0,0,0,0,0,0,0
546875330,611902530,542701848,540931301,605937850,0,0,0,0,0,0,0,0,0,0,0,0,0,0,0,0,0,0,0,0,0
614021997,612186578,542968994,675078513,538752064,0,0,0,0,0,0,0,0,0,0,0,0,0,0,0,0,0,0,0,0,0
546502116,544814781,542726053,540637069,538548341,0,0,0,0,0,0,0,0,0,0,0,0,0,0,0,0,0,0,0,0,0
546910687,544846993,676978551,607783005,538588228,0,0,0,0,0,0,0,0,0,0,0,0,0,0,0,0,0,0,0,0,0
613598169,544395690,542299802,540203658,538107770,0,0,0,0,0,0,0,0,0,0,0,0,0,0,0,0,0,0,0,0,0
546488291,544394166,542298023,540201880,605214601,0,0,0,0,0,0,0,0,0,0,0,0,0,0,0,0,0,0,0,0,0
680702186,544389559,676510629,540196500,605208962,0,0,0,0,0,0,0,0,0,0,0,0,0,0,0,0,0,0,0,0,0
546477264,544379293,609390475,540184186,538086505,0,0,0,0,0,0,0,0,0,0,0,0,0,0,0,0,0,0,0,0,0
613578961,745843935,609534351,540333632,0,0,0,0,0,0,0,0,0,0,0,0,0,0,0,0,0,0,0,0,0,0
546471405,544367505,542268274,607277651,538069557,0,0,0,0,0,0,0,0,0,0,0,0,0,0,0,0,0,0,0,0,0
546464931,544363395,542264696,540166254,538067811,0,0,0,0,0,0,0,0,0,0,0,0,0,0,0,0,0,0,0,0,0
680675273,544343118,542240804,540347383,538255821,0,0,0,0,0,0,0,0,0,0,0,0,0,0,0,0,0,0,0,0,0
546434931,544563683,743802036,540387462,538299479,0,0,0,0,0,0,0,0,0,0,0,0,0,0,0,0,0,0,0,0,0
613547165,544324178,542221880,540119583,538017541,0,0,0,0,0,0,0,0,0,0,0,0,0,0,0,0,0,0,0,0,0
613542559,544315734,542211647,674325288,538003984,0,0,0,0,0,0,0,0,0,0,0,0,0,0,0,0,0,0,0,0,0
546447077,544323972,542217828,607220547,538005539,0,0,0,0,0,0,0,0,0,0,0,0,0,0,0,0,0,0,0,0,0
546437062,544303947,609303585,607508212,605422282,0,0,0,0,0,0,0,0,0,0,0,0,0,0,0,0,0,0,0,0,0
545787376,544342244,542240469,540138182,672253623,0,0,0,0,0,0,0,0,0,0,0,0,0,0,0,0,0,0,0,0,0
546439156,678535094,676429729,540106636,538001272,0,0,0,0,0,0,0,0,0,0,0,0,0,0,0,0,0,0,0,0,0
612901355,543690440,541591484,539492785,605155066,0,0,0,0,0,0,0,0,0,0,0,0,0,0,0,0,0,0,0,0,0
546429950,544291506,676398490,607179907,537960301,0,0,0,0,0,0,0,0,0,0,0,0,0,0,0,0,0,0,0,0,0
545789623,544321009,542216164,674328534,538006217,0,0,0,0,0,0,0,0,0,0,0,0,0,0,0,0,0,0,0,0,0
545797369,678545918,542219498,674328534,605110977,0,0,0,0,0,0,0,0,0,0,0,0,0,0,0,0,0,0,0,0,0
545794514,543692707,541594004,539495300,537396596,0,0,0,0,0,0,0,0,0,0,0,0,0,0,0,0,0,0,0,0,0
545815270,543720634,541624235,539527836,537431694,0,0,0,0,0,0,0,0,0,0,0,0,0,0,0,0,0,0,0,0,0
747166773,745397129,541967187,741190172,0,0,0,0,0,0,0,0,0,0,0,0,0,0,0,0,0,0,0,0,0,0
545845462,610858380,541652852,606664795,537459267,0,0,0,0,0,0,0,0,0,0,0,0,0,0,0,0,0,0,0,0,0
545799114,610803806,541595195,537853163,0,0,0,0,0,0,0,0,0,0,0,0,0,0,0,0,0,0,0,0,0,0
543335674,675456487,606250964,537045186,0,0,0,0,0,0,0,0,0,0,0,0,0,0,0,0,0,0,0,0,0,0
543333587,541236409,539139230,537041796,0,0,0,0,0,0,0,0,0,0,0,0,0,0,0,0,0,0,0,0,0,0
543326972,541229301,539131629,537033958,0,0,0,0,0,0,0,0,0,0,0,0,0,0,0,0,0,0,0,0,0,0
543316214,541217261,539118565,537019869,0,0,0,0,0,0,0,0,0,0,0,0,0,0,0,0,0,0,0,0,0,0
543311592,541212638,539113941,537014988,0,0,0,0,0,0,0,0,0,0,0,0,0,0,0,0,0,0,0,0,0,0
544737268,541206777,539107314,537008107,0,0,0,0,0,0,0,0,0,0,0,0,0,0,0,0,0,0,0,0,0,0
544737268,542638315,539107314,537008107,0,0,0,0,0,0,0,0,0,0,0,0,0,0,0,0,0,0,0,0,0,0
544735975,541201647,673318629,537001178,0,0,0,0,0,0,0,0,0,0,0,0,0,0,0,0,0,0,0,0,0,0
544749046,542650861,540552933,538454749,0,0,0,0,0,0,0,0,0,0,0,0,0,0,0,0,0,0,0,0,0,0
544751088,542653158,540555228,672674771,0,0,0,0,0,0,0,0,0,0,0,0,0,0,0,0,0,0,0,0,0,0
746077792,542652985,540554771,538889956,0,0,0,0,0,0,0,0,0,0,0,0,0,0,0,0,0,0,0,0,0,0
746077792,542653498,540555795,538888680,0,0,0,0,0,0,0,0,0,0,0,0,0,0,0,0,0,0,0,0,0,0
544775897,542680777,540585656,538490535,0,0,0,0,0,0,0,0,0,0,0,0,0,0,0,0,0,0,0,0,0,0
544774376,542679510,607693508,538489779,0,0,0,0,0,0,0,0,0,0,0,0,0,0,0,0,0,0,0,0,0,0
679029972,542726583,674858394,538555005,0,0,0,0,0,0,0,0,0,0,0,0,0,0,0,0,0,0,0,0,0,0
544402052,542728190,674860270,538557149,0,0,0,0,0,0,0,0,0,0,0,0,0,0,0,0,0,0,0,0,0,0
544402052,676526934,674860270,538557149,0,0,0,0,0,0,0,0,0,0,0,0,0,0,0,0,0,0,0,0,0,0
544392896,542297257,540201617,538106234,0,0,0,0,0,0,0,0,0,0,0,0,0,0,0,0,0,0,0,0,0,0
544386532,542289625,540192974,605204930,0,0,0,0,0,0,0,0,0,0,0,0,0,0,0,0,0,0,0,0,0,0
544330205,609337040,540126148,672241848,0,0,0,0,0,0,0,0,0,0,0,0,0,0,0,0,0,0,0,0,0,0
543704173,541605468,539506763,537408058,0,0,0,0,0,0,0,0,0,0,0,0,0,0,0,0,0,0,0,0,0,0
543707549,541610888,539514991,537418838,0,0,0,0,0,0,0,0,0,0,0,0,0,0,0,0,0,0,0,0,0,0
543714269,541617605,673738668,537424532,0,0,0,0,0,0,0,0,0,0,0,0,0,0,0,0,0,0,0,0,0,0
543726037,541636336,539159526,537055432,0,0,0,0,0,0,0,0,0,0,0,0,0,0,0,0,0,0,0,0,0,0
589471208,587377386,585283563,0,0,0,0,0,0,0,0,0,0,0,0,0,0,0,0,0,0,0,0,0,0,0
590511337,655523568,586318072,0,0,0,0,0,0,0,0,0,0,0,0,0,0,0,0,0,0,0,0,0,0,0
590501873,588405752,586309887,0,0,0,0,0,0,0,0,0,0,0,0,0,0,0,0,0,0,0,0,0,0,0
588779007,586685436,718809592,0,0,0,0,0,0,0,0,0,0,0,0,0,0,0,0,0,0,0,0,0,0,0
582311285,714199561,577898098,0,0,0,0,0,0,0,0,0,0,0,0,0,0,0,0,0,0,0,0,0,0,0
768377985,766108683,763970198,0,0,0,0,0,0,0,0,0,0,0,0,0,0,0,0,0,0,0,0,0,0,0
567052786,698999133,696860870,0,0,0,0,0,0,0,0,0,0,0,0,0,0,0,0,0,0,0,0,0,0,0
566417415,564315507,562213599,0,0,0,0,0,0,0,0,0,0,0,0,0,0,0,0,0,0,0,0,0,0,0
634776065,766882380,630553753,0,0,0,0,0,0,0,0,0,0,0,0,0,0,0,0,0,0,0,0,0,0,0
769009429,766870237,764547509,0,0,0,0,0,0,0,0,0,0,0,0,0,0,0,0,0,0,0,0,0,0,0
769021539,766594591,764543948,0,0,0,0,0,0,0,0,0,0,0,0,0,0,0,0,0,0,0,0,0,0,0
564155184,696326551,694280957,0,0,0,0,0,0,0,0,0,0,0,0,0,0,0,0,0,0,0,0,0,0,0
761406917,692414441,757471493,0,0,0,0,0,0,0,0,0,0,0,0,0,0,0,0,0,0,0,0,0,0,0
761799897,760326380,758175629,0,0,0,0,0,0,0,0,0,0,0,0,0,0,0,0,0,0,0,0,0,0,0
758449418,622121144,619860596,0,0,0,0,0,0,0,0,0,0,0,0,0,0,0,0,0,0,0,0,0,0,0
623428788,621356561,753758046,0,0,0,0,0,0,0,0,0,0,0,0,0,0,0,0,0,0,0,0,0,0,0
623681025,688738771,753467554,0,0,0,0,0,0,0,0,0,0,0,0,0,0,0,0,0,0,0,0,0,0,0
687997585,753228269,751163463,0,0,0,0,0,0,0,0,0,0,0,0,0,0,0,0,0,0,0,0,0,0,0
554853622,686972910,617766631,0,0,0,0,0,0,0,0,0,0,0,0,0,0,0,0,0,0,0,0,0,0,0
756152768,754304751,752265751,0,0,0,0,0,0,0,0,0,0,0,0,0,0,0,0,0,0,0,0,0,0,0
619875270,617772049,615810911,0,0,0,0,0,0,0,0,0,0,0,0,0,0,0,0,0,0,0,0,0,0,0
686972910,751965289,548738790,0,0,0,0,0,0,0,0,0,0,0,0,0,0,0,0,0,0,0,0,0,0,0
686829173,684781244,749217213,0,0,0,0,0,0,0,0,0,0,0,0,0,0,0,0,0,0,0,0,0,0,0
619640503,550557948,548437994,0,0,0,0,0,0,0,0,0,0,0,0,0,0,0,0,0,0,0,0,0,0,0
619544893,550365183,615037116,0,0,0,0,0,0,0,0,0,0,0,0,0,0,0,0,0,0,0,0,0,0,0
549605800,547508148,545410523,0,0,0,0,0,0,0,0,0,0,0,0,0,0,0,0,0,0,0,0,0,0,0
549595887,547478948,612758975,0,0,0,0,0,0,0,0,0,0,0,0,0,0,0,0,0,0,0,0,0,0,0
752355061,748783209,747024189,0,0,0,0,0,0,0,0,0,0,0,0,0,0,0,0,0,0,0,0,0,0,0
752356860,547461756,612795749,0,0,0,0,0,0,0,0,0,0,0,0,0,0,0,0,0,0,0,0,0,0,0
616699643,547470264,746994668,0,0,0,0,0,0,0,0,0,0,0,0,0,0,0,0,0,0,0,0,0,0,0
617766631,548544110,546668800,0,0,0,0,0,0,0,0,0,0,0,0,0,0,0,0,0,0,0,0,0,0,0
550013659,547924351,546175583,0,0,0,0,0,0,0,0,0,0,0,0,0,0,0,0,0,0,0,0,0,0,0
547507195,679574022,744896013,0,0,0,0,0,0,0,0,0,0,0,0,0,0,0,0,0,0,0,0,0,0,0
683159502,746653650,543172998,0,0,0,0,0,0,0,0,0,0,0,0,0,0,0,0,0,0,0,0,0,0,0
614990250,546426336,678536890,0,0,0,0,0,0,0,0,0,0,0,0,0,0,0,0,0,0,0,0,0,0,0
546461467,544517729,542423332,0,0,0,0,0,0,0,0,0,0,0,0,0,0,0,0,0,0,0,0,0,0,0
680621285,544244354,542126434,0,0,0,0,0,0,0,0,0,0,0,0,0,0,0,0,0,0,0,0,0,0,0
541664483,606684623,604595899,0,0,0,0,0,0,0,0,0,0,0,0,0,0,0,0,0,0,0,0,0,0,0
608342008,539135729,537038314,0,0,0,0,0,0,0,0,0,0,0,0,0,0,0,0,0,0,0,0,0,0,0
541231615,539134200,537036529,0,0,0,0,0,0,0,0,0,0,0,0,0,0,0,0,0,0,0,0,0,0,0
541227513,539129585,537031658,0,0,0,0,0,0,0,0,0,0,0,0,0,0,0,0,0,0,0,0,0,0,0
541215994,539117298,671236331,0,0,0,0,0,0,0,0,0,0,0,0,0,0,0,0,0,0,0,0,0,0,0
542259711,540157935,538056414,0,0,0,0,0,0,0,0,0,0,0,0,0,0,0,0,0,0,0,0,0,0,0
541605966,741268937,604961360,0,0,0,0,0,0,0,0,0,0,0,0,0,0,0,0,0,0,0,0,0,0,0
541612441,539518877,537425312,0,0,0,0,0,0,0,0,0,0,0,0,0,0,0,0,0,0,0,0,0,0,0
541630706,539529717,537428469,0,0,0,0,0,0,0,0,0,0,0,0,0,0,0,0,0,0,0,0,0,0,0
541630706,539536353,537442000,0,0,0,0,0,0,0,0,0,0,0,0,0,0,0,0,0,0,0,0,0,0,0
