0,1,2,3,4,5,6,7,8,9,10,11,12,13,14,15,16,17,18,19,20,21,22,23,24,25
589931570,722046534,652835161,583623533,581515412,579407291,577302489,575199724,573100022,570620408,0,0,0,0,0,0,0,0,0,0,0,0,0,0,0,0
589916788,587815043,585713299,583611555,581505218,579399649,577295609,574812410,0,0,0,0,0,0,0,0,0,0,0,0,0,0,0,0,0,0
657246402,588048092,720175605,583655444,581542983,713647994,577321632,575216825,573115846,638123986,568914655,566813676,564712697,562230263,0,0,0,0,0,0,0,0,0,0,0,0
656603109,721613293,652406004,583198460,0,0,0,0,0,0,0,0,0,0,0,0,0,0,0,0,0,0,0,0,0,0
589987076,587881496,585775916,583670337,648665962,579443092,577333426,709445574,573126609,571025371,568923877,566822639,564330436,562230484,560130788,558031092,0,0,0,0,0,0,0,0,0,0
590099938,587899659,585792812,717902923,0,0,0,0,0,0,0,0,0,0,0,0,0,0,0,0,0,0,0,0,0,0
589939601,587837085,585734313,717849269,581523405,579415270,577309944,574813379,639823565,570616024,568517347,566418670,631428856,0,0,0,0,0,0,0,0,0,0,0,0,0
589960294,654965622,585752711,583648407,581537206,579425749,577317869,574815401,572716471,771943877,568518355,566419169,564320239,696438781,0,0,0,0,0,0,0,0,0,0,0,0
590008068,587900697,585793581,583686210,581568876,579452055,577340087,575232972,573130711,571028707,703144173,0,0,0,0,0,0,0,0,0,0,0,0,0,0,0
589489104,721608409,585292514,583194347,581094909,0,0,0,0,0,0,0,0,0,0,0,0,0,0,0,0,0,0,0,0,0
589907188,587399043,585300115,583201442,715318463,579000284,576900594,0,0,0,0,0,0,0,0,0,0,0,0,0,0,0,0,0,0,0
589907188,587806202,585300115,583201442,715318463,579000284,576900594,0,0,0,0,0,0,0,0,0,0,0,0,0,0,0,0,0,0,0
657127248,655019105,585802355,583694468,581575589,646566343,577344225,575236082,640242426,570619516,568520081,566420902,564321723,562222288,560123109,558023930,0,0,0,0,0,0,0,0,0,0
589493876,587395717,652406420,583199397,581099714,578999774,576900594,0,0,0,0,0,0,0,0,0,0,0,0,0,0,0,0,0,0,0
589943244,587840213,585737182,583634151,581524985,646114954,576905390,574805957,572707537,570609373,568510953,566412789,0,0,0,0,0,0,0,0,0,0,0,0,0,0
589957575,587854544,585750745,583646946,581536500,579007330,711124361,641916322,572709039,570610876,568512713,566414294,564316131,562217712,560119549,0,0,0,0,0,0,0,0,0,0,0
589494865,587395937,585297265,583198337,648206753,0,0,0,0,0,0,0,0,0,0,0,0,0,0,0,0,0,0,0,0,0
589494342,587395672,585297003,583198333,648206753,0,0,0,0,0,0,0,0,0,0,0,0,0,0,0,0,0,0,0,0,0
589480014,587382366,585284719,583187071,581088928,578990528,576892632,574794984,572697584,570600184,0,0,0,0,0,0,0,0,0,0,0,0,0,0,0,0
589580408,587483288,585386167,583289046,581082652,578985562,576888458,574791337,706911673,570596809,568499672,566402536,564305400,0,0,0,0,0,0,0,0,0,0,0,0,0
589471204,587374059,585276914,583179770,0,0,0,0,0,0,0,0,0,0,0,0,0,0,0,0,0,0,0,0,0,0
589456934,587360569,719481931,583168094,581072515,578977192,576881348,574784983,572688352,570591721,635603698,566398204,0,0,0,0,0,0,0,0,0,0,0,0,0,0
589457554,587361440,585265325,583168955,581073622,578978290,0,0,0,0,0,0,0,0,0,0,0,0,0,0,0,0,0,0,0,0
589460159,587363784,585267154,583170779,581074926,0,0,0,0,0,0,0,0,0,0,0,0,0,0,0,0,0,0,0,0,0
589448028,587352688,585257347,583162007,581068222,578974694,0,0,0,0,0,0,0,0,0,0,0,0,0,0,0,0,0,0,0,0
589441822,721564209,585251395,583156054,581062523,578968992,576874429,574779088,572682970,570586596,635599085,700611575,0,0,0,0,0,0,0,0,0,0,0,0,0,0
589443432,587348604,652362384,583158693,581065933,578972912,0,0,0,0,0,0,0,0,0,0,0,0,0,0,0,0,0,0,0,0
656557233,587352765,585257160,583161555,581067498,0,0,0,0,0,0,0,0,0,0,0,0,0,0,0,0,0,0,0,0,0
589441176,587345828,652359600,583155389,581062102,646077678,0,0,0,0,0,0,0,0,0,0,0,0,0,0,0,0,0,0,0,0
589664089,587561593,585459097,583356857,581025536,578938944,643957872,574757265,572662689,570568113,568473793,566379217,564284897,562190321,0,0,0,0,0,0,0,0,0,0,0,0
589691200,587587170,585482884,583378854,581267689,578924083,576837478,574747527,572653464,570559401,568465850,633481162,564278491,562184940,560091389,0,0,0,0,0,0,0,0,0,0,0
656779485,587567350,585199125,717325614,581022815,578937745,711066294,574757583,639772123,570569192,568474868,0,0,0,0,0,0,0,0,0,0,0,0,0,0,0
589418893,587325339,585231785,650246838,581046994,646065901,578290173,0,0,0,0,0,0,0,0,0,0,0,0,0,0,0,0,0,0,0
589435866,587341026,585245930,583150834,649593593,0,0,0,0,0,0,0,0,0,0,0,0,0,0,0,0,0,0,0,0,0
589679338,587281415,585190428,583099442,581014622,578929546,576841643,574750401,572655564,570561239,568467170,566372845,631387383,0,0,0,0,0,0,0,0,0,0,0,0,0
589745469,654723476,585484523,650225223,0,0,0,0,0,0,0,0,0,0,0,0,0,0,0,0,0,0,0,0,0,0
656528556,721544122,585233097,583139542,581049585,580389879,0,0,0,0,0,0,0,0,0,0,0,0,0,0,0,0,0,0,0,0
589397904,654414755,585213878,583121609,581034479,647500222,578301149,710426353,574113787,0,0,0,0,0,0,0,0,0,0,0,0,0,0,0,0,0
589369425,587278687,652296812,583096954,581011606,578926773,576838862,574748127,572653800,570559216,568465145,632817895,563614195,0,0,0,0,0,0,0,0,0,0,0,0,0
589407678,587314632,585221586,583128540,581039344,580388044,576200179,574104315,0,0,0,0,0,0,0,0,0,0,0,0,0,0,0,0,0,0
590873288,588777681,586682074,584586211,582492150,0,0,0,0,0,0,0,0,0,0,0,0,0,0,0,0,0,0,0,0,0
589734392,587228436,585139241,583050046,580968809,578886805,576801461,574712267,706836693,570525920,568432619,566339574,563611769,561517449,0,0,0,0,0,0,0,0,0,0,0,0
656535544,588775603,586679998,584584393,649599198,714614004,0,0,0,0,0,0,0,0,0,0,0,0,0,0,0,0,0,0,0,0
656535544,587332351,586679998,584584393,649599198,714614004,0,0,0,0,0,0,0,0,0,0,0,0,0,0,0,0,0,0,0,0
589416163,721540331,585229299,583135739,582487238,580394211,578300152,0,0,0,0,0,0,0,0,0,0,0,0,0,0,0,0,0,0,0
589381828,587290061,585198294,583106527,715237874,580387978,578294442,576199615,641212617,572007636,569911775,702033385,565719796,563623934,0,0,0,0,0,0,0,0,0,0,0,0
590873970,722996099,586683028,785913765,582493639,580399849,0,0,0,0,0,0,0,0,0,0,0,0,0,0,0,0,0,0,0,0
590881463,588785347,586689488,584593372,582498549,0,0,0,0,0,0,0,0,0,0,0,0,0,0,0,0,0,0,0,0,0
590882205,588786091,586689977,718811591,582499042,580403966,0,0,0,0,0,0,0,0,0,0,0,0,0,0,0,0,0,0,0,0
591315578,589217439,587119300,585021416,582503989,647517053,578311859,576215254,572021242,0,0,0,0,0,0,0,0,0,0,0,0,0,0,0,0,0
590898830,588805013,586711453,584616869,0,0,0,0,0,0,0,0,0,0,0,0,0,0,0,0,0,0,0,0,0,0
591288537,589192432,586719246,584621093,582522197,580422788,645432999,576225983,574128075,572030423,569932515,567834863,632845818,0,0,0,0,0,0,0,0,0,0,0,0,0
590908802,588811151,586713245,718833066,582516932,580418526,578320370,576222463,0,0,0,0,0,0,0,0,0,0,0,0,0,0,0,0,0,0
590911585,588813425,586715521,584617361,582518448,580419535,578321127,576222966,574125566,0,0,0,0,0,0,0,0,0,0,0,0,0,0,0,0,0
590918969,588820045,586721120,718839668,716738971,580420802,578320863,576221938,574124028,0,0,0,0,0,0,0,0,0,0,0,0,0,0,0,0,0
591257322,588846342,586746141,584646451,582543200,580439694,578337968,576237766,574139090,572040413,569941736,702060532,565744127,0,0,0,0,0,0,0,0,0,0,0,0,0
591220086,589128340,654145457,584945103,582567952,580460108,712572793,576253079,641261989,706270900,569953475,567853522,565753825,563653872,561554175,0,0,0,0,0,0,0,0,0,0,0
590935983,588836537,586737091,584637646,582535906,580434167,0,0,0,0,0,0,0,0,0,0,0,0,0,0,0,0,0,0,0,0
792528570,790438099,788347373,786017292,716798272,781796979,578363546,0,0,0,0,0,0,0,0,0,0,0,0,0,0,0,0,0,0,0
590959472,588858494,586757516,584656539,582551735,580447700,645453801,576243960,574144767,0,0,0,0,0,0,0,0,0,0,0,0,0,0,0,0,0
590990693,588887668,586784643,584681619,582572721,647572943,578357990,576255734,573766609,571667420,636677351,567469299,565370110,0,0,0,0,0,0,0,0,0,0,0,0,0
725217111,588896358,586793078,584689797,582580644,580471490,578365145,576261864,574161648,572062200,569571790,634581466,632482278,563274227,561175039,0,0,0,0,0,0,0,0,0,0,0
591028916,588923582,721035720,584712659,716817384,580486141,577956966,575857287,573758871,571660199,569561783,567463367,565364696,563266280,561167864,0,0,0,0,0,0,0,0,0,0,0
657725368,588520147,586423790,584238607,582139972,580041337,577943201,575845308,573747657,705867735,569552612,634563825,699575039,0,0,0,0,0,0,0,0,0,0,0,0,0
590627812,588423681,586326551,584229420,582132056,580034692,712155044,575840186,573743045,571645904,569548763,567451366,565354225,563257084,0,0,0,0,0,0,0,0,0,0,0,0
590627812,588530938,586326551,584229420,582132056,580034692,712155044,575840186,573743045,571645904,569548763,567451366,565354225,563257084,0,0,0,0,0,0,0,0,0,0,0,0
590518503,655530478,586324470,584227325,0,0,0,0,0,0,0,0,0,0,0,0,0,0,0,0,0,0,0,0,0,0
590514919,588418030,586321142,584224253,0,0,0,0,0,0,0,0,0,0,0,0,0,0,0,0,0,0,0,0,0,0
724724550,588410712,586314345,718435707,582122655,580027075,577931230,575834864,707955705,0,0,0,0,0,0,0,0,0,0,0,0,0,0,0,0,0
590651587,655662043,586454772,584209683,582115140,580020597,577925273,575829682,573733054,571636682,569540310,567443938,565347310,563250938,0,0,0,0,0,0,0,0,0,0,0,0
590501695,588406101,653419370,584214656,582120363,714243542,577930742,0,0,0,0,0,0,0,0,0,0,0,0,0,0,0,0,0,0,0
590507236,588410859,586314482,584218105,0,0,0,0,0,0,0,0,0,0,0,0,0,0,0,0,0,0,0,0,0,0
590504916,588408540,653421284,584216045,716338430,0,0,0,0,0,0,0,0,0,0,0,0,0,0,0,0,0,0,0,0,0
590500537,588404675,586308558,584212696,582117868,0,0,0,0,0,0,0,0,0,0,0,0,0,0,0,0,0,0,0,0,0
590502603,588406228,586309852,584213477,582117878,0,0,0,0,0,0,0,0,0,0,0,0,0,0,0,0,0,0,0,0,0
590681003,588580804,586481373,584381174,582093870,580002912,577910406,575816351,573720747,571625144,569529541,701651666,565338591,563242987,561147384,0,0,0,0,0,0,0,0,0,0,0
590475582,588381007,586285920,584191345,582099604,580007862,577914831,575820256,573724392,571628529,569532665,0,0,0,0,0,0,0,0,0,0,0,0,0,0,0
590729227,722843185,653631061,584418682,649417668,647087637,577890892,575799408,707922819,571611029,569516967,567422905,565328843,563234781,561140719,0,0,0,0,0,0,0,0,0,0,0
590699469,722815717,586496765,584171037,582082895,579993985,577903526,642919614,775042250,638729686,0,0,0,0,0,0,0,0,0,0,0,0,0,0,0,0
590709914,722825397,720723152,584403435,582075688,579988831,577898376,575806372,573711537,571616959,569522381,567427803,565333225,563238647,0,0,0,0,0,0,0,0,0,0,0,0
590717355,722831304,653618919,584160013,582075978,579991940,0,0,0,0,0,0,0,0,0,0,0,0,0,0,0,0,0,0,0,0
590738805,588635025,586531501,584427721,582054408,579970368,644991850,575792519,573698453,571604643,569510065,567416000,565322190,630337244,695352043,559040505,0,0,0,0,0,0,0,0,0,0
590764640,588659328,586554017,584449473,582035975,714173510,577871989,575783316,573690531,705815219,636613569,567411152,565318367,563225582,628241661,0,0,0,0,0,0,0,0,0,0,0
590797853,588690241,720800100,584474759,582356686,714156059,577857104,709988211,573678725,571586966,569494952,567403194,699528907,563218653,561126894,558369786,0,0,0,0,0,0,0,0,0,0
590472656,588378585,586284257,651298281,582097914,579342836,0,0,0,0,0,0,0,0,0,0,0,0,0,0,0,0,0,0,0,0
590468552,588374746,653389799,584186358,0,0,0,0,0,0,0,0,0,0,0,0,0,0,0,0,0,0,0,0,0,0
590422878,588332909,586242683,584152201,582067881,579982281,577893089,0,0,0,0,0,0,0,0,0,0,0,0,0,0,0,0,0,0,0
590481144,587727568,585631961,583536354,581442292,0,0,0,0,0,0,0,0,0,0,0,0,0,0,0,0,0,0,0,0,0
590481144,588386302,585631961,583536354,581442292,0,0,0,0,0,0,0,0,0,0,0,0,0,0,0,0,0,0,0,0,0
590424424,588333432,586242696,584151704,582067127,647091414,577894638,575802878,573050078,570954986,568859894,0,0,0,0,0,0,0,0,0,0,0,0,0,0,0
590785737,588678625,586571770,584101657,582024267,579945852,577863585,575776186,573683910,571591634,569499359,567407083,565314039,562564315,560470254,0,0,0,0,0,0,0,0,0,0,0
590379020,655399200,586201653,651221832,582031984,579951768,577867445,709996233,573685715,571592669,569499879,567406833,565313531,629673171,560469732,558375156,0,0,0,0,0,0,0,0,0,0
590443182,588350649,586258116,584165839,582078180,647099385,577245135,709368289,573054955,570959092,568863486,0,0,0,0,0,0,0,0,0,0,0,0,0,0,0
590791659,588270344,720400927,584096310,582019428,579942034,575773384,0,0,0,0,0,0,0,0,0,0,0,0,0,0,0,0,0,0,0
590792696,722486800,586182180,584095289,582019428,579942034,575773384,0,0,0,0,0,0,0,0,0,0,0,0,0,0,0,0,0,0,0
590422675,588331166,586239658,584148406,716280525,579977445,712106743,642255034,573050566,570954961,635968220,566763752,564668147,562572542,0,0,0,0,0,0,0,0,0,0,0,0
724584586,588279704,586192549,584105651,582028237,579951335,577869818,575147396,640160664,638065068,568860609,566765012,564669671,562574330,0,0,0,0,0,0,0,0,0,0,0,0
589837253,654849744,585644764,583548392,581453055,0,0,0,0,0,0,0,0,0,0,0,0,0,0,0,0,0,0,0,0,0
724489672,588174049,586075898,583545881,648559434,579355005,0,0,0,0,0,0,0,0,0,0,0,0,0,0,0,0,0,0,0,0
590270917,588173278,720293111,583546134,648559434,579355005,0,0,0,0,0,0,0,0,0,0,0,0,0,0,0,0,0,0,0,0
590268808,588170923,586073039,583975154,581453118,579357574,778588347,575165663,573068785,0,0,0,0,0,0,0,0,0,0,0,0,0,0,0,0,0
590265593,721962265,585648180,583551822,581456004,579359930,577263586,575166973,0,0,0,0,0,0,0,0,0,0,0,0,0,0,0,0,0,0
589845110,587748228,585651090,583554208,581457339,579360727,577263852,575166970,0,0,0,0,0,0,0,0,0,0,0,0,0,0,0,0,0,0
590261104,588163734,586066363,583968992,581458223,646470521,577264817,575167959,573070826,570973949,0,0,0,0,0,0,0,0,0,0,0,0,0,0,0,0
589849707,721970041,585655176,583558039,648569524,579363282,577266152,575169015,707289342,0,0,0,0,0,0,0,0,0,0,0,0,0,0,0,0,0
590256344,588159217,585655824,583558697,581461339,579363982,577266612,575169485,573072345,570974950,635986674,566780415,0,0,0,0,0,0,0,0,0,0,0,0,0,0
589850963,587753573,585656182,650667911,715679658,579364045,577266152,575169273,707289342,0,0,0,0,0,0,0,0,0,0,0,0,0,0,0,0,0
590241041,655253813,586049114,583953023,581857992,579372310,577273421,575175282,573077636,570979990,568882345,566784699,564686797,562589152,560491506,0,0,0,0,0,0,0,0,0,0,0
589862405,654873369,585666350,583568450,581469547,646479507,577272242,575174343,640185809,570979292,568881638,768110833,564686846,0,0,0,0,0,0,0,0,0,0,0,0,0
589859422,587761774,585663870,583565966,581467566,579368910,577270758,575172854,640184317,0,0,0,0,0,0,0,0,0,0,0,0,0,0,0,0,0
590241240,588145136,585668877,650679589,581471574,579372166,577273514,575175362,573077710,570980058,568882150,768110833,564686846,0,0,0,0,0,0,0,0,0,0,0,0,0
589854937,587757281,585659882,583562226,0,0,0,0,0,0,0,0,0,0,0,0,0,0,0,0,0,0,0,0,0,0
590234795,588139208,586043620,583575813,581475646,646484342,577276065,575177405,573079499,570981593,568883687,633894644,0,0,0,0,0,0,0,0,0,0,0,0,0,0
590218001,588123187,586028374,651042680,581841342,579386121,577285437,642294879,573087601,570989186,703108500,566792613,564694199,562595784,560497626,558399211,556300797,0,0,0,0,0,0,0,0,0
590230217,588134882,586039547,583579673,581478988,579378302,577278372,575179453,573081545,570983638,568885474,566787567,564689403,0,0,0,0,0,0,0,0,0,0,0,0,0
589860532,587762622,585664713,583566803,581467881,579369214,0,0,0,0,0,0,0,0,0,0,0,0,0,0,0,0,0,0,0,0
590212406,655226966,653131894,651037591,0,0,0,0,0,0,0,0,0,0,0,0,0,0,0,0,0,0,0,0,0,0
590211125,655226197,653131894,651037591,0,0,0,0,0,0,0,0,0,0,0,0,0,0,0,0,0,0,0,0,0,0
589862113,587764200,585666288,583568376,0,0,0,0,0,0,0,0,0,0,0,0,0,0,0,0,0,0,0,0,0,0
657315976,588113834,586020556,583926254,581493047,579388283,577285294,575184336,707302881,570986226,0,0,0,0,0,0,0,0,0,0,0,0,0,0,0,0
590208980,588115698,585695765,583595571,581490798,579386026,577283286,575182324,0,0,0,0,0,0,0,0,0,0,0,0,0,0,0,0,0,0
590207961,655223024,585698062,583598118,715712598,579391366,577289386,575189186,707307982,638100442,636001766,566793970,564695294,0,0,0,0,0,0,0,0,0,0,0,0,0
589888822,587789384,585689689,583590251,581488270,579386289,577285579,575185885,707305190,638098158,568890871,0,0,0,0,0,0,0,0,0,0,0,0,0,0,0
590185838,588093325,586000812,583908298,581509133,646512458,577299577,575197847,573098407,570998966,568899525,566800085,564700644,629710067,0,0,0,0,0,0,0,0,0,0,0,0
657301194,588099043,586006011,583611160,581506120,713619320,577298588,642306227,573098175,570998987,703117527,633909730,564701678,562602490,0,0,0,0,0,0,0,0,0,0,0,0
590178461,655195063,585993938,583901676,581515558,579408731,711522690,575203229,573103530,571004087,636013252,566804946,564705503,562605804,627615225,0,0,0,0,0,0,0,0,0,0,0
590173584,588082867,585992149,583901688,581512260,579402633,644404413,575191777,573091314,0,0,0,0,0,0,0,0,0,0,0,0,0,0,0,0,0
657286579,655195604,585995509,583619610,581510747,579402393,577296071,575192805,573092596,0,0,0,0,0,0,0,0,0,0,0,0,0,0,0,0,0
589878752,587779305,585680114,583580667,0,0,0,0,0,0,0,0,0,0,0,0,0,0,0,0,0,0,0,0,0,0
591324870,589226719,587128312,582496072,580401273,578305695,576209848,574113220,572016592,569919965,567823337,565726710,0,0,0,0,0,0,0,0,0,0,0,0,0,0
587485449,585388337,583290968,715410856,579095799,576887609,574790753,572693621,570596489,568499613,566402481,564305349,562208217,560111084,0,0,0,0,0,0,0,0,0,0,0,0
654615846,652516938,583309679,581209527,646080005,576876347,708998494,572684655,570588289,635600786,566395556,564299190,562202823,694323929,558009835,555913468,0,0,0,0,0,0,0,0,0,0
654744338,585526081,583416687,581295820,578906671,576828019,574743201,572652216,570560207,568469222,566377981,0,0,0,0,0,0,0,0,0,0,0,0,0,0,0
589216021,587118394,585021023,582923178,580825588,578310194,576213335,574116458,572019580,569922703,567825825,565728948,563632070,561535193,559438315,624450301,0,0,0,0,0,0,0,0,0,0
588560906,720679471,584362836,582262174,580161511,577921574,642935114,573729885,571633775,569537410,567441300,565344935,563248825,561152460,559056350,624068848,0,0,0,0,0,0,0,0,0,0
588703748,653704490,584487249,582368158,714467306,577847594,575761745,707887716,571578487,569486987,567395742,565304241,563212484,561120215,693246186,556936957,0,0,0,0,0,0,0,0,0,0
585296916,583198507,715316313,578998918,576899753,574801088,572703179,570605527,568507618,566409710,564311801,0,0,0,0,0,0,0,0,0,0,0,0,0,0,0
585536780,583429172,581311619,713412306,576804116,574717244,572625232,570533220,568441208,700566924,564257440,629274548,560072905,557981149,555889137,0,0,0,0,0,0,0,0,0,0,0
585116219,583030608,580956539,578881701,576801989,0,0,0,0,0,0,0,0,0,0,0,0,0,0,0,0,0,0,0,0,0
585163179,583073974,580992719,578911721,576826621,576195198,574099598,572004254,569908654,567813055,565717712,563622113,561526514,0,0,0,0,0,0,0,0,0,0,0,0,0
586838046,584729401,649718638,580489380,578374861,576266216,574163445,571668167,569567453,567466996,0,0,0,0,0,0,0,0,0,0,0,0,0,0,0,0
586417377,584244736,582145074,580045668,577946762,575848355,573750703,571653052,569555144,567457493,565359841,563261934,561164282,0,0,0,0,0,0,0,0,0,0,0,0,0
586417377,584321274,582145074,580045668,577946762,575848355,573750703,571653052,569555144,567457493,565359841,563261934,561164282,0,0,0,0,0,0,0,0,0,0,0,0,0
585635891,583540040,581445491,579350942,577255870,575160019,573063646,570967017,635979507,566774014,0,0,0,0,0,0,0,0,0,0,0,0,0,0,0,0
586159809,584074445,582001122,579927544,0,0,0,0,0,0,0,0,0,0,0,0,0,0,0,0,0,0,0,0,0,0
585647641,583551024,581454942,579358605,577262256,575165639,573068755,705189342,568874730,566777846,0,0,0,0,0,0,0,0,0,0,0,0,0,0,0,0
585560677,583451528,581330385,576791643,0,0,0,0,0,0,0,0,0,0,0,0,0,0,0,0,0,0,0,0,0,0
583722915,715816640,579474398,577357299,709031466,572714821,570615905,568516987,566418325,564319408,562220491,560121062,0,0,0,0,0,0,0,0,0,0,0,0,0,0
583198225,648206919,578997886,576898471,574799810,572701904,570603997,568506091,633517048,0,0,0,0,0,0,0,0,0,0,0,0,0,0,0,0,0
583459980,715553747,578868257,643899478,708924538,572616588,771852702,769762223,767671745,564255697,0,0,0,0,0,0,0,0,0,0,0,0,0,0,0,0
583457693,581333983,713087529,576791643,574707581,572616846,771852702,769762223,767671745,564255697,0,0,0,0,0,0,0,0,0,0,0,0,0,0,0,0
584861996,582787196,647821260,578406926,576298806,574196042,572093278,569990514,702105478,565785242,563682477,561579713,559477717,557375208,554892532,0,0,0,0,0,0,0,0,0,0,0
584394755,582288733,647292599,577903107,575810352,573715527,705838173,569525620,567430281,565335455,630349751,762472398,559050981,0,0,0,0,0,0,0,0,0,0,0,0,0
651503903,582289014,580183756,577903124,575810623,573715541,571620714,569525632,567430805,565335723,630349760,695363542,626159851,0,0,0,0,0,0,0,0,0,0,0,0,0
584073011,581999713,579926670,577846704,709979079,573670354,571579101,636596968,567396852,565305599,562565822,627580629,558377453,0,0,0,0,0,0,0,0,0,0,0,0,0
581727016,579654534,577575375,575256068,573152541,571049269,568945742,566842471,564738944,562635417,560531890,625537739,556325093,554221310,0,0,0,0,0,0,0,0,0,0,0,0
581726603,579663350,577350731,642345600,573131163,571025590,568919761,566814956,564326902,0,0,0,0,0,0,0,0,0,0,0,0,0,0,0,0,0
581567613,579452064,577339835,575232972,573130711,571028707,703144173,0,0,0,0,0,0,0,0,0,0,0,0,0,0,0,0,0,0,0
581295123,579180409,577070021,574964215,706852632,570542385,635558474,566356836,564264061,562170773,560078253,557985477,555892957,755126772,0,0,0,0,0,0,0,0,0,0,0,0
581028720,578941337,576850871,574758602,572663764,637677790,568474089,566379251,698501886,0,0,0,0,0,0,0,0,0,0,0,0,0,0,0,0,0
580926020,578858104,643891358,574699448,706827205,570519762,568429791,566340076,631358968,563609998,561516202,559422407,557328611,0,0,0,0,0,0,0,0,0,0,0,0,0
580927998,647948922,578738669,576205374,574109796,572014218,569918640,634931925,632836091,0,0,0,0,0,0,0,0,0,0,0,0,0,0,0,0,0
582519997,580421589,578322663,576224756,574126843,0,0,0,0,0,0,0,0,0,0,0,0,0,0,0,0,0,0,0,0,0
582871613,580782238,645800422,576245020,574145844,572046668,704164964,634956924,565748885,563649709,561550277,559451101,557351925,0,0,0,0,0,0,0,0,0,0,0,0,0
582787625,714931594,578633684,576295691,574192676,706307134,704204119,567883376,565780361,563677347,561574844,559471574,691586032,0,0,0,0,0,0,0,0,0,0,0,0,0
582280804,580173512,577914395,575822157,573727590,638741630,703755671,567443376,565348553,697471458,561159163,0,0,0,0,0,0,0,0,0,0,0,0,0,0,0
582292049,580186281,578082283,575808285,573713459,571618633,569523807,567428981,565333900,563239074,561143993,626157776,556953832,621967870,0,0,0,0,0,0,0,0,0,0,0,0
582292049,647296179,578083579,710025520,573713991,571619677,569525620,0,0,0,0,0,0,0,0,0,0,0,0,0,0,0,0,0,0,0
582398128,580272892,577828923,709962593,573654900,571564679,636583577,567384492,565294527,563204562,561114597,693241592,690493167,0,0,0,0,0,0,0,0,0,0,0,0,0
582398128,579904771,577828923,709962593,573654900,571564679,636583577,567384492,565294527,563204562,561114597,693241592,690493167,0,0,0,0,0,0,0,0,0,0,0,0,0
582413307,579895362,644932465,709960081,573653665,571564977,569476289,567387601,565298913,563209969,560466898,558373875,0,0,0,0,0,0,0,0,0,0,0,0,0,0
581985149,579922095,577849299,575768811,573046899,570953107,635968179,566765012,564671733,0,0,0,0,0,0,0,0,0,0,0,0,0,0,0,0,0
581977245,579908031,577831129,642856937,573657842,705785339,568855121,566760300,564665479,562570403,560475582,625489625,556285685,0,0,0,0,0,0,0,0,0,0,0,0,0
581970670,646904402,577694882,575595479,640605937,0,0,0,0,0,0,0,0,0,0,0,0,0,0,0,0,0,0,0,0,0
581891078,579789939,577690053,575590908,573059356,570963255,568867154,566771053,631783816,562578852,560482495,558386394,556290293,0,0,0,0,0,0,0,0,0,0,0,0,0
581883664,646892922,577685450,575587071,573062943,570966329,568869972,566773615,631785865,629689508,627593151,625496794,556291574,0,0,0,0,0,0,0,0,0,0,0,0,0
648934747,579736767,577294862,575193407,573093976,570994801,568895370,701013667,564696764,562597333,560497902,0,0,0,0,0,0,0,0,0,0,0,0,0,0,0
648879908,646804447,644436078,575219404,573116922,0,0,0,0,0,0,0,0,0,0,0,0,0,0,0,0,0,0,0,0,0
648856876,579680952,577334309,709439338,573117069,571013039,636017105,566803444,0,0,0,0,0,0,0,0,0,0,0,0,0,0,0,0,0,0
581960615,714120144,577833966,573051979,570957681,568863127,566768573,564674275,0,0,0,0,0,0,0,0,0,0,0,0,0,0,0,0,0,0
579122718,711238022,574919883,572820973,637689879,568485434,566390109,564294784,562199202,560103877,625117159,0,0,0,0,0,0,0,0,0,0,0,0,0,0,0
645981729,576793944,574709627,572618892,637637021,568437423,566346688,564255697,562164450,560072691,557321959,555228926,0,0,0,0,0,0,0,0,0,0,0,0,0,0
578845004,710989690,641799320,572601256,570512311,568423110,566333910,698462181,562155252,559418807,624434646,555232502,0,0,0,0,0,0,0,0,0,0,0,0,0,0
647947883,578738135,576205347,574109511,572013675,569917839,567822003,767052759,563630588,0,0,0,0,0,0,0,0,0,0,0,0,0,0,0,0,0
647940920,578732729,576209683,641222462,572017258,569921174,567824833,565728749,0,0,0,0,0,0,0,0,0,0,0,0,0,0,0,0,0,0
580817273,578721260,576219197,574121571,572024201,569926831,567829461,565731835,0,0,0,0,0,0,0,0,0,0,0,0,0,0,0,0,0,0
580802104,578709690,576228116,641238335,572030827,569932182,567833537,632843756,0,0,0,0,0,0,0,0,0,0,0,0,0,0,0,0,0,0
580770148,578684892,576247856,574146648,572045440,637053095,702060495,565741559,0,0,0,0,0,0,0,0,0,0,0,0,0,0,0,0,0,0
580674202,578601443,576323608,574219312,572113993,570008674,635012218,565798035,630801580,561587398,693699551,624486134,689105399,0,0,0,0,0,0,0,0,0,0,0,0,0
580150073,578052237,575954373,708074721,571759869,569543712,567446844,699567703,563253363,561156494,559059882,556963271,756192736,552769530,0,0,0,0,0,0,0,0,0,0,0,0
580150106,578052007,575954394,573856755,571640852,569543982,567447367,565350497,563253626,561156756,626169005,556963271,756192736,552769530,0,0,0,0,0,0,0,0,0,0,0,0
647309339,578094458,575992248,573892054,638900725,569514525,567420732,766653274,563232890,561139097,559045048,556951256,621966327,0,0,0,0,0,0,0,0,0,0,0,0,0
580262480,578147998,643147474,641044204,705785870,569477160,567386178,565295196,563203958,561112976,559021994,556929988,554839006,686965496,0,0,0,0,0,0,0,0,0,0,0,0
580252289,645240295,709988660,573682006,571592824,770830234,567413949,632433631,0,0,0,0,0,0,0,0,0,0,0,0,0,0,0,0,0,0
580282882,578155653,576037852,573664528,571577660,703708519,567404179,632425406,697447402,0,0,0,0,0,0,0,0,0,0,0,0,0,0,0,0,0
781110882,577685942,642696428,573062413,570966313,770196292,0,0,0,0,0,0,0,0,0,0,0,0,0,0,0,0,0,0,0,0
646802692,577611122,575523771,573431519,571018760,568917548,701033040,564713332,696828824,560509116,558407136,0,0,0,0,0,0,0,0,0,0,0,0,0,0,0
713055442,576777465,576647401,572007757,637022077,567818927,565724384,0,0,0,0,0,0,0,0,0,0,0,0,0,0,0,0,0,0,0
577035351,574933148,572833471,570733794,568474636,700597807,765612113,562190964,560096407,558001849,555907292,553812735,0,0,0,0,0,0,0,0,0,0,0,0,0,0
576830172,574743011,572651241,570558446,0,0,0,0,0,0,0,0,0,0,0,0,0,0,0,0,0,0,0,0,0,0
578696029,710822599,641619708,572038709,569938794,567838623,565738708,0,0,0,0,0,0,0,0,0,0,0,0,0,0,0,0,0,0,0
578647318,643668314,574466941,572374431,570281921,568189412,565775626,630783532,561572943,559471217,557369491,622376629,553166040,685282042,0,0,0,0,0,0,0,0,0,0,0,0
578636400,576558038,641288716,773399871,569966963,567861414,565754841,0,0,0,0,0,0,0,0,0,0,0,0,0,0,0,0,0,0,0
578451035,576319923,574205406,638775375,569558929,701669841,0,0,0,0,0,0,0,0,0,0,0,0,0,0,0,0,0,0,0,0
578478232,710564033,574232021,639227113,570003710,567469423,565367219,563264759,0,0,0,0,0,0,0,0,0,0,0,0,0,0,0,0,0,0
578479795,710565591,708451049,706337275,636676901,634575209,565364653,563262961,0,0,0,0,0,0,0,0,0,0,0,0,0,0,0,0,0,0
578031759,575936719,573840623,571655703,569557559,567459415,565361016,563262872,561164729,559066586,556968443,0,0,0,0,0,0,0,0,0,0,0,0,0,0,0
645184075,643081143,640980973,571628333,569534308,567440283,699563986,0,0,0,0,0,0,0,0,0,0,0,0,0,0,0,0,0,0,0
578085217,575983011,573883332,571783653,569522189,567427630,565333071,764564847,561143696,559049137,556954578,554860019,0,0,0,0,0,0,0,0,0,0,0,0,0,0
578109223,576004459,573903501,571802543,569702353,701819123,565316893,563223615,561130337,626145922,556943780,554850502,552757480,0,0,0,0,0,0,0,0,0,0,0,0,0
578135610,576024718,573920696,773143009,569493779,567403581,565313382,697440143,561132472,559042017,0,0,0,0,0,0,0,0,0,0,0,0,0,0,0,0
577775831,575700458,573614067,571527420,569308098,567208683,562570563,560475756,558380694,556285887,554190825,0,0,0,0,0,0,0,0,0,0,0,0,0,0,0
711996654,575703036,573502840,571403937,636413898,634314995,562572618,560477299,558381979,556286915,554191596,0,0,0,0,0,0,0,0,0,0,0,0,0,0,0
711996654,575601743,573502840,571403937,636413898,634314995,562572618,560477299,558381979,556286915,554191596,0,0,0,0,0,0,0,0,0,0,0,0,0,0,0
644800803,709809021,640601257,571393750,568868358,566772271,0,0,0,0,0,0,0,0,0,0,0,0,0,0,0,0,0,0,0,0
577686173,575587803,573062400,570965796,770196292,0,0,0,0,0,0,0,0,0,0,0,0,0,0,0,0,0,0,0,0,0
577687614,575589004,573490867,571392986,568868358,566772271,0,0,0,0,0,0,0,0,0,0,0,0,0,0,0,0,0,0,0,0
577685081,575586717,640597695,571391202,568870409,566773803,564677454,696798577,560484499,558388150,556291545,621304059,0,0,0,0,0,0,0,0,0,0,0,0,0,0
577669204,709790618,573476285,571379680,568880903,566783274,766012236,562588272,627599506,625502133,556295640,0,0,0,0,0,0,0,0,0,0,0,0,0,0,0
577668179,642680984,640584379,638487774,568881414,566783785,766012236,562588272,627599506,625502133,556295640,0,0,0,0,0,0,0,0,0,0,0,0,0,0,0
577644680,575555050,573090846,570989903,568888960,566788017,698904802,0,0,0,0,0,0,0,0,0,0,0,0,0,0,0,0,0,0,0
642548716,640309394,704915582,702861222,767914702,765858804,0,0,0,0,0,0,0,0,0,0,0,0,0,0,0,0,0,0,0,0
574952559,639957683,570744311,635578436,566379913,631399374,0,0,0,0,0,0,0,0,0,0,0,0,0,0,0,0,0,0,0,0
575054481,572938440,637590536,702620480,633433719,698464431,629276902,695730912,0,0,0,0,0,0,0,0,0,0,0,0,0,0,0,0,0,0
576607669,574511829,706633716,704158232,567842104,632852567,563645047,561546647,626556854,557349334,622359541,0,0,0,0,0,0,0,0,0,0,0,0,0,0,0
576587046,574495345,639512251,569949448,567846995,632853405,563642088,0,0,0,0,0,0,0,0,0,0,0,0,0,0,0,0,0,0,0
576457211,708496410,572170293,570061903,702170985,565844867,630845852,561628341,693737420,557411554,756629495,552790697,617797079,0,0,0,0,0,0,0,0,0,0,0,0,0
643073857,708083583,571766973,770864387,567442753,632456318,764578491,561156601,0,0,0,0,0,0,0,0,0,0,0,0,0,0,0,0,0,0
576024109,573921874,571819639,569717404,634724033,565512935,697430036,561119545,559027550,556935555,554843560,619860429,550659571,0,0,0,0,0,0,0,0,0,0,0,0,0
575165395,573068511,570971627,568874743,0,0,0,0,0,0,0,0,0,0,0,0,0,0,0,0,0,0,0,0,0,0
575569211,573472870,571376790,636389573,634293493,564686889,562589017,560490889,625501880,556295144,0,0,0,0,0,0,0,0,0,0,0,0,0,0,0,0
575163984,640197321,637710528,769799788,767672088,765827778,0,0,0,0,0,0,0,0,0,0,0,0,0,0,0,0,0,0,0,0
572530293,771773833,702581917,767607728,631307204,763440856,0,0,0,0,0,0,0,0,0,0,0,0,0,0,0,0,0,0,0,0
641638156,572432230,570335168,567828507,632840053,630742991,0,0,0,0,0,0,0,0,0,0,0,0,0,0,0,0,0,0,0,0
641616937,572412756,637426046,568221609,566126292,563647234,628657452,559449687,624459905,555252396,620262358,0,0,0,0,0,0,0,0,0,0,0,0,0,0,0
641566756,639475538,570275456,702401966,566093276,697893902,695791675,760797545,624476823,555264966,553161972,0,0,0,0,0,0,0,0,0,0,0,0,0,0,0
708590748,572287420,570201564,568115708,700060448,563735104,695844192,559518080,557409440,689518528,553192416,550696925,0,0,0,0,0,0,0,0,0,0,0,0,0,0
573857309,638868811,569662330,567564712,632575958,563253517,561156667,559060074,556963480,621975750,552770037,0,0,0,0,0,0,0,0,0,0,0,0,0,0,0
573054539,570958690,568863097,566767248,564671656,562575807,560480214,558384365,0,0,0,0,0,0,0,0,0,0,0,0,0,0,0,0,0,0
573492012,571394139,636404874,567197882,565100009,562578972,560482636,558386555,556290218,554194137,0,0,0,0,0,0,0,0,0,0,0,0,0,0,0,0
573374500,571285070,569195896,567106722,565017548,630037238,560547620,625551438,556337273,688450467,686345165,550022391,0,0,0,0,0,0,0,0,0,0,0,0,0,0
570871729,702976728,566646527,631296045,562104660,560022907,625050274,690077386,553778161,620234450,0,0,0,0,0,0,0,0,0,0,0,0,0,0,0,0
571749701,569653160,634564118,565357690,630369245,0,0,0,0,0,0,0,0,0,0,0,0,0,0,0,0,0,0,0,0,0
571759391,569662028,567564409,565467045,563369425,561272061,559060017,556963165,554866312,619878323,617781727,0,0,0,0,0,0,0,0,0,0,0,0,0,0,0
571789329,569689157,567588984,699706540,630497759,628249115,559046223,624061058,554858166,552764138,0,0,0,0,0,0,0,0,0,0,0,0,0,0,0,0
571776729,569526557,634539349,565333900,0,0,0,0,0,0,0,0,0,0,0,0,0,0,0,0,0,0,0,0,0,0
571495819,703639211,701564106,565272298,696785563,627587828,0,0,0,0,0,0,0,0,0,0,0,0,0,0,0,0,0,0,0,0
638584960,569394324,701530024,565230523,563148495,561065954,558983926,556275068,554183096,552090867,0,0,0,0,0,0,0,0,0,0,0,0,0,0,0,0
638461221,636370325,768125446,631804534,763918822,0,0,0,0,0,0,0,0,0,0,0,0,0,0,0,0,0,0,0,0,0
568597835,700719225,564405415,562309333,560118283,625129016,623030886,553823892,551725762,549627632,0,0,0,0,0,0,0,0,0,0,0,0,0,0,0,0
569735191,567631701,632636814,563423174,561318397,626130494,758257785,0,0,0,0,0,0,0,0,0,0,0,0,0,0,0,0,0,0,0
569767717,567659868,632660882,563444169,561092873,626115391,556920182,689050797,619855843,0,0,0,0,0,0,0,0,0,0,0,0,0,0,0,0,0
704045426,567711400,565595102,563145245,561066579,693206409,556911039,688394482,0,0,0,0,0,0,0,0,0,0,0,0,0,0,0,0,0,0
570357571,568259730,633270752,628626558,0,0,0,0,0,0,0,0,0,0,0,0,0,0,0,0,0,0,0,0,0,0
634043442,631924826,562697604,627689134,558462423,555939992,755159531,0,0,0,0,0,0,0,0,0,0,0,0,0,0,0,0,0,0,0
633658924,564448620,562347179,560245738,625102130,555900530,553807793,618823920,0,0,0,0,0,0,0,0,0,0,0,0,0,0,0,0,0,0
768008596,698776537,562091559,694237291,759275183,757203443,622335470,0,0,0,0,0,0,0,0,0,0,0,0,0,0,0,0,0,0,0
634693170,565484654,563385001,561285348,559048744,556954211,621968542,619874009,0,0,0,0,0,0,0,0,0,0,0,0,0,0,0,0,0,0
634843229,565618068,630610634,628152842,558965313,556887159,554808749,619839459,0,0,0,0,0,0,0,0,0,0,0,0,0,0,0,0,0,0
567295127,565215149,630244034,561054424,760300781,556273505,554181796,552090087,0,0,0,0,0,0,0,0,0,0,0,0,0,0,0,0,0,0
566767174,564671329,562575483,560479382,558383537,623396299,554191590,0,0,0,0,0,0,0,0,0,0,0,0,0,0,0,0,0,0,0
634305548,565098832,630109843,560903127,558386973,556290656,554194339,552098278,0,0,0,0,0,0,0,0,0,0,0,0,0,0,0,0,0,0
564424994,562326878,560228762,558130646,555910683,688032343,618827666,616731854,0,0,0,0,0,0,0,0,0,0,0,0,0,0,0,0,0,0
564428348,629438586,560231097,625113600,555909439,553813885,618827194,616731896,0,0,0,0,0,0,0,0,0,0,0,0,0,0,0,0,0,0
564514604,696624231,560298658,625299677,555860257,553773916,551686551,549600210,0,0,0,0,0,0,0,0,0,0,0,0,0,0,0,0,0,0
564139185,562064070,694206427,692130544,555225676,620243105,618151415,0,0,0,0,0,0,0,0,0,0,0,0,0,0,0,0,0,0,0
700119345,563784534,561666428,559548577,691648966,555313644,619898532,550683894,0,0,0,0,0,0,0,0,0,0,0,0,0,0,0,0,0,0
565459528,563364509,561269747,693277267,556960425,621970430,0,0,0,0,0,0,0,0,0,0,0,0,0,0,0,0,0,0,0,0
562364435,560262232,558159517,556056802,755121456,685921141,616721082,0,0,0,0,0,0,0,0,0,0,0,0,0,0,0,0,0,0,0
629479459,560264075,558157299,555893350,688023758,0,0,0,0,0,0,0,0,0,0,0,0,0,0,0,0,0,0,0,0,0
629497913,560283767,558178230,556072950,553781567,618801789,549604543,0,0,0,0,0,0,0,0,0,0,0,0,0,0,0,0,0,0,0
629539862,560320351,558209191,690315503,620871744,618789256,683814608,0,0,0,0,0,0,0,0,0,0,0,0,0,0,0,0,0,0,0
629503723,560044064,557956426,555868532,553779614,551691977,616712948,0,0,0,0,0,0,0,0,0,0,0,0,0,0,0,0,0,0,0
562492860,694591216,692101676,622917983,687950995,752984773,683800824,548934363,0,0,0,0,0,0,0,0,0,0,0,0,0,0,0,0,0,0
763815367,559966476,759221575,690040451,687968958,753006328,551032543,0,0,0,0,0,0,0,0,0,0,0,0,0,0,0,0,0,0,0
564033067,561937528,626950852,557348883,555250272,620260780,551053306,0,0,0,0,0,0,0,0,0,0,0,0,0,0,0,0,0,0,0
563897870,628926031,559736465,557654995,689544983,754540376,685318042,683205340,0,0,0,0,0,0,0,0,0,0,0,0,0,0,0,0,0,0
563352901,561257611,626270930,556973349,621983342,552775352,0,0,0,0,0,0,0,0,0,0,0,0,0,0,0,0,0,0,0,0
563417614,628424271,693430161,624218578,554839325,686965855,684874657,548565731,0,0,0,0,0,0,0,0,0,0,0,0,0,0,0,0,0,0
563459842,695569735,559244173,758463183,689034779,552730461,550643103,615665377,0,0,0,0,0,0,0,0,0,0,0,0,0,0,0,0,0,0
630629671,628511092,626393025,691093016,756126308,754050737,751974398,0,0,0,0,0,0,0,0,0,0,0,0,0,0,0,0,0,0,0
563100316,561021874,693160905,556863968,689002999,552082047,549990856,0,0,0,0,0,0,0,0,0,0,0,0,0,0,0,0,0,0,0
563088857,561012714,693154044,556722141,619198082,617104852,0,0,0,0,0,0,0,0,0,0,0,0,0,0,0,0,0,0,0,0
560237828,558137707,556037586,553811524,753043883,0,0,0,0,0,0,0,0,0,0,0,0,0,0,0,0,0,0,0,0,0
560248629,625256327,623154905,620912949,551711367,616727512,0,0,0,0,0,0,0,0,0,0,0,0,0,0,0,0,0,0,0,0
627371532,558159964,757383595,621063162,685920852,549611939,748847090,0,0,0,0,0,0,0,0,0,0,0,0,0,0,0,0,0,0,0
560321334,558210176,623208137,553761309,685895783,549594289,681728763,0,0,0,0,0,0,0,0,0,0,0,0,0,0,0,0,0,0,0
559941490,692092060,555807429,755066094,553124949,752365002,0,0,0,0,0,0,0,0,0,0,0,0,0,0,0,0,0,0,0,0
561938453,559842397,624855205,555650031,553152571,551054213,548956112,545809632,0,0,0,0,0,0,0,0,0,0,0,0,0,0,0,0,0,0
561796979,693939383,758972154,555333441,553214853,551096264,0,0,0,0,0,0,0,0,0,0,0,0,0,0,0,0,0,0,0,0
560991381,693139127,691069401,554781179,0,0,0,0,0,0,0,0,0,0,0,0,0,0,0,0,0,0,0,0,0,0
694177741,557889766,690036223,687351409,551043289,0,0,0,0,0,0,0,0,0,0,0,0,0,0,0,0,0,0,0,0,0
692647901,690590551,755812036,552347200,0,0,0,0,0,0,0,0,0,0,0,0,0,0,0,0,0,0,0,0,0,0
625135350,623050642,688489676,552200603,684345962,682274361,0,0,0,0,0,0,0,0,0,0,0,0,0,0,0,0,0,0,0,0
625135350,690561277,688489676,552200603,684345962,682274361,0,0,0,0,0,0,0,0,0,0,0,0,0,0,0,0,0,0,0,0
558117471,690239150,621034492,618833748,616735907,614638066,0,0,0,0,0,0,0,0,0,0,0,0,0,0,0,0,0,0,0,0
692417340,690304173,687993898,551694747,0,0,0,0,0,0,0,0,0,0,0,0,0,0,0,0,0,0,0,0,0,0
759551806,623216044,755087401,685902234,0,0,0,0,0,0,0,0,0,0,0,0,0,0,0,0,0,0,0,0,0,0
558235433,556113567,755084067,685902234,0,0,0,0,0,0,0,0,0,0,0,0,0,0,0,0,0,0,0,0,0,0
692504010,757116455,687944315,685881806,0,0,0,0,0,0,0,0,0,0,0,0,0,0,0,0,0,0,0,0,0,0
759192758,757127385,687952381,553128005,618148800,0,0,0,0,0,0,0,0,0,0,0,0,0,0,0,0,0,0,0,0,0
626971925,624872068,555663603,620251490,551048145,0,0,0,0,0,0,0,0,0,0,0,0,0,0,0,0,0,0,0,0,0
626967068,624869002,756988408,620252262,551048659,0,0,0,0,0,0,0,0,0,0,0,0,0,0,0,0,0,0,0,0,0
760920730,758794687,689560038,619900505,617793998,0,0,0,0,0,0,0,0,0,0,0,0,0,0,0,0,0,0,0,0,0
559202088,624210296,622109385,619861796,550660471,548568009,0,0,0,0,0,0,0,0,0,0,0,0,0,0,0,0,0,0,0,0
626397513,624283801,689277927,619815487,751953293,749872859,0,0,0,0,0,0,0,0,0,0,0,0,0,0,0,0,0,0,0,0
558907542,556832179,756083918,686899690,0,0,0,0,0,0,0,0,0,0,0,0,0,0,0,0,0,0,0,0,0,0
760146178,623827564,621726678,552092481,0,0,0,0,0,0,0,0,0,0,0,0,0,0,0,0,0,0,0,0,0,0
760099585,623789153,621696448,552114722,751339905,547912161,0,0,0,0,0,0,0,0,0,0,0,0,0,0,0,0,0,0,0,0
692078714,690014634,755058394,618144699,0,0,0,0,0,0,0,0,0,0,0,0,0,0,0,0,0,0,0,0,0,0
692064500,624885001,622782357,685261740,0,0,0,0,0,0,0,0,0,0,0,0,0,0,0,0,0,0,0,0,0,0
757757711,688515687,619272895,616750326,0,0,0,0,0,0,0,0,0,0,0,0,0,0,0,0,0,0,0,0,0,0
757774813,688527359,618846023,616740329,0,0,0,0,0,0,0,0,0,0,0,0,0,0,0,0,0,0,0,0,0,0
690108858,620889960,551671831,616906435,547713138,0,0,0,0,0,0,0,0,0,0,0,0,0,0,0,0,0,0,0,0,0
557340324,555241509,620672410,618576411,0,0,0,0,0,0,0,0,0,0,0,0,0,0,0,0,0,0,0,0,0,0
557737833,555644638,553155667,551055304,0,0,0,0,0,0,0,0,0,0,0,0,0,0,0,0,0,0,0,0,0,0
557644522,555333942,687432575,551096264,0,0,0,0,0,0,0,0,0,0,0,0,0,0,0,0,0,0,0,0,0,0
556978115,554889565,553237737,685383623,683312549,0,0,0,0,0,0,0,0,0,0,0,0,0,0,0,0,0,0,0,0,0
557120292,756341130,620018160,617762657,749891270,0,0,0,0,0,0,0,0,0,0,0,0,0,0,0,0,0,0,0,0,0
758260674,554816859,620060402,685092747,615907107,0,0,0,0,0,0,0,0,0,0,0,0,0,0,0,0,0,0,0,0,0
757599967,689033941,754007920,684764940,683065766,0,0,0,0,0,0,0,0,0,0,0,0,0,0,0,0,0,0,0,0,0
556282367,554179023,552075679,550619377,548509913,546375569,678459977,542133042,538376445,0,0,0,0,0,0,0,0,0,0,0,0,0,0,0,0,0
623802448,621708251,552104550,617113585,0,0,0,0,0,0,0,0,0,0,0,0,0,0,0,0,0,0,0,0,0,0
556315113,621351007,619546824,751641918,0,0,0,0,0,0,0,0,0,0,0,0,0,0,0,0,0,0,0,0,0,0
757937505,621648363,619252082,751348216,0,0,0,0,0,0,0,0,0,0,0,0,0,0,0,0,0,0,0,0,0,0
688559000,552210885,684298738,748869806,0,0,0,0,0,0,0,0,0,0,0,0,0,0,0,0,0,0,0,0,0,0
688046827,685954735,750971507,614661687,545926848,610984068,0,0,0,0,0,0,0,0,0,0,0,0,0,0,0,0,0,0,0,0
553807097,551703236,549599376,547495516,612701117,543516192,0,0,0,0,0,0,0,0,0,0,0,0,0,0,0,0,0,0,0,0
755107324,551663818,549545622,547427683,545701831,0,0,0,0,0,0,0,0,0,0,0,0,0,0,0,0,0,0,0,0,0
622732582,620642202,618178574,616075138,0,0,0,0,0,0,0,0,0,0,0,0,0,0,0,0,0,0,0,0,0,0
554175936,754046449,684818629,682699672,0,0,0,0,0,0,0,0,0,0,0,0,0,0,0,0,0,0,0,0,0,0
621304230,552097348,617524438,615427956,0,0,0,0,0,0,0,0,0,0,0,0,0,0,0,0,0,0,0,0,0,0
554593392,619608810,617118052,547908831,0,0,0,0,0,0,0,0,0,0,0,0,0,0,0,0,0,0,0,0,0,0
688424173,552112583,550018465,547924603,612945673,678300304,541982826,539882820,604891422,0,0,0,0,0,0,0,0,0,0,0,0,0,0,0,0,0
621319114,552120187,550030124,548280275,0,0,0,0,0,0,0,0,0,0,0,0,0,0,0,0,0,0,0,0,0,0
552132578,550045879,547960204,545896971,543998593,541890133,539781674,0,0,0,0,0,0,0,0,0,0,0,0,0,0,0,0,0,0,0
552130289,550043596,547956646,545891637,745331900,676115095,674007153,537681740,0,0,0,0,0,0,0,0,0,0,0,0,0,0,0,0,0,0
683838946,547523265,679641442,543324166,541356515,539260357,537164198,0,0,0,0,0,0,0,0,0,0,0,0,0,0,0,0,0,0,0
549619176,748846793,612527214,543316243,675582704,539269330,537173683,0,0,0,0,0,0,0,0,0,0,0,0,0,0,0,0,0,0,0
618141681,548930002,545367218,610354545,541140316,673252679,536930610,0,0,0,0,0,0,0,0,0,0,0,0,0,0,0,0,0,0,0
618141681,614597106,545367218,610354545,541140316,673252679,536930610,0,0,0,0,0,0,0,0,0,0,0,0,0,0,0,0,0,0,0
551038448,548937423,545365990,543243706,541138091,539033244,536927630,0,0,0,0,0,0,0,0,0,0,0,0,0,0,0,0,0,0,0
550675423,548578746,546482762,544487381,542389680,540291978,538194277,0,0,0,0,0,0,0,0,0,0,0,0,0,0,0,0,0,0,0
550020083,547927512,545844358,543760436,675885592,539867637,537765850,0,0,0,0,0,0,0,0,0,0,0,0,0,0,0,0,0,0,0
547913930,545827094,544091482,609099806,0,0,0,0,0,0,0,0,0,0,0,0,0,0,0,0,0,0,0,0,0,0
612962010,610907234,541715259,539631379,537700067,0,0,0,0,0,0,0,0,0,0,0,0,0,0,0,0,0,0,0,0,0
679662328,677574070,675878648,539569389,537477857,0,0,0,0,0,0,0,0,0,0,0,0,0,0,0,0,0,0,0,0,0
545437681,543346319,541251182,539156046,537060909,0,0,0,0,0,0,0,0,0,0,0,0,0,0,0,0,0,0,0,0,0
612546768,543346772,608360490,539231997,0,0,0,0,0,0,0,0,0,0,0,0,0,0,0,0,0,0,0,0,0,0
545433846,543341887,541246211,539237571,604247175,0,0,0,0,0,0,0,0,0,0,0,0,0,0,0,0,0,0,0,0,0
612536829,543327655,541229450,606240109,537033041,0,0,0,0,0,0,0,0,0,0,0,0,0,0,0,0,0,0,0,0,0
545425883,543323749,541224766,539126038,537167083,0,0,0,0,0,0,0,0,0,0,0,0,0,0,0,0,0,0,0,0,0
545422817,543320734,541222024,606232177,537024603,0,0,0,0,0,0,0,0,0,0,0,0,0,0,0,0,0,0,0,0,0
612522357,610580700,608487082,606393720,604300102,0,0,0,0,0,0,0,0,0,0,0,0,0,0,0,0,0,0,0,0,0
545418492,543309733,675426184,539107435,537006414,0,0,0,0,0,0,0,0,0,0,0,0,0,0,0,0,0,0,0,0,0
679635195,677525666,675424388,673323111,537004105,0,0,0,0,0,0,0,0,0,0,0,0,0,0,0,0,0,0,0,0,0
546837245,543251029,742463520,606472680,671500980,0,0,0,0,0,0,0,0,0,0,0,0,0,0,0,0,0,0,0,0,0
546850042,543229677,541110741,538991038,536871334,0,0,0,0,0,0,0,0,0,0,0,0,0,0,0,0,0,0,0,0,0
546857623,545168308,543070828,675191075,0,0,0,0,0,0,0,0,0,0,0,0,0,0,0,0,0,0,0,0,0,0
546863035,544769623,542673718,540577812,538864363,0,0,0,0,0,0,0,0,0,0,0,0,0,0,0,0,0,0,0,0,0
613986710,612234932,610130028,608025380,0,0,0,0,0,0,0,0,0,0,0,0,0,0,0,0,0,0,0,0,0,0
681097977,679302885,542967436,742177076,0,0,0,0,0,0,0,0,0,0,0,0,0,0,0,0,0,0,0,0,0,0
680718306,544823218,609846164,674868855,538565209,0,0,0,0,0,0,0,0,0,0,0,0,0,0,0,0,0,0,0,0,0
546930863,544887852,542925048,540809421,0,0,0,0,0,0,0,0,0,0,0,0,0,0,0,0,0,0,0,0,0,0
680711415,544812009,542724308,540636863,538549931,0,0,0,0,0,0,0,0,0,0,0,0,0,0,0,0,0,0,0,0,0
546493683,679054521,609865876,674893936,538596427,0,0,0,0,0,0,0,0,0,0,0,0,0,0,0,0,0,0,0,0,0
613599992,679066555,676990356,540697453,739948613,0,0,0,0,0,0,0,0,0,0,0,0,0,0,0,0,0,0,0,0,0
680690101,611476737,542411459,540316551,605330507,0,0,0,0,0,0,0,0,0,0,0,0,0,0,0,0,0,0,0,0,0
680690101,544506367,542411459,540316551,605330507,0,0,0,0,0,0,0,0,0,0,0,0,0,0,0,0,0,0,0,0,0
546473455,544372653,609383063,607284865,538077548,0,0,0,0,0,0,0,0,0,0,0,0,0,0,0,0,0,0,0,0,0
546465267,678570114,676467805,674365495,538046226,0,0,0,0,0,0,0,0,0,0,0,0,0,0,0,0,0,0,0,0,0
546459881,678559595,542238273,540133911,538261225,0,0,0,0,0,0,0,0,0,0,0,0,0,0,0,0,0,0,0,0,0
546445027,544323723,542218094,540112721,538007092,0,0,0,0,0,0,0,0,0,0,0,0,0,0,0,0,0,0,0,0,0
546414547,678511522,542188946,540084097,672197489,0,0,0,0,0,0,0,0,0,0,0,0,0,0,0,0,0,0,0,0,0
545793212,678527731,542200289,540090574,537981372,0,0,0,0,0,0,0,0,0,0,0,0,0,0,0,0,0,0,0,0,0
545796049,544291553,676390852,540054183,739261577,0,0,0,0,0,0,0,0,0,0,0,0,0,0,0,0,0,0,0,0,0
545802999,543697760,541597742,539945971,537851585,0,0,0,0,0,0,0,0,0,0,0,0,0,0,0,0,0,0,0,0,0
612911571,543700054,541601324,539941114,537845712,0,0,0,0,0,0,0,0,0,0,0,0,0,0,0,0,0,0,0,0,0
545809145,543711960,541615053,539517890,537420727,0,0,0,0,0,0,0,0,0,0,0,0,0,0,0,0,0,0,0,0,0
545815015,610836095,541633117,539539258,537445144,0,0,0,0,0,0,0,0,0,0,0,0,0,0,0,0,0,0,0,0,0
747165397,677986905,675899184,740920326,537742549,0,0,0,0,0,0,0,0,0,0,0,0,0,0,0,0,0,0,0,0,0
677998208,675912285,673826106,671739928,0,0,0,0,0,0,0,0,0,0,0,0,0,0,0,0,0,0,0,0,0,0
543347432,541251294,539155157,537059275,0,0,0,0,0,0,0,0,0,0,0,0,0,0,0,0,0,0,0,0,0,0
543345371,541250498,539155624,604169614,0,0,0,0,0,0,0,0,0,0,0,0,0,0,0,0,0,0,0,0,0,0
543345343,541250718,673373564,604170074,0,0,0,0,0,0,0,0,0,0,0,0,0,0,0,0,0,0,0,0,0,0
543335405,541238485,673359293,537044901,0,0,0,0,0,0,0,0,0,0,0,0,0,0,0,0,0,0,0,0,0,0
610439328,541232504,539134544,537036584,0,0,0,0,0,0,0,0,0,0,0,0,0,0,0,0,0,0,0,0,0,0
744653564,541228778,539130072,537031621,0,0,0,0,0,0,0,0,0,0,0,0,0,0,0,0,0,0,0,0,0,0
543321029,541221805,606231445,537023102,0,0,0,0,0,0,0,0,0,0,0,0,0,0,0,0,0,0,0,0,0,0
543318518,541218790,539119318,604128453,0,0,0,0,0,0,0,0,0,0,0,0,0,0,0,0,0,0,0,0,0,0
543312083,541211326,539110824,537010066,0,0,0,0,0,0,0,0,0,0,0,0,0,0,0,0,0,0,0,0,0,0
543286998,541180091,539073441,738293125,0,0,0,0,0,0,0,0,0,0,0,0,0,0,0,0,0,0,0,0,0,0
543254942,541140597,606136140,671130660,0,0,0,0,0,0,0,0,0,0,0,0,0,0,0,0,0,0,0,0,0,0
677502189,608285653,539068862,536961190,0,0,0,0,0,0,0,0,0,0,0,0,0,0,0,0,0,0,0,0,0,0
544755756,610186200,608089998,673103429,0,0,0,0,0,0,0,0,0,0,0,0,0,0,0,0,0,0,0,0,0,0
544760274,542663105,607674799,672686493,0,0,0,0,0,0,0,0,0,0,0,0,0,0,0,0,0,0,0,0,0,0
544760759,609772698,607675773,538469984,0,0,0,0,0,0,0,0,0,0,0,0,0,0,0,0,0,0,0,0,0,0
544770986,609785214,674799443,538487335,0,0,0,0,0,0,0,0,0,0,0,0,0,0,0,0,0,0,0,0,0,0
544784787,542682716,540580389,538868198,0,0,0,0,0,0,0,0,0,0,0,0,0,0,0,0,0,0,0,0,0,0
679020841,610126292,675126922,605910079,0,0,0,0,0,0,0,0,0,0,0,0,0,0,0,0,0,0,0,0,0,0
544800741,542708195,674833888,672741853,0,0,0,0,0,0,0,0,0,0,0,0,0,0,0,0,0,0,0,0,0,0
544395751,542300376,607313609,538109371,0,0,0,0,0,0,0,0,0,0,0,0,0,0,0,0,0,0,0,0,0,0
678616485,542304645,607319141,538115910,0,0,0,0,0,0,0,0,0,0,0,0,0,0,0,0,0,0,0,0,0,0
678610813,542298444,540203547,538182630,0,0,0,0,0,0,0,0,0,0,0,0,0,0,0,0,0,0,0,0,0,0
544384196,542287267,607299458,605202529,0,0,0,0,0,0,0,0,0,0,0,0,0,0,0,0,0,0,0,0,0,0
611490966,542284907,607296575,538090516,0,0,0,0,0,0,0,0,0,0,0,0,0,0,0,0,0,0,0,0,0,0
544370408,542270671,540170933,538071196,0,0,0,0,0,0,0,0,0,0,0,0,0,0,0,0,0,0,0,0,0,0
544360377,676476053,674374001,538054220,0,0,0,0,0,0,0,0,0,0,0,0,0,0,0,0,0,0,0,0,0,0
544364770,542263751,540162733,538061714,0,0,0,0,0,0,0,0,0,0,0,0,0,0,0,0,0,0,0,0,0,0
544346777,542241899,540136252,672248333,0,0,0,0,0,0,0,0,0,0,0,0,0,0,0,0,0,0,0,0,0,0
611463649,542253004,540150967,538049954,0,0,0,0,0,0,0,0,0,0,0,0,0,0,0,0,0,0,0,0,0,0
611443631,542226054,540117596,739335218,0,0,0,0,0,0,0,0,0,0,0,0,0,0,0,0,0,0,0,0,0,0
543692026,541590757,540154616,672269800,0,0,0,0,0,0,0,0,0,0,0,0,0,0,0,0,0,0,0,0,0,0
543692981,541592986,539492992,538031864,0,0,0,0,0,0,0,0,0,0,0,0,0,0,0,0,0,0,0,0,0,0
677925479,541609279,539510551,537837287,0,0,0,0,0,0,0,0,0,0,0,0,0,0,0,0,0,0,0,0,0,0
543710207,541612779,539515351,604526786,0,0,0,0,0,0,0,0,0,0,0,0,0,0,0,0,0,0,0,0,0,0
543710204,608721639,539515347,537417918,0,0,0,0,0,0,0,0,0,0,0,0,0,0,0,0,0,0,0,0,0,0
543710442,541613015,539515845,537418419,0,0,0,0,0,0,0,0,0,0,0,0,0,0,0,0,0,0,0,0,0,0
610843799,541642861,539550786,671676439,0,0,0,0,0,0,0,0,0,0,0,0,0,0,0,0,0,0,0,0,0,0
543734237,541639882,539545526,537451170,0,0,0,0,0,0,0,0,0,0,0,0,0,0,0,0,0,0,0,0,0,0
589451245,587355380,652368379,0,0,0,0,0,0,0,0,0,0,0,0,0,0,0,0,0,0,0,0,0,0,0
589443574,587348220,653788155,0,0,0,0,0,0,0,0,0,0,0,0,0,0,0,0,0,0,0,0,0,0,0
589748508,587632195,719733612,0,0,0,0,0,0,0,0,0,0,0,0,0,0,0,0,0,0,0,0,0,0,0
589431799,654445821,653788625,0,0,0,0,0,0,0,0,0,0,0,0,0,0,0,0,0,0,0,0,0,0,0
723647987,587335932,653788625,0,0,0,0,0,0,0,0,0,0,0,0,0,0,0,0,0,0,0,0,0,0,0
658010089,588803824,586706423,0,0,0,0,0,0,0,0,0,0,0,0,0,0,0,0,0,0,0,0,0,0,0
590472574,588377997,787610012,0,0,0,0,0,0,0,0,0,0,0,0,0,0,0,0,0,0,0,0,0,0,0
590471555,588377488,787610012,0,0,0,0,0,0,0,0,0,0,0,0,0,0,0,0,0,0,0,0,0,0,0
590747965,588639106,586529479,0,0,0,0,0,0,0,0,0,0,0,0,0,0,0,0,0,0,0,0,0,0,0
590734489,588630963,586527693,0,0,0,0,0,0,0,0,0,0,0,0,0,0,0,0,0,0,0,0,0,0,0
589829349,721951471,585638392,0,0,0,0,0,0,0,0,0,0,0,0,0,0,0,0,0,0,0,0,0,0,0
655750807,653337114,584143764,0,0,0,0,0,0,0,0,0,0,0,0,0,0,0,0,0,0,0,0,0,0,0
655149825,585982826,785252050,0,0,0,0,0,0,0,0,0,0,0,0,0,0,0,0,0,0,0,0,0,0,0
585246438,583151343,582484476,0,0,0,0,0,0,0,0,0,0,0,0,0,0,0,0,0,0,0,0,0,0,0
580937636,578873784,576800712,0,0,0,0,0,0,0,0,0,0,0,0,0,0,0,0,0,0,0,0,0,0,0
581877342,579779781,577259032,0,0,0,0,0,0,0,0,0,0,0,0,0,0,0,0,0,0,0,0,0,0,0
711116093,574796448,706914514,0,0,0,0,0,0,0,0,0,0,0,0,0,0,0,0,0,0,0,0,0,0,0
702195834,700056249,765026041,0,0,0,0,0,0,0,0,0,0,0,0,0,0,0,0,0,0,0,0,0,0,0
634687844,632585712,630357898,0,0,0,0,0,0,0,0,0,0,0,0,0,0,0,0,0,0,0,0,0,0,0
769056081,766919410,764495523,0,0,0,0,0,0,0,0,0,0,0,0,0,0,0,0,0,0,0,0,0,0,0
769056081,699443969,764495523,0,0,0,0,0,0,0,0,0,0,0,0,0,0,0,0,0,0,0,0,0,0,0
766173969,764024441,560549090,0,0,0,0,0,0,0,0,0,0,0,0,0,0,0,0,0,0,0,0,0,0,0
632192834,630098412,627600532,0,0,0,0,0,0,0,0,0,0,0,0,0,0,0,0,0,0,0,0,0,0,0
562040013,627076319,557895154,0,0,0,0,0,0,0,0,0,0,0,0,0,0,0,0,0,0,0,0,0,0,0
765269650,762927164,693683177,0,0,0,0,0,0,0,0,0,0,0,0,0,0,0,0,0,0,0,0,0,0,0
630493752,628257043,626167006,0,0,0,0,0,0,0,0,0,0,0,0,0,0,0,0,0,0,0,0,0,0,0
697637013,762453578,559050482,0,0,0,0,0,0,0,0,0,0,0,0,0,0,0,0,0,0,0,0,0,0,0
764438912,695274167,693218797,0,0,0,0,0,0,0,0,0,0,0,0,0,0,0,0,0,0,0,0,0,0,0
557930354,555856818,553782516,0,0,0,0,0,0,0,0,0,0,0,0,0,0,0,0,0,0,0,0,0,0,0
626852063,758737036,756200185,0,0,0,0,0,0,0,0,0,0,0,0,0,0,0,0,0,0,0,0,0,0,0
623179898,553962233,618810498,0,0,0,0,0,0,0,0,0,0,0,0,0,0,0,0,0,0,0,0,0,0,0
623179898,755113477,618810498,0,0,0,0,0,0,0,0,0,0,0,0,0,0,0,0,0,0,0,0,0,0,0
624858477,622356498,620258744,0,0,0,0,0,0,0,0,0,0,0,0,0,0,0,0,0,0,0,0,0,0,0
758717334,756653840,687659389,0,0,0,0,0,0,0,0,0,0,0,0,0,0,0,0,0,0,0,0,0,0,0
755784375,619305294,751370471,0,0,0,0,0,0,0,0,0,0,0,0,0,0,0,0,0,0,0,0,0,0,0
688545488,753070876,616743383,0,0,0,0,0,0,0,0,0,0,0,0,0,0,0,0,0,0,0,0,0,0,0
621021798,618841129,616738269,0,0,0,0,0,0,0,0,0,0,0,0,0,0,0,0,0,0,0,0,0,0,0
755261814,618827315,616732641,0,0,0,0,0,0,0,0,0,0,0,0,0,0,0,0,0,0,0,0,0,0,0
621048893,618824720,616731602,0,0,0,0,0,0,0,0,0,0,0,0,0,0,0,0,0,0,0,0,0,0,0
621084046,618802754,616722407,0,0,0,0,0,0,0,0,0,0,0,0,0,0,0,0,0,0,0,0,0,0,0
755347983,753216994,750928070,0,0,0,0,0,0,0,0,0,0,0,0,0,0,0,0,0,0,0,0,0,0,0
621178930,753249017,750915023,0,0,0,0,0,0,0,0,0,0,0,0,0,0,0,0,0,0,0,0,0,0,0
621178930,752961033,750915023,0,0,0,0,0,0,0,0,0,0,0,0,0,0,0,0,0,0,0,0,0,0,0
755015576,685857505,685245549,0,0,0,0,0,0,0,0,0,0,0,0,0,0,0,0,0,0,0,0,0,0,0
555660654,553144581,551049117,0,0,0,0,0,0,0,0,0,0,0,0,0,0,0,0,0,0,0,0,0,0,0
555636355,620270355,618167460,0,0,0,0,0,0,0,0,0,0,0,0,0,0,0,0,0,0,0,0,0,0,0
622739298,620649981,551060888,0,0,0,0,0,0,0,0,0,0,0,0,0,0,0,0,0,0,0,0,0,0,0
621983005,552776286,617787040,0,0,0,0,0,0,0,0,0,0,0,0,0,0,0,0,0,0,0,0,0,0,0
551737063,617200307,615164733,0,0,0,0,0,0,0,0,0,0,0,0,0,0,0,0,0,0,0,0,0,0,0
618935630,616737546,547529910,0,0,0,0,0,0,0,0,0,0,0,0,0,0,0,0,0,0,0,0,0,0,0
618935630,549731324,547529910,0,0,0,0,0,0,0,0,0,0,0,0,0,0,0,0,0,0,0,0,0,0,0
620643383,618552772,548965200,0,0,0,0,0,0,0,0,0,0,0,0,0,0,0,0,0,0,0,0,0,0,0
620631380,618543578,616080223,0,0,0,0,0,0,0,0,0,0,0,0,0,0,0,0,0,0,0,0,0,0,0
620581632,752724636,616104246,0,0,0,0,0,0,0,0,0,0,0,0,0,0,0,0,0,0,0,0,0,0,0
754782609,752443964,750311149,0,0,0,0,0,0,0,0,0,0,0,0,0,0,0,0,0,0,0,0,0,0,0
550080331,547935221,546948637,0,0,0,0,0,0,0,0,0,0,0,0,0,0,0,0,0,0,0,0,0,0,0
551060888,548957424,612936595,0,0,0,0,0,0,0,0,0,0,0,0,0,0,0,0,0,0,0,0,0,0,0
547538383,545908712,745203098,0,0,0,0,0,0,0,0,0,0,0,0,0,0,0,0,0,0,0,0,0,0,0
748175994,612294008,543090726,0,0,0,0,0,0,0,0,0,0,0,0,0,0,0,0,0,0,0,0,0,0,0
748175994,612293498,543089960,0,0,0,0,0,0,0,0,0,0,0,0,0,0,0,0,0,0,0,0,0,0,0
613575024,611628146,609535774,0,0,0,0,0,0,0,0,0,0,0,0,0,0,0,0,0,0,0,0,0,0,0
545797772,544247795,676335834,0,0,0,0,0,0,0,0,0,0,0,0,0,0,0,0,0,0,0,0,0,0,0
543343416,608443075,539234383,0,0,0,0,0,0,0,0,0,0,0,0,0,0,0,0,0,0,0,0,0,0,0
541243897,539147499,537051357,0,0,0,0,0,0,0,0,0,0,0,0,0,0,0,0,0,0,0,0,0,0,0
608347390,539141870,537044957,0,0,0,0,0,0,0,0,0,0,0,0,0,0,0,0,0,0,0,0,0,0,0
541208819,539107813,671224279,0,0,0,0,0,0,0,0,0,0,0,0,0,0,0,0,0,0,0,0,0,0,0
609803227,741928392,605618100,0,0,0,0,0,0,0,0,0,0,0,0,0,0,0,0,0,0,0,0,0,0,0
542298349,540203735,672326850,0,0,0,0,0,0,0,0,0,0,0,0,0,0,0,0,0,0,0,0,0,0,0
542276087,540177379,605187279,0,0,0,0,0,0,0,0,0,0,0,0,0,0,0,0,0,0,0,0,0,0,0
542276349,540177647,538079201,0,0,0,0,0,0,0,0,0,0,0,0,0,0,0,0,0,0,0,0,0,0,0
542237127,540128422,538020485,0,0,0,0,0,0,0,0,0,0,0,0,0,0,0,0,0,0,0,0,0,0,0
