0,1,2,3,4,5,6,7,8,9,10,11,12,13,14,15,16,17,18,19,20,21,22,23,24,25
724358886,722056458,652819243,583582799,0,0,0,0,0,0,0,0,0,0,0,0,0,0,0,0,0,0,0,0,0,0
724325708,722238831,720151954,718065077,581559808,646551110,711547515,575222686,573120431,705235905,568916946,566814692,631821301,562229757,0,0,0,0,0,0,0,0,0,0,0,0
589896933,587796205,652804597,583596030,581102304,713218555,0,0,0,0,0,0,0,0,0,0,0,0,0,0,0,0,0,0,0,0
589474451,587377057,585279663,583182525,581084889,646096117,0,0,0,0,0,0,0,0,0,0,0,0,0,0,0,0,0,0,0,0
589621040,587521366,585421693,583322018,715437035,578963514,643979632,708994197,572680871,637693881,568489420,566393566,564297713,0,0,0,0,0,0,0,0,0,0,0,0,0
656523847,721539162,585228141,650243711,581044644,646063816,576863716,708987894,572675071,0,0,0,0,0,0,0,0,0,0,0,0,0,0,0,0,0
590898364,588800967,586703825,584606684,582509297,0,0,0,0,0,0,0,0,0,0,0,0,0,0,0,0,0,0,0,0,0
591249991,790483049,587063180,584969903,582879733,647551295,578339700,576238742,574139560,572040633,569941451,567842524,565743597,563644415,0,0,0,0,0,0,0,0,0,0,0,0
590911716,588813548,586715380,651726076,0,0,0,0,0,0,0,0,0,0,0,0,0,0,0,0,0,0,0,0,0,0
725217624,588895594,586791292,584686991,582575539,580464088,578356211,575861970,573762528,571663086,569563644,0,0,0,0,0,0,0,0,0,0,0,0,0,0,0
590499167,588402545,586306179,584209813,0,0,0,0,0,0,0,0,0,0,0,0,0,0,0,0,0,0,0,0,0,0
725005372,588674667,720779163,584449226,582052143,579987341,577913811,0,0,0,0,0,0,0,0,0,0,0,0,0,0,0,0,0,0,0
590779763,588670608,586561453,584452555,582039820,579966279,577887092,575800978,640818592,571618479,569527230,0,0,0,0,0,0,0,0,0,0,0,0,0,0,0
724970739,588307217,720436008,584128832,582048367,714185374,644991680,575793879,573700835,705824495,569513723,566759404,564665084,0,0,0,0,0,0,0,0,0,0,0,0,0
589826769,587731162,585635556,583539949,581445631,0,0,0,0,0,0,0,0,0,0,0,0,0,0,0,0,0,0,0,0,0
589841618,721962459,719865829,717769199,0,0,0,0,0,0,0,0,0,0,0,0,0,0,0,0,0,0,0,0,0,0
590276369,588177979,586079589,651090062,581881568,579353399,577258356,575162524,573065905,570969541,568872921,566776558,0,0,0,0,0,0,0,0,0,0,0,0,0,0
589845167,587748282,585651398,583554513,581457640,579361023,0,0,0,0,0,0,0,0,0,0,0,0,0,0,0,0,0,0,0,0
589871679,587773010,585674341,717793144,581475230,579375044,577275617,709394420,573079038,0,0,0,0,0,0,0,0,0,0,0,0,0,0,0,0,0
589906968,654914605,585704771,583603545,581499268,579394223,577290959,575189989,573090800,570991611,0,0,0,0,0,0,0,0,0,0,0,0,0,0,0,0
657014138,587804042,585702810,583601578,581497290,579392233,0,0,0,0,0,0,0,0,0,0,0,0,0,0,0,0,0,0,0,0
587209534,585124692,583039849,580967317,578894016,576815585,574731254,572000403,569906091,567811780,565717469,563622902,0,0,0,0,0,0,0,0,0,0,0,0,0,0
589187617,587092299,584996725,582902985,580423202,578323808,710442634,574127007,572029108,569931209,567833310,0,0,0,0,0,0,0,0,0,0,0,0,0,0,0
719325420,583024374,717157455,647947452,576205130,0,0,0,0,0,0,0,0,0,0,0,0,0,0,0,0,0,0,0,0,0
720374201,584080328,582024679,579341419,711468517,0,0,0,0,0,0,0,0,0,0,0,0,0,0,0,0,0,0,0,0,0
583011529,580943330,578874874,578745062,708320830,572007769,569912181,567816593,565721004,697843144,628638947,559434495,0,0,0,0,0,0,0,0,0,0,0,0,0,0
584991007,582897021,580803546,578328869,574131819,572033665,569935512,702055087,565739461,563641564,561543666,0,0,0,0,0,0,0,0,0,0,0,0,0,0,0
719131431,582833538,714970846,578369576,576264022,574162797,572062084,569960859,567859378,565758153,563656672,561555447,0,0,0,0,0,0,0,0,0,0,0,0,0,0
581626206,579493012,644478141,575253977,707365351,571041525,568522360,633530523,564320959,562220258,0,0,0,0,0,0,0,0,0,0,0,0,0,0,0,0
581198851,579100036,577001956,574787884,572691020,570594412,635606412,566400685,564303821,562207213,0,0,0,0,0,0,0,0,0,0,0,0,0,0,0,0
581274835,578920500,576836468,574748320,0,0,0,0,0,0,0,0,0,0,0,0,0,0,0,0,0,0,0,0,0,0
582806551,580732817,645762539,643384620,708390219,572069481,569966728,702081702,565760964,563657955,0,0,0,0,0,0,0,0,0,0,0,0,0,0,0,0
582007091,647045238,577859756,575775695,640793568,571593456,703720190,566760907,564667621,562573822,0,0,0,0,0,0,0,0,0,0,0,0,0,0,0,0
581776951,646809005,711540747,575215942,707331172,772338561,568909727,633916348,564705242,562602999,0,0,0,0,0,0,0,0,0,0,0,0,0,0,0,0
580836098,578735218,576636093,574537954,572015114,569919023,567822419,565726070,563629722,561533374,559437026,0,0,0,0,0,0,0,0,0,0,0,0,0,0,0
580705291,645740159,576550349,574461172,572083743,771305029,634982252,632877971,630772922,561558754,0,0,0,0,0,0,0,0,0,0,0,0,0,0,0,0
714777876,645544784,576321400,574215053,572108705,570002357,567896009,700007133,563683057,561181632,0,0,0,0,0,0,0,0,0,0,0,0,0,0,0,0
647691547,712658337,576314106,573755935,571647582,569539230,0,0,0,0,0,0,0,0,0,0,0,0,0,0,0,0,0,0,0,0
580159856,578059974,710045448,573731621,571635522,636648287,567443069,632455834,563250873,561154775,559058934,0,0,0,0,0,0,0,0,0,0,0,0,0,0,0
580284231,712376497,576043767,573657890,571570245,569482856,634504075,699525295,563219410,695349493,0,0,0,0,0,0,0,0,0,0,0,0,0,0,0,0
579900430,577829960,575750513,573662085,571573658,0,0,0,0,0,0,0,0,0,0,0,0,0,0,0,0,0,0,0,0,0
579692599,577610910,776850402,573120777,638127403,568917070,566814832,564712595,696828085,694725847,625515001,0,0,0,0,0,0,0,0,0,0,0,0,0,0,0
577522978,575458994,707595257,638170690,770274441,768160719,564322505,0,0,0,0,0,0,0,0,0,0,0,0,0,0,0,0,0,0,0
578591199,643408471,708394644,706272979,0,0,0,0,0,0,0,0,0,0,0,0,0,0,0,0,0,0,0,0,0,0
577852854,575769812,573679842,571589872,569500158,566761159,564667621,562573822,0,0,0,0,0,0,0,0,0,0,0,0,0,0,0,0,0,0
577580073,642609034,573411515,571322860,636038944,566824529,564719746,562614450,761835490,0,0,0,0,0,0,0,0,0,0,0,0,0,0,0,0,0
574947112,572844383,570741398,568638158,566379791,564288839,629306750,560107191,558016239,0,0,0,0,0,0,0,0,0,0,0,0,0,0,0,0,0
643598170,574404743,572320179,570234591,635026190,565807674,697915750,762915218,693697984,557371374,0,0,0,0,0,0,0,0,0,0,0,0,0,0,0,0
576457210,574273057,572158788,570044262,567930505,700033708,697919439,561587442,626189018,0,0,0,0,0,0,0,0,0,0,0,0,0,0,0,0,0
576003417,641010566,638909363,636807392,567415318,565323075,563230832,561138333,626154953,556953846,0,0,0,0,0,0,0,0,0,0,0,0,0,0,0,0
574633673,706770910,704690418,568258000,563623516,561531041,559438566,0,0,0,0,0,0,0,0,0,0,0,0,0,0,0,0,0,0,0
707455049,571120490,569003658,633995690,698988235,696871403,627240095,558025709,0,0,0,0,0,0,0,0,0,0,0,0,0,0,0,0,0,0
572832819,637841011,568631732,633639924,564289854,629304958,560102591,558008831,0,0,0,0,0,0,0,0,0,0,0,0,0,0,0,0,0,0
640038145,772144200,702923407,633702612,631348260,763483754,560074417,557992439,0,0,0,0,0,0,0,0,0,0,0,0,0,0,0,0,0,0
775742247,639439460,570246050,568161760,565795617,563685472,561576095,559465950,0,0,0,0,0,0,0,0,0,0,0,0,0,0,0,0,0,0
572386348,637403240,635311011,566110174,697877789,628666968,626565011,557354447,0,0,0,0,0,0,0,0,0,0,0,0,0,0,0,0,0,0
571737478,569642432,567547386,565364797,563265399,561166257,626175723,0,0,0,0,0,0,0,0,0,0,0,0,0,0,0,0,0,0,0
571787544,569687393,768913065,565485553,630347842,561146250,559053522,0,0,0,0,0,0,0,0,0,0,0,0,0,0,0,0,0,0,0
570171225,568098211,767351275,765054774,695825024,693704137,0,0,0,0,0,0,0,0,0,0,0,0,0,0,0,0,0,0,0,0
566527302,631536786,562328543,627211317,625116546,623021775,0,0,0,0,0,0,0,0,0,0,0,0,0,0,0,0,0,0,0,0
633680160,698680711,562355950,560084320,759324615,0,0,0,0,0,0,0,0,0,0,0,0,0,0,0,0,0,0,0,0,0
568108571,633139308,563951551,561611028,559495014,557379768,0,0,0,0,0,0,0,0,0,0,0,0,0,0,0,0,0,0,0,0
635091237,565863760,563745147,695844773,559509198,758717688,689100017,0,0,0,0,0,0,0,0,0,0,0,0,0,0,0,0,0,0,0
567196234,632206999,563000037,560484405,558388353,623401165,0,0,0,0,0,0,0,0,0,0,0,0,0,0,0,0,0,0,0,0
564416296,629427590,560221413,625122127,623025326,0,0,0,0,0,0,0,0,0,0,0,0,0,0,0,0,0,0,0,0,0
631630599,696623980,694508497,625071680,555883429,0,0,0,0,0,0,0,0,0,0,0,0,0,0,0,0,0,0,0,0,0
700209365,563760661,762966865,559519631,557398732,621997536,0,0,0,0,0,0,0,0,0,0,0,0,0,0,0,0,0,0,0,0
700104195,563764794,561643377,760848295,557400030,621994973,0,0,0,0,0,0,0,0,0,0,0,0,0,0,0,0,0,0,0,0
632616253,630512273,628408293,559039300,624058008,554858989,0,0,0,0,0,0,0,0,0,0,0,0,0,0,0,0,0,0,0,0
565624295,563122474,695268451,558978461,758233302,0,0,0,0,0,0,0,0,0,0,0,0,0,0,0,0,0,0,0,0,0
565198777,697343955,561053677,558372166,623390630,0,0,0,0,0,0,0,0,0,0,0,0,0,0,0,0,0,0,0,0,0
565082660,630096004,560891877,558395975,556297127,0,0,0,0,0,0,0,0,0,0,0,0,0,0,0,0,0,0,0,0,0
696899650,694782843,759775668,757659633,0,0,0,0,0,0,0,0,0,0,0,0,0,0,0,0,0,0,0,0,0,0
697052369,694834723,759813747,623465412,688054256,0,0,0,0,0,0,0,0,0,0,0,0,0,0,0,0,0,0,0,0,0
562043192,761321357,692162786,624429985,0,0,0,0,0,0,0,0,0,0,0,0,0,0,0,0,0,0,0,0,0,0
631151475,629054446,559440745,624452067,0,0,0,0,0,0,0,0,0,0,0,0,0,0,0,0,0,0,0,0,0,0
631080010,629001679,626585683,758687448,0,0,0,0,0,0,0,0,0,0,0,0,0,0,0,0,0,0,0,0,0,0
631051524,628973684,626895843,624495955,622380483,0,0,0,0,0,0,0,0,0,0,0,0,0,0,0,0,0,0,0,0,0
563452213,628448412,559009295,624036214,554846428,0,0,0,0,0,0,0,0,0,0,0,0,0,0,0,0,0,0,0,0,0
560250686,625254600,555902560,620922090,0,0,0,0,0,0,0,0,0,0,0,0,0,0,0,0,0,0,0,0,0,0
629056515,626959245,557342230,622354080,0,0,0,0,0,0,0,0,0,0,0,0,0,0,0,0,0,0,0,0,0,0
561908797,761147065,624472117,622366385,0,0,0,0,0,0,0,0,0,0,0,0,0,0,0,0,0,0,0,0,0,0
762677868,559235293,624030808,621951944,0,0,0,0,0,0,0,0,0,0,0,0,0,0,0,0,0,0,0,0,0,0
628544097,693517524,758203474,689035973,0,0,0,0,0,0,0,0,0,0,0,0,0,0,0,0,0,0,0,0,0,0
554180838,754035673,684771935,750187748,0,0,0,0,0,0,0,0,0,0,0,0,0,0,0,0,0,0,0,0,0,0
552081082,751944696,682711241,546315579,0,0,0,0,0,0,0,0,0,0,0,0,0,0,0,0,0,0,0,0,0,0
552091128,549988278,547884662,546379979,0,0,0,0,0,0,0,0,0,0,0,0,0,0,0,0,0,0,0,0,0,0
616723945,547514045,612514103,543479727,541386627,539293783,604309290,0,0,0,0,0,0,0,0,0,0,0,0,0,0,0,0,0,0,0
551060705,548968357,614346725,679344687,0,0,0,0,0,0,0,0,0,0,0,0,0,0,0,0,0,0,0,0,0,0
617105148,547893416,680596980,544218290,0,0,0,0,0,0,0,0,0,0,0,0,0,0,0,0,0,0,0,0,0,0
550010582,615025568,546197238,611199572,609099039,0,0,0,0,0,0,0,0,0,0,0,0,0,0,0,0,0,0,0,0,0
547536639,545450880,543798753,675930066,539625411,537538996,0,0,0,0,0,0,0,0,0,0,0,0,0,0,0,0,0,0,0,0
548946425,545351167,543208137,541095351,0,0,0,0,0,0,0,0,0,0,0,0,0,0,0,0,0,0,0,0,0,0
548946425,546835522,543208137,541095351,0,0,0,0,0,0,0,0,0,0,0,0,0,0,0,0,0,0,0,0,0,0
548957663,546863972,545158881,543060408,540961936,538863719,0,0,0,0,0,0,0,0,0,0,0,0,0,0,0,0,0,0,0,0
616068566,546868050,545152453,543053465,540954477,538855233,0,0,0,0,0,0,0,0,0,0,0,0,0,0,0,0,0,0,0,0
548573171,613580938,544371235,542406908,607419609,538214839,0,0,0,0,0,0,0,0,0,0,0,0,0,0,0,0,0,0,0,0
548534503,546394482,678835705,609643985,540452266,538369411,0,0,0,0,0,0,0,0,0,0,0,0,0,0,0,0,0,0,0,0
547900408,545795691,544141014,542046375,540073471,537964278,0,0,0,0,0,0,0,0,0,0,0,0,0,0,0,0,0,0,0,0
547902195,545802137,543702079,541603873,539937787,604950493,0,0,0,0,0,0,0,0,0,0,0,0,0,0,0,0,0,0,0,0
612965806,543787588,541699617,539831285,537724626,0,0,0,0,0,0,0,0,0,0,0,0,0,0,0,0,0,0,0,0,0
545445869,543357356,608772341,673789418,537480159,0,0,0,0,0,0,0,0,0,0,0,0,0,0,0,0,0,0,0,0,0
545428691,543330453,541233024,539135340,604146775,0,0,0,0,0,0,0,0,0,0,0,0,0,0,0,0,0,0,0,0,0
545421510,610427502,541219665,539120692,537021975,0,0,0,0,0,0,0,0,0,0,0,0,0,0,0,0,0,0,0,0,0
545412821,543307416,608316291,539107439,537007451,0,0,0,0,0,0,0,0,0,0,0,0,0,0,0,0,0,0,0,0,0
679605666,543265078,541159442,673551850,537245382,0,0,0,0,0,0,0,0,0,0,0,0,0,0,0,0,0,0,0,0,0
545371286,543238948,541452026,606474708,537280430,0,0,0,0,0,0,0,0,0,0,0,0,0,0,0,0,0,0,0,0,0
546869500,544780478,542686122,540591765,538497152,0,0,0,0,0,0,0,0,0,0,0,0,0,0,0,0,0,0,0,0,0
546476472,544377168,542279213,540181258,538207715,0,0,0,0,0,0,0,0,0,0,0,0,0,0,0,0,0,0,0,0,0
546474481,544373932,542275733,540177534,538079079,0,0,0,0,0,0,0,0,0,0,0,0,0,0,0,0,0,0,0,0,0
546474484,544374720,542276527,540178589,538080652,0,0,0,0,0,0,0,0,0,0,0,0,0,0,0,0,0,0,0,0,0
546443134,544549605,542460083,607479168,538280526,0,0,0,0,0,0,0,0,0,0,0,0,0,0,0,0,0,0,0,0,0
546441588,544327440,542455020,540363213,672489388,0,0,0,0,0,0,0,0,0,0,0,0,0,0,0,0,0,0,0,0,0
546439879,544323452,542219619,674333515,538012209,0,0,0,0,0,0,0,0,0,0,0,0,0,0,0,0,0,0,0,0,0
546442470,544322203,542217090,540111977,538006864,0,0,0,0,0,0,0,0,0,0,0,0,0,0,0,0,0,0,0,0,0
545792739,543688363,542238206,540136437,538034411,0,0,0,0,0,0,0,0,0,0,0,0,0,0,0,0,0,0,0,0,0
546384577,678463591,542135370,540025133,0,0,0,0,0,0,0,0,0,0,0,0,0,0,0,0,0,0,0,0,0,0
545806316,543708088,541610663,539513238,671633284,0,0,0,0,0,0,0,0,0,0,0,0,0,0,0,0,0,0,0,0,0
545809025,543711744,542023116,607034784,672046197,0,0,0,0,0,0,0,0,0,0,0,0,0,0,0,0,0,0,0,0,0
545809025,611229175,542023116,607034784,672046197,0,0,0,0,0,0,0,0,0,0,0,0,0,0,0,0,0,0,0,0,0
545814450,543720782,608733740,539528715,537816290,0,0,0,0,0,0,0,0,0,0,0,0,0,0,0,0,0,0,0,0,0
545820096,543729765,541634887,606648616,537444874,0,0,0,0,0,0,0,0,0,0,0,0,0,0,0,0,0,0,0,0,0
680055758,677975163,541666143,539574852,671701032,0,0,0,0,0,0,0,0,0,0,0,0,0,0,0,0,0,0,0,0,0
545832436,543746244,541652660,539558564,537464979,0,0,0,0,0,0,0,0,0,0,0,0,0,0,0,0,0,0,0,0,0
543339747,541243348,539146693,537050295,0,0,0,0,0,0,0,0,0,0,0,0,0,0,0,0,0,0,0,0,0,0
543337213,541240564,539143658,537046752,0,0,0,0,0,0,0,0,0,0,0,0,0,0,0,0,0,0,0,0,0,0
543332585,541235163,539137741,537040575,0,0,0,0,0,0,0,0,0,0,0,0,0,0,0,0,0,0,0,0,0,0
611867889,676879332,540564438,605576135,0,0,0,0,0,0,0,0,0,0,0,0,0,0,0,0,0,0,0,0,0,0
678994128,542681533,540586667,538491544,0,0,0,0,0,0,0,0,0,0,0,0,0,0,0,0,0,0,0,0,0,0
679005666,542694610,607710146,538507699,0,0,0,0,0,0,0,0,0,0,0,0,0,0,0,0,0,0,0,0,0,0
544398570,542303198,674425297,538112196,0,0,0,0,0,0,0,0,0,0,0,0,0,0,0,0,0,0,0,0,0,0
544370132,609380292,607281845,538074534,0,0,0,0,0,0,0,0,0,0,0,0,0,0,0,0,0,0,0,0,0,0
543708913,541611492,606622934,537416649,0,0,0,0,0,0,0,0,0,0,0,0,0,0,0,0,0,0,0,0,0,0
543729132,541634015,539539153,537444036,0,0,0,0,0,0,0,0,0,0,0,0,0,0,0,0,0,0,0,0,0,0
543731689,742963164,539541712,537446851,0,0,0,0,0,0,0,0,0,0,0,0,0,0,0,0,0,0,0,0,0,0
589840874,587744242,652756474,0,0,0,0,0,0,0,0,0,0,0,0,0,0,0,0,0,0,0,0,0,0,0
644224134,641826916,572643022,0,0,0,0,0,0,0,0,0,0,0,0,0,0,0,0,0,0,0,0,0,0,0
643662236,574171928,572052883,0,0,0,0,0,0,0,0,0,0,0,0,0,0,0,0,0,0,0,0,0,0,0
764064818,694814600,759782877,0,0,0,0,0,0,0,0,0,0,0,0,0,0,0,0,0,0,0,0,0,0,0
696951925,560594871,759781628,0,0,0,0,0,0,0,0,0,0,0,0,0,0,0,0,0,0,0,0,0,0,0
562050581,761326194,759274447,0,0,0,0,0,0,0,0,0,0,0,0,0,0,0,0,0,0,0,0,0,0,0
630063140,627978183,625517673,0,0,0,0,0,0,0,0,0,0,0,0,0,0,0,0,0,0,0,0,0,0,0
629020786,559463189,758680761,0,0,0,0,0,0,0,0,0,0,0,0,0,0,0,0,0,0,0,0,0,0,0
627979536,625893886,623408359,0,0,0,0,0,0,0,0,0,0,0,0,0,0,0,0,0,0,0,0,0,0,0
625247820,623015441,620924102,0,0,0,0,0,0,0,0,0,0,0,0,0,0,0,0,0,0,0,0,0,0,0
559165583,556969507,689088170,0,0,0,0,0,0,0,0,0,0,0,0,0,0,0,0,0,0,0,0,0,0,0
626339079,624225462,621953652,0,0,0,0,0,0,0,0,0,0,0,0,0,0,0,0,0,0,0,0,0,0,0
625923685,556284691,621301442,0,0,0,0,0,0,0,0,0,0,0,0,0,0,0,0,0,0,0,0,0,0,0
753481877,617204242,749510531,0,0,0,0,0,0,0,0,0,0,0,0,0,0,0,0,0,0,0,0,0,0,0
753009546,616670214,614834048,0,0,0,0,0,0,0,0,0,0,0,0,0,0,0,0,0,0,0,0,0,0,0
753005017,549552774,614535986,0,0,0,0,0,0,0,0,0,0,0,0,0,0,0,0,0,0,0,0,0,0,0
754521302,752470611,750548931,0,0,0,0,0,0,0,0,0,0,0,0,0,0,0,0,0,0,0,0,0,0,0
619202998,549993289,615437519,0,0,0,0,0,0,0,0,0,0,0,0,0,0,0,0,0,0,0,0,0,0,0
619212391,617515192,749633304,0,0,0,0,0,0,0,0,0,0,0,0,0,0,0,0,0,0,0,0,0,0,0
552104655,617119602,547916823,0,0,0,0,0,0,0,0,0,0,0,0,0,0,0,0,0,0,0,0,0,0,0
552126908,617155410,615361757,0,0,0,0,0,0,0,0,0,0,0,0,0,0,0,0,0,0,0,0,0,0,0
684250872,615071136,747405454,0,0,0,0,0,0,0,0,0,0,0,0,0,0,0,0,0,0,0,0,0,0,0
616744666,547547245,680168617,0,0,0,0,0,0,0,0,0,0,0,0,0,0,0,0,0,0,0,0,0,0,0
614643895,746851027,678084345,0,0,0,0,0,0,0,0,0,0,0,0,0,0,0,0,0,0,0,0,0,0,0
547218106,679291200,542961432,0,0,0,0,0,0,0,0,0,0,0,0,0,0,0,0,0,0,0,0,0,0,0
608333048,539125742,537027299,0,0,0,0,0,0,0,0,0,0,0,0,0,0,0,0,0,0,0,0,0,0,0
542641657,539110397,537010677,0,0,0,0,0,0,0,0,0,0,0,0,0,0,0,0,0,0,0,0,0,0,0
542641657,540542447,537010677,0,0,0,0,0,0,0,0,0,0,0,0,0,0,0,0,0,0,0,0,0,0,0
744007068,540585094,538489712,0,0,0,0,0,0,0,0,0,0,0,0,0,0,0,0,0,0,0,0,0,0,0
744007068,540586888,538492786,0,0,0,0,0,0,0,0,0,0,0,0,0,0,0,0,0,0,0,0,0,0,0
541595803,539496582,537397361,0,0,0,0,0,0,0,0,0,0,0,0,0,0,0,0,0,0,0,0,0,0,0
