0,1,2,3,4,5,6,7,8,9,10,11,12,13,14,15,16,17,18,19,20,21,22,23,24,25
590110484,588024128,653046892,583852185,648885999,579433036,577318798,642319290,573108433,571005415,568902397,0,0,0,0,0,0,0,0,0,0,0,0,0,0,0
656996855,587397838,585298650,583199462,581098493,0,0,0,0,0,0,0,0,0,0,0,0,0,0,0,0,0,0,0,0,0
656996855,587787775,585298650,583199462,581098493,0,0,0,0,0,0,0,0,0,0,0,0,0,0,0,0,0,0,0,0,0
589665194,587562437,652568799,650466298,581025336,578939246,576849559,574758067,572663745,570569424,568475102,566380780,564286458,0,0,0,0,0,0,0,0,0,0,0,0,0
590901655,588804007,653815477,584609220,582511329,580413694,0,0,0,0,0,0,0,0,0,0,0,0,0,0,0,0,0,0,0,0
657624847,588419112,586322497,584225626,582129291,580032700,577935841,575838970,0,0,0,0,0,0,0,0,0,0,0,0,0,0,0,0,0,0
590489907,588394821,586299480,584204394,582111119,580017845,577923538,575828197,640840942,571635704,0,0,0,0,0,0,0,0,0,0,0,0,0,0,0,0
657820165,588608555,586506064,718621302,582296001,579989012,577899085,575807347,573712774,571618201,569523628,567429311,565334738,563240165,561145848,0,0,0,0,0,0,0,0,0,0,0
590452315,588360302,586268033,584176020,649198010,714218977,577242623,0,0,0,0,0,0,0,0,0,0,0,0,0,0,0,0,0,0,0
590475460,588381903,586287322,584193509,582103291,0,0,0,0,0,0,0,0,0,0,0,0,0,0,0,0,0,0,0,0,0
590379278,588292647,586206016,718337112,582042762,579966652,577885409,710016506,573050839,570956780,0,0,0,0,0,0,0,0,0,0,0,0,0,0,0,0
590450619,588358599,586266835,584174815,582088183,579343838,577251325,0,0,0,0,0,0,0,0,0,0,0,0,0,0,0,0,0,0,0
590281651,588182739,586083827,581445207,579351703,644366022,575161830,573065462,0,0,0,0,0,0,0,0,0,0,0,0,0,0,0,0,0,0
589047123,586963324,584879270,582808568,580495696,578378894,576268472,574164940,572061921,569958134,567471608,0,0,0,0,0,0,0,0,0,0,0,0,0,0,0
787915432,584478670,783343647,579946090,577868962,642894279,573695194,571604973,635964386,566763262,0,0,0,0,0,0,0,0,0,0,0,0,0,0,0,0
583833118,581757817,579682005,711557662,575232076,640238178,571026809,568924304,566821543,564719806,562617301,560514540,0,0,0,0,0,0,0,0,0,0,0,0,0,0
579503194,577380744,709484967,774488246,571056070,568950485,566844901,698956788,562230431,627238336,558028514,0,0,0,0,0,0,0,0,0,0,0,0,0,0,0
579269453,711346381,574688810,639714899,570523261,568439974,633465807,564272889,563613685,0,0,0,0,0,0,0,0,0,0,0,0,0,0,0,0,0
580787043,645804474,576602357,574142487,572043316,569944145,567844974,565745803,697864360,561547716,559448545,557349374,0,0,0,0,0,0,0,0,0,0,0,0,0,0
644091012,574886091,572789486,570610201,568512316,566414687,564316802,562218917,560121288,558023659,0,0,0,0,0,0,0,0,0,0,0,0,0,0,0,0
712795070,576501497,708452890,572128311,570020691,567913072,565805708,563698089,561590725,559483106,556988890,0,0,0,0,0,0,0,0,0,0,0,0,0,0,0
577674758,575577692,573480583,571383474,569286365,566780172,564683064,562585955,627597710,558391482,556294373,0,0,0,0,0,0,0,0,0,0,0,0,0,0,0
577618503,575529876,573436859,571343329,568913675,566812210,564711000,562609534,560508325,558406859,556305650,0,0,0,0,0,0,0,0,0,0,0,0,0,0,0
577613635,642634385,640541624,571340256,568917003,566815282,698931289,562612096,560510375,625517517,556306932,0,0,0,0,0,0,0,0,0,0,0,0,0,0,0
577574719,642602129,573403835,571314660,568939025,566834234,564729443,562625420,560520629,558416094,0,0,0,0,0,0,0,0,0,0,0,0,0,0,0,0
642087034,572870586,637871866,635562564,566366341,765606340,0,0,0,0,0,0,0,0,0,0,0,0,0,0,0,0,0,0,0,0
570173089,702311377,632967684,630852916,561630053,626624149,691617991,689110720,0,0,0,0,0,0,0,0,0,0,0,0,0,0,0,0,0,0
569220639,567131232,565041825,562952419,560524583,558419816,556315049,554210282,0,0,0,0,0,0,0,0,0,0,0,0,0,0,0,0,0,0
636323855,567126355,565037463,697166554,627636255,558422114,556316836,688429031,0,0,0,0,0,0,0,0,0,0,0,0,0,0,0,0,0,0
566237764,765516439,696359147,762844075,0,0,0,0,0,0,0,0,0,0,0,0,0,0,0,0,0,0,0,0,0,0
567088685,565005171,562921404,627658501,759765837,690547350,554219486,0,0,0,0,0,0,0,0,0,0,0,0,0,0,0,0,0,0,0
698006122,762993808,559546551,691643358,0,0,0,0,0,0,0,0,0,0,0,0,0,0,0,0,0,0,0,0,0,0
692252156,757681042,755622419,686588040,0,0,0,0,0,0,0,0,0,0,0,0,0,0,0,0,0,0,0,0,0,0
555930360,620950200,552156393,684293066,547994539,545945421,0,0,0,0,0,0,0,0,0,0,0,0,0,0,0,0,0,0,0,0
623044257,688489448,753530555,617244558,548067938,0,0,0,0,0,0,0,0,0,0,0,0,0,0,0,0,0,0,0,0,0
556979124,622432760,687481545,752530841,0,0,0,0,0,0,0,0,0,0,0,0,0,0,0,0,0,0,0,0,0,0
758266573,621929540,620058301,617983796,0,0,0,0,0,0,0,0,0,0,0,0,0,0,0,0,0,0,0,0,0,0
757661908,621373569,552194094,749494395,0,0,0,0,0,0,0,0,0,0,0,0,0,0,0,0,0,0,0,0,0,0
687981524,752971680,549526637,547408697,0,0,0,0,0,0,0,0,0,0,0,0,0,0,0,0,0,0,0,0,0,0
555249136,553153469,551058057,548962645,614361263,612258065,0,0,0,0,0,0,0,0,0,0,0,0,0,0,0,0,0,0,0,0
688434686,686345434,684256182,547948434,612983590,544030130,541925263,539820141,739042634,0,0,0,0,0,0,0,0,0,0,0,0,0,0,0,0,0
551720446,549622756,547525066,545426300,543327790,541230100,606364917,738485723,0,0,0,0,0,0,0,0,0,0,0,0,0,0,0,0,0,0
552772075,550675399,548578467,546482232,544487880,542390436,540292992,538195291,0,0,0,0,0,0,0,0,0,0,0,0,0,0,0,0,0,0
545439161,543347526,541252384,606340341,0,0,0,0,0,0,0,0,0,0,0,0,0,0,0,0,0,0,0,0,0,0
545427669,543328374,608339286,539132471,537034776,0,0,0,0,0,0,0,0,0,0,0,0,0,0,0,0,0,0,0,0,0
545398986,543280481,541176126,539071771,604335347,0,0,0,0,0,0,0,0,0,0,0,0,0,0,0,0,0,0,0,0,0
545373077,543234568,742784725,539373990,537290615,0,0,0,0,0,0,0,0,0,0,0,0,0,0,0,0,0,0,0,0,0
546843086,544740506,542641544,540542582,536977401,0,0,0,0,0,0,0,0,0,0,0,0,0,0,0,0,0,0,0,0,0
546857972,611870368,542664325,540567401,538470478,0,0,0,0,0,0,0,0,0,0,0,0,0,0,0,0,0,0,0,0,0
546909160,544853899,676987501,540686415,538602801,0,0,0,0,0,0,0,0,0,0,0,0,0,0,0,0,0,0,0,0,0
681144557,611997329,542811254,540734300,0,0,0,0,0,0,0,0,0,0,0,0,0,0,0,0,0,0,0,0,0,0
546474717,544373369,542274903,540176438,538077716,0,0,0,0,0,0,0,0,0,0,0,0,0,0,0,0,0,0,0,0,0
545785055,544332236,542227383,540122786,538018189,0,0,0,0,0,0,0,0,0,0,0,0,0,0,0,0,0,0,0,0,0
545789598,544304611,542195663,540086459,537978278,0,0,0,0,0,0,0,0,0,0,0,0,0,0,0,0,0,0,0,0,0
545822936,610844794,541642331,539548476,537454877,0,0,0,0,0,0,0,0,0,0,0,0,0,0,0,0,0,0,0,0,0
544392435,542296804,540201172,538105541,0,0,0,0,0,0,0,0,0,0,0,0,0,0,0,0,0,0,0,0,0,0
745575897,542157823,539935359,672045977,0,0,0,0,0,0,0,0,0,0,0,0,0,0,0,0,0,0,0,0,0,0
745575897,609151336,539935359,672045977,0,0,0,0,0,0,0,0,0,0,0,0,0,0,0,0,0,0,0,0,0,0
771538003,769466564,767130678,0,0,0,0,0,0,0,0,0,0,0,0,0,0,0,0,0,0,0,0,0,0,0
566494359,564317221,629323943,0,0,0,0,0,0,0,0,0,0,0,0,0,0,0,0,0,0,0,0,0,0,0
566131986,631146972,628648610,0,0,0,0,0,0,0,0,0,0,0,0,0,0,0,0,0,0,0,0,0,0,0
633214229,564021215,762874531,0,0,0,0,0,0,0,0,0,0,0,0,0,0,0,0,0,0,0,0,0,0,0
633208612,698234344,628659112,0,0,0,0,0,0,0,0,0,0,0,0,0,0,0,0,0,0,0,0,0,0,0
561923279,559457584,557354894,0,0,0,0,0,0,0,0,0,0,0,0,0,0,0,0,0,0,0,0,0,0,0
624092525,756682202,553311900,0,0,0,0,0,0,0,0,0,0,0,0,0,0,0,0,0,0,0,0,0,0,0
758524961,756390350,754051722,0,0,0,0,0,0,0,0,0,0,0,0,0,0,0,0,0,0,0,0,0,0,0
758528582,756390381,754055587,0,0,0,0,0,0,0,0,0,0,0,0,0,0,0,0,0,0,0,0,0,0,0
623819629,554191904,619206355,0,0,0,0,0,0,0,0,0,0,0,0,0,0,0,0,0,0,0,0,0,0,0
676498167,540182762,538085085,0,0,0,0,0,0,0,0,0,0,0,0,0,0,0,0,0,0,0,0,0,0,0
541610493,539513074,537415398,0,0,0,0,0,0,0,0,0,0,0,0,0,0,0,0,0,0,0,0,0,0,0
