0,1,2,3,4,5,6,7,8,9,10,11,12,13,14,15,16,17,18,19,20,21,22,23,24,25
657006752,587797676,585697463,583598019,648603609,579391728,576911358,0,0,0,0,0,0,0,0,0,0,0,0,0,0,0,0,0,0,0
589484872,587386717,585288562,583190407,581090993,578991834,576893178,0,0,0,0,0,0,0,0,0,0,0,0,0,0,0,0,0,0,0
589446460,587349845,585253485,650265988,581061300,578965476,0,0,0,0,0,0,0,0,0,0,0,0,0,0,0,0,0,0,0,0
589627841,587528410,652537330,583140370,581049155,578957941,576865177,574770866,572675262,570579403,568483799,633496803,564292336,629305596,0,0,0,0,0,0,0,0,0,0,0,0
589427877,654442416,652347323,583144135,581052637,578961139,0,0,0,0,0,0,0,0,0,0,0,0,0,0,0,0,0,0,0,0
589426383,587332056,585236960,583142632,581051130,580390132,0,0,0,0,0,0,0,0,0,0,0,0,0,0,0,0,0,0,0,0
723596218,587289285,719417552,583110619,581029104,580388540,645404649,0,0,0,0,0,0,0,0,0,0,0,0,0,0,0,0,0,0,0
590880379,588784523,586688668,584592557,582497998,580403439,0,0,0,0,0,0,0,0,0,0,0,0,0,0,0,0,0,0,0,0
658409668,723421411,586708231,584610597,582512481,0,0,0,0,0,0,0,0,0,0,0,0,0,0,0,0,0,0,0,0,0
590950362,588849889,586749417,584648945,582154441,580053218,712170741,0,0,0,0,0,0,0,0,0,0,0,0,0,0,0,0,0,0,0
591005658,588901347,586796012,584690934,582152268,580050059,712166843,575849691,571652859,0,0,0,0,0,0,0,0,0,0,0,0,0,0,0,0,0
590616031,588434689,586336541,584238393,582139505,647149224,577941714,575843566,573745915,0,0,0,0,0,0,0,0,0,0,0,0,0,0,0,0,0
590616031,655628794,586336541,584238393,582139505,647149224,577941714,575843566,573745915,0,0,0,0,0,0,0,0,0,0,0,0,0,0,0,0,0
590631687,588534323,586436958,584339850,582242274,580032576,712153474,575838893,707959491,571644889,569547759,0,0,0,0,0,0,0,0,0,0,0,0,0,0,0
590702388,588600413,586497926,584395695,582083847,579996759,577907859,575816379,640830927,571627748,569533688,0,0,0,0,0,0,0,0,0,0,0,0,0,0,0
724907706,588588505,586486776,584181278,582092635,714222233,577914567,575822054,573727221,0,0,0,0,0,0,0,0,0,0,0,0,0,0,0,0,0
724691106,588380080,586285757,651301067,582101993,0,0,0,0,0,0,0,0,0,0,0,0,0,0,0,0,0,0,0,0,0
590472615,588379316,586285249,584191950,582101993,0,0,0,0,0,0,0,0,0,0,0,0,0,0,0,0,0,0,0,0,0
590415716,588323700,586231939,584140434,582055088,579970765,577883619,575793392,707917303,570951109,568856019,566760928,564665837,562570747,0,0,0,0,0,0,0,0,0,0,0,0
590352794,588265894,586178738,584091582,582014677,579937005,577854975,575148106,573052510,570956914,635969925,566765465,564669869,562574273,560478420,558382824,556287228,0,0,0,0,0,0,0,0,0
589844493,587747617,585650742,583553866,581457011,579360412,577263547,575166672,573069530,570972644,568875502,633887480,0,0,0,0,0,0,0,0,0,0,0,0,0,0
589059119,586974043,584889223,582815712,580489789,578374271,576265132,641270721,773385943,701691133,0,0,0,0,0,0,0,0,0,0,0,0,0,0,0,0
586682424,584587090,582493573,714617784,578305759,0,0,0,0,0,0,0,0,0,0,0,0,0,0,0,0,0,0,0,0,0
586997545,652018778,582833597,580475683,578363242,576256665,708371889,639161033,569949922,567847930,0,0,0,0,0,0,0,0,0,0,0,0,0,0,0,0
586869912,584758185,582631882,580506348,577958718,575857271,573758100,571658672,569559245,567460074,0,0,0,0,0,0,0,0,0,0,0,0,0,0,0,0
584982809,582892164,580801265,578329672,643338366,574130842,572032181,569933521,634943724,0,0,0,0,0,0,0,0,0,0,0,0,0,0,0,0,0
652014628,784155535,647862010,578366543,576258693,574157216,639163578,569952213,567849968,0,0,0,0,0,0,0,0,0,0,0,0,0,0,0,0,0
582866209,580780966,578344974,576241744,574141553,572041363,569941172,567840981,565740791,0,0,0,0,0,0,0,0,0,0,0,0,0,0,0,0,0
582242380,647253702,577935658,642947687,707959430,569547716,567450595,0,0,0,0,0,0,0,0,0,0,0,0,0,0,0,0,0,0,0
579466739,577348578,575237335,573133266,638138060,568925126,566821056,766043833,0,0,0,0,0,0,0,0,0,0,0,0,0,0,0,0,0,0
579208020,577084111,574723624,572635729,570547578,568459427,566371020,564282869,0,0,0,0,0,0,0,0,0,0,0,0,0,0,0,0,0,0
580655456,578597076,576319781,708427339,572099698,569989784,567879871,699988198,764603127,0,0,0,0,0,0,0,0,0,0,0,0,0,0,0,0,0
580294490,645271246,575746596,573661259,571575666,569490329,634513856,632427495,0,0,0,0,0,0,0,0,0,0,0,0,0,0,0,0,0,0
711385547,574683164,639724608,704766821,702699402,700632751,698935481,0,0,0,0,0,0,0,0,0,0,0,0,0,0,0,0,0,0,0
578034039,575939542,573750798,571652414,770880621,567455901,565357517,630367996,0,0,0,0,0,0,0,0,0,0,0,0,0,0,0,0,0,0
578066266,777292220,640975344,638741803,569537886,634551696,632456643,630361590,0,0,0,0,0,0,0,0,0,0,0,0,0,0,0,0,0,0
644901845,575588518,640591068,570981654,636002636,768132226,698935481,0,0,0,0,0,0,0,0,0,0,0,0,0,0,0,0,0,0,0
577655364,642662828,573454561,705220121,568907598,566812547,698935481,0,0,0,0,0,0,0,0,0,0,0,0,0,0,0,0,0,0,0
576041030,775259015,706041545,569491220,567405654,632428183,563233753,0,0,0,0,0,0,0,0,0,0,0,0,0,0,0,0,0,0,0
775742819,773678839,569973899,698935481,0,0,0,0,0,0,0,0,0,0,0,0,0,0,0,0,0,0,0,0,0,0
570767527,635767277,767691071,698496907,629301977,0,0,0,0,0,0,0,0,0,0,0,0,0,0,0,0,0,0,0,0,0
706392414,704270220,567931317,632917470,0,0,0,0,0,0,0,0,0,0,0,0,0,0,0,0,0,0,0,0,0,0
771103576,701874622,766609198,764536211,561135865,0,0,0,0,0,0,0,0,0,0,0,0,0,0,0,0,0,0,0,0,0
569191428,768442248,631844875,763944848,0,0,0,0,0,0,0,0,0,0,0,0,0,0,0,0,0,0,0,0,0,0
568347494,700502173,765547731,561522130,0,0,0,0,0,0,0,0,0,0,0,0,0,0,0,0,0,0,0,0,0,0
700293171,563985517,561895592,559805667,557380385,555276124,620280982,618176721,0,0,0,0,0,0,0,0,0,0,0,0,0,0,0,0,0,0
698935994,562616524,560515040,558413811,0,0,0,0,0,0,0,0,0,0,0,0,0,0,0,0,0,0,0,0,0,0
693420874,624209820,622107631,552755019,617771677,548570608,0,0,0,0,0,0,0,0,0,0,0,0,0,0,0,0,0,0,0,0
625836823,623754884,621673201,619237471,751343052,0,0,0,0,0,0,0,0,0,0,0,0,0,0,0,0,0,0,0,0,0
690566899,688508074,753557344,751498518,0,0,0,0,0,0,0,0,0,0,0,0,0,0,0,0,0,0,0,0,0,0
623035597,553835888,618853650,550109165,548035540,0,0,0,0,0,0,0,0,0,0,0,0,0,0,0,0,0,0,0,0,0
757201608,755076199,551624198,616967587,614898242,0,0,0,0,0,0,0,0,0,0,0,0,0,0,0,0,0,0,0,0,0
758311140,555304137,687454846,685387315,549213406,0,0,0,0,0,0,0,0,0,0,0,0,0,0,0,0,0,0,0,0,0
624073438,621975393,754209253,617895016,0,0,0,0,0,0,0,0,0,0,0,0,0,0,0,0,0,0,0,0,0,0
758273752,554832215,620041174,752178774,0,0,0,0,0,0,0,0,0,0,0,0,0,0,0,0,0,0,0,0,0,0
556276479,689053181,686940621,550609566,548496238,546716380,678884941,0,0,0,0,0,0,0,0,0,0,0,0,0,0,0,0,0,0,0
556275136,756140534,686907076,684782993,682658399,0,0,0,0,0,0,0,0,0,0,0,0,0,0,0,0,0,0,0,0,0
555765359,687917729,685851858,616045748,0,0,0,0,0,0,0,0,0,0,0,0,0,0,0,0,0,0,0,0,0,0
553839869,686350832,550044880,547957425,680106836,544011247,541904336,674015153,671908242,0,0,0,0,0,0,0,0,0,0,0,0,0,0,0,0,0
553782988,551671955,683777626,547448097,545662580,0,0,0,0,0,0,0,0,0,0,0,0,0,0,0,0,0,0,0,0,0
622354379,553148546,551051577,549363429,547266055,0,0,0,0,0,0,0,0,0,0,0,0,0,0,0,0,0,0,0,0,0
621986740,552785505,617802253,683277052,681243329,0,0,0,0,0,0,0,0,0,0,0,0,0,0,0,0,0,0,0,0,0
554861209,754086968,617905878,548703094,0,0,0,0,0,0,0,0,0,0,0,0,0,0,0,0,0,0,0,0,0,0
554855891,619861646,617758282,615655174,546635833,0,0,0,0,0,0,0,0,0,0,0,0,0,0,0,0,0,0,0,0,0
554221289,686351546,550045835,749284956,546134984,544008764,541901581,0,0,0,0,0,0,0,0,0,0,0,0,0,0,0,0,0,0,0
554227919,619251605,550058076,547973666,546111341,0,0,0,0,0,0,0,0,0,0,0,0,0,0,0,0,0,0,0,0,0
685900188,549574244,614574380,545636740,0,0,0,0,0,0,0,0,0,0,0,0,0,0,0,0,0,0,0,0,0,0
549637598,681760706,545453935,543791844,541701849,539611598,671739076,0,0,0,0,0,0,0,0,0,0,0,0,0,0,0,0,0,0,0
549632766,547537129,545444779,543352429,541256792,606270019,537065519,0,0,0,0,0,0,0,0,0,0,0,0,0,0,0,0,0,0,0
614992891,546443232,544333490,542231971,674347924,538028677,0,0,0,0,0,0,0,0,0,0,0,0,0,0,0,0,0,0,0,0
545868458,543787110,675912271,539601721,537508133,0,0,0,0,0,0,0,0,0,0,0,0,0,0,0,0,0,0,0,0,0
545875123,543801718,541712482,539623246,537533754,0,0,0,0,0,0,0,0,0,0,0,0,0,0,0,0,0,0,0,0,0
545792765,543689947,541590736,540150781,538050806,0,0,0,0,0,0,0,0,0,0,0,0,0,0,0,0,0,0,0,0,0
545798142,543697372,675816657,539500742,537402298,0,0,0,0,0,0,0,0,0,0,0,0,0,0,0,0,0,0,0,0,0
612935353,544086264,541983415,539881594,604887612,0,0,0,0,0,0,0,0,0,0,0,0,0,0,0,0,0,0,0,0,0
612935353,543745537,541983415,539881594,604887612,0,0,0,0,0,0,0,0,0,0,0,0,0,0,0,0,0,0,0,0,0
543348949,541254589,539160486,671688959,0,0,0,0,0,0,0,0,0,0,0,0,0,0,0,0,0,0,0,0,0,0
543276520,541169107,673279423,604063402,0,0,0,0,0,0,0,0,0,0,0,0,0,0,0,0,0,0,0,0,0,0
678515614,743510905,540071765,605067056,0,0,0,0,0,0,0,0,0,0,0,0,0,0,0,0,0,0,0,0,0,0
589850605,721970932,585656058,0,0,0,0,0,0,0,0,0,0,0,0,0,0,0,0,0,0,0,0,0,0,0
586306778,584210915,582116340,0,0,0,0,0,0,0,0,0,0,0,0,0,0,0,0,0,0,0,0,0,0,0
624446664,555235118,620682629,0,0,0,0,0,0,0,0,0,0,0,0,0,0,0,0,0,0,0,0,0,0,0
758280356,622108658,620022588,0,0,0,0,0,0,0,0,0,0,0,0,0,0,0,0,0,0,0,0,0,0,0
758273431,622121688,687150357,0,0,0,0,0,0,0,0,0,0,0,0,0,0,0,0,0,0,0,0,0,0,0
691439096,756082189,552690461,0,0,0,0,0,0,0,0,0,0,0,0,0,0,0,0,0,0,0,0,0,0,0
757645417,554564532,753776653,0,0,0,0,0,0,0,0,0,0,0,0,0,0,0,0,0,0,0,0,0,0,0
553751729,551623462,549862044,0,0,0,0,0,0,0,0,0,0,0,0,0,0,0,0,0,0,0,0,0,0,0
686458439,684312234,748874176,0,0,0,0,0,0,0,0,0,0,0,0,0,0,0,0,0,0,0,0,0,0,0
618951011,683836193,614634192,0,0,0,0,0,0,0,0,0,0,0,0,0,0,0,0,0,0,0,0,0,0,0
552690461,684842287,682776385,0,0,0,0,0,0,0,0,0,0,0,0,0,0,0,0,0,0,0,0,0,0,0
612287479,543074216,540970074,0,0,0,0,0,0,0,0,0,0,0,0,0,0,0,0,0,0,0,0,0,0,0
541227007,539129080,537031153,0,0,0,0,0,0,0,0,0,0,0,0,0,0,0,0,0,0,0,0,0,0,0
541168343,539064784,536960968,0,0,0,0,0,0,0,0,0,0,0,0,0,0,0,0,0,0,0,0,0,0,0
