0,1,2,3,4,5,6,7,8,9,10,11,12,13,14,15,16,17,18,19,20,21,22,23,24,25
590110883,588022718,720152537,583846901,581562161,713664360,577335953,709447341,640236986,571026376,568924374,566822628,564721393,696449497,560131308,558030591,0,0,0,0,0,0,0,0,0,0
589903308,587797719,585692641,583587051,581472766,0,0,0,0,0,0,0,0,0,0,0,0,0,0,0,0,0,0,0,0,0
589885685,587785980,585299423,583200489,581099773,0,0,0,0,0,0,0,0,0,0,0,0,0,0,0,0,0,0,0,0,0
589885685,587398357,585299423,583200489,581099773,0,0,0,0,0,0,0,0,0,0,0,0,0,0,0,0,0,0,0,0,0
589941852,587837551,585733250,583628949,715735227,579406305,576912089,574809845,0,0,0,0,0,0,0,0,0,0,0,0,0,0,0,0,0,0
589941905,587837345,585732786,583628226,782842595,579007929,576904676,0,0,0,0,0,0,0,0,0,0,0,0,0,0,0,0,0,0,0
589933749,587830718,585727943,650733776,782842595,579407607,711127756,641919714,0,0,0,0,0,0,0,0,0,0,0,0,0,0,0,0,0,0
589983592,587877751,585772167,583666582,581552820,579438547,577328618,574816133,572717206,570618022,568518839,566419912,564320729,562221546,560122619,0,0,0,0,0,0,0,0,0,0,0
589480680,587382768,585285111,717404927,0,0,0,0,0,0,0,0,0,0,0,0,0,0,0,0,0,0,0,0,0,0
589491262,587392597,585293932,583195266,581094832,578994653,576894975,0,0,0,0,0,0,0,0,0,0,0,0,0,0,0,0,0,0,0
656588485,587381444,585283267,583185090,0,0,0,0,0,0,0,0,0,0,0,0,0,0,0,0,0,0,0,0,0,0
589572581,721693161,719596014,583281138,715308033,0,0,0,0,0,0,0,0,0,0,0,0,0,0,0,0,0,0,0,0,0
589474918,587377788,585280913,583183783,0,0,0,0,0,0,0,0,0,0,0,0,0,0,0,0,0,0,0,0,0,0
589471125,587373987,585276850,583179713,581082591,578985469,0,0,0,0,0,0,0,0,0,0,0,0,0,0,0,0,0,0,0,0
589468593,587371709,719492296,583177683,581081066,0,0,0,0,0,0,0,0,0,0,0,0,0,0,0,0,0,0,0,0,0
589597614,587499719,652509923,583166984,0,0,0,0,0,0,0,0,0,0,0,0,0,0,0,0,0,0,0,0,0,0
589599656,587499972,652509923,583166984,0,0,0,0,0,0,0,0,0,0,0,0,0,0,0,0,0,0,0,0,0,0
723675186,587361349,585264984,583168619,581073297,578977718,576881874,574785509,572688878,570592247,0,0,0,0,0,0,0,0,0,0,0,0,0,0,0,0
589427714,587333403,585239348,583145549,715272319,578963888,576870869,574776559,639790075,0,0,0,0,0,0,0,0,0,0,0,0,0,0,0,0,0
589637096,587320835,585227032,717350701,581042263,578951297,643968160,574765750,706887873,570574796,568479447,566384098,564288750,562193401,0,0,0,0,0,0,0,0,0,0,0,0
589637096,587536637,585227032,717350701,581042263,578951297,643968160,574765750,706887873,570574796,568479447,566384098,564288750,562193401,0,0,0,0,0,0,0,0,0,0,0,0
589430637,587335806,585241743,717365152,648165314,578965221,576872447,0,0,0,0,0,0,0,0,0,0,0,0,0,0,0,0,0,0,0
589400928,587308658,585216644,650233237,581037241,578949341,576859639,643303418,0,0,0,0,0,0,0,0,0,0,0,0,0,0,0,0,0,0
589441272,587345918,586680052,584584443,0,0,0,0,0,0,0,0,0,0,0,0,0,0,0,0,0,0,0,0,0,0
589428967,654442734,585239286,583144701,582487526,580393978,0,0,0,0,0,0,0,0,0,0,0,0,0,0,0,0,0,0,0,0
589422039,587328224,585234153,583139570,582485205,580392687,0,0,0,0,0,0,0,0,0,0,0,0,0,0,0,0,0,0,0,0
589432568,588775628,586680021,584584415,582490610,0,0,0,0,0,0,0,0,0,0,0,0,0,0,0,0,0,0,0,0,0
589432568,721555455,586680021,584584415,582490610,0,0,0,0,0,0,0,0,0,0,0,0,0,0,0,0,0,0,0,0,0
589420773,587326443,585232370,583138297,582486475,647501795,578298614,0,0,0,0,0,0,0,0,0,0,0,0,0,0,0,0,0,0,0
589401045,587308510,652324582,583123183,582484378,647500476,578297559,576202728,574106609,572010489,0,0,0,0,0,0,0,0,0,0,0,0,0,0,0,0
589384132,721509838,719417815,583108321,581021428,580388493,578294956,576200129,574104267,572008149,569912287,567816169,565720308,697841918,0,0,0,0,0,0,0,0,0,0,0,0
589328103,721458928,585154552,585039504,582938081,580395832,578302069,576207006,641219762,572014791,704136411,634931695,0,0,0,0,0,0,0,0,0,0,0,0,0,0
590905941,655917157,586710646,584612998,582514854,580416710,712536286,576220910,574123510,639134974,0,0,0,0,0,0,0,0,0,0,0,0,0,0,0,0
792599929,589178518,654192307,584988369,582531345,781756493,779656313,576230807,0,0,0,0,0,0,0,0,0,0,0,0,0,0,0,0,0,0
792599929,589178264,654192307,584988369,582531345,781756493,779656313,576230807,0,0,0,0,0,0,0,0,0,0,0,0,0,0,0,0,0,0
590908645,588810988,586713076,584615163,0,0,0,0,0,0,0,0,0,0,0,0,0,0,0,0,0,0,0,0,0,0
658023887,588816856,720936161,584620265,582520827,0,0,0,0,0,0,0,0,0,0,0,0,0,0,0,0,0,0,0,0,0
591247820,589155307,586752527,584650798,582545003,580438696,578334421,576232692,0,0,0,0,0,0,0,0,0,0,0,0,0,0,0,0,0,0
591218204,589120814,587023680,719144018,582829175,0,0,0,0,0,0,0,0,0,0,0,0,0,0,0,0,0,0,0,0,0
725394628,589088476,586999797,584710931,582596933,580483448,645482910,710486201,708384965,572066258,569965789,567864553,565763573,563279854,628288509,0,0,0,0,0,0,0,0,0,0,0
590973117,588870854,586769103,584667097,582560236,0,0,0,0,0,0,0,0,0,0,0,0,0,0,0,0,0,0,0,0,0
590535444,588437545,586339646,584241747,582143101,580044455,577946310,710065883,573750501,571652590,569554936,0,0,0,0,0,0,0,0,0,0,0,0,0,0,0
590613708,588517347,586421242,584240920,582142023,580042870,577944217,575846320,573748668,571651016,569553363,567455967,565358315,563260662,0,0,0,0,0,0,0,0,0,0,0,0
590525859,588428463,586330810,584233413,582135516,580037618,0,0,0,0,0,0,0,0,0,0,0,0,0,0,0,0,0,0,0,0
590633114,722753210,586438107,584340476,582129219,647142534,577937337,575840219,573742828,571645692,0,0,0,0,0,0,0,0,0,0,0,0,0,0,0,0
590515267,588418391,586321771,584224894,582128550,580031950,577935340,0,0,0,0,0,0,0,0,0,0,0,0,0,0,0,0,0,0,0
590640929,588543052,586444920,584347044,716465659,580028506,577932700,575836615,573739741,571643123,0,0,0,0,0,0,0,0,0,0,0,0,0,0,0,0
590657479,588558309,586301194,584206120,716330852,580020384,712144076,575831529,573735415,0,0,0,0,0,0,0,0,0,0,0,0,0,0,0,0,0
724895495,722795317,653585762,584375952,582271212,580011343,577919891,575826625,707949016,571636207,0,0,0,0,0,0,0,0,0,0,0,0,0,0,0,0
590707963,588348951,586256685,584164419,582077294,579990169,712117177,575807439,573712601,571618020,569523183,567428601,0,0,0,0,0,0,0,0,0,0,0,0,0,0
590429955,588338456,586246958,584155459,582069357,579983512,577894840,777128909,573707992,571613667,569519342,566755579,0,0,0,0,0,0,0,0,0,0,0,0,0,0
590476746,588382420,586288607,584195050,581437175,0,0,0,0,0,0,0,0,0,0,0,0,0,0,0,0,0,0,0,0,0
590785877,588676987,586568097,584459207,716250138,579958886,577879455,575793861,573702360,571610603,569519358,0,0,0,0,0,0,0,0,0,0,0,0,0,0,0
590788939,588681581,586574222,584466863,582350319,579944502,577862247,575774855,573682839,571590567,569498551,567406279,565313751,563221223,561128951,0,0,0,0,0,0,0,0,0,0,0
590482662,588388078,586293494,584198910,648549118,0,0,0,0,0,0,0,0,0,0,0,0,0,0,0,0,0,0,0,0,0
590395925,722524971,653327681,584129624,582049669,579969714,577885652,575796971,573703414,570952412,568858093,566764030,0,0,0,0,0,0,0,0,0,0,0,0,0,0
590425976,722552712,586244247,584153511,716286662,579984613,644350915,575149021,573053673,570958582,0,0,0,0,0,0,0,0,0,0,0,0,0,0,0,0
590390319,588302918,586215516,584127347,582049695,0,0,0,0,0,0,0,0,0,0,0,0,0,0,0,0,0,0,0,0,0
590413700,655433876,586237091,718366133,582067931,579340202,577249497,575156472,0,0,0,0,0,0,0,0,0,0,0,0,0,0,0,0,0,0
589835465,587739604,585643488,717764843,581451775,0,0,0,0,0,0,0,0,0,0,0,0,0,0,0,0,0,0,0,0,0
589832533,587736681,585640829,583544977,581450169,646464224,577260030,0,0,0,0,0,0,0,0,0,0,0,0,0,0,0,0,0,0,0
589834288,587738179,652750677,583545704,581450126,579354804,577258960,575162851,573066221,570969334,0,0,0,0,0,0,0,0,0,0,0,0,0,0,0,0
589839731,587743363,585646740,583550372,581454278,579357416,577260030,0,0,0,0,0,0,0,0,0,0,0,0,0,0,0,0,0,0,0
589849524,587752383,585655241,583558100,581460713,579363582,0,0,0,0,0,0,0,0,0,0,0,0,0,0,0,0,0,0,0,0
590250624,588153766,586057163,583960561,581465153,579366794,577268418,575170535,573072890,0,0,0,0,0,0,0,0,0,0,0,0,0,0,0,0,0
590231692,655245486,720259281,583946740,581475902,579374724,577274551,709393114,573077483,638088188,0,0,0,0,0,0,0,0,0,0,0,0,0,0,0,0
590196261,722321487,586011513,718136739,581830903,579392337,644396944,575186363,573086672,570987238,0,0,0,0,0,0,0,0,0,0,0,0,0,0,0,0
590202238,588108703,720233151,583922399,715715108,579392612,711507348,575188660,640198596,570990549,568891365,566792182,0,0,0,0,0,0,0,0,0,0,0,0,0,0
589866959,587768537,585670114,583571692,581471999,0,0,0,0,0,0,0,0,0,0,0,0,0,0,0,0,0,0,0,0,0
657303214,588101835,586009832,583606537,715718465,579395449,577292194,575191226,640201158,570993363,703111904,633904364,766022905,0,0,0,0,0,0,0,0,0,0,0,0,0
589878445,721996984,585680323,583581390,581480420,0,0,0,0,0,0,0,0,0,0,0,0,0,0,0,0,0,0,0,0,0
589836154,587740042,585643929,581452745,579357416,577262079,0,0,0,0,0,0,0,0,0,0,0,0,0,0,0,0,0,0,0,0
587509508,652519217,717528926,581210551,578970904,576876634,641890438,572685213,570589107,568493002,566396897,564300792,0,0,0,0,0,0,0,0,0,0,0,0,0,0
589231897,587133247,585034596,582934447,580834555,578303032,576207198,641219696,572014467,569918102,567821737,565725116,563628751,561532386,693653493,0,0,0,0,0,0,0,0,0,0,0
589085454,586996533,584907611,582826408,580745716,578377266,576271960,708388203,572069247,569968018,567867301,632874936,697882316,561563359,559462131,0,0,0,0,0,0,0,0,0,0,0
588971810,586863414,584755019,582635380,580516253,578401981,643402193,574190556,572087526,569984496,567475851,565376162,563276216,628285390,693294309,624085755,0,0,0,0,0,0,0,0,0,0
588702044,586591875,584481706,582358775,579941451,644972676,575779755,573689278,571598545,569507812,701634295,564664058,0,0,0,0,0,0,0,0,0,0,0,0,0,0
588176169,586077782,583979396,581879774,579354942,577259907,575164080,573067463,570971102,568874485,0,0,0,0,0,0,0,0,0,0,0,0,0,0,0,0
720039646,583709139,581580479,579452589,577331363,0,0,0,0,0,0,0,0,0,0,0,0,0,0,0,0,0,0,0,0,0
586683447,584587595,716710772,580398749,578303676,576207825,574111451,572014821,569918448,567822074,0,0,0,0,0,0,0,0,0,0,0,0,0,0,0,0
587108373,585011266,650023324,580818167,578316608,576218989,708339332,572024475,0,0,0,0,0,0,0,0,0,0,0,0,0,0,0,0,0,0
587107603,585010752,650023324,580818167,578316608,576218989,708339332,572024475,0,0,0,0,0,0,0,0,0,0,0,0,0,0,0,0,0,0
654212865,585007404,582911616,580815572,578318616,576220994,574123607,572026220,569928577,634940054,565733804,563636417,561538774,559441387,0,0,0,0,0,0,0,0,0,0,0,0
587053091,584960331,582871707,580782059,578347052,576245588,574146408,572047228,569947792,634957475,632858295,630759115,628659679,559451379,0,0,0,0,0,0,0,0,0,0,0,0
586418515,584322946,582228960,580042566,577943181,710062268,573746899,571649003,0,0,0,0,0,0,0,0,0,0,0,0,0,0,0,0,0,0
586540292,584434485,716537496,579972096,644996936,0,0,0,0,0,0,0,0,0,0,0,0,0,0,0,0,0,0,0,0,0
586540551,584434487,716537496,781531896,644996936,0,0,0,0,0,0,0,0,0,0,0,0,0,0,0,0,0,0,0,0,0
585983250,583891774,648914580,579719915,577310001,642317148,573108338,571008392,0,0,0,0,0,0,0,0,0,0,0,0,0,0,0,0,0,0
583165960,581071427,578976638,576881322,0,0,0,0,0,0,0,0,0,0,0,0,0,0,0,0,0,0,0,0,0,0
583340803,581236319,579131323,576857863,574764853,572669772,570574691,568479610,566384529,564289448,696411839,560099030,558003949,0,0,0,0,0,0,0,0,0,0,0,0,0
584672871,582565259,580457648,578353356,710468575,574151144,572051441,569573111,0,0,0,0,0,0,0,0,0,0,0,0,0,0,0,0,0,0
584775726,716870235,580529545,578413483,576303298,574199758,572096217,567888880,565785340,563278241,561178298,559078100,624087021,0,0,0,0,0,0,0,0,0,0,0,0,0
584357164,582256284,714239763,577928039,642941854,640845498,638749398,569544434,0,0,0,0,0,0,0,0,0,0,0,0,0,0,0,0,0,0
584384269,582277025,714225213,577918124,575826166,0,0,0,0,0,0,0,0,0,0,0,0,0,0,0,0,0,0,0,0,0
584186076,582094575,579340522,711464701,0,0,0,0,0,0,0,0,0,0,0,0,0,0,0,0,0,0,0,0,0,0
715514749,579173884,576829279,574746011,639764409,570566105,702693880,0,0,0,0,0,0,0,0,0,0,0,0,0,0,0,0,0,0,0
715514749,578906628,576829279,574746011,639764409,570566105,702693880,0,0,0,0,0,0,0,0,0,0,0,0,0,0,0,0,0,0,0
582907224,580812219,578321417,576223034,574125395,572027755,569930116,567832476,565734837,563637197,561539558,626550782,0,0,0,0,0,0,0,0,0,0,0,0,0,0
582873904,647893138,578693340,576243730,574144555,572045379,569946204,702064757,565748109,563648934,628658622,559450583,557351408,0,0,0,0,0,0,0,0,0,0,0,0,0
582832726,580754627,578366744,710477647,574158954,572057221,569955744,567854011,565752534,563651313,0,0,0,0,0,0,0,0,0,0,0,0,0,0,0,0
582766789,580535570,578418761,576307821,708421503,572099985,569995939,567891893,565787847,563683801,561579755,559086798,624093928,0,0,0,0,0,0,0,0,0,0,0,0,0
716971496,714751817,578406287,576288189,574180564,572072939,703788480,567467753,0,0,0,0,0,0,0,0,0,0,0,0,0,0,0,0,0,0
582304089,647300817,577899059,575809647,573716365,571623083,569529545,634545126,0,0,0,0,0,0,0,0,0,0,0,0,0,0,0,0,0,0
716042753,579739293,577290006,575187044,573087115,570986930,568887001,0,0,0,0,0,0,0,0,0,0,0,0,0,0,0,0,0,0,0
782822983,579393150,577290659,575190203,573091527,570992595,703111904,633904364,766022905,0,0,0,0,0,0,0,0,0,0,0,0,0,0,0,0,0
646291238,644170940,641851432,572653402,570563467,0,0,0,0,0,0,0,0,0,0,0,0,0,0,0,0,0,0,0,0,0
579224376,577096889,641821975,572626499,570539886,568453274,566365893,698497009,0,0,0,0,0,0,0,0,0,0,0,0,0,0,0,0,0,0
580828431,578729380,576212491,574116157,572019566,569922975,634935504,0,0,0,0,0,0,0,0,0,0,0,0,0,0,0,0,0,0,0
782153030,645837228,643739376,574116375,572019513,569922907,567826045,565729439,561535971,0,0,0,0,0,0,0,0,0,0,0,0,0,0,0,0,0
580818222,578721721,576218651,574121290,572023929,569926568,567829207,0,0,0,0,0,0,0,0,0,0,0,0,0,0,0,0,0,0,0
580816742,578720473,576219946,641231440,572025207,704145309,567830211,565732585,0,0,0,0,0,0,0,0,0,0,0,0,0,0,0,0,0,0
647907166,578705073,576610280,574135048,572036643,569938239,567839834,632850549,563643281,561544876,559446472,555249663,0,0,0,0,0,0,0,0,0,0,0,0,0,0
580760448,578679032,643361355,641259123,572048027,569945539,567843307,0,0,0,0,0,0,0,0,0,0,0,0,0,0,0,0,0,0,0
714955863,578657466,576571388,574170145,572067394,569965667,702080644,565760421,563657926,561555175,0,0,0,0,0,0,0,0,0,0,0,0,0,0,0,0
714965711,578375190,643379009,574168919,706285421,569966722,567866263,565765036,630772672,628671445,559461354,557360383,0,0,0,0,0,0,0,0,0,0,0,0,0,0
580545149,578414773,710512346,574186221,638777477,569566642,567464671,0,0,0,0,0,0,0,0,0,0,0,0,0,0,0,0,0,0,0
580126675,577948730,575848314,640858779,571651517,569553118,567454719,0,0,0,0,0,0,0,0,0,0,0,0,0,0,0,0,0,0,0
580144210,578047166,575838990,573741874,571644758,569547642,567450526,699571138,563256550,0,0,0,0,0,0,0,0,0,0,0,0,0,0,0,0,0
647253110,578047216,575839049,640850801,571644826,636656578,567450859,0,0,0,0,0,0,0,0,0,0,0,0,0,0,0,0,0,0,0
580193315,578088830,575986362,573886681,706004471,569518877,567424316,565329755,563235451,561140890,559046585,556952536,554858230,0,0,0,0,0,0,0,0,0,0,0,0,0
580208162,578099088,575994584,573893372,571608616,703733324,567422832,699547796,563237560,628253404,0,0,0,0,0,0,0,0,0,0,0,0,0,0,0,0
580227424,578108895,575791676,573701735,571611025,636629947,567431142,0,0,0,0,0,0,0,0,0,0,0,0,0,0,0,0,0,0,0
647361150,578129899,777099835,573684576,571595908,569507240,634526668,565329137,0,0,0,0,0,0,0,0,0,0,0,0,0,0,0,0,0,0
714528491,577807167,575733619,573647757,571562152,569476546,701608668,565305333,562568156,0,0,0,0,0,0,0,0,0,0,0,0,0,0,0,0,0
579875857,712029529,709954183,573650590,571564725,636587723,567392994,565307128,562568417,0,0,0,0,0,0,0,0,0,0,0,0,0,0,0,0,0
711736443,776786414,774498602,705273700,568939933,633932502,564324349,0,0,0,0,0,0,0,0,0,0,0,0,0,0,0,0,0,0,0
711648219,575312875,573205235,571097851,0,0,0,0,0,0,0,0,0,0,0,0,0,0,0,0,0,0,0,0,0,0
576996903,574900083,572802969,570706111,635717860,700620050,564305208,629316957,560110979,625122729,555916750,553819635,0,0,0,0,0,0,0,0,0,0,0,0,0,0
577152564,575034750,572927138,570819527,568712684,633418776,564223293,696354402,761376646,557963435,555876560,688007157,553126137,0,0,0,0,0,0,0,0,0,0,0,0,0
578712616,576617066,574520715,572424620,570328269,568231918,632845587,563638837,561540950,559443063,557344920,555247290,553149659,551052285,0,0,0,0,0,0,0,0,0,0,0,0
578684494,643704246,641611242,572046370,569945174,567844234,767069630,563642099,0,0,0,0,0,0,0,0,0,0,0,0,0,0,0,0,0,0
712876858,643679616,708695460,639493830,637401065,567868177,565766964,563665496,695781755,626571678,557361346,555259877,0,0,0,0,0,0,0,0,0,0,0,0,0,0
712680876,576346563,574239694,572132826,704244197,635028464,699595805,630387011,561178218,559078032,624086966,689095645,0,0,0,0,0,0,0,0,0,0,0,0,0,0
645138666,575852357,573753454,638763159,569555393,567456234,0,0,0,0,0,0,0,0,0,0,0,0,0,0,0,0,0,0,0,0
578118960,576009107,573905603,571802099,569507628,567416668,699544204,0,0,0,0,0,0,0,0,0,0,0,0,0,0,0,0,0,0,0
578114137,710225819,573906620,571805149,703720198,567409959,699534152,563223913,561131402,559038635,556946124,621962221,0,0,0,0,0,0,0,0,0,0,0,0,0,0
645237783,576015498,641019074,571804668,703724863,567417721,632437938,563240428,0,0,0,0,0,0,0,0,0,0,0,0,0,0,0,0,0,0
577889713,575801564,707926765,638725116,568858111,0,0,0,0,0,0,0,0,0,0,0,0,0,0,0,0,0,0,0,0,0
577769329,575694221,573607835,571521451,569435066,701565386,565261274,630283755,561088509,692590208,556279212,554185946,0,0,0,0,0,0,0,0,0,0,0,0,0,0
644734528,642648768,573103619,705218115,636006275,566794180,0,0,0,0,0,0,0,0,0,0,0,0,0,0,0,0,0,0,0,0
776256817,572831835,570733188,568634286,566534873,564284939,562190134,560095585,558001036,623015351,553811939,0,0,0,0,0,0,0,0,0,0,0,0,0,0,0
574957924,707071900,637860308,568461334,566370894,765606790,562189759,627208183,0,0,0,0,0,0,0,0,0,0,0,0,0,0,0,0,0,0
575037801,572918711,570503694,769754971,566353321,564277239,0,0,0,0,0,0,0,0,0,0,0,0,0,0,0,0,0,0,0,0
574628055,572550631,570473465,637467285,0,0,0,0,0,0,0,0,0,0,0,0,0,0,0,0,0,0,0,0,0,0
643633778,574440880,706574317,704206637,567879018,565769895,697877475,0,0,0,0,0,0,0,0,0,0,0,0,0,0,0,0,0,0,0
576500274,574419317,572337080,570255869,0,0,0,0,0,0,0,0,0,0,0,0,0,0,0,0,0,0,0,0,0,0
710715691,775744113,639445175,570255869,0,0,0,0,0,0,0,0,0,0,0,0,0,0,0,0,0,0,0,0,0,0
710592091,641374319,572156547,570047384,567938475,700047551,697938132,695828712,760828154,556985496,554883781,686999538,0,0,0,0,0,0,0,0,0,0,0,0,0,0
576384611,641383796,639274118,570055320,567945643,700054205,563726798,561617120,559507441,556987525,554885559,552783337,0,0,0,0,0,0,0,0,0,0,0,0,0,0
575943248,573846641,571749778,569652917,567556312,699677436,697477415,561162315,0,0,0,0,0,0,0,0,0,0,0,0,0,0,0,0,0,0
575948335,573851229,638862986,636765880,567559911,632463389,563257420,561160315,559062954,624074713,0,0,0,0,0,0,0,0,0,0,0,0,0,0,0,0
575963184,573865050,571766659,636777388,567570390,565345287,563249200,561153113,626165890,624070059,621973972,552769021,0,0,0,0,0,0,0,0,0,0,0,0,0,0
576006452,573907556,571808916,569710020,567611124,565305132,563209820,0,0,0,0,0,0,0,0,0,0,0,0,0,0,0,0,0,0,0
576011145,573907132,638911471,569507628,567416668,699544204,0,0,0,0,0,0,0,0,0,0,0,0,0,0,0,0,0,0,0,0
576119008,574008828,571502112,569418044,634442583,565248627,563164302,695297449,626104260,691128544,554175693,552086015,0,0,0,0,0,0,0,0,0,0,0,0,0,0
575681660,573596814,705729440,569426865,567341761,699473362,563170530,628194290,558369914,556277160,554184407,0,0,0,0,0,0,0,0,0,0,0,0,0,0,0
642665480,573462630,571368900,568888867,566788225,631796446,0,0,0,0,0,0,0,0,0,0,0,0,0,0,0,0,0,0,0,0
573338190,772595119,770293522,566842741,766045399,0,0,0,0,0,0,0,0,0,0,0,0,0,0,0,0,0,0,0,0,0
573320063,705454248,569153232,567069688,564789540,562679116,560567924,625565595,757672130,554235626,551740924,0,0,0,0,0,0,0,0,0,0,0,0,0,0,0
573235847,571124633,569013675,566902461,699008975,562681057,560569843,558035796,555934091,620941249,551730680,0,0,0,0,0,0,0,0,0,0,0,0,0,0,0
640056867,570836315,568724882,700831690,564218378,629244481,694270585,625079216,757213159,689439230,0,0,0,0,0,0,0,0,0,0,0,0,0,0,0,0
640942482,571740130,569559611,567459719,565359571,0,0,0,0,0,0,0,0,0,0,0,0,0,0,0,0,0,0,0,0,0
640491335,638413227,568938512,633931379,631816406,0,0,0,0,0,0,0,0,0,0,0,0,0,0,0,0,0,0,0,0,0
705362463,636138049,768239971,631906693,562683047,560567497,558451692,690153913,0,0,0,0,0,0,0,0,0,0,0,0,0,0,0,0,0,0
571663117,569564715,567466056,565367398,563268740,561170081,626180286,556972508,554873849,0,0,0,0,0,0,0,0,0,0,0,0,0,0,0,0,0
773235495,704007789,634780850,699482881,697407558,0,0,0,0,0,0,0,0,0,0,0,0,0,0,0,0,0,0,0,0,0
638438684,636354464,633918500,564699817,0,0,0,0,0,0,0,0,0,0,0,0,0,0,0,0,0,0,0,0,0,0
571261724,569182320,634212547,631860249,629745005,761848257,0,0,0,0,0,0,0,0,0,0,0,0,0,0,0,0,0,0,0,0
571521318,569446240,567371927,629679614,0,0,0,0,0,0,0,0,0,0,0,0,0,0,0,0,0,0,0,0,0,0
703339622,768380860,766117139,763992168,560539839,0,0,0,0,0,0,0,0,0,0,0,0,0,0,0,0,0,0,0,0,0
568680720,633681002,564463813,629279018,761410692,625107166,0,0,0,0,0,0,0,0,0,0,0,0,0,0,0,0,0,0,0,0
569659149,567562566,632574847,563368377,628379633,626170419,556964716,554868132,552771036,0,0,0,0,0,0,0,0,0,0,0,0,0,0,0,0,0
569701143,634706539,699711936,630341150,628250226,559050436,0,0,0,0,0,0,0,0,0,0,0,0,0,0,0,0,0,0,0,0
633749077,765843647,763460660,560063903,0,0,0,0,0,0,0,0,0,0,0,0,0,0,0,0,0,0,0,0,0,0
566677261,564561480,696663684,560331716,625030929,622952021,687981722,0,0,0,0,0,0,0,0,0,0,0,0,0,0,0,0,0,0,0
568122887,767373430,563972070,762914390,760795846,0,0,0,0,0,0,0,0,0,0,0,0,0,0,0,0,0,0,0,0,0
564396261,562224405,560125500,625135203,555927179,620936882,551729114,0,0,0,0,0,0,0,0,0,0,0,0,0,0,0,0,0,0,0
631678257,696669816,694553023,557918735,690058837,687981722,0,0,0,0,0,0,0,0,0,0,0,0,0,0,0,0,0,0,0,0
566025378,563940048,561855230,559519791,0,0,0,0,0,0,0,0,0,0,0,0,0,0,0,0,0,0,0,0,0,0
565974670,563902161,695872535,693751386,557411232,756615652,0,0,0,0,0,0,0,0,0,0,0,0,0,0,0,0,0,0,0,0
700201180,697990925,561657146,559541608,624534165,689526723,620301808,550689274,0,0,0,0,0,0,0,0,0,0,0,0,0,0,0,0,0,0
632628530,630524531,628421556,693426421,556935488,554845313,552755139,0,0,0,0,0,0,0,0,0,0,0,0,0,0,0,0,0,0,0
699425473,563137501,561066489,558376325,623395309,0,0,0,0,0,0,0,0,0,0,0,0,0,0,0,0,0,0,0,0,0
565092651,630104707,628007900,558390327,623402127,554196456,0,0,0,0,0,0,0,0,0,0,0,0,0,0,0,0,0,0,0,0
766372660,764285615,627623210,625515430,0,0,0,0,0,0,0,0,0,0,0,0,0,0,0,0,0,0,0,0,0,0
562832286,627875569,692711239,690582939,688455407,0,0,0,0,0,0,0,0,0,0,0,0,0,0,0,0,0,0,0,0,0
563528203,762721164,558973978,624021401,0,0,0,0,0,0,0,0,0,0,0,0,0,0,0,0,0,0,0,0,0,0
563119187,561053070,693203657,757604829,0,0,0,0,0,0,0,0,0,0,0,0,0,0,0,0,0,0,0,0,0,0
560262481,558155977,623003213,755133637,0,0,0,0,0,0,0,0,0,0,0,0,0,0,0,0,0,0,0,0,0,0
761428468,625100642,623169489,621084735,0,0,0,0,0,0,0,0,0,0,0,0,0,0,0,0,0,0,0,0,0,0
761608475,625283196,623176413,620898121,618811818,0,0,0,0,0,0,0,0,0,0,0,0,0,0,0,0,0,0,0,0,0
560389369,557875518,555807353,687955893,551670256,685247936,0,0,0,0,0,0,0,0,0,0,0,0,0,0,0,0,0,0,0,0
561968776,559868121,557327406,555234174,0,0,0,0,0,0,0,0,0,0,0,0,0,0,0,0,0,0,0,0,0,0
763219207,559804773,557715650,622382624,620277117,551062747,0,0,0,0,0,0,0,0,0,0,0,0,0,0,0,0,0,0,0,0
628993838,626904693,624815804,555283974,620287564,618182547,548968666,0,0,0,0,0,0,0,0,0,0,0,0,0,0,0,0,0,0,0
561778343,626817003,624567346,689552759,553211323,618196990,0,0,0,0,0,0,0,0,0,0,0,0,0,0,0,0,0,0,0,0
627589114,558370664,758209521,688966851,753941140,0,0,0,0,0,0,0,0,0,0,0,0,0,0,0,0,0,0,0,0,0
761809393,558377041,623835810,688955377,552599759,0,0,0,0,0,0,0,0,0,0,0,0,0,0,0,0,0,0,0,0,0
625138400,623451390,554263773,552185530,617215639,615136117,0,0,0,0,0,0,0,0,0,0,0,0,0,0,0,0,0,0,0,0
625138400,555941016,554263773,552185530,617215639,615136117,0,0,0,0,0,0,0,0,0,0,0,0,0,0,0,0,0,0,0,0
692219360,623006103,553792847,685906182,549775290,614793327,0,0,0,0,0,0,0,0,0,0,0,0,0,0,0,0,0,0,0,0
692201649,555870029,755318760,551912580,549832736,0,0,0,0,0,0,0,0,0,0,0,0,0,0,0,0,0,0,0,0,0
625085097,757184065,755335640,551934064,684075784,0,0,0,0,0,0,0,0,0,0,0,0,0,0,0,0,0,0,0,0,0
759303358,622967650,620848646,686149801,549855821,0,0,0,0,0,0,0,0,0,0,0,0,0,0,0,0,0,0,0,0,0
625088220,757189009,687962695,686143226,751174319,749097316,0,0,0,0,0,0,0,0,0,0,0,0,0,0,0,0,0,0,0,0
557979616,555863191,553745998,551628805,616955833,547769200,0,0,0,0,0,0,0,0,0,0,0,0,0,0,0,0,0,0,0,0
557979616,555862935,553745998,551628805,616955833,547769200,0,0,0,0,0,0,0,0,0,0,0,0,0,0,0,0,0,0,0,0
692183235,622948713,553713935,551963828,684112730,0,0,0,0,0,0,0,0,0,0,0,0,0,0,0,0,0,0,0,0,0
626537214,690078962,553743307,752951715,683725436,681607253,0,0,0,0,0,0,0,0,0,0,0,0,0,0,0,0,0,0,0,0
626537214,557321133,553743307,752951715,683725436,681607253,0,0,0,0,0,0,0,0,0,0,0,0,0,0,0,0,0,0,0,0
626539253,557324957,687953637,551616453,549496741,681594244,0,0,0,0,0,0,0,0,0,0,0,0,0,0,0,0,0,0,0,0
626536661,557320288,687928009,685800866,549456507,0,0,0,0,0,0,0,0,0,0,0,0,0,0,0,0,0,0,0,0,0
626536661,690054384,687928009,685800866,549456507,0,0,0,0,0,0,0,0,0,0,0,0,0,0,0,0,0,0,0,0,0
626553852,624460969,555259223,553166340,685655975,549336916,0,0,0,0,0,0,0,0,0,0,0,0,0,0,0,0,0,0,0,0
760780738,758696253,622723241,553505314,0,0,0,0,0,0,0,0,0,0,0,0,0,0,0,0,0,0,0,0,0,0
760360700,691131822,689011295,686890766,752229052,615937901,0,0,0,0,0,0,0,0,0,0,0,0,0,0,0,0,0,0,0,0
693148740,556859258,689003951,686931940,0,0,0,0,0,0,0,0,0,0,0,0,0,0,0,0,0,0,0,0,0,0
625496818,556288434,554188915,552089396,550425838,548331697,0,0,0,0,0,0,0,0,0,0,0,0,0,0,0,0,0,0,0,0
625517565,690539717,554235532,686365779,550061594,682462680,680333615,0,0,0,0,0,0,0,0,0,0,0,0,0,0,0,0,0,0,0
555931129,620948180,619251451,550054887,682184659,545898134,678046041,541740613,539652913,604674076,0,0,0,0,0,0,0,0,0,0,0,0,0,0,0,0
555925216,688051088,551741760,550094076,548016614,545980326,0,0,0,0,0,0,0,0,0,0,0,0,0,0,0,0,0,0,0,0
556042039,621050780,551712525,549618547,614633176,0,0,0,0,0,0,0,0,0,0,0,0,0,0,0,0,0,0,0,0,0
555902949,553800633,551698317,616704609,547493174,545590191,543508780,742743296,0,0,0,0,0,0,0,0,0,0,0,0,0,0,0,0,0,0
555890926,553784006,551677854,549570678,547463758,612742353,0,0,0,0,0,0,0,0,0,0,0,0,0,0,0,0,0,0,0,0
555885274,620885929,618777209,549559369,681668121,545652357,0,0,0,0,0,0,0,0,0,0,0,0,0,0,0,0,0,0,0,0
757192170,687952545,752931415,549474319,0,0,0,0,0,0,0,0,0,0,0,0,0,0,0,0,0,0,0,0,0,0
759096582,622777999,553138456,618154400,0,0,0,0,0,0,0,0,0,0,0,0,0,0,0,0,0,0,0,0,0,0
557341416,622352562,620254844,618157126,548950545,547271526,0,0,0,0,0,0,0,0,0,0,0,0,0,0,0,0,0,0,0,0
624450493,555243891,553145897,551463893,549367435,0,0,0,0,0,0,0,0,0,0,0,0,0,0,0,0,0,0,0,0,0
557341624,555243883,553146142,551463880,616476027,0,0,0,0,0,0,0,0,0,0,0,0,0,0,0,0,0,0,0,0,0
691569092,555258237,553164854,551440357,616447901,0,0,0,0,0,0,0,0,0,0,0,0,0,0,0,0,0,0,0,0,0
557349878,689473479,553161880,551068009,548974138,614345379,545128982,0,0,0,0,0,0,0,0,0,0,0,0,0,0,0,0,0,0,0
758682616,555265226,553174172,551083373,683210047,614318507,746420000,0,0,0,0,0,0,0,0,0,0,0,0,0,0,0,0,0,0,0
557376470,555294359,553213272,551131672,683484879,0,0,0,0,0,0,0,0,0,0,0,0,0,0,0,0,0,0,0,0,0
758313651,756653756,687489388,685435418,0,0,0,0,0,0,0,0,0,0,0,0,0,0,0,0,0,0,0,0,0,0
556973298,554883469,552793642,551152614,683297221,0,0,0,0,0,0,0,0,0,0,0,0,0,0,0,0,0,0,0,0,0
624078309,621982895,619887737,550683716,548588302,546571625,0,0,0,0,0,0,0,0,0,0,0,0,0,0,0,0,0,0,0,0
556966627,554870637,619985654,550778752,0,0,0,0,0,0,0,0,0,0,0,0,0,0,0,0,0,0,0,0,0,0
556937426,756140366,620069068,617998408,0,0,0,0,0,0,0,0,0,0,0,0,0,0,0,0,0,0,0,0,0,0
556932042,554820488,686925894,617704963,615886782,0,0,0,0,0,0,0,0,0,0,0,0,0,0,0,0,0,0,0,0,0
691150295,554821531,619818334,617706274,615885539,546722864,0,0,0,0,0,0,0,0,0,0,0,0,0,0,0,0,0,0,0,0
553829331,551736221,549642856,614658354,680141021,543866799,676000672,0,0,0,0,0,0,0,0,0,0,0,0,0,0,0,0,0,0,0
553820651,551723710,549626771,547529832,679755237,610547558,541340989,539244052,0,0,0,0,0,0,0,0,0,0,0,0,0,0,0,0,0,0
553819386,551722196,616733613,547527559,545429781,543444894,608456567,539250769,537153579,0,0,0,0,0,0,0,0,0,0,0,0,0,0,0,0,0
688237060,686119309,750904099,748827307,0,0,0,0,0,0,0,0,0,0,0,0,0,0,0,0,0,0,0,0,0,0
553799163,618802644,549588654,748810632,545362710,543535519,541446776,539358034,537268013,0,0,0,0,0,0,0,0,0,0,0,0,0,0,0,0,0
553731324,618720734,683709632,547371937,0,0,0,0,0,0,0,0,0,0,0,0,0,0,0,0,0,0,0,0,0,0
553731324,551610343,683706318,681584820,0,0,0,0,0,0,0,0,0,0,0,0,0,0,0,0,0,0,0,0,0,0
622347946,553138513,618582764,549379731,0,0,0,0,0,0,0,0,0,0,0,0,0,0,0,0,0,0,0,0,0,0
554868185,552770992,550673799,548576606,546589150,544492130,542394936,607406606,0,0,0,0,0,0,0,0,0,0,0,0,0,0,0,0,0,0
554826466,552716477,550605972,548495211,680926444,544651374,676785220,0,0,0,0,0,0,0,0,0,0,0,0,0,0,0,0,0,0,0
689043169,552714168,550602639,615599465,546718706,0,0,0,0,0,0,0,0,0,0,0,0,0,0,0,0,0,0,0,0,0
685962750,550031602,682157279,680074663,677992815,675900764,673808714,537498935,0,0,0,0,0,0,0,0,0,0,0,0,0,0,0,0,0,0
551744760,617144045,547945173,680086411,543793217,541703208,606722063,537725424,0,0,0,0,0,0,0,0,0,0,0,0,0,0,0,0,0,0
551706363,549605607,681722578,545397141,543290200,541189187,539088431,536987418,0,0,0,0,0,0,0,0,0,0,0,0,0,0,0,0,0,0
618810873,549600481,547498696,746715516,543278641,541177112,539312890,537220065,0,0,0,0,0,0,0,0,0,0,0,0,0,0,0,0,0,0
553132281,685248993,548930505,612481481,543257242,541154186,539050875,536947819,0,0,0,0,0,0,0,0,0,0,0,0,0,0,0,0,0,0
620256225,551049368,548951375,547271275,0,0,0,0,0,0,0,0,0,0,0,0,0,0,0,0,0,0,0,0,0,0
553147893,685268179,616062128,546855497,545171418,543074232,540977301,538880115,0,0,0,0,0,0,0,0,0,0,0,0,0,0,0,0,0,0
553171163,618196365,750329664,547175760,0,0,0,0,0,0,0,0,0,0,0,0,0,0,0,0,0,0,0,0,0,0
552788437,685321459,683244236,614097752,0,0,0,0,0,0,0,0,0,0,0,0,0,0,0,0,0,0,0,0,0,0
619863507,550652326,548549753,613740779,544549731,542457909,607474694,0,0,0,0,0,0,0,0,0,0,0,0,0,0,0,0,0,0,0
552101630,550004969,547908309,545812376,543716188,541619528,539522612,537425951,0,0,0,0,0,0,0,0,0,0,0,0,0,0,0,0,0,0
686320603,550006710,547910545,680033571,544110253,609121160,539914084,537815872,0,0,0,0,0,0,0,0,0,0,0,0,0,0,0,0,0,0
552119277,550026197,547933118,545848438,543762991,675887639,539866104,537764832,0,0,0,0,0,0,0,0,0,0,0,0,0,0,0,0,0,0
549638390,547543268,545452975,543768300,541675747,606692058,537490386,0,0,0,0,0,0,0,0,0,0,0,0,0,0,0,0,0,0,0
549609708,614615745,545392195,543498692,541407130,740641905,537223498,0,0,0,0,0,0,0,0,0,0,0,0,0,0,0,0,0,0,0
551062270,548967660,546878388,544788860,744020841,540599895,538505284,0,0,0,0,0,0,0,0,0,0,0,0,0,0,0,0,0,0,0
617778933,615678897,546603235,544513301,0,0,0,0,0,0,0,0,0,0,0,0,0,0,0,0,0,0,0,0,0,0
547536123,545442247,543348627,541252738,539156593,671278177,0,0,0,0,0,0,0,0,0,0,0,0,0,0,0,0,0,0,0,0
547519729,545408057,543480447,675605570,539295493,0,0,0,0,0,0,0,0,0,0,0,0,0,0,0,0,0,0,0,0,0
614621687,612517834,543304862,541205391,539105920,537006449,0,0,0,0,0,0,0,0,0,0,0,0,0,0,0,0,0,0,0,0
748831724,545392284,610389069,541177651,673292825,604329977,0,0,0,0,0,0,0,0,0,0,0,0,0,0,0,0,0,0,0,0
748831724,545391517,543278926,675393843,539073817,537222650,0,0,0,0,0,0,0,0,0,0,0,0,0,0,0,0,0,0,0,0
547507711,679593567,610641851,541447558,606470224,738602267,0,0,0,0,0,0,0,0,0,0,0,0,0,0,0,0,0,0,0,0
683171061,546856130,544758671,542661502,540564077,538466908,0,0,0,0,0,0,0,0,0,0,0,0,0,0,0,0,0,0,0,0
548956150,546860450,611873870,542668339,540571671,605980147,0,0,0,0,0,0,0,0,0,0,0,0,0,0,0,0,0,0,0,0
548568821,546468034,544366992,542268544,540170095,538071647,0,0,0,0,0,0,0,0,0,0,0,0,0,0,0,0,0,0,0,0
548568318,613575879,544366992,542268544,540170095,538071647,0,0,0,0,0,0,0,0,0,0,0,0,0,0,0,0,0,0,0,0
548568318,613575888,544365731,542267284,540168580,538070133,0,0,0,0,0,0,0,0,0,0,0,0,0,0,0,0,0,0,0,0
548557551,546451385,544345219,676462705,540145759,538045773,0,0,0,0,0,0,0,0,0,0,0,0,0,0,0,0,0,0,0,0
547883507,613521797,544604396,542523067,540441737,739687000,0,0,0,0,0,0,0,0,0,0,0,0,0,0,0,0,0,0,0,0
545833469,543745243,541650896,539556549,537461689,0,0,0,0,0,0,0,0,0,0,0,0,0,0,0,0,0,0,0,0,0
545452783,543750372,675874009,539563213,537469889,0,0,0,0,0,0,0,0,0,0,0,0,0,0,0,0,0,0,0,0,0
545448434,543751671,675875820,539565537,537472727,0,0,0,0,0,0,0,0,0,0,0,0,0,0,0,0,0,0,0,0,0
545866742,543789524,541699016,539609019,671736238,0,0,0,0,0,0,0,0,0,0,0,0,0,0,0,0,0,0,0,0,0
545866742,543788504,541697742,539606979,671733689,0,0,0,0,0,0,0,0,0,0,0,0,0,0,0,0,0,0,0,0,0
746780277,543823277,743071120,539666036,738913879,0,0,0,0,0,0,0,0,0,0,0,0,0,0,0,0,0,0,0,0,0
545441770,543351458,541256586,539161714,537066842,0,0,0,0,0,0,0,0,0,0,0,0,0,0,0,0,0,0,0,0,0
612549368,543346645,541250505,539154621,537058737,0,0,0,0,0,0,0,0,0,0,0,0,0,0,0,0,0,0,0,0,0
545437854,543344934,541333498,673452498,537136298,0,0,0,0,0,0,0,0,0,0,0,0,0,0,0,0,0,0,0,0,0
746730185,543289965,541187150,539084336,536981265,0,0,0,0,0,0,0,0,0,0,0,0,0,0,0,0,0,0,0,0,0
545392568,677489489,608275502,673278988,671455205,0,0,0,0,0,0,0,0,0,0,0,0,0,0,0,0,0,0,0,0,0
681056498,543293167,541191908,539090650,536989391,0,0,0,0,0,0,0,0,0,0,0,0,0,0,0,0,0,0,0,0,0
546838712,543257049,541149896,606151606,536936357,0,0,0,0,0,0,0,0,0,0,0,0,0,0,0,0,0,0,0,0,0
546853364,544753834,743982225,540557689,538459744,0,0,0,0,0,0,0,0,0,0,0,0,0,0,0,0,0,0,0,0,0
546854322,611864404,542657845,540560150,538883823,0,0,0,0,0,0,0,0,0,0,0,0,0,0,0,0,0,0,0,0,0
546864536,544771883,542676231,675177436,538861240,0,0,0,0,0,0,0,0,0,0,0,0,0,0,0,0,0,0,0,0,0
613974172,544774163,543055837,608065455,538857346,0,0,0,0,0,0,0,0,0,0,0,0,0,0,0,0,0,0,0,0,0
546864638,544766917,542670768,540574619,605587078,0,0,0,0,0,0,0,0,0,0,0,0,0,0,0,0,0,0,0,0,0
681120637,679307223,610090146,540872813,740091191,0,0,0,0,0,0,0,0,0,0,0,0,0,0,0,0,0,0,0,0,0
546914169,545070029,677177239,540848481,605846314,0,0,0,0,0,0,0,0,0,0,0,0,0,0,0,0,0,0,0,0,0
546885106,679014608,542702788,540607929,538513837,0,0,0,0,0,0,0,0,0,0,0,0,0,0,0,0,0,0,0,0,0
546883578,544798158,542704319,674828720,538517921,0,0,0,0,0,0,0,0,0,0,0,0,0,0,0,0,0,0,0,0,0
546499822,544806871,744042948,674843570,605644447,0,0,0,0,0,0,0,0,0,0,0,0,0,0,0,0,0,0,0,0,0
614035900,611988811,677017382,675037689,0,0,0,0,0,0,0,0,0,0,0,0,0,0,0,0,0,0,0,0,0,0
546494435,544403885,676526491,674836216,538526191,0,0,0,0,0,0,0,0,0,0,0,0,0,0,0,0,0,0,0,0,0
546494146,544407382,542737902,540649952,538562002,0,0,0,0,0,0,0,0,0,0,0,0,0,0,0,0,0,0,0,0,0
546494146,679043323,542737902,540649952,538562002,0,0,0,0,0,0,0,0,0,0,0,0,0,0,0,0,0,0,0,0,0
546496406,544865746,677004729,540709278,672849028,0,0,0,0,0,0,0,0,0,0,0,0,0,0,0,0,0,0,0,0,0
613590191,544385335,676506126,540293858,538196409,0,0,0,0,0,0,0,0,0,0,0,0,0,0,0,0,0,0,0,0,0
546480629,544383916,542286740,540189819,605201250,0,0,0,0,0,0,0,0,0,0,0,0,0,0,0,0,0,0,0,0,0
613584327,544374048,542404325,540308653,538212981,0,0,0,0,0,0,0,0,0,0,0,0,0,0,0,0,0,0,0,0,0
546473669,544372568,542274100,607284496,605322984,0,0,0,0,0,0,0,0,0,0,0,0,0,0,0,0,0,0,0,0,0
546473669,544372634,542274446,607285631,538078833,0,0,0,0,0,0,0,0,0,0,0,0,0,0,0,0,0,0,0,0,0
546473669,544372125,542274446,607285631,538078833,0,0,0,0,0,0,0,0,0,0,0,0,0,0,0,0,0,0,0,0,0
546448783,544542461,676669901,674579613,538271853,0,0,0,0,0,0,0,0,0,0,0,0,0,0,0,0,0,0,0,0,0
546448783,611440128,676669901,674579613,538271853,0,0,0,0,0,0,0,0,0,0,0,0,0,0,0,0,0,0,0,0,0
680658086,544316453,676687094,540381387,538293408,0,0,0,0,0,0,0,0,0,0,0,0,0,0,0,0,0,0,0,0,0
546404970,745944507,676756098,540459081,0,0,0,0,0,0,0,0,0,0,0,0,0,0,0,0,0,0,0,0,0,0
546436577,678526090,542200941,540093520,537986099,0,0,0,0,0,0,0,0,0,0,0,0,0,0,0,0,0,0,0,0,0
545790969,678563835,542245104,540144100,672260313,0,0,0,0,0,0,0,0,0,0,0,0,0,0,0,0,0,0,0,0,0
680002947,544282297,542167965,540053120,537938019,0,0,0,0,0,0,0,0,0,0,0,0,0,0,0,0,0,0,0,0,0
612901020,544307451,542199789,674309856,537984978,0,0,0,0,0,0,0,0,0,0,0,0,0,0,0,0,0,0,0,0,0
680017860,544144293,676381687,540043235,537922511,0,0,0,0,0,0,0,0,0,0,0,0,0,0,0,0,0,0,0,0,0
545803992,543703940,675823464,539507788,537409584,0,0,0,0,0,0,0,0,0,0,0,0,0,0,0,0,0,0,0,0,0
545809082,543712541,542022112,607033515,537827191,0,0,0,0,0,0,0,0,0,0,0,0,0,0,0,0,0,0,0,0,0
545814469,543721061,541625157,539529254,537815551,0,0,0,0,0,0,0,0,0,0,0,0,0,0,0,0,0,0,0,0,0
612937652,677968660,541977814,606982816,537770347,0,0,0,0,0,0,0,0,0,0,0,0,0,0,0,0,0,0,0,0,0
612945049,543747933,541653833,539558965,537464865,0,0,0,0,0,0,0,0,0,0,0,0,0,0,0,0,0,0,0,0,0
612945049,610858330,608763973,539561008,604576026,0,0,0,0,0,0,0,0,0,0,0,0,0,0,0,0,0,0,0,0,0
612946645,543758463,675885155,539576646,537485609,0,0,0,0,0,0,0,0,0,0,0,0,0,0,0,0,0,0,0,0,0
613974172,544770512,542673630,538480379,0,0,0,0,0,0,0,0,0,0,0,0,0,0,0,0,0,0,0,0,0,0
543355644,541260277,539164653,537449971,0,0,0,0,0,0,0,0,0,0,0,0,0,0,0,0,0,0,0,0,0,0
543357654,541655276,539565016,537475013,0,0,0,0,0,0,0,0,0,0,0,0,0,0,0,0,0,0,0,0,0,0
677568761,541256681,539162073,537457146,0,0,0,0,0,0,0,0,0,0,0,0,0,0,0,0,0,0,0,0,0,0
677553839,608348306,606251638,604155226,0,0,0,0,0,0,0,0,0,0,0,0,0,0,0,0,0,0,0,0,0,0
543320036,541221335,539122633,537023932,0,0,0,0,0,0,0,0,0,0,0,0,0,0,0,0,0,0,0,0,0,0
543309510,541208494,673324950,537006205,0,0,0,0,0,0,0,0,0,0,0,0,0,0,0,0,0,0,0,0,0,0
543304883,541204126,539102856,537002098,0,0,0,0,0,0,0,0,0,0,0,0,0,0,0,0,0,0,0,0,0,0
543198071,541090149,538982229,536874053,0,0,0,0,0,0,0,0,0,0,0,0,0,0,0,0,0,0,0,0,0,0
544748987,542649758,540550786,538451557,0,0,0,0,0,0,0,0,0,0,0,0,0,0,0,0,0,0,0,0,0,0
544760260,542663087,540565914,538468998,0,0,0,0,0,0,0,0,0,0,0,0,0,0,0,0,0,0,0,0,0,0
544760812,542663640,540566725,538469809,0,0,0,0,0,0,0,0,0,0,0,0,0,0,0,0,0,0,0,0,0,0
544766458,542669809,540573160,672694239,0,0,0,0,0,0,0,0,0,0,0,0,0,0,0,0,0,0,0,0,0,0
544767721,542672333,540577202,538482071,0,0,0,0,0,0,0,0,0,0,0,0,0,0,0,0,0,0,0,0,0,0
544772843,542673630,607683281,538475205,0,0,0,0,0,0,0,0,0,0,0,0,0,0,0,0,0,0,0,0,0,0
544775666,542680294,540584922,538489550,0,0,0,0,0,0,0,0,0,0,0,0,0,0,0,0,0,0,0,0,0,0
678995701,542685404,540592580,538499755,0,0,0,0,0,0,0,0,0,0,0,0,0,0,0,0,0,0,0,0,0,0
544788701,609805510,540604592,538511769,0,0,0,0,0,0,0,0,0,0,0,0,0,0,0,0,0,0,0,0,0,0
544789738,542696922,607712714,538510011,0,0,0,0,0,0,0,0,0,0,0,0,0,0,0,0,0,0,0,0,0,0
544402157,676526041,674821365,538510823,0,0,0,0,0,0,0,0,0,0,0,0,0,0,0,0,0,0,0,0,0,0
544394737,542299106,540203732,538108101,0,0,0,0,0,0,0,0,0,0,0,0,0,0,0,0,0,0,0,0,0,0
544402874,542306206,540209539,538112871,0,0,0,0,0,0,0,0,0,0,0,0,0,0,0,0,0,0,0,0,0,0
544392933,542297047,540200905,538105019,0,0,0,0,0,0,0,0,0,0,0,0,0,0,0,0,0,0,0,0,0,0
544379063,542281370,540183677,538085984,0,0,0,0,0,0,0,0,0,0,0,0,0,0,0,0,0,0,0,0,0,0
544355872,542425829,540333485,538241141,0,0,0,0,0,0,0,0,0,0,0,0,0,0,0,0,0,0,0,0,0,0
544368625,542269150,540169419,538069944,0,0,0,0,0,0,0,0,0,0,0,0,0,0,0,0,0,0,0,0,0,0
544358861,542258361,540157862,672275090,0,0,0,0,0,0,0,0,0,0,0,0,0,0,0,0,0,0,0,0,0,0
544339352,542234485,540129618,538024751,0,0,0,0,0,0,0,0,0,0,0,0,0,0,0,0,0,0,0,0,0,0
544334276,609339310,674344090,538022533,0,0,0,0,0,0,0,0,0,0,0,0,0,0,0,0,0,0,0,0,0,0
543699450,541601266,539503081,537404897,0,0,0,0,0,0,0,0,0,0,0,0,0,0,0,0,0,0,0,0,0,0
544300777,542192346,540084172,537977280,0,0,0,0,0,0,0,0,0,0,0,0,0,0,0,0,0,0,0,0,0,0
544268791,676377325,674268388,537941979,0,0,0,0,0,0,0,0,0,0,0,0,0,0,0,0,0,0,0,0,0,0
543724531,541628903,539533275,537437647,0,0,0,0,0,0,0,0,0,0,0,0,0,0,0,0,0,0,0,0,0,0
543729138,541633513,539537633,537442009,0,0,0,0,0,0,0,0,0,0,0,0,0,0,0,0,0,0,0,0,0,0
589487857,587389432,585291263,0,0,0,0,0,0,0,0,0,0,0,0,0,0,0,0,0,0,0,0,0,0,0
589430497,587340283,586682606,0,0,0,0,0,0,0,0,0,0,0,0,0,0,0,0,0,0,0,0,0,0,0
590892519,588795888,586699001,0,0,0,0,0,0,0,0,0,0,0,0,0,0,0,0,0,0,0,0,0,0,0
590541040,655551478,586344189,0,0,0,0,0,0,0,0,0,0,0,0,0,0,0,0,0,0,0,0,0,0,0
590534893,588436724,586338556,0,0,0,0,0,0,0,0,0,0,0,0,0,0,0,0,0,0,0,0,0,0,0
590518763,588421618,586324474,0,0,0,0,0,0,0,0,0,0,0,0,0,0,0,0,0,0,0,0,0,0,0
590401573,588311106,653329245,0,0,0,0,0,0,0,0,0,0,0,0,0,0,0,0,0,0,0,0,0,0,0
590210238,588115413,586020842,0,0,0,0,0,0,0,0,0,0,0,0,0,0,0,0,0,0,0,0,0,0,0
589864426,587766258,585667834,0,0,0,0,0,0,0,0,0,0,0,0,0,0,0,0,0,0,0,0,0,0,0
587800806,585699569,583598331,0,0,0,0,0,0,0,0,0,0,0,0,0,0,0,0,0,0,0,0,0,0,0
588654109,586547280,584441222,0,0,0,0,0,0,0,0,0,0,0,0,0,0,0,0,0,0,0,0,0,0,0
585374029,583277947,581183192,0,0,0,0,0,0,0,0,0,0,0,0,0,0,0,0,0,0,0,0,0,0,0
582402069,714469082,577870453,0,0,0,0,0,0,0,0,0,0,0,0,0,0,0,0,0,0,0,0,0,0,0
579772966,577675442,575168275,0,0,0,0,0,0,0,0,0,0,0,0,0,0,0,0,0,0,0,0,0,0,0
575218071,707330705,705226635,0,0,0,0,0,0,0,0,0,0,0,0,0,0,0,0,0,0,0,0,0,0,0
774286294,771833198,769799162,0,0,0,0,0,0,0,0,0,0,0,0,0,0,0,0,0,0,0,0,0,0,0
573407984,638118459,568872069,0,0,0,0,0,0,0,0,0,0,0,0,0,0,0,0,0,0,0,0,0,0,0
638076740,568872069,566776517,0,0,0,0,0,0,0,0,0,0,0,0,0,0,0,0,0,0,0,0,0,0,0
635701443,767740232,631420608,0,0,0,0,0,0,0,0,0,0,0,0,0,0,0,0,0,0,0,0,0,0,0
568358488,566283655,564208055,0,0,0,0,0,0,0,0,0,0,0,0,0,0,0,0,0,0,0,0,0,0,0
569557031,567456815,699573817,0,0,0,0,0,0,0,0,0,0,0,0,0,0,0,0,0,0,0,0,0,0,0
770574209,768133902,631807388,0,0,0,0,0,0,0,0,0,0,0,0,0,0,0,0,0,0,0,0,0,0,0
769583088,565717325,630733736,0,0,0,0,0,0,0,0,0,0,0,0,0,0,0,0,0,0,0,0,0,0,0
702212162,767165094,630385316,0,0,0,0,0,0,0,0,0,0,0,0,0,0,0,0,0,0,0,0,0,0,0
768919599,699550721,630356418,0,0,0,0,0,0,0,0,0,0,0,0,0,0,0,0,0,0,0,0,0,0,0
768919599,632593649,630356418,0,0,0,0,0,0,0,0,0,0,0,0,0,0,0,0,0,0,0,0,0,0,0
699071269,629797281,627234528,0,0,0,0,0,0,0,0,0,0,0,0,0,0,0,0,0,0,0,0,0,0,0
631538521,629308724,560108543,0,0,0,0,0,0,0,0,0,0,0,0,0,0,0,0,0,0,0,0,0,0,0
566108501,564018875,628663843,0,0,0,0,0,0,0,0,0,0,0,0,0,0,0,0,0,0,0,0,0,0,0
697310933,628026103,625491127,0,0,0,0,0,0,0,0,0,0,0,0,0,0,0,0,0,0,0,0,0,0,0
697310933,695263998,625491127,0,0,0,0,0,0,0,0,0,0,0,0,0,0,0,0,0,0,0,0,0,0,0
630068865,560513802,625515411,0,0,0,0,0,0,0,0,0,0,0,0,0,0,0,0,0,0,0,0,0,0,0
761852620,558703841,556550151,0,0,0,0,0,0,0,0,0,0,0,0,0,0,0,0,0,0,0,0,0,0,0
762058890,625600581,690154477,0,0,0,0,0,0,0,0,0,0,0,0,0,0,0,0,0,0,0,0,0,0,0
694846989,692703867,757668840,0,0,0,0,0,0,0,0,0,0,0,0,0,0,0,0,0,0,0,0,0,0,0
628663843,559451790,557348599,0,0,0,0,0,0,0,0,0,0,0,0,0,0,0,0,0,0,0,0,0,0,0
627589339,625933291,556845541,0,0,0,0,0,0,0,0,0,0,0,0,0,0,0,0,0,0,0,0,0,0,0
627593454,558381127,623828882,0,0,0,0,0,0,0,0,0,0,0,0,0,0,0,0,0,0,0,0,0,0,0
558038270,757692237,554482565,0,0,0,0,0,0,0,0,0,0,0,0,0,0,0,0,0,0,0,0,0,0,0
759746547,757706785,755786302,0,0,0,0,0,0,0,0,0,0,0,0,0,0,0,0,0,0,0,0,0,0,0
558505423,556381681,755164277,0,0,0,0,0,0,0,0,0,0,0,0,0,0,0,0,0,0,0,0,0,0,0
558126696,623137532,620926880,0,0,0,0,0,0,0,0,0,0,0,0,0,0,0,0,0,0,0,0,0,0,0
558126696,623023114,620926880,0,0,0,0,0,0,0,0,0,0,0,0,0,0,0,0,0,0,0,0,0,0,0
558012399,623021351,621044578,0,0,0,0,0,0,0,0,0,0,0,0,0,0,0,0,0,0,0,0,0,0,0
559569804,557437380,555304445,0,0,0,0,0,0,0,0,0,0,0,0,0,0,0,0,0,0,0,0,0,0,0
558945022,623944176,621833953,0,0,0,0,0,0,0,0,0,0,0,0,0,0,0,0,0,0,0,0,0,0,0
625888372,623418119,621314459,0,0,0,0,0,0,0,0,0,0,0,0,0,0,0,0,0,0,0,0,0,0,0
760010861,757703170,621352344,0,0,0,0,0,0,0,0,0,0,0,0,0,0,0,0,0,0,0,0,0,0,0
556550151,755838709,552138721,0,0,0,0,0,0,0,0,0,0,0,0,0,0,0,0,0,0,0,0,0,0,0
556550151,755839737,753463781,0,0,0,0,0,0,0,0,0,0,0,0,0,0,0,0,0,0,0,0,0,0,0
556550151,688730360,753463781,0,0,0,0,0,0,0,0,0,0,0,0,0,0,0,0,0,0,0,0,0,0,0
757683880,755629616,552358829,0,0,0,0,0,0,0,0,0,0,0,0,0,0,0,0,0,0,0,0,0,0,0
555916610,621038040,551831920,0,0,0,0,0,0,0,0,0,0,0,0,0,0,0,0,0,0,0,0,0,0,0
623009901,621063381,753193787,0,0,0,0,0,0,0,0,0,0,0,0,0,0,0,0,0,0,0,0,0,0,0
623414399,621696478,619592010,0,0,0,0,0,0,0,0,0,0,0,0,0,0,0,0,0,0,0,0,0,0,0
620936415,618852364,751464663,0,0,0,0,0,0,0,0,0,0,0,0,0,0,0,0,0,0,0,0,0,0,0
553543870,551054022,547921755,0,0,0,0,0,0,0,0,0,0,0,0,0,0,0,0,0,0,0,0,0,0,0
754120688,752456535,616336788,0,0,0,0,0,0,0,0,0,0,0,0,0,0,0,0,0,0,0,0,0,0,0
553393551,685391623,683251583,0,0,0,0,0,0,0,0,0,0,0,0,0,0,0,0,0,0,0,0,0,0,0
754522875,685363870,683312962,0,0,0,0,0,0,0,0,0,0,0,0,0,0,0,0,0,0,0,0,0,0,0
552093687,549993672,547893913,0,0,0,0,0,0,0,0,0,0,0,0,0,0,0,0,0,0,0,0,0,0,0
619631807,550428777,615443218,0,0,0,0,0,0,0,0,0,0,0,0,0,0,0,0,0,0,0,0,0,0,0
616749811,749291473,747377874,0,0,0,0,0,0,0,0,0,0,0,0,0,0,0,0,0,0,0,0,0,0,0
547548626,545901445,611076595,0,0,0,0,0,0,0,0,0,0,0,0,0,0,0,0,0,0,0,0,0,0,0
548956815,614368731,545159218,0,0,0,0,0,0,0,0,0,0,0,0,0,0,0,0,0,0,0,0,0,0,0
615698150,681174967,544931648,0,0,0,0,0,0,0,0,0,0,0,0,0,0,0,0,0,0,0,0,0,0,0
615027929,546180074,611168003,0,0,0,0,0,0,0,0,0,0,0,0,0,0,0,0,0,0,0,0,0,0,0
546856586,612279697,543073858,0,0,0,0,0,0,0,0,0,0,0,0,0,0,0,0,0,0,0,0,0,0,0
546919474,545061204,677166349,0,0,0,0,0,0,0,0,0,0,0,0,0,0,0,0,0,0,0,0,0,0,0
613585883,611608989,609513523,0,0,0,0,0,0,0,0,0,0,0,0,0,0,0,0,0,0,0,0,0,0,0
613548262,544628929,542564960,0,0,0,0,0,0,0,0,0,0,0,0,0,0,0,0,0,0,0,0,0,0,0
543564126,675694135,539388944,0,0,0,0,0,0,0,0,0,0,0,0,0,0,0,0,0,0,0,0,0,0,0
541227263,539129076,537030890,0,0,0,0,0,0,0,0,0,0,0,0,0,0,0,0,0,0,0,0,0,0,0
541211634,539110111,537008333,0,0,0,0,0,0,0,0,0,0,0,0,0,0,0,0,0,0,0,0,0,0,0
542663137,540556523,538449653,0,0,0,0,0,0,0,0,0,0,0,0,0,0,0,0,0,0,0,0,0,0,0
542669726,607677803,538468153,0,0,0,0,0,0,0,0,0,0,0,0,0,0,0,0,0,0,0,0,0,0,0
542664703,540568051,538471144,0,0,0,0,0,0,0,0,0,0,0,0,0,0,0,0,0,0,0,0,0,0,0
609794287,540593109,605609913,0,0,0,0,0,0,0,0,0,0,0,0,0,0,0,0,0,0,0,0,0,0,0
542703022,674848905,538560100,0,0,0,0,0,0,0,0,0,0,0,0,0,0,0,0,0,0,0,0,0,0,0
542295284,540199653,538104022,0,0,0,0,0,0,0,0,0,0,0,0,0,0,0,0,0,0,0,0,0,0,0
542275973,674396271,538082138,0,0,0,0,0,0,0,0,0,0,0,0,0,0,0,0,0,0,0,0,0,0,0
542191986,674301013,739302200,0,0,0,0,0,0,0,0,0,0,0,0,0,0,0,0,0,0,0,0,0,0,0
