0,1,2,3,4,5,6,7,8,9,10,11,12,13,14,15,16,17,18,19,20,21,22,23,24,25
590136033,588048125,585759007,583652667,782863219,713638572,577309910,575204081,573102335,570617078,0,0,0,0,0,0,0,0,0,0,0,0,0,0,0,0
590136033,654973442,585759007,583652667,782863219,713638572,577309910,575204081,573102335,570617078,0,0,0,0,0,0,0,0,0,0,0,0,0,0,0,0
590095819,588010471,585793289,583684390,581564510,579443863,577329090,575220190,573117164,571014906,568520917,566420204,0,0,0,0,0,0,0,0,0,0,0,0,0,0
589494471,587395794,585296860,583198183,782424060,0,0,0,0,0,0,0,0,0,0,0,0,0,0,0,0,0,0,0,0,0
589938319,587835292,585732521,583629494,581520848,579412202,576912315,641920721,572712925,704831720,568515315,566416383,0,0,0,0,0,0,0,0,0,0,0,0,0,0
589982178,587875051,719985395,583661308,581102353,646109535,711117466,574800322,572702165,637712617,635614205,0,0,0,0,0,0,0,0,0,0,0,0,0,0,0
589473881,587376745,585279352,583181960,581084583,713204678,576889566,574792429,572695029,570597885,0,0,0,0,0,0,0,0,0,0,0,0,0,0,0,0
589471105,587373970,585276835,583179700,581082583,578985465,0,0,0,0,0,0,0,0,0,0,0,0,0,0,0,0,0,0,0,0
589469332,587372195,585275057,583178176,648190172,578984441,0,0,0,0,0,0,0,0,0,0,0,0,0,0,0,0,0,0,0,0
589468054,587371428,585274803,583178176,581082583,0,0,0,0,0,0,0,0,0,0,0,0,0,0,0,0,0,0,0,0,0
589459778,654472536,585267311,583171205,581075889,646089180,643993341,0,0,0,0,0,0,0,0,0,0,0,0,0,0,0,0,0,0,0
723676280,587362442,652375195,583170221,581075153,578979829,0,0,0,0,0,0,0,0,0,0,0,0,0,0,0,0,0,0,0,0
656567199,654470827,719483319,583169475,581073884,578978548,0,0,0,0,0,0,0,0,0,0,0,0,0,0,0,0,0,0,0,0
589456550,587360179,585264064,583167949,715290599,0,0,0,0,0,0,0,0,0,0,0,0,0,0,0,0,0,0,0,0,0
589450621,587355022,585259422,583163823,581069776,578975986,0,0,0,0,0,0,0,0,0,0,0,0,0,0,0,0,0,0,0,0
589452977,721574588,585260999,583165138,581070312,578975486,0,0,0,0,0,0,0,0,0,0,0,0,0,0,0,0,0,0,0,0
656550035,587345824,585250476,583155128,581061584,578968040,576873466,0,0,0,0,0,0,0,0,0,0,0,0,0,0,0,0,0,0,0
589451238,587355373,585259508,583163387,0,0,0,0,0,0,0,0,0,0,0,0,0,0,0,0,0,0,0,0,0,0
589417263,587323714,585229909,650245225,782371983,0,0,0,0,0,0,0,0,0,0,0,0,0,0,0,0,0,0,0,0,0
589417009,587323460,585229911,650245225,782371983,0,0,0,0,0,0,0,0,0,0,0,0,0,0,0,0,0,0,0,0,0
589432715,587338136,585243558,583148723,581056462,578964457,576870909,0,0,0,0,0,0,0,0,0,0,0,0,0,0,0,0,0,0,0
589411915,721536348,585225582,583132288,648151203,578952902,576861408,574768113,706890489,0,0,0,0,0,0,0,0,0,0,0,0,0,0,0,0,0
589405502,587312720,585219683,583126901,581038234,578948798,576858074,574765292,572670197,570575103,0,0,0,0,0,0,0,0,0,0,0,0,0,0,0,0
589681899,587279624,585189151,583098678,581015140,578931346,576843957,574752461,572658649,570564580,568470768,566376700,565708028,0,0,0,0,0,0,0,0,0,0,0,0,0
589397076,587305576,585214076,583122576,581036728,578950111,576861437,0,0,0,0,0,0,0,0,0,0,0,0,0,0,0,0,0,0,0
723943309,587619242,585512647,583406052,648092964,578905695,643931530,574734760,639751350,570549957,568457428,633473250,564271857,695732723,0,0,0,0,0,0,0,0,0,0,0,0
589360700,587271506,585183081,583094655,715232684,578935513,576850683,576196321,574102002,0,0,0,0,0,0,0,0,0,0,0,0,0,0,0,0,0
656468837,587269238,786505861,583089557,581006773,578923989,576837613,574747645,708314037,572001219,637014993,567811040,565715694,563620604,0,0,0,0,0,0,0,0,0,0,0,0
590872900,588777304,586681964,584586367,649601446,580399054,578304492,0,0,0,0,0,0,0,0,0,0,0,0,0,0,0,0,0,0,0
589367772,587277285,585186797,583096310,582485823,580392820,712516507,643312820,641216705,639120590,569915611,634928360,565723382,0,0,0,0,0,0,0,0,0,0,0,0,0
591329179,589231284,587133136,585034733,582491693,580397157,578302351,576206505,574110135,572013765,569917394,702038752,565724910,563628540,0,0,0,0,0,0,0,0,0,0,0,0
590883121,588788033,586692433,584597089,582503045,0,0,0,0,0,0,0,0,0,0,0,0,0,0,0,0,0,0,0,0,0
658000860,588795109,720915950,584601591,0,0,0,0,0,0,0,0,0,0,0,0,0,0,0,0,0,0,0,0,0,0
591288258,589192416,587096574,584620321,582520412,580420760,578321605,710440675,574125298,0,0,0,0,0,0,0,0,0,0,0,0,0,0,0,0,0
658036588,655937659,653838474,584630681,582529719,714646229,578328556,576229627,0,0,0,0,0,0,0,0,0,0,0,0,0,0,0,0,0,0
591243242,588858890,586757412,584655679,582549620,580444073,578340049,710456044,708356601,0,0,0,0,0,0,0,0,0,0,0,0,0,0,0,0,0
591240164,588862464,586761238,584659757,582554203,580449417,712563884,574145744,572046556,569947112,567847924,0,0,0,0,0,0,0,0,0,0,0,0,0,0,0
591240164,589147130,586761238,584659757,582554203,580449417,712563884,574145744,572046556,569947112,567847924,0,0,0,0,0,0,0,0,0,0,0,0,0,0,0
658314891,589115305,587024582,652042466,582577697,580467802,578360964,576257952,574157999,572057789,569957324,567856859,565756650,630765048,0,0,0,0,0,0,0,0,0,0,0,0
590950772,588850050,586749585,584649119,582545853,580441818,578339568,643347966,0,0,0,0,0,0,0,0,0,0,0,0,0,0,0,0,0,0
591219169,656236536,586779414,584676653,582568029,580459661,578354865,576252104,574152148,639161055,569952491,567852535,0,0,0,0,0,0,0,0,0,0,0,0,0,0
591193271,589103058,587012588,584698380,582586944,580475508,578367643,576263093,574162370,572062415,569961692,567860713,565759990,697497083,0,0,0,0,0,0,0,0,0,0,0,0
590970550,588868800,586767051,584665301,582558698,714275258,577956565,575856616,573758193,571659770,0,0,0,0,0,0,0,0,0,0,0,0,0,0,0,0
590533287,588435378,653446077,584239305,582140384,714259191,0,0,0,0,0,0,0,0,0,0,0,0,0,0,0,0,0,0,0,0
590533775,588435867,586337959,584239795,582141132,580042212,577944054,0,0,0,0,0,0,0,0,0,0,0,0,0,0,0,0,0,0,0
590537776,588439619,586341206,584243049,582143630,580044212,645054160,710064611,573749229,571651574,0,0,0,0,0,0,0,0,0,0,0,0,0,0,0,0
591049184,588943079,586836974,651839475,0,0,0,0,0,0,0,0,0,0,0,0,0,0,0,0,0,0,0,0,0,0
657619018,588413022,586315889,785546118,580028384,0,0,0,0,0,0,0,0,0,0,0,0,0,0,0,0,0,0,0,0,0
590508871,588412252,586315889,785546118,580028384,0,0,0,0,0,0,0,0,0,0,0,0,0,0,0,0,0,0,0,0,0
590508118,588412010,586315903,584219539,582123962,580028384,577932284,0,0,0,0,0,0,0,0,0,0,0,0,0,0,0,0,0,0,0
590672251,588572313,586472631,584372693,582101527,580009811,577916800,575822238,573726381,571630780,569534923,567439066,565343465,630356471,0,0,0,0,0,0,0,0,0,0,0,0
724714626,588401295,586305436,584209576,582115010,580020700,577925359,575829756,0,0,0,0,0,0,0,0,0,0,0,0,0,0,0,0,0,0
724711024,655507328,720521106,584208547,582115526,580022248,0,0,0,0,0,0,0,0,0,0,0,0,0,0,0,0,0,0,0,0
724909005,588589291,586273295,584181292,582093159,580005795,577915855,575823341,573728508,0,0,0,0,0,0,0,0,0,0,0,0,0,0,0,0,0
590483062,655497350,586293911,584199335,582107592,580015592,0,0,0,0,0,0,0,0,0,0,0,0,0,0,0,0,0,0,0,0
590742081,722855013,586532233,584426671,582058497,579977549,577892486,710020268,573709503,638725329,569523428,567430135,0,0,0,0,0,0,0,0,0,0,0,0,0,0
590438706,588347207,653364827,584164720,649187994,579993541,577904613,575144698,0,0,0,0,0,0,0,0,0,0,0,0,0,0,0,0,0,0
590474210,588379881,586285296,718408184,715655905,579344631,0,0,0,0,0,0,0,0,0,0,0,0,0,0,0,0,0,0,0,0
590434189,588342682,586250919,584159412,582073294,579986919,712114683,575147738,573052133,570956783,568861178,0,0,0,0,0,0,0,0,0,0,0,0,0,0,0
589837509,587741136,585644763,583548389,581452795,0,0,0,0,0,0,0,0,0,0,0,0,0,0,0,0,0,0,0,0,0
590352097,588264932,653287398,584092395,582017015,0,0,0,0,0,0,0,0,0,0,0,0,0,0,0,0,0,0,0,0,0
724496808,588180676,720299743,583983610,581445943,579351406,577256343,575160499,573064129,570967502,568871132,566774506,564678136,0,0,0,0,0,0,0,0,0,0,0,0,0
589847634,587750502,585653625,583556493,581459637,579362525,644374266,0,0,0,0,0,0,0,0,0,0,0,0,0,0,0,0,0,0,0
590257269,789486484,720280243,785292241,0,0,0,0,0,0,0,0,0,0,0,0,0,0,0,0,0,0,0,0,0,0
589862512,587764353,585666194,650676898,581468868,579369702,0,0,0,0,0,0,0,0,0,0,0,0,0,0,0,0,0,0,0,0
589862549,587764387,585666225,583568064,581468892,579369721,0,0,0,0,0,0,0,0,0,0,0,0,0,0,0,0,0,0,0,0
589868869,654879319,585672298,583573884,581474465,579374533,577275358,575176687,573079032,0,0,0,0,0,0,0,0,0,0,0,0,0,0,0,0,0
590221680,588126863,586032302,583937485,581484561,579382863,577282174,776509085,573084333,705203645,568887756,566789596,629701882,0,0,0,0,0,0,0,0,0,0,0,0,0
590207274,588112973,787345264,583923860,648939480,579396643,577295445,575195769,0,0,0,0,0,0,0,0,0,0,0,0,0,0,0,0,0,0
589869978,654880167,585672629,583573955,581473759,579373563,0,0,0,0,0,0,0,0,0,0,0,0,0,0,0,0,0,0,0,0
589891141,587791705,652800364,583591296,581488040,579384784,577282798,0,0,0,0,0,0,0,0,0,0,0,0,0,0,0,0,0,0,0
656983732,587775935,719894730,583578325,581477866,0,0,0,0,0,0,0,0,0,0,0,0,0,0,0,0,0,0,0,0,0
723259318,586956504,651980281,582628674,580508294,578393273,576284123,574180844,572077821,569567899,634575282,699582666,0,0,0,0,0,0,0,0,0,0,0,0,0,0
588702030,586592882,584483733,582363354,579933989,712071769,575768443,573677196,638694813,569494447,701620672,565311698,630328291,561127925,558371327,0,0,0,0,0,0,0,0,0,0,0
588094498,653112651,785238644,581825225,579396643,0,0,0,0,0,0,0,0,0,0,0,0,0,0,0,0,0,0,0,0,0
587054852,584962873,582875557,580444181,578339429,576236954,574137269,572037584,771264234,0,0,0,0,0,0,0,0,0,0,0,0,0,0,0,0,0
586987028,719118148,582823843,580484871,578372174,576264574,641270933,572060589,569958085,567855836,565753588,0,0,0,0,0,0,0,0,0,0,0,0,0,0,0
583805225,581733762,579662554,711574817,575247181,573143651,705257593,568936335,566832805,564729275,562626257,560522727,558419197,0,0,0,0,0,0,0,0,0,0,0,0,0
583816022,581748665,579455265,577336171,575224221,640228533,571015374,568911591,566425843,0,0,0,0,0,0,0,0,0,0,0,0,0,0,0,0,0
718730775,582389629,647374561,577833779,575749220,707876221,571568023,569477807,634497220,565298649,697426411,561118973,558373346,757606910,0,0,0,0,0,0,0,0,0,0,0,0
581607854,579482575,577365223,575254008,639826215,704835651,568518750,566419578,564320405,562221233,560122060,558022888,0,0,0,0,0,0,0,0,0,0,0,0,0,0
581200184,579101339,577002982,574786591,572689976,570593362,702714219,566399877,564303007,562206393,560109523,558012653,0,0,0,0,0,0,0,0,0,0,0,0,0,0
582780906,580515145,578391948,576277432,574171598,572065764,569960698,634579190,0,0,0,0,0,0,0,0,0,0,0,0,0,0,0,0,0,0
582657409,714745265,578406868,576293356,574188024,571667825,569567633,567467441,565367249,0,0,0,0,0,0,0,0,0,0,0,0,0,0,0,0,0
716522557,580192952,577897758,575807836,573714555,571621018,569527738,567434458,565341177,0,0,0,0,0,0,0,0,0,0,0,0,0,0,0,0,0
649461075,580234418,578121977,709992239,707900231,571590750,569498742,567406734,565313957,563221949,561129940,559037932,0,0,0,0,0,0,0,0,0,0,0,0,0,0
716634462,580278229,712050229,575756400,573669773,571582890,636605127,567409381,564663024,0,0,0,0,0,0,0,0,0,0,0,0,0,0,0,0,0
581977461,579916717,577845974,709984753,573679102,570954644,635969719,566767066,0,0,0,0,0,0,0,0,0,0,0,0,0,0,0,0,0,0
581983663,714138839,577849333,575148374,573053816,570959258,568864700,566770142,564675583,0,0,0,0,0,0,0,0,0,0,0,0,0,0,0,0,0
579627708,644494088,575271992,707383888,638169447,568955007,566849431,564743855,562638279,560532447,558427639,690153969,0,0,0,0,0,0,0,0,0,0,0,0,0,0
713733226,577391764,575276720,707389118,571065548,568959450,566853352,564747254,562230402,694347429,692246728,555928299,0,0,0,0,0,0,0,0,0,0,0,0,0,0
579124242,644133023,574924798,639779894,704792678,568479126,566383301,564287475,0,0,0,0,0,0,0,0,0,0,0,0,0,0,0,0,0,0
713482094,711341291,574694214,706829424,570529178,635555523,566363373,565707741,0,0,0,0,0,0,0,0,0,0,0,0,0,0,0,0,0,0
580764187,645790119,576251145,641258295,773374054,569945749,567844036,565742067,0,0,0,0,0,0,0,0,0,0,0,0,0,0,0,0,0,0
579780976,644790249,575163713,573067115,570970773,568874175,566777833,0,0,0,0,0,0,0,0,0,0,0,0,0,0,0,0,0,0,0
579714598,577627527,575537096,573442793,571009294,703126319,566808143,631816559,562606992,560506544,558406097,556305393,0,0,0,0,0,0,0,0,0,0,0,0,0,0
579658857,577584853,575243297,573137988,638141543,568927115,633930414,564716498,696828662,0,0,0,0,0,0,0,0,0,0,0,0,0,0,0,0,0
577511772,575437987,573352646,571267049,568983313,566874933,698983769,696875132,694766496,625548995,556332263,553840118,0,0,0,0,0,0,0,0,0,0,0,0,0,0
576995643,574898567,707019180,570704594,702825208,633512741,564306507,562209393,560112022,558014652,555917538,0,0,0,0,0,0,0,0,0,0,0,0,0,0,0
577031987,574927523,572826843,570577180,568483668,566390157,564296646,629311742,0,0,0,0,0,0,0,0,0,0,0,0,0,0,0,0,0,0
577167452,575049370,640050617,705051865,568382464,566295838,631317309,763448156,627143803,625057178,555861689,553775064,551687671,618137830,0,0,0,0,0,0,0,0,0,0,0,0
578310858,576214238,574117352,572020466,569923580,0,0,0,0,0,0,0,0,0,0,0,0,0,0,0,0,0,0,0,0,0
578670368,576584334,574491845,572400380,569952310,702067309,632855972,563644380,0,0,0,0,0,0,0,0,0,0,0,0,0,0,0,0,0,0
712685927,576352643,574246033,572139936,570033583,567927998,565821646,630823901,695826156,0,0,0,0,0,0,0,0,0,0,0,0,0,0,0,0,0
578467176,576351878,574245524,572139171,570032818,702144960,565821135,630823901,695826156,0,0,0,0,0,0,0,0,0,0,0,0,0,0,0,0,0
577953584,575854419,573756261,571658102,569559944,567461786,565363627,563265469,695385039,559069408,556971250,0,0,0,0,0,0,0,0,0,0,0,0,0,0,0
577688131,575589006,707708595,638501848,569294846,566772519,564676429,562580082,694701463,625496508,556291298,0,0,0,0,0,0,0,0,0,0,0,0,0,0,0
644671260,575509921,707653605,772324907,568879215,0,0,0,0,0,0,0,0,0,0,0,0,0,0,0,0,0,0,0,0,0
711786591,575486886,573397193,705525228,703163668,566841399,564736858,629740925,560528289,692641220,556318951,0,0,0,0,0,0,0,0,0,0,0,0,0,0,0
574629761,572545682,570461604,568377525,566293447,564208601,696342251,694258430,559417694,557325203,622341575,553139965,0,0,0,0,0,0,0,0,0,0,0,0,0,0
576050731,573942631,571834530,703944157,634502433,699524956,563220375,0,0,0,0,0,0,0,0,0,0,0,0,0,0,0,0,0,0,0
575463681,640484402,638396771,770526612,634221253,565024758,562644267,627646555,692649356,556325053,554218477,0,0,0,0,0,0,0,0,0,0,0,0,0,0,0
575465793,640486251,571289495,636310722,567113966,631858204,562642760,627645043,558430367,556324043,554217719,0,0,0,0,0,0,0,0,0,0,0,0,0,0,0
573317606,571123723,770338347,566900044,564789101,562677134,761891758,558453455,623450607,553838555,0,0,0,0,0,0,0,0,0,0,0,0,0,0,0,0
572540619,704684771,568393723,635368928,630733468,628642554,0,0,0,0,0,0,0,0,0,0,0,0,0,0,0,0,0,0,0,0
572522985,570441202,568359420,568261450,566161798,698279874,696179966,559426621,557332345,555237813,553143537,0,0,0,0,0,0,0,0,0,0,0,0,0,0,0
574367974,572171018,570059817,567948873,565837929,563727496,695834023,693723079,557394406,621998791,619893757,0,0,0,0,0,0,0,0,0,0,0,0,0,0,0
574279357,706386123,570057689,567946727,565836789,628287530,559078239,624086420,554877130,552776703,0,0,0,0,0,0,0,0,0,0,0,0,0,0,0,0
640699722,705732721,569439128,701580222,632395748,629678028,0,0,0,0,0,0,0,0,0,0,0,0,0,0,0,0,0,0,0,0
573478977,571382431,569285885,566780509,631791802,0,0,0,0,0,0,0,0,0,0,0,0,0,0,0,0,0,0,0,0,0
570688477,702733322,566416943,631426899,562219128,560120221,625130177,555922406,0,0,0,0,0,0,0,0,0,0,0,0,0,0,0,0,0,0
570717207,568606610,633528344,766061539,0,0,0,0,0,0,0,0,0,0,0,0,0,0,0,0,0,0,0,0,0,0
705096626,568764891,566264332,698401846,696320862,694240647,557942959,555862744,620238565,0,0,0,0,0,0,0,0,0,0,0,0,0,0,0,0,0
570427507,769687196,566293958,564226287,630719577,628633039,0,0,0,0,0,0,0,0,0,0,0,0,0,0,0,0,0,0,0,0
572414758,570319194,568223886,633237186,631141878,561546286,559447394,624457622,555250123,0,0,0,0,0,0,0,0,0,0,0,0,0,0,0,0,0
572270233,771380245,769248401,632481660,0,0,0,0,0,0,0,0,0,0,0,0,0,0,0,0,0,0,0,0,0,0
568346387,566276426,765531777,562134713,761390065,760745677,0,0,0,0,0,0,0,0,0,0,0,0,0,0,0,0,0,0,0,0
570221064,769461572,767376257,563964607,561604864,693713468,557386873,555278773,553169905,0,0,0,0,0,0,0,0,0,0,0,0,0,0,0,0,0
704303256,567972012,565858239,697962195,561631719,693735675,624093291,554882220,619888876,0,0,0,0,0,0,0,0,0,0,0,0,0,0,0,0,0
569243138,768476226,565057411,562965187,694731270,558411591,623418503,554207688,0,0,0,0,0,0,0,0,0,0,0,0,0,0,0,0,0,0
566572571,564468320,629473188,560260074,625090872,555892349,688020418,0,0,0,0,0,0,0,0,0,0,0,0,0,0,0,0,0,0,0
769462117,767389917,563688021,561566925,556325053,0,0,0,0,0,0,0,0,0,0,0,0,0,0,0,0,0,0,0,0,0
567559692,565462649,563365606,561160287,626171851,0,0,0,0,0,0,0,0,0,0,0,0,0,0,0,0,0,0,0,0,0
768502396,565083133,629700221,560491007,0,0,0,0,0,0,0,0,0,0,0,0,0,0,0,0,0,0,0,0,0,0
633253641,631156053,561949602,559852014,557340732,622353032,620256212,0,0,0,0,0,0,0,0,0,0,0,0,0,0,0,0,0,0,0
566051627,631074930,763207098,626603524,557386060,555277972,687386844,0,0,0,0,0,0,0,0,0,0,0,0,0,0,0,0,0,0,0
565490222,563389813,628398267,559045644,556952147,621967257,619873760,0,0,0,0,0,0,0,0,0,0,0,0,0,0,0,0,0,0,0
565521921,563417421,561314202,693427687,624043838,554845579,619865560,0,0,0,0,0,0,0,0,0,0,0,0,0,0,0,0,0,0,0
766856752,563417773,561123383,760368308,0,0,0,0,0,0,0,0,0,0,0,0,0,0,0,0,0,0,0,0,0,0
766925340,563484261,695588014,760582391,556899659,621928852,686957533,0,0,0,0,0,0,0,0,0,0,0,0,0,0,0,0,0,0,0
562829954,560759502,558504731,556381799,554257842,619243516,0,0,0,0,0,0,0,0,0,0,0,0,0,0,0,0,0,0,0,0
562478728,761682128,625015076,555834479,553763258,0,0,0,0,0,0,0,0,0,0,0,0,0,0,0,0,0,0,0,0,0
631119893,629026391,559824025,557730779,689481247,553162848,618171041,616070114,0,0,0,0,0,0,0,0,0,0,0,0,0,0,0,0,0,0
563374596,561276507,626287282,556959764,621972587,619876803,0,0,0,0,0,0,0,0,0,0,0,0,0,0,0,0,0,0,0,0
560746589,759996834,556594408,688504879,619278196,751377593,749260286,0,0,0,0,0,0,0,0,0,0,0,0,0,0,0,0,0,0,0
627369261,558155670,623001352,553803121,551713499,0,0,0,0,0,0,0,0,0,0,0,0,0,0,0,0,0,0,0,0,0
628402980,626301829,557091815,621964883,552763316,0,0,0,0,0,0,0,0,0,0,0,0,0,0,0,0,0,0,0,0,0
692872806,757919451,755602000,552143813,0,0,0,0,0,0,0,0,0,0,0,0,0,0,0,0,0,0,0,0,0,0
760567301,557129345,621936905,619854469,0,0,0,0,0,0,0,0,0,0,0,0,0,0,0,0,0,0,0,0,0,0
625891600,690907546,554206499,552105131,0,0,0,0,0,0,0,0,0,0,0,0,0,0,0,0,0,0,0,0,0,0
623026683,620930438,618834449,549730460,547632423,0,0,0,0,0,0,0,0,0,0,0,0,0,0,0,0,0,0,0,0,0
624443390,553749758,551622359,549495727,681586056,0,0,0,0,0,0,0,0,0,0,0,0,0,0,0,0,0,0,0,0,0
624443390,622335880,551622359,549495727,681586056,0,0,0,0,0,0,0,0,0,0,0,0,0,0,0,0,0,0,0,0,0
557637448,756897236,620312159,752402412,0,0,0,0,0,0,0,0,0,0,0,0,0,0,0,0,0,0,0,0,0,0
557378298,555300291,687440268,685362773,549066782,0,0,0,0,0,0,0,0,0,0,0,0,0,0,0,0,0,0,0,0,0
624264001,689254350,754060135,550658036,0,0,0,0,0,0,0,0,0,0,0,0,0,0,0,0,0,0,0,0,0,0
553843942,552141528,684274865,547973001,545913874,0,0,0,0,0,0,0,0,0,0,0,0,0,0,0,0,0,0,0,0,0
622355100,553149234,618568379,549361488,0,0,0,0,0,0,0,0,0,0,0,0,0,0,0,0,0,0,0,0,0,0
622355628,553150499,618566542,616468230,0,0,0,0,0,0,0,0,0,0,0,0,0,0,0,0,0,0,0,0,0,0
554869231,619881395,617784952,548579646,546583946,0,0,0,0,0,0,0,0,0,0,0,0,0,0,0,0,0,0,0,0,0
554846707,552737979,617738882,548521290,546678175,0,0,0,0,0,0,0,0,0,0,0,0,0,0,0,0,0,0,0,0,0
554188771,552087983,549987194,547886406,546375405,544239297,542128819,540018341,0,0,0,0,0,0,0,0,0,0,0,0,0,0,0,0,0,0
554197471,619209385,684221044,547906622,613324949,0,0,0,0,0,0,0,0,0,0,0,0,0,0,0,0,0,0,0,0,0
554206697,619227010,617138460,615387820,0,0,0,0,0,0,0,0,0,0,0,0,0,0,0,0,0,0,0,0,0,0
551743476,550035192,547944165,545864620,543785843,541694816,539603534,671729980,0,0,0,0,0,0,0,0,0,0,0,0,0,0,0,0,0,0
551736573,549645777,547951092,680105128,610932571,0,0,0,0,0,0,0,0,0,0,0,0,0,0,0,0,0,0,0,0,0
618843638,616750802,681766831,545878999,543809443,608829585,539632768,537544815,0,0,0,0,0,0,0,0,0,0,0,0,0,0,0,0,0,0
685945083,549632463,547537570,545447196,675957242,539653873,537568232,0,0,0,0,0,0,0,0,0,0,0,0,0,0,0,0,0,0,0
553162746,618178016,548975815,546889849,544803115,542709777,540923888,673040598,0,0,0,0,0,0,0,0,0,0,0,0,0,0,0,0,0,0
620294344,551103624,683240264,748475774,0,0,0,0,0,0,0,0,0,0,0,0,0,0,0,0,0,0,0,0,0,0
552774387,617786839,548581564,546486889,611500822,542384374,674503898,605297086,0,0,0,0,0,0,0,0,0,0,0,0,0,0,0,0,0,0
552767737,550669527,548571316,613580108,544503265,542407102,607419803,538214521,0,0,0,0,0,0,0,0,0,0,0,0,0,0,0,0,0,0
552764646,684881311,548562776,613723263,0,0,0,0,0,0,0,0,0,0,0,0,0,0,0,0,0,0,0,0,0,0
552751836,617756847,615652994,546640632,678780785,542472516,607490838,0,0,0,0,0,0,0,0,0,0,0,0,0,0,0,0,0,0,0
552077304,550643702,548538589,546418324,0,0,0,0,0,0,0,0,0,0,0,0,0,0,0,0,0,0,0,0,0,0
619225580,550025669,682152349,545855526,544054695,539848024,604853296,0,0,0,0,0,0,0,0,0,0,0,0,0,0,0,0,0,0,0
683857642,614656453,545873626,543804323,541716625,740954494,537540204,0,0,0,0,0,0,0,0,0,0,0,0,0,0,0,0,0,0,0
683848436,748861403,545441939,543348809,541252912,673374743,0,0,0,0,0,0,0,0,0,0,0,0,0,0,0,0,0,0,0,0
549629147,547533234,545439544,543431098,541332625,539234408,537135935,0,0,0,0,0,0,0,0,0,0,0,0,0,0,0,0,0,0,0
549623022,547525067,545425763,543450871,675571924,606366641,537161359,0,0,0,0,0,0,0,0,0,0,0,0,0,0,0,0,0,0,0
549618921,547519685,679634008,744790247,541368515,539273375,671395963,0,0,0,0,0,0,0,0,0,0,0,0,0,0,0,0,0,0,0
549616373,547517666,545415591,677530989,608323417,539115846,537016883,0,0,0,0,0,0,0,0,0,0,0,0,0,0,0,0,0,0,0
549606377,547504587,545393777,543283480,742727157,606416855,671432634,0,0,0,0,0,0,0,0,0,0,0,0,0,0,0,0,0,0,0
549602801,547499733,612494720,543271468,541168400,539322607,537231315,0,0,0,0,0,0,0,0,0,0,0,0,0,0,0,0,0,0,0
551037917,548935596,545342157,543208338,541098623,538988908,536878936,0,0,0,0,0,0,0,0,0,0,0,0,0,0,0,0,0,0,0
551038153,548936081,545328593,543188886,541077379,0,0,0,0,0,0,0,0,0,0,0,0,0,0,0,0,0,0,0,0,0
551080173,548991691,614028900,612188406,610082516,675086002,538762384,0,0,0,0,0,0,0,0,0,0,0,0,0,0,0,0,0,0,0
684865790,548543202,747750029,544303418,609307422,540093699,538301923,0,0,0,0,0,0,0,0,0,0,0,0,0,0,0,0,0,0,0
617726439,615612100,680573019,544666605,0,0,0,0,0,0,0,0,0,0,0,0,0,0,0,0,0,0,0,0,0,0
547532011,545437595,543343178,541246767,539150612,537139957,0,0,0,0,0,0,0,0,0,0,0,0,0,0,0,0,0,0,0,0
548960492,613977743,544777011,542681620,540954093,538855118,0,0,0,0,0,0,0,0,0,0,0,0,0,0,0,0,0,0,0,0
545433274,543337529,675458574,539243999,537146292,0,0,0,0,0,0,0,0,0,0,0,0,0,0,0,0,0,0,0,0,0
612523762,543311046,541211575,539112104,537012633,0,0,0,0,0,0,0,0,0,0,0,0,0,0,0,0,0,0,0,0,0
546846966,544746451,542648007,540549820,605560240,0,0,0,0,0,0,0,0,0,0,0,0,0,0,0,0,0,0,0,0,0
546849279,544749018,542651086,540552897,538454709,0,0,0,0,0,0,0,0,0,0,0,0,0,0,0,0,0,0,0,0,0
546860157,612272290,543065181,608075799,0,0,0,0,0,0,0,0,0,0,0,0,0,0,0,0,0,0,0,0,0,0
546860485,544766519,542670600,540965841,538867618,0,0,0,0,0,0,0,0,0,0,0,0,0,0,0,0,0,0,0,0,0
546872571,611890643,609795782,540591802,538496941,0,0,0,0,0,0,0,0,0,0,0,0,0,0,0,0,0,0,0,0,0
546885068,544799378,542705279,540611948,538518874,0,0,0,0,0,0,0,0,0,0,0,0,0,0,0,0,0,0,0,0,0
546886633,611908289,609813684,540610983,538517146,0,0,0,0,0,0,0,0,0,0,0,0,0,0,0,0,0,0,0,0,0
546496754,544406727,609812724,540610027,538516705,0,0,0,0,0,0,0,0,0,0,0,0,0,0,0,0,0,0,0,0,0
546496754,544797694,609812724,540610027,538516705,0,0,0,0,0,0,0,0,0,0,0,0,0,0,0,0,0,0,0,0,0
680718539,544829629,542743715,741984393,538572144,0,0,0,0,0,0,0,0,0,0,0,0,0,0,0,0,0,0,0,0,0
546918884,544879220,677019215,674941482,0,0,0,0,0,0,0,0,0,0,0,0,0,0,0,0,0,0,0,0,0,0
546488277,544394654,542298763,540202617,605215590,0,0,0,0,0,0,0,0,0,0,0,0,0,0,0,0,0,0,0,0,0
546481877,611495769,609399344,674411783,538193626,0,0,0,0,0,0,0,0,0,0,0,0,0,0,0,0,0,0,0,0,0
680679388,544357287,542257814,540158084,538058611,0,0,0,0,0,0,0,0,0,0,0,0,0,0,0,0,0,0,0,0,0
545786090,611442633,542228914,741450138,538018435,0,0,0,0,0,0,0,0,0,0,0,0,0,0,0,0,0,0,0,0,0
546427647,543688105,675808689,606603192,537397952,0,0,0,0,0,0,0,0,0,0,0,0,0,0,0,0,0,0,0,0,0
545797844,543696799,541598349,539499899,537401193,0,0,0,0,0,0,0,0,0,0,0,0,0,0,0,0,0,0,0,0,0
545814918,611217616,676227223,539910493,537811492,0,0,0,0,0,0,0,0,0,0,0,0,0,0,0,0,0,0,0,0,0
612942278,543755597,608773924,539868404,537764555,0,0,0,0,0,0,0,0,0,0,0,0,0,0,0,0,0,0,0,0,0
545829344,543739064,541644202,539549341,671672207,0,0,0,0,0,0,0,0,0,0,0,0,0,0,0,0,0,0,0,0,0
545831671,610851031,541647309,539552707,604566969,0,0,0,0,0,0,0,0,0,0,0,0,0,0,0,0,0,0,0,0,0
545839831,543767145,608787268,539589664,604856819,0,0,0,0,0,0,0,0,0,0,0,0,0,0,0,0,0,0,0,0,0
545407888,677559321,541328365,537530820,0,0,0,0,0,0,0,0,0,0,0,0,0,0,0,0,0,0,0,0,0,0
543357681,608752375,539548656,537453800,0,0,0,0,0,0,0,0,0,0,0,0,0,0,0,0,0,0,0,0,0,0
543330036,541232094,539134151,537036209,0,0,0,0,0,0,0,0,0,0,0,0,0,0,0,0,0,0,0,0,0,0
543328479,608339140,539132074,537033615,0,0,0,0,0,0,0,0,0,0,0,0,0,0,0,0,0,0,0,0,0,0
543318770,541220329,673339359,537023189,0,0,0,0,0,0,0,0,0,0,0,0,0,0,0,0,0,0,0,0,0,0
544737517,541204473,539105010,671223018,0,0,0,0,0,0,0,0,0,0,0,0,0,0,0,0,0,0,0,0,0,0
544737517,542638307,539105010,671223018,0,0,0,0,0,0,0,0,0,0,0,0,0,0,0,0,0,0,0,0,0,0
544737770,541202936,539102958,537002981,0,0,0,0,0,0,0,0,0,0,0,0,0,0,0,0,0,0,0,0,0,0
544737770,542638302,539102958,537002981,0,0,0,0,0,0,0,0,0,0,0,0,0,0,0,0,0,0,0,0,0,0
543288562,675402211,606189523,536976836,0,0,0,0,0,0,0,0,0,0,0,0,0,0,0,0,0,0,0,0,0,0
544772584,542677717,540582338,538487216,0,0,0,0,0,0,0,0,0,0,0,0,0,0,0,0,0,0,0,0,0,0
544836962,609867557,540860129,672961701,0,0,0,0,0,0,0,0,0,0,0,0,0,0,0,0,0,0,0,0,0,0
544398527,542304166,540209549,538114932,0,0,0,0,0,0,0,0,0,0,0,0,0,0,0,0,0,0,0,0,0,0
678608102,676511706,540197839,538101443,0,0,0,0,0,0,0,0,0,0,0,0,0,0,0,0,0,0,0,0,0,0
544383471,542286557,540189388,538092474,0,0,0,0,0,0,0,0,0,0,0,0,0,0,0,0,0,0,0,0,0,0
544368372,542269930,607280352,538073047,0,0,0,0,0,0,0,0,0,0,0,0,0,0,0,0,0,0,0,0,0,0
544308536,542207257,540379383,538286553,0,0,0,0,0,0,0,0,0,0,0,0,0,0,0,0,0,0,0,0,0,0
543695076,608704466,539495873,537396399,0,0,0,0,0,0,0,0,0,0,0,0,0,0,0,0,0,0,0,0,0,0
543694534,541595056,539495322,671613316,0,0,0,0,0,0,0,0,0,0,0,0,0,0,0,0,0,0,0,0,0,0
543718652,541623015,673745106,537431997,0,0,0,0,0,0,0,0,0,0,0,0,0,0,0,0,0,0,0,0,0,0
725407060,790426228,654118293,0,0,0,0,0,0,0,0,0,0,0,0,0,0,0,0,0,0,0,0,0,0,0
589862127,587764214,585666045,0,0,0,0,0,0,0,0,0,0,0,0,0,0,0,0,0,0,0,0,0,0,0
588789035,586693700,584598620,0,0,0,0,0,0,0,0,0,0,0,0,0,0,0,0,0,0,0,0,0,0,0
579399452,577297492,709414009,0,0,0,0,0,0,0,0,0,0,0,0,0,0,0,0,0,0,0,0,0,0,0
708928589,773988514,771940091,0,0,0,0,0,0,0,0,0,0,0,0,0,0,0,0,0,0,0,0,0,0,0
575064310,572551978,570475349,0,0,0,0,0,0,0,0,0,0,0,0,0,0,0,0,0,0,0,0,0,0,0
572397025,569954085,769176425,0,0,0,0,0,0,0,0,0,0,0,0,0,0,0,0,0,0,0,0,0,0,0
771393685,702155738,632477485,0,0,0,0,0,0,0,0,0,0,0,0,0,0,0,0,0,0,0,0,0,0,0
636344138,567146451,631827546,0,0,0,0,0,0,0,0,0,0,0,0,0,0,0,0,0,0,0,0,0,0,0
702068583,699964834,630752475,0,0,0,0,0,0,0,0,0,0,0,0,0,0,0,0,0,0,0,0,0,0,0
766261928,764012872,560529642,0,0,0,0,0,0,0,0,0,0,0,0,0,0,0,0,0,0,0,0,0,0,0
698678892,629289009,627209957,0,0,0,0,0,0,0,0,0,0,0,0,0,0,0,0,0,0,0,0,0,0,0
765804132,696387116,761422564,0,0,0,0,0,0,0,0,0,0,0,0,0,0,0,0,0,0,0,0,0,0,0
631136882,628656643,626555027,0,0,0,0,0,0,0,0,0,0,0,0,0,0,0,0,0,0,0,0,0,0,0
765272711,762932753,693698204,0,0,0,0,0,0,0,0,0,0,0,0,0,0,0,0,0,0,0,0,0,0,0
765233886,762961487,760822975,0,0,0,0,0,0,0,0,0,0,0,0,0,0,0,0,0,0,0,0,0,0,0
630471480,561266904,626172550,0,0,0,0,0,0,0,0,0,0,0,0,0,0,0,0,0,0,0,0,0,0,0
759763371,757702944,554486151,0,0,0,0,0,0,0,0,0,0,0,0,0,0,0,0,0,0,0,0,0,0,0
757760867,688512431,551746444,0,0,0,0,0,0,0,0,0,0,0,0,0,0,0,0,0,0,0,0,0,0,0
623120328,620938573,618836934,0,0,0,0,0,0,0,0,0,0,0,0,0,0,0,0,0,0,0,0,0,0,0
556037953,621045985,618826898,0,0,0,0,0,0,0,0,0,0,0,0,0,0,0,0,0,0,0,0,0,0,0
757948962,621659854,619241081,0,0,0,0,0,0,0,0,0,0,0,0,0,0,0,0,0,0,0,0,0,0,0
757924445,755860217,619250323,0,0,0,0,0,0,0,0,0,0,0,0,0,0,0,0,0,0,0,0,0,0,0
756549032,685839254,750815824,0,0,0,0,0,0,0,0,0,0,0,0,0,0,0,0,0,0,0,0,0,0,0
689785626,754829804,752402872,0,0,0,0,0,0,0,0,0,0,0,0,0,0,0,0,0,0,0,0,0,0,0
756843973,754565206,752418024,0,0,0,0,0,0,0,0,0,0,0,0,0,0,0,0,0,0,0,0,0,0,0
622139650,620024023,617768382,0,0,0,0,0,0,0,0,0,0,0,0,0,0,0,0,0,0,0,0,0,0,0
756421645,754282718,751968705,0,0,0,0,0,0,0,0,0,0,0,0,0,0,0,0,0,0,0,0,0,0,0
620632095,618544051,616079943,0,0,0,0,0,0,0,0,0,0,0,0,0,0,0,0,0,0,0,0,0,0,0
547500074,612665832,543448237,0,0,0,0,0,0,0,0,0,0,0,0,0,0,0,0,0,0,0,0,0,0,0
612515156,744813438,541395512,0,0,0,0,0,0,0,0,0,0,0,0,0,0,0,0,0,0,0,0,0,0,0
543977624,541867635,539757901,0,0,0,0,0,0,0,0,0,0,0,0,0,0,0,0,0,0,0,0,0,0,0
608361470,606266354,537062374,0,0,0,0,0,0,0,0,0,0,0,0,0,0,0,0,0,0,0,0,0,0,0
542648826,540550385,538451945,0,0,0,0,0,0,0,0,0,0,0,0,0,0,0,0,0,0,0,0,0,0,0
542665727,607677933,538472412,0,0,0,0,0,0,0,0,0,0,0,0,0,0,0,0,0,0,0,0,0,0,0
542297332,674419430,605215191,0,0,0,0,0,0,0,0,0,0,0,0,0,0,0,0,0,0,0,0,0,0,0
