0,1,2,3,4,5,6,7,8,9,10,11,12,13,14,15,16,17,18,19,20,21,22,23,24,25
724101332,587784667,585685475,583586283,648216569,0,0,0,0,0,0,0,0,0,0,0,0,0,0,0,0,0,0,0,0,0
657030226,587818598,652824953,583613581,581505716,0,0,0,0,0,0,0,0,0,0,0,0,0,0,0,0,0,0,0,0,0
589923407,587820386,585717365,583614346,581505716,0,0,0,0,0,0,0,0,0,0,0,0,0,0,0,0,0,0,0,0,0
589922924,587820924,652827531,583616667,715727034,579403226,577298673,574814447,572715256,0,0,0,0,0,0,0,0,0,0,0,0,0,0,0,0,0
589906360,587804868,652812240,650711004,581497076,713223405,0,0,0,0,0,0,0,0,0,0,0,0,0,0,0,0,0,0,0,0
723709375,587393226,585294804,583196382,581096435,0,0,0,0,0,0,0,0,0,0,0,0,0,0,0,0,0,0,0,0,0
657055657,587842996,585739455,583635914,581525984,646524917,576910256,709027786,572711639,570612964,568514289,566415614,0,0,0,0,0,0,0,0,0,0,0,0,0,0
589918179,587815916,585713908,583203972,648211371,579001043,576900592,0,0,0,0,0,0,0,0,0,0,0,0,0,0,0,0,0,0,0
589487303,587388881,719508187,650301157,581092858,0,0,0,0,0,0,0,0,0,0,0,0,0,0,0,0,0,0,0,0,0
589914361,587399015,719519350,784937467,0,0,0,0,0,0,0,0,0,0,0,0,0,0,0,0,0,0,0,0,0,0
589914361,587813370,652821242,784937467,0,0,0,0,0,0,0,0,0,0,0,0,0,0,0,0,0,0,0,0,0,0
589490319,587391902,585293229,583194812,581094874,578994936,0,0,0,0,0,0,0,0,0,0,0,0,0,0,0,0,0,0,0,0
589486486,587388323,585290159,583191996,581092822,578993648,0,0,0,0,0,0,0,0,0,0,0,0,0,0,0,0,0,0,0,0
589979353,587872994,585766635,583661045,581104140,579002452,576901770,574802350,572703936,570605778,635616227,566409205,0,0,0,0,0,0,0,0,0,0,0,0,0,0
589482324,587384423,585286521,583188364,581089713,578991061,576892913,0,0,0,0,0,0,0,0,0,0,0,0,0,0,0,0,0,0,0
589574612,587477744,585282068,650293296,581086314,578988452,576890830,574793194,572695801,0,0,0,0,0,0,0,0,0,0,0,0,0,0,0,0,0
589474656,587377265,585279873,650291345,581084850,578987219,576889836,574792444,0,0,0,0,0,0,0,0,0,0,0,0,0,0,0,0,0,0
723792039,587477955,585381343,583183874,581085756,646096756,576890015,574792636,572695498,570598104,568500710,566403572,0,0,0,0,0,0,0,0,0,0,0,0,0,0
589579305,654591311,585385590,583288477,581191658,578985535,576888441,709008800,572693939,637705670,568499674,566402541,0,0,0,0,0,0,0,0,0,0,0,0,0,0
589587328,587489696,585392065,583294434,581078058,646090859,576885405,574788797,572691918,570595038,568498158,566401279,0,0,0,0,0,0,0,0,0,0,0,0,0,0
589463325,587366703,585270082,583173460,581077112,578981021,576884408,574787786,572690643,637702619,635605732,566399981,564303094,562205951,0,0,0,0,0,0,0,0,0,0,0,0
723819353,587503237,585404592,583305948,581068857,578974863,574784762,0,0,0,0,0,0,0,0,0,0,0,0,0,0,0,0,0,0,0
723678375,721582004,652377025,717389263,581075435,0,0,0,0,0,0,0,0,0,0,0,0,0,0,0,0,0,0,0,0,0
723681501,721584870,585270511,583173880,0,0,0,0,0,0,0,0,0,0,0,0,0,0,0,0,0,0,0,0,0,0
589460911,587364540,585268169,583171797,581076207,0,0,0,0,0,0,0,0,0,0,0,0,0,0,0,0,0,0,0,0,0
589460403,587363774,652376265,583171029,581075435,0,0,0,0,0,0,0,0,0,0,0,0,0,0,0,0,0,0,0,0,0
589636619,587535921,585434967,650443901,581230538,578954270,576862807,641878397,572674193,570578852,568483511,566388426,564293085,562197744,0,0,0,0,0,0,0,0,0,0,0,0
656739763,587530969,652540155,583138081,0,0,0,0,0,0,0,0,0,0,0,0,0,0,0,0,0,0,0,0,0,0
589427737,587333425,652347976,717362784,648163471,578963903,576871650,574777850,0,0,0,0,0,0,0,0,0,0,0,0,0,0,0,0,0,0
589431095,587336267,585241183,583146354,782380440,576868571,0,0,0,0,0,0,0,0,0,0,0,0,0,0,0,0,0,0,0,0
589429562,587334477,585239904,583145587,782380440,576868571,0,0,0,0,0,0,0,0,0,0,0,0,0,0,0,0,0,0,0,0
656771614,587559750,585457006,583354005,581245412,578943802,576854645,574763421,572669104,570574788,635589335,700603883,564292095,0,0,0,0,0,0,0,0,0,0,0,0,0
589640392,654648290,585438461,583131677,581042001,578952325,576861100,574767814,572672723,570577376,635591148,566387193,0,0,0,0,0,0,0,0,0,0,0,0,0,0
589419785,587326242,585232954,583139411,581049476,713177526,576868571,574775284,0,0,0,0,0,0,0,0,0,0,0,0,0,0,0,0,0,0
656529201,587326791,585233500,583139441,581049500,578959558,576868070,574774523,0,0,0,0,0,0,0,0,0,0,0,0,0,0,0,0,0,0
589423944,721547868,585236336,650251140,581052077,578962133,576870132,0,0,0,0,0,0,0,0,0,0,0,0,0,0,0,0,0,0,0
656529258,587327610,585234570,717358234,581051065,578962133,574777850,0,0,0,0,0,0,0,0,0,0,0,0,0,0,0,0,0,0,0
589422449,654437503,585234830,583140253,581049787,578959321,576866801,0,0,0,0,0,0,0,0,0,0,0,0,0,0,0,0,0,0,0
589413255,587319443,719443103,583131563,581041091,578949852,576857838,574764026,641204468,0,0,0,0,0,0,0,0,0,0,0,0,0,0,0,0,0
589710000,587604683,585499110,583074568,580994366,713131637,643938462,574741178,706865864,570555350,568461795,566369009,564276223,563611890,0,0,0,0,0,0,0,0,0,0,0,0
589716142,654718921,585503973,583071240,580991295,578912119,576828577,574740413,572647883,704772825,568461799,566369269,564276223,563611890,0,0,0,0,0,0,0,0,0,0,0,0
589709053,788581916,585167925,583079759,581001857,578923700,576840922,574752500,572000736,704124402,0,0,0,0,0,0,0,0,0,0,0,0,0,0,0,0
590875339,588779476,586683614,584588007,582493689,0,0,0,0,0,0,0,0,0,0,0,0,0,0,0,0,0,0,0,0,0
589424114,587330298,586678968,584583877,582490335,580397049,0,0,0,0,0,0,0,0,0,0,0,0,0,0,0,0,0,0,0,0
589421551,587327734,585233917,584582586,716706772,580395757,0,0,0,0,0,0,0,0,0,0,0,0,0,0,0,0,0,0,0,0
589350013,721479052,585172123,583083691,648112329,578923753,576196273,641209793,572005842,637019618,567815667,0,0,0,0,0,0,0,0,0,0,0,0,0,0,0
590880431,723002042,586688453,584592336,582497254,580402172,0,0,0,0,0,0,0,0,0,0,0,0,0,0,0,0,0,0,0,0
589380569,587290082,652308459,583109109,649594994,580393895,578300366,576205800,574109941,0,0,0,0,0,0,0,0,0,0,0,0,0,0,0,0,0
590881901,588785790,586689935,584593824,649607874,580403941,578308351,0,0,0,0,0,0,0,0,0,0,0,0,0,0,0,0,0,0,0
591330676,589232019,654242226,585034706,580398163,578303362,576207777,574111409,639123904,569918672,567822304,565725935,563629567,0,0,0,0,0,0,0,0,0,0,0,0,0
656424422,587229935,585144311,585039724,582938055,580395814,578302057,576207254,574111148,572015043,704136665,567823088,0,0,0,0,0,0,0,0,0,0,0,0,0,0
590890175,588793547,586696919,584600290,582504441,0,0,0,0,0,0,0,0,0,0,0,0,0,0,0,0,0,0,0,0,0
590891128,588794758,586698132,584601251,582504385,580408030,578311156,0,0,0,0,0,0,0,0,0,0,0,0,0,0,0,0,0,0,0
590893838,588796963,586699833,584602958,582506105,580409508,578312645,576215515,574118630,572021489,569924604,0,0,0,0,0,0,0,0,0,0,0,0,0,0,0
590897202,588799564,586701670,584604286,582506412,580408030,0,0,0,0,0,0,0,0,0,0,0,0,0,0,0,0,0,0,0,0
590902150,588804757,586707109,584609717,582511828,580413939,0,0,0,0,0,0,0,0,0,0,0,0,0,0,0,0,0,0,0,0
590902447,588805050,586707397,584610000,582512102,714631932,0,0,0,0,0,0,0,0,0,0,0,0,0,0,0,0,0,0,0,0
590914412,588818550,653830785,584625807,582529963,0,0,0,0,0,0,0,0,0,0,0,0,0,0,0,0,0,0,0,0,0
590927909,588828475,586729297,584629864,582528404,714644417,578326243,576227065,0,0,0,0,0,0,0,0,0,0,0,0,0,0,0,0,0,0
591246416,656262000,587060367,584967602,582877432,580445248,0,0,0,0,0,0,0,0,0,0,0,0,0,0,0,0,0,0,0,0
591246432,589153411,587060647,584967883,582547992,580441953,578338200,643345596,574137295,572037857,637047539,0,0,0,0,0,0,0,0,0,0,0,0,0,0,0
591251706,723068949,653859114,584649025,582545006,580440219,578337981,576237267,574138591,572039658,569940982,0,0,0,0,0,0,0,0,0,0,0,0,0,0,0
590938749,588839309,720956573,584638637,649644237,580432110,0,0,0,0,0,0,0,0,0,0,0,0,0,0,0,0,0,0,0,0
590954291,588854084,586753366,651762024,783876236,0,0,0,0,0,0,0,0,0,0,0,0,0,0,0,0,0,0,0,0,0
590957103,588856128,586755154,584654437,783876236,0,0,0,0,0,0,0,0,0,0,0,0,0,0,0,0,0,0,0,0,0
658066984,588857148,653864783,584654948,783876236,0,0,0,0,0,0,0,0,0,0,0,0,0,0,0,0,0,0,0,0,0
591205471,589115008,587024544,584934080,582576646,580466247,712576888,576256408,574155945,706273209,569955273,567854810,565754346,697871610,0,0,0,0,0,0,0,0,0,0,0,0
591200332,656219249,587020951,584931260,582577420,580465239,578356622,576252340,574151367,572050138,569949165,0,0,0,0,0,0,0,0,0,0,0,0,0,0,0
590959677,588858697,586756950,584654948,0,0,0,0,0,0,0,0,0,0,0,0,0,0,0,0,0,0,0,0,0,0
591184716,589096305,587007125,584918714,582587657,580473169,712580489,576257711,574156226,572054485,637061608,567851260,0,0,0,0,0,0,0,0,0,0,0,0,0,0
658078526,588867155,586764648,584662141,582554279,580447440,578342639,0,0,0,0,0,0,0,0,0,0,0,0,0,0,0,0,0,0,0
590964375,588862117,586760115,584658113,582551261,580059097,577956597,0,0,0,0,0,0,0,0,0,0,0,0,0,0,0,0,0,0,0
590542801,588444121,586345698,584247018,582147067,0,0,0,0,0,0,0,0,0,0,0,0,0,0,0,0,0,0,0,0,0
590983539,588877465,720988863,584665571,649253555,0,0,0,0,0,0,0,0,0,0,0,0,0,0,0,0,0,0,0,0,0
590964157,588862153,586760148,785984735,582551542,580053976,645061364,0,0,0,0,0,0,0,0,0,0,0,0,0,0,0,0,0,0,0
591019341,588913248,721025651,584702086,582587309,580472531,645470959,642971073,573762515,571663076,569563382,0,0,0,0,0,0,0,0,0,0,0,0,0,0,0
591048217,588932409,586816601,718919033,582565818,580431356,0,0,0,0,0,0,0,0,0,0,0,0,0,0,0,0,0,0,0,0
591048225,656050229,721051978,584727390,582611335,580494255,578382542,576275427,574173421,572071415,636680111,567471555,565371862,563271914,561172221,0,0,0,0,0,0,0,0,0,0,0
591025817,588919718,586813619,584708289,582593500,580478454,577957512,575857067,638768333,569560543,567461616,0,0,0,0,0,0,0,0,0,0,0,0,0,0,0
590530758,588432850,586334685,584236776,582138110,0,0,0,0,0,0,0,0,0,0,0,0,0,0,0,0,0,0,0,0,0
590526399,722646473,586331347,584233693,582135793,0,0,0,0,0,0,0,0,0,0,0,0,0,0,0,0,0,0,0,0,0
590523367,722643695,586328822,584231422,0,0,0,0,0,0,0,0,0,0,0,0,0,0,0,0,0,0,0,0,0,0
590522450,722642531,586327413,718447494,582132136,580034762,577937380,575840245,573742846,0,0,0,0,0,0,0,0,0,0,0,0,0,0,0,0,0
590627314,588424720,586327591,584230206,582132846,781361566,0,0,0,0,0,0,0,0,0,0,0,0,0,0,0,0,0,0,0,0
590518805,588421673,586324285,584226898,580031143,577934535,575837660,573740775,571643889,569546748,0,0,0,0,0,0,0,0,0,0,0,0,0,0,0,0
590517816,588420683,586323805,584226672,582129814,647141819,577936088,642948074,573742068,571644925,0,0,0,0,0,0,0,0,0,0,0,0,0,0,0,0
590514451,588417576,653429821,584224083,582127485,580031143,577934535,575837660,573740775,571643889,569546748,0,0,0,0,0,0,0,0,0,0,0,0,0,0,0
590514240,588417362,586320741,584223863,582127516,580031169,577934556,642946542,573740792,0,0,0,0,0,0,0,0,0,0,0,0,0,0,0,0,0
590495266,588399158,586303305,584207453,783439750,0,0,0,0,0,0,0,0,0,0,0,0,0,0,0,0,0,0,0,0,0
590493466,588397871,586302277,584206938,783439750,0,0,0,0,0,0,0,0,0,0,0,0,0,0,0,0,0,0,0,0,0
657779103,588570302,586470365,584370428,582104128,580012925,577919915,575825610,573730009,571634408,569538551,0,0,0,0,0,0,0,0,0,0,0,0,0,0,0
590727209,588623693,586520177,584416661,582306781,579980588,577892962,642910341,573707671,571613609,569519547,567425741,632440542,563237616,0,0,0,0,0,0,0,0,0,0,0,0
590722120,588618350,586514580,584411066,582071308,579987543,577899663,575809205,573715400,705839323,569528045,0,0,0,0,0,0,0,0,0,0,0,0,0,0,0
590716789,588614037,586511028,584408275,649180952,579986263,577896838,710023077,573711028,571616708,569522387,567428067,565333746,0,0,0,0,0,0,0,0,0,0,0,0,0
590727890,588623854,586240785,718368301,582067557,579984541,577897415,575807458,707931632,571620606,0,0,0,0,0,0,0,0,0,0,0,0,0,0,0,0
590467228,588373674,586280119,584186820,582096095,580006393,0,0,0,0,0,0,0,0,0,0,0,0,0,0,0,0,0,0,0,0
590477256,588382418,586287835,584193509,582102008,0,0,0,0,0,0,0,0,0,0,0,0,0,0,0,0,0,0,0,0,0
724965099,588313101,586223656,584134979,582054777,647083693,577890772,575801326,640817402,638062831,0,0,0,0,0,0,0,0,0,0,0,0,0,0,0,0
590431600,588339841,586248337,785483169,0,0,0,0,0,0,0,0,0,0,0,0,0,0,0,0,0,0,0,0,0,0
590428294,588337807,653355928,785483169,0,0,0,0,0,0,0,0,0,0,0,0,0,0,0,0,0,0,0,0,0,0
589829593,587733729,585637866,583541746,0,0,0,0,0,0,0,0,0,0,0,0,0,0,0,0,0,0,0,0,0,0
590375238,588288602,586202223,584115587,582038955,579962579,577881073,575147185,640161477,570958042,703080942,0,0,0,0,0,0,0,0,0,0,0,0,0,0,0
589834469,587738349,585642230,583546110,0,0,0,0,0,0,0,0,0,0,0,0,0,0,0,0,0,0,0,0,0,0
589829810,587733948,585638342,583542991,581449956,0,0,0,0,0,0,0,0,0,0,0,0,0,0,0,0,0,0,0,0,0
589831084,587735224,585639108,583542991,581448166,646462205,0,0,0,0,0,0,0,0,0,0,0,0,0,0,0,0,0,0,0,0
589830048,587734188,719855800,650651076,581447645,579352821,0,0,0,0,0,0,0,0,0,0,0,0,0,0,0,0,0,0,0,0
657532905,588333297,586242553,583533875,581440612,579347093,577252792,575157712,573061596,570965480,568869108,0,0,0,0,0,0,0,0,0,0,0,0,0,0,0
589833617,587737252,585641397,583545541,581449956,0,0,0,0,0,0,0,0,0,0,0,0,0,0,0,0,0,0,0,0,0
657497331,722517498,586087066,583988156,581887743,579348295,577253754,575158427,573062060,638074556,568869581,566773214,564677103,562580735,0,0,0,0,0,0,0,0,0,0,0,0
589840317,587743687,585647314,583550684,581454577,0,0,0,0,0,0,0,0,0,0,0,0,0,0,0,0,0,0,0,0,0
590276751,588178349,586079947,583981800,581447465,646461541,644366225,575161519,573064894,570968269,568871900,566775275,631787513,0,0,0,0,0,0,0,0,0,0,0,0,0
590280496,588181838,787410028,583985034,581885639,577254457,575158872,573062248,570965880,568869511,566772887,698893991,562579895,627592134,558386646,556290278,554193654,0,0,0,0,0,0,0,0,0
590264822,721963539,585649963,583553603,581458032,0,0,0,0,0,0,0,0,0,0,0,0,0,0,0,0,0,0,0,0,0
590262006,587747858,585650985,650662976,581457519,579360925,577264316,575167440,640178653,570972651,0,0,0,0,0,0,0,0,0,0,0,0,0,0,0,0
590256833,588159968,586063103,583557411,581459550,579362455,0,0,0,0,0,0,0,0,0,0,0,0,0,0,0,0,0,0,0,0
590254698,588157834,586060970,583964106,581462031,579364431,577267071,575169696,573072304,570975168,568877776,566780640,564683249,0,0,0,0,0,0,0,0,0,0,0,0,0
589854006,587756362,585658974,583561330,581463450,579365571,577267682,575170295,0,0,0,0,0,0,0,0,0,0,0,0,0,0,0,0,0,0
657347808,588143097,585670935,583572527,581473120,713590929,577274294,575175886,774404313,570980327,568882419,566784767,0,0,0,0,0,0,0,0,0,0,0,0,0,0
590213896,588119089,586023514,583928707,581837016,0,0,0,0,0,0,0,0,0,0,0,0,0,0,0,0,0,0,0,0,0
590217070,588121998,586027694,651042253,581487890,579385426,577284226,575184290,573085874,570987458,568888786,566790370,564691954,0,0,0,0,0,0,0,0,0,0,0,0,0
589861857,654872553,585665777,583567865,0,0,0,0,0,0,0,0,0,0,0,0,0,0,0,0,0,0,0,0,0,0
589867970,587769548,719888854,583572960,581473268,0,0,0,0,0,0,0,0,0,0,0,0,0,0,0,0,0,0,0,0,0
724416934,588106694,586013926,583602699,581497419,579391372,577287612,575185885,573086701,570987261,0,0,0,0,0,0,0,0,0,0,0,0,0,0,0,0
589878429,721996715,585679800,583580613,581479392,579378171,0,0,0,0,0,0,0,0,0,0,0,0,0,0,0,0,0,0,0,0
589867239,587768815,585670391,717789694,0,0,0,0,0,0,0,0,0,0,0,0,0,0,0,0,0,0,0,0,0,0
590195148,588102120,652817928,583607588,581501788,579396755,577292733,575191000,573091558,570992116,0,0,0,0,0,0,0,0,0,0,0,0,0,0,0,0
589911594,587810110,585708882,583607654,581502094,579397302,577294036,575192808,573093362,570994172,0,0,0,0,0,0,0,0,0,0,0,0,0,0,0,0
590157955,655175851,585975759,583884530,581529913,646528632,577313191,575209414,573108437,571006949,568905205,566424830,0,0,0,0,0,0,0,0,0,0,0,0,0,0
589481165,587383255,585285600,581089276,0,0,0,0,0,0,0,0,0,0,0,0,0,0,0,0,0,0,0,0,0,0
588580760,586481081,584380633,582095139,580005220,577913494,575819959,573724615,571629527,569534183,567439095,0,0,0,0,0,0,0,0,0,0,0,0,0,0,0
588383723,586289138,584194553,581438957,0,0,0,0,0,0,0,0,0,0,0,0,0,0,0,0,0,0,0,0,0,0
588708999,586599846,584490437,582003723,579930442,577851770,575766681,573675689,571584441,636602313,567402202,565311210,697436922,560469228,0,0,0,0,0,0,0,0,0,0,0,0
588255144,586171062,584086980,649124832,714161916,577247059,575153542,573058207,570962873,568867538,566772204,0,0,0,0,0,0,0,0,0,0,0,0,0,0,0
588107553,586013763,718137445,581828776,713955564,711512868,575194950,573096023,570997352,703116153,566799754,564701083,629711019,560503484,558404813,556306142,554207215,0,0,0,0,0,0,0,0,0
723003431,586689599,584593751,580403639,712525787,576212211,574115583,0,0,0,0,0,0,0,0,0,0,0,0,0,0,0,0,0,0,0
585440271,583338811,581234322,579128809,576860465,574767453,572672371,570577289,769808542,633495732,564291786,562196704,560101622,0,0,0,0,0,0,0,0,0,0,0,0,0
585506067,717616711,581281198,578916636,0,0,0,0,0,0,0,0,0,0,0,0,0,0,0,0,0,0,0,0,0,0
585553182,583443529,648429981,579199731,711020090,574717797,572627066,637644943,568445349,566354362,564263632,562171877,560081146,559417330,0,0,0,0,0,0,0,0,0,0,0,0
585161432,583073509,580994302,580391998,578298740,710421657,574108332,639121342,637025744,567821282,565725684,0,0,0,0,0,0,0,0,0,0,0,0,0,0,0
586424103,584327754,582231952,580136150,577943057,575845172,573747781,571650391,569553000,567455610,565357963,563260572,561163182,626174399,556968145,554870755,552773364,0,0,0,0,0,0,0,0,0
586547244,584441178,582325174,579968793,712103519,575798413,707922853,571612860,569520595,567428330,0,0,0,0,0,0,0,0,0,0,0,0,0,0,0,0
653114402,651021899,581824926,579735795,577295929,642303075,573094777,705213071,568896164,566796730,564697807,0,0,0,0,0,0,0,0,0,0,0,0,0,0,0
586003739,583911238,581823644,579735027,577295929,642303075,573094777,705213071,568896164,566796730,564697807,0,0,0,0,0,0,0,0,0,0,0,0,0,0,0
583807087,581736129,579470360,711572054,575244415,573140628,571037096,568933309,566829777,564726246,562622968,627240677,0,0,0,0,0,0,0,0,0,0,0,0,0,0
717905854,715785690,579448566,576908878,641917307,774035858,637719465,635620544,566412760,564313839,0,0,0,0,0,0,0,0,0,0,0,0,0,0,0,0
584995083,582901884,580808426,578324289,643334263,574127506,572029612,569931462,634942175,565735417,0,0,0,0,0,0,0,0,0,0,0,0,0,0,0,0
584981255,582890611,580799711,578330933,576230764,574132103,572033186,569934525,567835864,565737203,0,0,0,0,0,0,0,0,0,0,0,0,0,0,0,0
584397079,582290291,580184527,577903131,575810633,573716064,571621239,569526414,567431845,565337020,697459923,0,0,0,0,0,0,0,0,0,0,0,0,0,0,0
584191587,582100620,580009652,577916626,710040038,573726704,638739961,0,0,0,0,0,0,0,0,0,0,0,0,0,0,0,0,0,0,0
581729361,579655588,577574881,575257870,573155107,705270071,568949835,566847072,564744308,562641545,560539037,558436274,556334534,554232026,552129518,549648127,0,0,0,0,0,0,0,0,0,0
715837549,579491741,577371586,642367705,707371493,705266416,636052731,0,0,0,0,0,0,0,0,0,0,0,0,0,0,0,0,0,0,0
581621364,579492257,577371586,642367705,707371493,705266416,636052731,0,0,0,0,0,0,0,0,0,0,0,0,0,0,0,0,0,0,0
581622723,579473151,576899907,574794921,0,0,0,0,0,0,0,0,0,0,0,0,0,0,0,0,0,0,0,0,0,0
581272406,579154888,576843047,574754914,572662655,570570395,635586488,566384855,698509558,0,0,0,0,0,0,0,0,0,0,0,0,0,0,0,0,0
715517706,579179912,577065446,574735404,639752779,570552683,568460682,700586920,564277961,562186728,0,0,0,0,0,0,0,0,0,0,0,0,0,0,0,0
715580529,713443809,576786492,708926836,572621968,570534828,568447688,566360548,563613677,0,0,0,0,0,0,0,0,0,0,0,0,0,0,0,0,0
580912047,578852050,576782314,574703098,0,0,0,0,0,0,0,0,0,0,0,0,0,0,0,0,0,0,0,0,0,0
715141868,580844377,645851580,576642303,572010310,569914727,567819144,632832425,563627979,561532396,0,0,0,0,0,0,0,0,0,0,0,0,0,0,0,0
582928180,647938203,578730729,576210978,574114364,572017749,569921135,634933128,565727650,563631036,628643285,693655279,0,0,0,0,0,0,0,0,0,0,0,0,0,0
582909024,647922623,578320140,576222012,0,0,0,0,0,0,0,0,0,0,0,0,0,0,0,0,0,0,0,0,0,0
582875441,580787370,578340874,643347783,574139495,572039814,569940390,567840709,632850148,0,0,0,0,0,0,0,0,0,0,0,0,0,0,0,0,0
582678846,580542336,578416305,576299474,708410083,572085491,770897036,567469235,565368026,0,0,0,0,0,0,0,0,0,0,0,0,0,0,0,0,0
716891299,580541893,779745759,576304626,640875814,571667272,569567850,634577035,565368493,630377422,695386352,0,0,0,0,0,0,0,0,0,0,0,0,0,0,0
582635738,714729203,577957927,642966112,573758077,571659162,569559990,0,0,0,0,0,0,0,0,0,0,0,0,0,0,0,0,0,0,0
582392910,580266672,578148602,642861106,573662283,571572324,569482620,567392661,632411565,563212998,561122270,559032310,0,0,0,0,0,0,0,0,0,0,0,0,0,0
649521870,579900972,577832045,575754393,573666991,705797317,569492443,768731633,765990108,0,0,0,0,0,0,0,0,0,0,0,0,0,0,0,0,0
581968263,714129083,577843682,575766524,640160371,570957723,568864194,633879017,0,0,0,0,0,0,0,0,0,0,0,0,0,0,0,0,0,0
715992095,579698073,577616372,575217461,573115219,571013746,568911504,566809262,631815884,562604779,0,0,0,0,0,0,0,0,0,0,0,0,0,0,0,0
579509436,577385944,642380779,573166069,570620427,568520749,566421327,564321649,562222227,560122550,558022874,555923198,0,0,0,0,0,0,0,0,0,0,0,0,0,0
579099658,577001363,574903534,572691236,570594642,635606655,633509805,564304347,0,0,0,0,0,0,0,0,0,0,0,0,0,0,0,0,0,0
579113318,644120513,574780166,639793444,570588995,568493410,566397824,564302239,0,0,0,0,0,0,0,0,0,0,0,0,0,0,0,0,0,0
646221884,577012893,574913758,706899462,570585894,568489798,566393702,631406470,629310630,560105671,558009575,0,0,0,0,0,0,0,0,0,0,0,0,0,0,0
646321543,711306991,708935484,706847326,704759169,568453283,566364358,564276201,0,0,0,0,0,0,0,0,0,0,0,0,0,0,0,0,0,0
579218802,577097173,574709023,572620352,570531681,702660738,767680930,564265155,562176484,0,0,0,0,0,0,0,0,0,0,0,0,0,0,0,0,0
578841800,710992617,574697726,574552570,569908047,634922615,565719200,563624649,561530097,0,0,0,0,0,0,0,0,0,0,0,0,0,0,0,0,0
580829048,578730464,576211754,574115148,572018543,569922194,567825588,565728983,764958969,0,0,0,0,0,0,0,0,0,0,0,0,0,0,0,0,0
647929149,578723228,576626140,574529020,572023328,569925952,567828831,565731711,563634591,628646334,559440094,624451837,0,0,0,0,0,0,0,0,0,0,0,0,0,0
647885391,578687669,643705593,574147104,572046914,569946724,567846790,565746600,630755530,628655340,0,0,0,0,0,0,0,0,0,0,0,0,0,0,0,0
580754223,645778065,576580307,574487283,572061976,569960761,567859801,632867449,563657626,561556410,559455451,557354491,0,0,0,0,0,0,0,0,0,0,0,0,0,0
580701535,578624179,576540652,574199308,572095273,569991237,567887201,565783165,563679129,561575861,559471824,557367532,0,0,0,0,0,0,0,0,0,0,0,0,0,0
580554922,645543878,576323545,574218723,572113900,704226805,635013374,632484175,697493357,561176203,626185640,556977350,554877668,0,0,0,0,0,0,0,0,0,0,0,0,0
781841149,577956129,642965340,573758075,571659162,569559990,0,0,0,0,0,0,0,0,0,0,0,0,0,0,0,0,0,0,0,0
580193863,578086840,710023948,573712946,571619416,569525885,634541218,565339336,563246062,0,0,0,0,0,0,0,0,0,0,0,0,0,0,0,0,0
580201035,578092476,642910734,573709108,571616346,569523328,567430566,565337804,563244786,0,0,0,0,0,0,0,0,0,0,0,0,0,0,0,0,0
647328680,577877769,575791941,573700452,571607940,569516196,567424451,0,0,0,0,0,0,0,0,0,0,0,0,0,0,0,0,0,0,0
647377443,578150278,576038344,573933801,638680337,569481779,701609812,699520118,697430424,695339961,626141658,556943100,0,0,0,0,0,0,0,0,0,0,0,0,0,0
580310578,578184082,643176145,641070065,705764121,569459257,567371865,766611064,563197336,561109944,559022296,556934648,0,0,0,0,0,0,0,0,0,0,0,0,0,0
579903738,577693669,642262844,573058918,570963856,635977657,566773731,0,0,0,0,0,0,0,0,0,0,0,0,0,0,0,0,0,0,0
579778107,577680772,575583158,573485775,638497256,635981574,566775840,564678969,562582098,560485228,558388358,556291487,621303736,552098002,550001131,0,0,0,0,0,0,0,0,0,0,0
579777589,577679536,575164934,573068334,570971479,568874880,566778025,564681426,629693434,0,0,0,0,0,0,0,0,0,0,0,0,0,0,0,0,0
579753086,577661169,642288193,573080680,570981774,568882868,0,0,0,0,0,0,0,0,0,0,0,0,0,0,0,0,0,0,0,0
579751792,711877596,642289704,573082189,570983537,635993749,566786490,564687839,0,0,0,0,0,0,0,0,0,0,0,0,0,0,0,0,0,0
579388212,577285495,575184548,573085370,570986448,568887270,701005820,0,0,0,0,0,0,0,0,0,0,0,0,0,0,0,0,0,0,0
646835029,577637822,575199496,573099307,570998862,636007536,566798227,564698038,562597593,560497404,0,0,0,0,0,0,0,0,0,0,0,0,0,0,0,0
579689472,644716652,575520693,573428698,638130434,568919335,566817867,631824495,562613396,560511160,558408924,0,0,0,0,0,0,0,0,0,0,0,0,0,0,0
713892971,778924751,642341398,573128760,571024985,568921211,566818204,631823293,562610655,0,0,0,0,0,0,0,0,0,0,0,0,0,0,0,0,0
713066466,576783102,576647159,572006991,569912441,567817891,632831949,563628536,0,0,0,0,0,0,0,0,0,0,0,0,0,0,0,0,0,0
577326426,575224998,640234699,571027185,568516754,700627610,564303265,562196904,0,0,0,0,0,0,0,0,0,0,0,0,0,0,0,0,0,0
577006668,574908069,572810193,570590726,568494386,633506910,698519179,562205367,627217891,0,0,0,0,0,0,0,0,0,0,0,0,0,0,0,0,0
577021503,574919846,639929305,570582294,635596361,566392701,564297905,629311972,0,0,0,0,0,0,0,0,0,0,0,0,0,0,0,0,0,0
577033986,574930280,572829852,570729424,702697228,566385728,564291698,562197412,560103382,0,0,0,0,0,0,0,0,0,0,0,0,0,0,0,0,0
577033754,574930555,639939243,570730204,635587861,566384966,564290935,562196904,627211736,0,0,0,0,0,0,0,0,0,0,0,0,0,0,0,0,0
577035008,574934364,572834954,570735543,635744995,566377752,564283204,562188655,560094361,558000578,0,0,0,0,0,0,0,0,0,0,0,0,0,0,0,0
644184952,574962392,572640785,570551874,0,0,0,0,0,0,0,0,0,0,0,0,0,0,0,0,0,0,0,0,0,0
577082246,574968036,572635675,570547018,568458617,700586920,564280791,0,0,0,0,0,0,0,0,0,0,0,0,0,0,0,0,0,0,0
643944804,574749846,572657327,570565574,635582940,566382579,0,0,0,0,0,0,0,0,0,0,0,0,0,0,0,0,0,0,0,0
576748500,708897520,572596222,639563761,567812965,632828317,0,0,0,0,0,0,0,0,0,0,0,0,0,0,0,0,0,0,0,0
578737730,576638351,574540215,706659550,569917448,567821871,565726035,630738552,561533341,559436993,557340646,0,0,0,0,0,0,0,0,0,0,0,0,0,0,0
578719323,643731618,574526150,572429290,569928466,567830838,565733466,563636093,561538465,559441093,0,0,0,0,0,0,0,0,0,0,0,0,0,0,0,0
578706235,576611465,641624239,572419542,570323709,567838760,565740367,563641973,561543580,559444930,557346537,0,0,0,0,0,0,0,0,0,0,0,0,0,0,0
578692684,576599959,641614012,572410338,637054475,567846193,699964502,563647612,561548193,626557638,557349356,0,0,0,0,0,0,0,0,0,0,0,0,0,0,0
578613275,576533881,708663464,572357847,569991433,567885112,699996519,563673493,695784644,693678323,0,0,0,0,0,0,0,0,0,0,0,0,0,0,0,0
578588035,576516569,641327623,639217714,569998942,634997897,565779381,563670241,0,0,0,0,0,0,0,0,0,0,0,0,0,0,0,0,0,0
712806133,576327739,574218844,639217788,704216733,567889342,767106014,563670527,0,0,0,0,0,0,0,0,0,0,0,0,0,0,0,0,0,0
578564287,777816568,641354521,572137270,570029395,567921008,700030093,563703978,695813063,626595811,556988624,689101820,0,0,0,0,0,0,0,0,0,0,0,0,0,0
645665002,710578467,708469053,639251286,704250992,567925130,700033699,563707069,561597910,626597871,556986314,554882552,0,0,0,0,0,0,0,0,0,0,0,0,0,0
578035316,575939769,573843419,571652869,569554984,701674826,565359213,563261327,561163442,559065556,624076534,0,0,0,0,0,0,0,0,0,0,0,0,0,0,0
578052470,710172115,573737738,571641145,569544807,567448213,632460482,563255280,0,0,0,0,0,0,0,0,0,0,0,0,0,0,0,0,0,0
712281168,710181043,640973540,571634207,569538897,567443331,699565493,563252455,0,0,0,0,0,0,0,0,0,0,0,0,0,0,0,0,0,0
578063718,575964077,573865424,571767028,703755039,567441730,565345893,563250057,561153964,626166735,556962035,0,0,0,0,0,0,0,0,0,0,0,0,0,0,0
578081618,643088285,708097219,638888935,569525780,567431225,699554397,563242369,561147813,559053000,556958188,0,0,0,0,0,0,0,0,0,0,0,0,0,0,0
578091551,643095432,573885629,773110769,569523246,567430498,565337494,563244747,695369471,0,0,0,0,0,0,0,0,0,0,0,0,0,0,0,0,0
578120457,576011369,573908121,638913737,636811257,567412786,565321826,563230866,561139906,559048946,0,0,0,0,0,0,0,0,0,0,0,0,0,0,0,0
578148419,710254223,573932213,571827931,636591880,701610798,632412499,630322808,561123486,693251523,556944360,0,0,0,0,0,0,0,0,0,0,0,0,0,0,0
578201712,576078528,708185833,571542296,569458496,701592681,766618001,563208124,561124071,0,0,0,0,0,0,0,0,0,0,0,0,0,0,0,0,0
577796019,575719372,573632472,571544804,569457905,701588477,564662617,562568577,627583400,558380496,556286456,0,0,0,0,0,0,0,0,0,0,0,0,0,0,0
577699143,575597985,573498830,571399675,568863020,566767961,564672902,562577843,560482784,0,0,0,0,0,0,0,0,0,0,0,0,0,0,0,0,0
577265078,575166676,573069536,570972651,0,0,0,0,0,0,0,0,0,0,0,0,0,0,0,0,0,0,0,0,0,0
577625453,642646219,573445115,571005486,568903517,633910412,564699580,562597355,0,0,0,0,0,0,0,0,0,0,0,0,0,0,0,0,0,0
577601128,642624177,640532694,705549819,568923428,633929800,564718701,562616210,560513462,558410715,556308223,0,0,0,0,0,0,0,0,0,0,0,0,0,0,0
577581059,575494468,640511332,571310725,569218725,701344453,565034982,629746954,560535851,692651083,623440747,554229644,552127404,550025164,615031788,0,0,0,0,0,0,0,0,0,0,0
644649773,575466893,640489404,638403819,636063774,566846030,631846268,696846252,560520667,0,0,0,0,0,0,0,0,0,0,0,0,0,0,0,0,0
709538644,573205364,571089811,568975027,566859474,631852785,763553461,627230717,0,0,0,0,0,0,0,0,0,0,0,0,0,0,0,0,0,0
574931285,572831885,570731721,635586575,566384464,698508944,562198478,0,0,0,0,0,0,0,0,0,0,0,0,0,0,0,0,0,0,0
574627388,572549985,704690565,702612649,633426892,698458864,697827969,0,0,0,0,0,0,0,0,0,0,0,0,0,0,0,0,0,0,0
574626898,639652969,570461313,568378521,700513457,564212425,696347361,560047353,559416954,557325747,622343147,0,0,0,0,0,0,0,0,0,0,0,0,0,0,0
574631777,572554620,570477206,568398258,566319570,698458864,697827969,0,0,0,0,0,0,0,0,0,0,0,0,0,0,0,0,0,0,0
708842467,572542190,570459384,570359635,568259723,566160067,564060411,561522999,693646191,557334183,555239647,0,0,0,0,0,0,0,0,0,0,0,0,0,0,0
576618547,641631071,572425868,570329529,635342053,565735702,630746947,561540209,626551453,557344715,555247096,0,0,0,0,0,0,0,0,0,0,0,0,0,0,0
576592453,708715632,639512475,570309319,635323890,565751586,563651661,561551737,693669284,557351632,555251707,0,0,0,0,0,0,0,0,0,0,0,0,0,0,0
576586782,708711254,639509389,570307269,567852544,565751607,697868143,628658342,559448542,0,0,0,0,0,0,0,0,0,0,0,0,0,0,0,0,0
710754647,641561501,706585573,637087278,567869557,767087290,563651583,0,0,0,0,0,0,0,0,0,0,0,0,0,0,0,0,0,0,0
576292086,574187519,571666288,569566348,634575528,632475844,563267041,628276221,0,0,0,0,0,0,0,0,0,0,0,0,0,0,0,0,0,0
576292086,573765971,571666288,569566348,634575528,632475844,563267041,628276221,0,0,0,0,0,0,0,0,0,0,0,0,0,0,0,0,0,0
576382140,574268875,706373083,570042090,702147066,565374737,630382416,561172624,626180303,0,0,0,0,0,0,0,0,0,0,0,0,0,0,0,0,0
576024843,573921339,571817580,636822940,567610573,699528198,563219255,561128296,626146201,691164107,554855676,0,0,0,0,0,0,0,0,0,0,0,0,0,0,0
710248795,641033618,638927306,569494283,567406403,565317755,697447604,695359984,0,0,0,0,0,0,0,0,0,0,0,0,0,0,0,0,0,0
643152951,641044344,638935737,636596995,768728900,565315973,563230150,0,0,0,0,0,0,0,0,0,0,0,0,0,0,0,0,0,0,0
575686344,573606873,638636009,703664379,631777141,629684409,627591421,0,0,0,0,0,0,0,0,0,0,0,0,0,0,0,0,0,0,0
642268157,707283184,570972387,568879063,0,0,0,0,0,0,0,0,0,0,0,0,0,0,0,0,0,0,0,0,0,0
575562526,573467490,772698790,569277163,566787634,564688758,562589882,627599614,0,0,0,0,0,0,0,0,0,0,0,0,0,0,0,0,0,0
642660390,640566638,571364279,568893185,701010248,564692111,562591702,0,0,0,0,0,0,0,0,0,0,0,0,0,0,0,0,0,0,0
575201574,573100872,705217641,568899211,566798509,564697807,562597105,0,0,0,0,0,0,0,0,0,0,0,0,0,0,0,0,0,0,0
642616674,640528030,638439642,770248473,566817109,698929041,562605773,0,0,0,0,0,0,0,0,0,0,0,0,0,0,0,0,0,0,0
709657904,573355360,571270288,770511039,634208495,564761123,562651731,560542595,558433203,556324835,0,0,0,0,0,0,0,0,0,0,0,0,0,0,0,0
640345468,772449940,569010348,566897346,564785112,562672366,694350918,625139842,623037886,620936185,0,0,0,0,0,0,0,0,0,0,0,0,0,0,0,0
774199057,570765921,635768239,566361865,564274008,763512998,560098805,0,0,0,0,0,0,0,0,0,0,0,0,0,0,0,0,0,0,0
641561879,572362828,637381760,568182965,633201641,697893153,561572182,559467914,557363903,555259635,0,0,0,0,0,0,0,0,0,0,0,0,0,0,0,0
574380289,572297017,570214000,635239590,566046685,630824214,695822157,626602627,624492473,622381807,0,0,0,0,0,0,0,0,0,0,0,0,0,0,0,0
775694483,572291789,704263946,635038019,700028797,563693239,695793649,0,0,0,0,0,0,0,0,0,0,0,0,0,0,0,0,0,0,0
574360795,706491891,570073615,702183463,565858111,563750230,695860846,693752966,557427614,622428597,553211853,551103973,548996093,0,0,0,0,0,0,0,0,0,0,0,0,0
573910326,773133424,703921835,567600870,565320489,563229796,561139103,559048410,0,0,0,0,0,0,0,0,0,0,0,0,0,0,0,0,0,0
573424202,571335319,636354787,701030194,564706943,629710283,0,0,0,0,0,0,0,0,0,0,0,0,0,0,0,0,0,0,0,0
573462540,705586288,636383700,564688286,0,0,0,0,0,0,0,0,0,0,0,0,0,0,0,0,0,0,0,0,0,0
571219760,703357545,567059874,564979931,696900119,761894991,558454153,623448770,621335291,0,0,0,0,0,0,0,0,0,0,0,0,0,0,0,0,0
570766904,702877581,566553826,631382593,562186134,627207659,0,0,0,0,0,0,0,0,0,0,0,0,0,0,0,0,0,0,0,0
570804768,635806043,633698454,564482002,629260822,560065362,557977998,690108873,0,0,0,0,0,0,0,0,0,0,0,0,0,0,0,0,0,0
637541821,568352974,700490718,698410735,562112255,629077501,559422019,557329030,555236040,0,0,0,0,0,0,0,0,0,0,0,0,0,0,0,0,0
572416035,637430134,635335625,565740574,563640944,561541571,0,0,0,0,0,0,0,0,0,0,0,0,0,0,0,0,0,0,0,0
572270798,704407541,702176033,565845064,563732336,561618839,760831679,557391591,554887646,0,0,0,0,0,0,0,0,0,0,0,0,0,0,0,0,0
571816990,636822613,567610509,565507781,630513404,561127741,626145652,556946092,554855140,0,0,0,0,0,0,0,0,0,0,0,0,0,0,0,0,0
571925669,771134169,634431766,699464267,630278527,695311028,626126056,0,0,0,0,0,0,0,0,0,0,0,0,0,0,0,0,0,0,0
772828035,703636378,567335855,766578885,0,0,0,0,0,0,0,0,0,0,0,0,0,0,0,0,0,0,0,0,0,0
638395660,703421278,567120304,698956291,629736789,560517800,692624635,0,0,0,0,0,0,0,0,0,0,0,0,0,0,0,0,0,0,0
569029240,566907292,564785857,696881382,627240078,558024689,0,0,0,0,0,0,0,0,0,0,0,0,0,0,0,0,0,0,0,0
568609330,633621410,631413277,629316237,560110847,0,0,0,0,0,0,0,0,0,0,0,0,0,0,0,0,0,0,0,0,0
635740444,566530186,631537653,629308011,627215061,0,0,0,0,0,0,0,0,0,0,0,0,0,0,0,0,0,0,0,0,0
635865368,566642522,564528284,562414814,560031785,557951851,690089389,688008687,0,0,0,0,0,0,0,0,0,0,0,0,0,0,0,0,0,0
702992721,767985291,765868742,696318731,627131461,759271296,555867068,688005880,0,0,0,0,0,0,0,0,0,0,0,0,0,0,0,0,0,0
702965492,633746929,564527342,562416110,0,0,0,0,0,0,0,0,0,0,0,0,0,0,0,0,0,0,0,0,0,0
569906777,567812478,565717922,563623366,561528810,0,0,0,0,0,0,0,0,0,0,0,0,0,0,0,0,0,0,0,0,0
771517252,568119198,767373047,765031507,561583023,0,0,0,0,0,0,0,0,0,0,0,0,0,0,0,0,0,0,0,0,0
569641558,634656172,632472844,563264100,561164475,0,0,0,0,0,0,0,0,0,0,0,0,0,0,0,0,0,0,0,0,0
568859546,566764465,564669384,562574302,560479221,0,0,0,0,0,0,0,0,0,0,0,0,0,0,0,0,0,0,0,0,0
569293122,567194544,564678943,562583181,627596027,0,0,0,0,0,0,0,0,0,0,0,0,0,0,0,0,0,0,0,0,0
569279570,567184061,564686889,629697171,627598590,0,0,0,0,0,0,0,0,0,0,0,0,0,0,0,0,0,0,0,0,0
636311875,701339303,766061835,696840815,627619026,0,0,0,0,0,0,0,0,0,0,0,0,0,0,0,0,0,0,0,0,0
566518021,564419725,629313569,627218089,0,0,0,0,0,0,0,0,0,0,0,0,0,0,0,0,0,0,0,0,0,0
700455848,698397394,696337915,561516869,626539226,0,0,0,0,0,0,0,0,0,0,0,0,0,0,0,0,0,0,0,0,0
566239217,564159228,631175990,561967226,559867325,555233350,553139081,752371404,0,0,0,0,0,0,0,0,0,0,0,0,0,0,0,0,0,0
568244300,633255072,698265844,561533514,559437470,557341426,0,0,0,0,0,0,0,0,0,0,0,0,0,0,0,0,0,0,0,0
635323978,633231799,630756388,628654737,559444222,0,0,0,0,0,0,0,0,0,0,0,0,0,0,0,0,0,0,0,0,0
702384409,700304030,630782497,561559973,0,0,0,0,0,0,0,0,0,0,0,0,0,0,0,0,0,0,0,0,0,0
567572264,565473900,563375536,561277172,559055938,624069254,554865098,0,0,0,0,0,0,0,0,0,0,0,0,0,0,0,0,0,0,0
701955017,699424272,697355342,561067918,558999502,0,0,0,0,0,0,0,0,0,0,0,0,0,0,0,0,0,0,0,0,0
701507202,565226415,697380060,560472488,0,0,0,0,0,0,0,0,0,0,0,0,0,0,0,0,0,0,0,0,0,0
567297932,632334510,563152592,762406897,625485232,0,0,0,0,0,0,0,0,0,0,0,0,0,0,0,0,0,0,0,0,0
567297201,565219270,697358811,628171247,558371145,623388307,554187742,0,0,0,0,0,0,0,0,0,0,0,0,0,0,0,0,0,0,0
634245915,565046886,562955953,627974651,558416968,556312723,621317597,0,0,0,0,0,0,0,0,0,0,0,0,0,0,0,0,0,0,0
634242132,565046189,763949576,560516194,625518011,0,0,0,0,0,0,0,0,0,0,0,0,0,0,0,0,0,0,0,0,0
701297516,632116701,763972174,694741184,0,0,0,0,0,0,0,0,0,0,0,0,0,0,0,0,0,0,0,0,0,0
631955550,562735221,560623756,558512290,556400824,554289870,619287012,616758626,547547035,0,0,0,0,0,0,0,0,0,0,0,0,0,0,0,0,0
564150050,562077267,627113347,557930932,757184484,553135869,0,0,0,0,0,0,0,0,0,0,0,0,0,0,0,0,0,0,0,0
633185063,563986277,561896611,559806688,557379361,555275103,553170844,752392921,0,0,0,0,0,0,0,0,0,0,0,0,0,0,0,0,0,0
633138268,765287648,762917988,626574569,0,0,0,0,0,0,0,0,0,0,0,0,0,0,0,0,0,0,0,0,0,0
767324980,563938500,762933073,760799200,0,0,0,0,0,0,0,0,0,0,0,0,0,0,0,0,0,0,0,0,0,0
700117936,697997000,628767967,559539190,624094006,554881940,686996209,0,0,0,0,0,0,0,0,0,0,0,0,0,0,0,0,0,0,0
565446050,563350994,561172746,559073594,556974442,621984153,619885257,617786361,0,0,0,0,0,0,0,0,0,0,0,0,0,0,0,0,0,0
632664872,563451478,628455299,559241649,691354335,621923350,552725318,550635125,548545956,0,0,0,0,0,0,0,0,0,0,0,0,0,0,0,0,0
766906685,630569891,695306261,760340346,758265056,0,0,0,0,0,0,0,0,0,0,0,0,0,0,0,0,0,0,0,0,0
632709971,697695670,762402339,559005317,758260198,0,0,0,0,0,0,0,0,0,0,0,0,0,0,0,0,0,0,0,0,0
699844591,697343805,695277441,558994117,0,0,0,0,0,0,0,0,0,0,0,0,0,0,0,0,0,0,0,0,0,0
632216590,630117459,560909720,625919452,556286499,554191719,552096427,550000622,0,0,0,0,0,0,0,0,0,0,0,0,0,0,0,0,0,0
564168548,696318616,560032204,758651851,0,0,0,0,0,0,0,0,0,0,0,0,0,0,0,0,0,0,0,0,0,0
699407609,630123867,628022969,623394162,554191567,0,0,0,0,0,0,0,0,0,0,0,0,0,0,0,0,0,0,0,0,0
696710246,560364733,759228446,690052725,553768908,0,0,0,0,0,0,0,0,0,0,0,0,0,0,0,0,0,0,0,0,0
562492290,694581972,557902384,690052994,687986644,0,0,0,0,0,0,0,0,0,0,0,0,0,0,0,0,0,0,0,0,0
562066269,694211978,692139447,690067684,687352036,0,0,0,0,0,0,0,0,0,0,0,0,0,0,0,0,0,0,0,0,0
631078939,696102265,761125846,758709045,555273876,0,0,0,0,0,0,0,0,0,0,0,0,0,0,0,0,0,0,0,0,0
631064578,628983151,559793116,557384265,622380981,0,0,0,0,0,0,0,0,0,0,0,0,0,0,0,0,0,0,0,0,0
630578232,762674359,559009347,758262466,0,0,0,0,0,0,0,0,0,0,0,0,0,0,0,0,0,0,0,0,0,0
697739301,695605417,626090553,758248125,0,0,0,0,0,0,0,0,0,0,0,0,0,0,0,0,0,0,0,0,0,0
697333587,695270290,693206225,556281848,553135869,0,0,0,0,0,0,0,0,0,0,0,0,0,0,0,0,0,0,0,0,0
563093395,695252931,693194226,757611240,0,0,0,0,0,0,0,0,0,0,0,0,0,0,0,0,0,0,0,0,0,0
764328203,762229418,625496902,623401700,0,0,0,0,0,0,0,0,0,0,0,0,0,0,0,0,0,0,0,0,0,0
627427094,558199446,757189921,755114145,0,0,0,0,0,0,0,0,0,0,0,0,0,0,0,0,0,0,0,0,0,0
763029097,693789850,691659979,555311868,687000287,0,0,0,0,0,0,0,0,0,0,0,0,0,0,0,0,0,0,0,0,0
628527156,693509026,758202649,554808967,686959348,0,0,0,0,0,0,0,0,0,0,0,0,0,0,0,0,0,0,0,0,0
560988295,760252338,556862686,554180236,0,0,0,0,0,0,0,0,0,0,0,0,0,0,0,0,0,0,0,0,0,0
557848157,757097597,553693853,551616444,750865371,681679354,0,0,0,0,0,0,0,0,0,0,0,0,0,0,0,0,0,0,0,0
626874735,691906788,555289433,687390414,0,0,0,0,0,0,0,0,0,0,0,0,0,0,0,0,0,0,0,0,0,0
626388486,758482074,621924667,754071503,0,0,0,0,0,0,0,0,0,0,0,0,0,0,0,0,0,0,0,0,0,0
625500158,556293803,554196312,686727930,617522342,615425362,0,0,0,0,0,0,0,0,0,0,0,0,0,0,0,0,0,0,0,0
556453269,554334640,552216011,684315622,547550781,0,0,0,0,0,0,0,0,0,0,0,0,0,0,0,0,0,0,0,0,0
690135231,620929654,551724078,549732836,614743963,0,0,0,0,0,0,0,0,0,0,0,0,0,0,0,0,0,0,0,0,0
624456170,555252900,754484829,551063831,549348295,0,0,0,0,0,0,0,0,0,0,0,0,0,0,0,0,0,0,0,0,0
624072382,621974112,552767234,550787491,548691012,0,0,0,0,0,0,0,0,0,0,0,0,0,0,0,0,0,0,0,0,0
556944773,621944067,620033667,617947906,0,0,0,0,0,0,0,0,0,0,0,0,0,0,0,0,0,0,0,0,0,0
688061170,552141512,751387020,547980111,0,0,0,0,0,0,0,0,0,0,0,0,0,0,0,0,0,0,0,0,0,0
688048598,618849158,549649719,682216676,680179608,0,0,0,0,0,0,0,0,0,0,0,0,0,0,0,0,0,0,0,0,0
553820138,551723189,616735104,614637643,0,0,0,0,0,0,0,0,0,0,0,0,0,0,0,0,0,0,0,0,0,0
620919954,618817562,616862114,614769962,0,0,0,0,0,0,0,0,0,0,0,0,0,0,0,0,0,0,0,0,0,0
555235794,553129559,616620254,547382973,0,0,0,0,0,0,0,0,0,0,0,0,0,0,0,0,0,0,0,0,0,0
555258595,620282481,551088640,750640514,0,0,0,0,0,0,0,0,0,0,0,0,0,0,0,0,0,0,0,0,0,0
622385631,553197971,551119942,750601455,547120906,0,0,0,0,0,0,0,0,0,0,0,0,0,0,0,0,0,0,0,0,0
554883288,619903880,618232540,549046713,681226831,0,0,0,0,0,0,0,0,0,0,0,0,0,0,0,0,0,0,0,0,0
554883288,619893209,550686172,548587741,0,0,0,0,0,0,0,0,0,0,0,0,0,0,0,0,0,0,0,0,0,0
554876907,619891904,550689174,548595308,546949614,544884169,542797756,540711343,538625187,0,0,0,0,0,0,0,0,0,0,0,0,0,0,0,0,0
554874065,619891289,617875168,683297023,0,0,0,0,0,0,0,0,0,0,0,0,0,0,0,0,0,0,0,0,0,0
689052591,619827527,752180959,615885944,0,0,0,0,0,0,0,0,0,0,0,0,0,0,0,0,0,0,0,0,0,0
554214366,552130418,550046216,615365521,0,0,0,0,0,0,0,0,0,0,0,0,0,0,0,0,0,0,0,0,0,0
619243243,550044880,682173621,545884005,543812117,609023730,674026712,671921085,0,0,0,0,0,0,0,0,0,0,0,0,0,0,0,0,0,0
551733206,549639844,614655602,545904613,543844533,541759907,539675281,537590655,0,0,0,0,0,0,0,0,0,0,0,0,0,0,0,0,0,0
551715574,616723137,547512973,612676585,610591305,541389333,0,0,0,0,0,0,0,0,0,0,0,0,0,0,0,0,0,0,0,0
551714026,549614798,547515571,545412192,543308813,675590637,673495506,537182902,0,0,0,0,0,0,0,0,0,0,0,0,0,0,0,0,0,0
553142771,618151873,548943248,614394358,543202287,541092580,538982873,536873167,0,0,0,0,0,0,0,0,0,0,0,0,0,0,0,0,0,0
620255427,618157435,548950580,547272531,0,0,0,0,0,0,0,0,0,0,0,0,0,0,0,0,0,0,0,0,0,0
553160140,618176390,683192385,748558439,0,0,0,0,0,0,0,0,0,0,0,0,0,0,0,0,0,0,0,0,0,0
553184748,685325499,549031817,547124970,0,0,0,0,0,0,0,0,0,0,0,0,0,0,0,0,0,0,0,0,0,0
687009511,551093223,683227329,546953296,545032407,677139377,607920011,0,0,0,0,0,0,0,0,0,0,0,0,0,0,0,0,0,0,0
552784864,617802919,549013237,546959273,544904030,677038661,0,0,0,0,0,0,0,0,0,0,0,0,0,0,0,0,0,0,0,0
552782833,550691264,615708559,681162947,544884867,542800238,540715609,538630980,0,0,0,0,0,0,0,0,0,0,0,0,0,0,0,0,0,0
552783079,550691505,615708794,546954944,544898429,542815080,540731730,0,0,0,0,0,0,0,0,0,0,0,0,0,0,0,0,0,0,0
552778476,617793464,548590725,681167613,544891605,677025224,540723642,538639533,0,0,0,0,0,0,0,0,0,0,0,0,0,0,0,0,0,0
552777972,617794217,548592734,681195496,0,0,0,0,0,0,0,0,0,0,0,0,0,0,0,0,0,0,0,0,0,0
619880702,550674900,548578217,613591081,544487846,542390395,540292689,538195238,0,0,0,0,0,0,0,0,0,0,0,0,0,0,0,0,0,0
552760003,617766524,615664182,546625377,0,0,0,0,0,0,0,0,0,0,0,0,0,0,0,0,0,0,0,0,0,0
552758266,617764045,548552097,546437915,611659409,542459237,607476792,538276620,0,0,0,0,0,0,0,0,0,0,0,0,0,0,0,0,0,0
619188729,617752317,548536800,546411654,611395113,542179595,540411368,605432521,0,0,0,0,0,0,0,0,0,0,0,0,0,0,0,0,0,0
552089292,549988245,547886943,546380012,678459325,542130605,540019613,0,0,0,0,0,0,0,0,0,0,0,0,0,0,0,0,0,0,0
552101051,550005353,547909144,546211609,0,0,0,0,0,0,0,0,0,0,0,0,0,0,0,0,0,0,0,0,0,0
551729356,549634454,547540065,543854830,541771236,606796505,0,0,0,0,0,0,0,0,0,0,0,0,0,0,0,0,0,0,0,0
549641183,614657212,545874395,543803561,675932824,539626119,537537655,0,0,0,0,0,0,0,0,0,0,0,0,0,0,0,0,0,0,0
549637605,547546034,680107223,678048409,675964549,606772082,671797088,0,0,0,0,0,0,0,0,0,0,0,0,0,0,0,0,0,0,0
549627639,547531467,612546119,744760768,675553685,539237993,537139773,0,0,0,0,0,0,0,0,0,0,0,0,0,0,0,0,0,0,0
549620169,614629513,612663240,543464458,0,0,0,0,0,0,0,0,0,0,0,0,0,0,0,0,0,0,0,0,0,0
616718033,681722517,545584349,543507496,0,0,0,0,0,0,0,0,0,0,0,0,0,0,0,0,0,0,0,0,0,0
685253887,548934884,679594710,543259556,541155732,673269379,604056690,0,0,0,0,0,0,0,0,0,0,0,0,0,0,0,0,0,0,0
551056363,548960460,546867054,544773904,543056617,540958153,538859434,0,0,0,0,0,0,0,0,0,0,0,0,0,0,0,0,0,0,0
551061743,616079280,547232236,545117488,0,0,0,0,0,0,0,0,0,0,0,0,0,0,0,0,0,0,0,0,0,0
617804241,616116187,546967886,544998583,0,0,0,0,0,0,0,0,0,0,0,0,0,0,0,0,0,0,0,0,0,0
550688763,682813916,546911705,544838048,542748813,540659578,672787815,0,0,0,0,0,0,0,0,0,0,0,0,0,0,0,0,0,0,0
684907743,615707063,546928844,544863118,542775673,540689252,538603087,0,0,0,0,0,0,0,0,0,0,0,0,0,0,0,0,0,0,0
684911006,549016569,681182128,612022119,542831439,0,0,0,0,0,0,0,0,0,0,0,0,0,0,0,0,0,0,0,0,0
550680060,548584926,546493317,544401451,542306061,605676795,0,0,0,0,0,0,0,0,0,0,0,0,0,0,0,0,0,0,0,0
550670828,548572873,546472544,611610611,542405585,540309166,538213003,0,0,0,0,0,0,0,0,0,0,0,0,0,0,0,0,0,0,0
550669055,548570338,546468747,544367155,609377301,538219990,0,0,0,0,0,0,0,0,0,0,0,0,0,0,0,0,0,0,0,0
617773559,548565730,546462626,544359522,542260557,540161336,538062371,0,0,0,0,0,0,0,0,0,0,0,0,0,0,0,0,0,0,0
550659038,548557239,680664130,611646920,542444705,540352123,605368404,0,0,0,0,0,0,0,0,0,0,0,0,0,0,0,0,0,0,0
550654705,615661267,546439804,678545444,542225415,540362213,538270152,0,0,0,0,0,0,0,0,0,0,0,0,0,0,0,0,0,0,0
549980400,548545016,680643504,678523752,542201424,540096824,537991968,0,0,0,0,0,0,0,0,0,0,0,0,0,0,0,0,0,0,0
684204782,614992060,546407104,544271981,542162001,540052022,537941787,0,0,0,0,0,0,0,0,0,0,0,0,0,0,0,0,0,0,0
550008312,547912672,545819799,610835789,541631285,539535645,672026621,0,0,0,0,0,0,0,0,0,0,0,0,0,0,0,0,0,0,0
550016731,547925408,546179557,544064820,0,0,0,0,0,0,0,0,0,0,0,0,0,0,0,0,0,0,0,0,0,0
550020585,547928265,545845611,543762188,541967588,674083013,537763237,0,0,0,0,0,0,0,0,0,0,0,0,0,0,0,0,0,0,0
547932662,747215146,543986261,541871122,0,0,0,0,0,0,0,0,0,0,0,0,0,0,0,0,0,0,0,0,0,0
547549432,612997713,611092108,541867086,0,0,0,0,0,0,0,0,0,0,0,0,0,0,0,0,0,0,0,0,0,0
614649854,545884089,543839559,743086624,539761650,0,0,0,0,0,0,0,0,0,0,0,0,0,0,0,0,0,0,0,0,0
614648566,545449654,543769336,541677551,606694885,537494236,0,0,0,0,0,0,0,0,0,0,0,0,0,0,0,0,0,0,0,0
748858352,545437109,543341687,541245027,539148368,537051964,0,0,0,0,0,0,0,0,0,0,0,0,0,0,0,0,0,0,0,0
547527920,545430443,543332965,541235534,539138359,537041184,0,0,0,0,0,0,0,0,0,0,0,0,0,0,0,0,0,0,0,0
748834995,545393178,543497596,541406280,740641556,0,0,0,0,0,0,0,0,0,0,0,0,0,0,0,0,0,0,0,0,0
547491310,679578761,543230245,541459455,539373534,537287612,0,0,0,0,0,0,0,0,0,0,0,0,0,0,0,0,0,0,0,0
548963326,681093783,544789040,609804045,540938979,673055937,0,0,0,0,0,0,0,0,0,0,0,0,0,0,0,0,0,0,0,0
548983252,546917692,612183962,542966887,540858933,538749956,0,0,0,0,0,0,0,0,0,0,0,0,0,0,0,0,0,0,0,0
548986831,681142324,746391440,542956637,540847401,0,0,0,0,0,0,0,0,0,0,0,0,0,0,0,0,0,0,0,0,0
548597197,546931384,544872802,542788678,674922281,538620685,0,0,0,0,0,0,0,0,0,0,0,0,0,0,0,0,0,0,0,0
682801918,546492602,678618488,676523105,674427723,672760575,0,0,0,0,0,0,0,0,0,0,0,0,0,0,0,0,0,0,0,0
615688438,546485386,544390942,542385142,540287186,605297837,0,0,0,0,0,0,0,0,0,0,0,0,0,0,0,0,0,0,0,0
615662801,747759165,611671717,542473844,540384834,739622416,0,0,0,0,0,0,0,0,0,0,0,0,0,0,0,0,0,0,0,0
547887100,546441708,544329662,542227119,540124831,538022288,0,0,0,0,0,0,0,0,0,0,0,0,0,0,0,0,0,0,0,0
547889659,546441212,544328915,676444102,607232952,538021547,0,0,0,0,0,0,0,0,0,0,0,0,0,0,0,0,0,0,0,0
614998763,613537774,611413941,676416674,607201935,537986940,0,0,0,0,0,0,0,0,0,0,0,0,0,0,0,0,0,0,0,0
614997713,546416871,544286891,542179223,674289027,672180847,0,0,0,0,0,0,0,0,0,0,0,0,0,0,0,0,0,0,0,0
682120189,545803188,543703659,541605970,539508026,537410082,0,0,0,0,0,0,0,0,0,0,0,0,0,0,0,0,0,0,0,0
547909096,680030339,543716638,542018037,607029459,537822898,0,0,0,0,0,0,0,0,0,0,0,0,0,0,0,0,0,0,0,0
547910377,545816480,543722582,541626429,539530276,537434123,0,0,0,0,0,0,0,0,0,0,0,0,0,0,0,0,0,0,0,0
545454312,543760323,541669806,606688409,537489285,0,0,0,0,0,0,0,0,0,0,0,0,0,0,0,0,0,0,0,0,0
612561380,677972961,541663188,539570887,537478586,0,0,0,0,0,0,0,0,0,0,0,0,0,0,0,0,0,0,0,0,0
679664884,543355101,541259985,539555322,537460722,0,0,0,0,0,0,0,0,0,0,0,0,0,0,0,0,0,0,0,0,0
545449706,677970928,541660900,606677207,537475787,0,0,0,0,0,0,0,0,0,0,0,0,0,0,0,0,0,0,0,0,0
545903232,745177357,743194847,539755704,0,0,0,0,0,0,0,0,0,0,0,0,0,0,0,0,0,0,0,0,0,0
545448407,677978361,541669617,539578344,537487328,0,0,0,0,0,0,0,0,0,0,0,0,0,0,0,0,0,0,0,0,0
545439997,543348924,675471526,539158929,537063803,0,0,0,0,0,0,0,0,0,0,0,0,0,0,0,0,0,0,0,0,0
545439997,610453481,541248223,539152084,537055689,0,0,0,0,0,0,0,0,0,0,0,0,0,0,0,0,0,0,0,0,0
545439997,543345121,541248979,539153094,537057209,0,0,0,0,0,0,0,0,0,0,0,0,0,0,0,0,0,0,0,0,0
545436336,543340149,541243233,539146317,537049145,0,0,0,0,0,0,0,0,0,0,0,0,0,0,0,0,0,0,0,0,0
545434092,677555894,541241509,539144851,537048194,0,0,0,0,0,0,0,0,0,0,0,0,0,0,0,0,0,0,0,0,0
679649268,543334858,541237692,539140526,671261089,0,0,0,0,0,0,0,0,0,0,0,0,0,0,0,0,0,0,0,0,0
545431868,543442095,541344898,539247444,537150246,0,0,0,0,0,0,0,0,0,0,0,0,0,0,0,0,0,0,0,0,0
612538309,543331453,541234021,539136589,537039157,0,0,0,0,0,0,0,0,0,0,0,0,0,0,0,0,0,0,0,0,0
545429214,543330951,541233258,606244429,604146992,0,0,0,0,0,0,0,0,0,0,0,0,0,0,0,0,0,0,0,0,0
612534896,543451346,541355166,539259242,537163062,0,0,0,0,0,0,0,0,0,0,0,0,0,0,0,0,0,0,0,0,0
545420575,543458682,541363523,539268109,0,0,0,0,0,0,0,0,0,0,0,0,0,0,0,0,0,0,0,0,0,0
545422807,543319936,541220963,539121990,537023017,0,0,0,0,0,0,0,0,0,0,0,0,0,0,0,0,0,0,0,0,0
545419175,677531440,608322824,539274461,604288693,0,0,0,0,0,0,0,0,0,0,0,0,0,0,0,0,0,0,0,0,0
545400422,543495863,608515197,606425668,537227275,0,0,0,0,0,0,0,0,0,0,0,0,0,0,0,0,0,0,0,0,0
545396890,543277332,608518883,539320503,671448715,0,0,0,0,0,0,0,0,0,0,0,0,0,0,0,0,0,0,0,0,0
545404383,543296685,541196189,606204812,536995196,0,0,0,0,0,0,0,0,0,0,0,0,0,0,0,0,0,0,0,0,0
545402071,610394748,608290910,606187328,604083490,0,0,0,0,0,0,0,0,0,0,0,0,0,0,0,0,0,0,0,0,0
545388227,677479773,541155387,539048728,604360433,0,0,0,0,0,0,0,0,0,0,0,0,0,0,0,0,0,0,0,0,0
679606993,610381199,608277369,606173539,604069709,0,0,0,0,0,0,0,0,0,0,0,0,0,0,0,0,0,0,0,0,0
546855402,544755762,543077100,540980654,673101681,0,0,0,0,0,0,0,0,0,0,0,0,0,0,0,0,0,0,0,0,0
546859003,544762824,542665911,540568998,672689813,0,0,0,0,0,0,0,0,0,0,0,0,0,0,0,0,0,0,0,0,0
546861739,611877157,610171376,608072899,538865559,0,0,0,0,0,0,0,0,0,0,0,0,0,0,0,0,0,0,0,0,0
546861520,544766599,542670191,607682902,538477630,0,0,0,0,0,0,0,0,0,0,0,0,0,0,0,0,0,0,0,0,0
613972380,544769861,542673704,540577547,538864870,0,0,0,0,0,0,0,0,0,0,0,0,0,0,0,0,0,0,0,0,0
613972380,678987854,542674994,540579604,538862323,0,0,0,0,0,0,0,0,0,0,0,0,0,0,0,0,0,0,0,0,0
546861819,611877294,542672533,540576380,538480482,0,0,0,0,0,0,0,0,0,0,0,0,0,0,0,0,0,0,0,0,0
613978593,544779170,542684300,540589431,538494562,0,0,0,0,0,0,0,0,0,0,0,0,0,0,0,0,0,0,0,0,0
546884502,545121266,610125758,608021642,605917013,0,0,0,0,0,0,0,0,0,0,0,0,0,0,0,0,0,0,0,0,0
546879943,544794489,542701407,540607301,538514219,0,0,0,0,0,0,0,0,0,0,0,0,0,0,0,0,0,0,0,0,0
546878684,544790950,542696852,540602754,538508912,0,0,0,0,0,0,0,0,0,0,0,0,0,0,0,0,0,0,0,0,0
681109679,611919450,542718782,540626978,672752902,0,0,0,0,0,0,0,0,0,0,0,0,0,0,0,0,0,0,0,0,0
546881773,544797618,542704031,540611212,538518392,0,0,0,0,0,0,0,0,0,0,0,0,0,0,0,0,0,0,0,0,0
681110974,611921521,542721368,674847551,538538534,0,0,0,0,0,0,0,0,0,0,0,0,0,0,0,0,0,0,0,0,0
546896848,544815765,609832833,540632430,538540635,0,0,0,0,0,0,0,0,0,0,0,0,0,0,0,0,0,0,0,0,0
546498301,544796398,542703329,540609492,538516680,0,0,0,0,0,0,0,0,0,0,0,0,0,0,0,0,0,0,0,0,0
546896375,679032781,542723519,540631985,538540195,0,0,0,0,0,0,0,0,0,0,0,0,0,0,0,0,0,0,0,0,0
546493674,544406935,676936432,540628451,538537686,0,0,0,0,0,0,0,0,0,0,0,0,0,0,0,0,0,0,0,0,0
546493674,544809213,676936432,540628451,538537686,0,0,0,0,0,0,0,0,0,0,0,0,0,0,0,0,0,0,0,0,0
546497224,544816115,542725607,607743707,538544336,0,0,0,0,0,0,0,0,0,0,0,0,0,0,0,0,0,0,0,0,0
546496427,544827128,609846508,674865889,538558934,0,0,0,0,0,0,0,0,0,0,0,0,0,0,0,0,0,0,0,0,0
613592548,544388519,542292114,607304573,538099049,0,0,0,0,0,0,0,0,0,0,0,0,0,0,0,0,0,0,0,0,0
546478570,544380050,542282612,607293782,538087481,0,0,0,0,0,0,0,0,0,0,0,0,0,0,0,0,0,0,0,0,0
546478570,544376700,542277466,674395959,538078997,0,0,0,0,0,0,0,0,0,0,0,0,0,0,0,0,0,0,0,0,0
546471647,544372096,542273884,540175927,538077715,0,0,0,0,0,0,0,0,0,0,0,0,0,0,0,0,0,0,0,0,0
546471647,611480238,542273438,540175246,538077053,0,0,0,0,0,0,0,0,0,0,0,0,0,0,0,0,0,0,0,0,0
613576642,544362323,542262318,540162313,605337568,0,0,0,0,0,0,0,0,0,0,0,0,0,0,0,0,0,0,0,0,0
546463411,611466843,743584574,540158241,538058244,0,0,0,0,0,0,0,0,0,0,0,0,0,0,0,0,0,0,0,0,0
546464967,544361609,542262388,607272031,538064203,0,0,0,0,0,0,0,0,0,0,0,0,0,0,0,0,0,0,0,0,0
546463739,544358856,542259127,540159142,605168276,0,0,0,0,0,0,0,0,0,0,0,0,0,0,0,0,0,0,0,0,0
546461429,544355782,542256054,540156070,538056087,0,0,0,0,0,0,0,0,0,0,0,0,0,0,0,0,0,0,0,0,0
546449100,611445889,542234473,674349648,538029623,0,0,0,0,0,0,0,0,0,0,0,0,0,0,0,0,0,0,0,0,0
546448358,611436169,743548522,540116812,538011437,0,0,0,0,0,0,0,0,0,0,0,0,0,0,0,0,0,0,0,0,0
546424752,544283946,676724473,607532236,538340768,0,0,0,0,0,0,0,0,0,0,0,0,0,0,0,0,0,0,0,0,0
545784283,544339166,676455378,607245253,538034873,0,0,0,0,0,0,0,0,0,0,0,0,0,0,0,0,0,0,0,0,0
546403981,544277309,743497506,540064008,538333929,0,0,0,0,0,0,0,0,0,0,0,0,0,0,0,0,0,0,0,0,0
545788910,611454456,542245103,540145126,538044637,0,0,0,0,0,0,0,0,0,0,0,0,0,0,0,0,0,0,0,0,0
546403981,544276283,542169379,540062219,538335727,0,0,0,0,0,0,0,0,0,0,0,0,0,0,0,0,0,0,0,0,0
545785526,678541023,609328336,540115650,672229300,0,0,0,0,0,0,0,0,0,0,0,0,0,0,0,0,0,0,0,0,0
680628692,544277638,676386923,674277970,537951801,0,0,0,0,0,0,0,0,0,0,0,0,0,0,0,0,0,0,0,0,0
546384021,544252244,542143294,540034345,0,0,0,0,0,0,0,0,0,0,0,0,0,0,0,0,0,0,0,0,0,0
612900738,544295670,542186215,674295000,537967818,0,0,0,0,0,0,0,0,0,0,0,0,0,0,0,0,0,0,0,0,0
545798619,543697577,541599128,673718408,537402488,0,0,0,0,0,0,0,0,0,0,0,0,0,0,0,0,0,0,0,0,0
545802199,543702435,541604498,539506304,537408367,0,0,0,0,0,0,0,0,0,0,0,0,0,0,0,0,0,0,0,0,0
545809393,543712711,541615545,673736106,537421211,0,0,0,0,0,0,0,0,0,0,0,0,0,0,0,0,0,0,0,0,0
545810389,610823059,541617278,539520616,604532562,0,0,0,0,0,0,0,0,0,0,0,0,0,0,0,0,0,0,0,0,0
680032741,610829996,608733849,539529095,537432948,0,0,0,0,0,0,0,0,0,0,0,0,0,0,0,0,0,0,0,0,0
545822381,543734329,541640210,539897059,537796540,0,0,0,0,0,0,0,0,0,0,0,0,0,0,0,0,0,0,0,0,0
545816831,610834113,541629869,606643608,537439620,0,0,0,0,0,0,0,0,0,0,0,0,0,0,0,0,0,0,0,0,0
545841080,543765067,541675047,673802755,604862422,0,0,0,0,0,0,0,0,0,0,0,0,0,0,0,0,0,0,0,0,0
612947397,610869601,675887936,539579935,537759477,0,0,0,0,0,0,0,0,0,0,0,0,0,0,0,0,0,0,0,0,0
612954290,677989187,541682462,539849714,537744590,0,0,0,0,0,0,0,0,0,0,0,0,0,0,0,0,0,0,0,0,0
545854106,610896409,609045478,539829436,537722769,0,0,0,0,0,0,0,0,0,0,0,0,0,0,0,0,0,0,0,0,0
543747308,541656023,539565506,537475246,0,0,0,0,0,0,0,0,0,0,0,0,0,0,0,0,0,0,0,0,0,0
677959422,541647605,539553260,537458915,0,0,0,0,0,0,0,0,0,0,0,0,0,0,0,0,0,0,0,0,0,0
543336953,541240048,539143142,537046237,0,0,0,0,0,0,0,0,0,0,0,0,0,0,0,0,0,0,0,0,0,0
610444906,608348686,606353584,537146451,0,0,0,0,0,0,0,0,0,0,0,0,0,0,0,0,0,0,0,0,0,0
543332589,608344034,539138008,537040846,0,0,0,0,0,0,0,0,0,0,0,0,0,0,0,0,0,0,0,0,0,0
610432609,608328454,539272618,604291150,0,0,0,0,0,0,0,0,0,0,0,0,0,0,0,0,0,0,0,0,0,0
543310291,675427521,539109551,537009309,0,0,0,0,0,0,0,0,0,0,0,0,0,0,0,0,0,0,0,0,0,0
543312377,541213168,539113959,537014749,0,0,0,0,0,0,0,0,0,0,0,0,0,0,0,0,0,0,0,0,0,0
543292121,541189319,539086261,536983459,0,0,0,0,0,0,0,0,0,0,0,0,0,0,0,0,0,0,0,0,0,0
543293936,541192162,539089876,536987333,0,0,0,0,0,0,0,0,0,0,0,0,0,0,0,0,0,0,0,0,0,0
544748516,542650328,540552140,538453952,0,0,0,0,0,0,0,0,0,0,0,0,0,0,0,0,0,0,0,0,0,0
612299388,541096444,538985459,536874474,0,0,0,0,0,0,0,0,0,0,0,0,0,0,0,0,0,0,0,0,0,0
612299388,543095623,538985459,536874474,0,0,0,0,0,0,0,0,0,0,0,0,0,0,0,0,0,0,0,0,0,0
544765425,542668772,540572376,538475980,0,0,0,0,0,0,0,0,0,0,0,0,0,0,0,0,0,0,0,0,0,0
544767720,542671579,540575438,538479296,0,0,0,0,0,0,0,0,0,0,0,0,0,0,0,0,0,0,0,0,0,0
544803659,542709028,608035061,538826702,0,0,0,0,0,0,0,0,0,0,0,0,0,0,0,0,0,0,0,0,0,0
544786860,542695303,674821475,672729406,0,0,0,0,0,0,0,0,0,0,0,0,0,0,0,0,0,0,0,0,0,0
678995692,542683103,607696850,538492870,0,0,0,0,0,0,0,0,0,0,0,0,0,0,0,0,0,0,0,0,0,0
544786116,609803428,540602757,538510438,0,0,0,0,0,0,0,0,0,0,0,0,0,0,0,0,0,0,0,0,0,0
544801010,542708438,540616123,538523807,0,0,0,0,0,0,0,0,0,0,0,0,0,0,0,0,0,0,0,0,0,0
544397306,542301681,540206055,538110430,0,0,0,0,0,0,0,0,0,0,0,0,0,0,0,0,0,0,0,0,0,0
544860043,609886590,540696178,538614629,0,0,0,0,0,0,0,0,0,0,0,0,0,0,0,0,0,0,0,0,0,0
544859368,676993250,540692700,538609623,0,0,0,0,0,0,0,0,0,0,0,0,0,0,0,0,0,0,0,0,0,0
544389474,542292801,540195871,538192121,0,0,0,0,0,0,0,0,0,0,0,0,0,0,0,0,0,0,0,0,0,0
544380642,609392086,540186059,538088639,0,0,0,0,0,0,0,0,0,0,0,0,0,0,0,0,0,0,0,0,0,0
544365938,542267962,540315391,538218695,0,0,0,0,0,0,0,0,0,0,0,0,0,0,0,0,0,0,0,0,0,0
544370570,542269560,540168550,538067541,0,0,0,0,0,0,0,0,0,0,0,0,0,0,0,0,0,0,0,0,0,0
544367845,542268887,540170186,538071228,0,0,0,0,0,0,0,0,0,0,0,0,0,0,0,0,0,0,0,0,0,0
544364783,542265828,540166874,538067919,0,0,0,0,0,0,0,0,0,0,0,0,0,0,0,0,0,0,0,0,0,0
745671835,542244742,674360945,538041691,0,0,0,0,0,0,0,0,0,0,0,0,0,0,0,0,0,0,0,0,0,0
745671835,542243975,540142193,538040411,0,0,0,0,0,0,0,0,0,0,0,0,0,0,0,0,0,0,0,0,0,0
544345831,609352918,607250373,672256437,0,0,0,0,0,0,0,0,0,0,0,0,0,0,0,0,0,0,0,0,0,0
611413380,676418419,540097378,537994065,0,0,0,0,0,0,0,0,0,0,0,0,0,0,0,0,0,0,0,0,0,0
544302984,609306998,674311268,537988947,0,0,0,0,0,0,0,0,0,0,0,0,0,0,0,0,0,0,0,0,0,0
544314277,743525245,674301014,537968687,0,0,0,0,0,0,0,0,0,0,0,0,0,0,0,0,0,0,0,0,0,0
677912302,541594329,539494085,538050301,0,0,0,0,0,0,0,0,0,0,0,0,0,0,0,0,0,0,0,0,0,0
543700385,541601150,606610779,537402681,0,0,0,0,0,0,0,0,0,0,0,0,0,0,0,0,0,0,0,0,0,0
543706604,541608924,606620108,537413309,0,0,0,0,0,0,0,0,0,0,0,0,0,0,0,0,0,0,0,0,0,0
543706854,541609177,606620108,537413823,0,0,0,0,0,0,0,0,0,0,0,0,0,0,0,0,0,0,0,0,0,0
677934579,541620202,539523553,537426905,0,0,0,0,0,0,0,0,0,0,0,0,0,0,0,0,0,0,0,0,0,0
543727837,541632464,673754818,537441972,0,0,0,0,0,0,0,0,0,0,0,0,0,0,0,0,0,0,0,0,0,0
543731439,541636323,539541463,537446347,0,0,0,0,0,0,0,0,0,0,0,0,0,0,0,0,0,0,0,0,0,0
543735017,541640413,539545808,537451203,0,0,0,0,0,0,0,0,0,0,0,0,0,0,0,0,0,0,0,0,0,0
724132478,654953875,585774506,0,0,0,0,0,0,0,0,0,0,0,0,0,0,0,0,0,0,0,0,0,0,0
589463270,587366894,585270263,0,0,0,0,0,0,0,0,0,0,0,0,0,0,0,0,0,0,0,0,0,0,0
723670507,587356915,585261050,0,0,0,0,0,0,0,0,0,0,0,0,0,0,0,0,0,0,0,0,0,0,0
591278074,655935765,586727980,0,0,0,0,0,0,0,0,0,0,0,0,0,0,0,0,0,0,0,0,0,0,0
591181227,589107615,721252499,0,0,0,0,0,0,0,0,0,0,0,0,0,0,0,0,0,0,0,0,0,0,0
657618670,588413174,586316798,0,0,0,0,0,0,0,0,0,0,0,0,0,0,0,0,0,0,0,0,0,0,0
589825513,721947633,585634553,0,0,0,0,0,0,0,0,0,0,0,0,0,0,0,0,0,0,0,0,0,0,0
589864939,587766771,585668603,0,0,0,0,0,0,0,0,0,0,0,0,0,0,0,0,0,0,0,0,0,0,0
654898524,585695141,717817582,0,0,0,0,0,0,0,0,0,0,0,0,0,0,0,0,0,0,0,0,0,0,0
788117835,584250439,582060499,0,0,0,0,0,0,0,0,0,0,0,0,0,0,0,0,0,0,0,0,0,0,0
581082799,578985687,576888565,0,0,0,0,0,0,0,0,0,0,0,0,0,0,0,0,0,0,0,0,0,0,0
582913315,715040893,712949183,0,0,0,0,0,0,0,0,0,0,0,0,0,0,0,0,0,0,0,0,0,0,0
568693103,566577820,765788615,0,0,0,0,0,0,0,0,0,0,0,0,0,0,0,0,0,0,0,0,0,0,0
569400063,567316722,565233126,0,0,0,0,0,0,0,0,0,0,0,0,0,0,0,0,0,0,0,0,0,0,0
701160768,564789411,763555234,0,0,0,0,0,0,0,0,0,0,0,0,0,0,0,0,0,0,0,0,0,0,0
631899369,562226760,627228889,0,0,0,0,0,0,0,0,0,0,0,0,0,0,0,0,0,0,0,0,0,0,0
631562602,629290249,627204763,0,0,0,0,0,0,0,0,0,0,0,0,0,0,0,0,0,0,0,0,0,0,0
631562602,763671548,627204763,0,0,0,0,0,0,0,0,0,0,0,0,0,0,0,0,0,0,0,0,0,0,0
765788615,629284169,627201727,0,0,0,0,0,0,0,0,0,0,0,0,0,0,0,0,0,0,0,0,0,0,0
765910691,763418673,761371570,0,0,0,0,0,0,0,0,0,0,0,0,0,0,0,0,0,0,0,0,0,0,0
767335185,765277631,561591659,0,0,0,0,0,0,0,0,0,0,0,0,0,0,0,0,0,0,0,0,0,0,0
700105932,697963512,628282971,0,0,0,0,0,0,0,0,0,0,0,0,0,0,0,0,0,0,0,0,0,0,0
632188974,764313300,627602295,0,0,0,0,0,0,0,0,0,0,0,0,0,0,0,0,0,0,0,0,0,0,0
565072671,630090953,627604594,0,0,0,0,0,0,0,0,0,0,0,0,0,0,0,0,0,0,0,0,0,0,0
565050504,629724689,560506013,0,0,0,0,0,0,0,0,0,0,0,0,0,0,0,0,0,0,0,0,0,0,0
565007702,697156023,627628312,0,0,0,0,0,0,0,0,0,0,0,0,0,0,0,0,0,0,0,0,0,0,0
631146516,763269345,626550698,0,0,0,0,0,0,0,0,0,0,0,0,0,0,0,0,0,0,0,0,0,0,0
765220965,561635860,760811972,0,0,0,0,0,0,0,0,0,0,0,0,0,0,0,0,0,0,0,0,0,0,0
563369523,628380401,626170304,0,0,0,0,0,0,0,0,0,0,0,0,0,0,0,0,0,0,0,0,0,0,0
563369523,628265985,626170304,0,0,0,0,0,0,0,0,0,0,0,0,0,0,0,0,0,0,0,0,0,0,0
697304191,628124846,558945246,0,0,0,0,0,0,0,0,0,0,0,0,0,0,0,0,0,0,0,0,0,0,0
628987503,760813829,758696093,0,0,0,0,0,0,0,0,0,0,0,0,0,0,0,0,0,0,0,0,0,0,0
628412207,626304728,624061327,0,0,0,0,0,0,0,0,0,0,0,0,0,0,0,0,0,0,0,0,0,0,0
695611264,760304157,758245805,0,0,0,0,0,0,0,0,0,0,0,0,0,0,0,0,0,0,0,0,0,0,0
560488498,759720325,556298968,0,0,0,0,0,0,0,0,0,0,0,0,0,0,0,0,0,0,0,0,0,0,0
627989117,625511465,556298968,0,0,0,0,0,0,0,0,0,0,0,0,0,0,0,0,0,0,0,0,0,0,0
759871039,757729936,554263010,0,0,0,0,0,0,0,0,0,0,0,0,0,0,0,0,0,0,0,0,0,0,0
759363715,690611383,621452648,0,0,0,0,0,0,0,0,0,0,0,0,0,0,0,0,0,0,0,0,0,0,0
692747966,757720297,620945784,0,0,0,0,0,0,0,0,0,0,0,0,0,0,0,0,0,0,0,0,0,0,0
759486001,623161038,620913272,0,0,0,0,0,0,0,0,0,0,0,0,0,0,0,0,0,0,0,0,0,0,0
759316627,757395946,621100862,0,0,0,0,0,0,0,0,0,0,0,0,0,0,0,0,0,0,0,0,0,0,0
625018234,757204964,554201335,0,0,0,0,0,0,0,0,0,0,0,0,0,0,0,0,0,0,0,0,0,0,0
690546399,621394713,686581061,0,0,0,0,0,0,0,0,0,0,0,0,0,0,0,0,0,0,0,0,0,0,0
757659628,755623486,753671552,0,0,0,0,0,0,0,0,0,0,0,0,0,0,0,0,0,0,0,0,0,0,0
757749020,755604885,685959392,0,0,0,0,0,0,0,0,0,0,0,0,0,0,0,0,0,0,0,0,0,0,0
690551807,755626093,753667278,0,0,0,0,0,0,0,0,0,0,0,0,0,0,0,0,0,0,0,0,0,0,0
757661438,755628138,686555338,0,0,0,0,0,0,0,0,0,0,0,0,0,0,0,0,0,0,0,0,0,0,0
757767227,755616166,618848975,0,0,0,0,0,0,0,0,0,0,0,0,0,0,0,0,0,0,0,0,0,0,0
690611383,554263010,685959392,0,0,0,0,0,0,0,0,0,0,0,0,0,0,0,0,0,0,0,0,0,0,0
623029726,620938533,551816048,0,0,0,0,0,0,0,0,0,0,0,0,0,0,0,0,0,0,0,0,0,0,0
757237215,620913193,753182071,0,0,0,0,0,0,0,0,0,0,0,0,0,0,0,0,0,0,0,0,0,0,0
757204964,687943221,753304712,0,0,0,0,0,0,0,0,0,0,0,0,0,0,0,0,0,0,0,0,0,0,0
759090581,555237165,620252868,0,0,0,0,0,0,0,0,0,0,0,0,0,0,0,0,0,0,0,0,0,0,0
624855870,622760948,620258726,0,0,0,0,0,0,0,0,0,0,0,0,0,0,0,0,0,0,0,0,0,0,0
758977673,756640546,754509758,0,0,0,0,0,0,0,0,0,0,0,0,0,0,0,0,0,0,0,0,0,0,0
553837012,552180667,751457881,0,0,0,0,0,0,0,0,0,0,0,0,0,0,0,0,0,0,0,0,0,0,0
621452648,619304661,616740022,0,0,0,0,0,0,0,0,0,0,0,0,0,0,0,0,0,0,0,0,0,0,0
553827970,618838427,616740022,0,0,0,0,0,0,0,0,0,0,0,0,0,0,0,0,0,0,0,0,0,0,0
755143034,618945781,549741936,0,0,0,0,0,0,0,0,0,0,0,0,0,0,0,0,0,0,0,0,0,0,0
620923309,618949618,616856114,0,0,0,0,0,0,0,0,0,0,0,0,0,0,0,0,0,0,0,0,0,0,0
555297460,754573343,752640637,0,0,0,0,0,0,0,0,0,0,0,0,0,0,0,0,0,0,0,0,0,0,0
621995403,687461338,752517276,0,0,0,0,0,0,0,0,0,0,0,0,0,0,0,0,0,0,0,0,0,0,0
756157578,754272732,752206125,0,0,0,0,0,0,0,0,0,0,0,0,0,0,0,0,0,0,0,0,0,0,0
618838427,616746503,614728820,0,0,0,0,0,0,0,0,0,0,0,0,0,0,0,0,0,0,0,0,0,0,0
618820012,616714021,748992414,0,0,0,0,0,0,0,0,0,0,0,0,0,0,0,0,0,0,0,0,0,0,0
618816684,616708132,614782877,0,0,0,0,0,0,0,0,0,0,0,0,0,0,0,0,0,0,0,0,0,0,0
754527558,752708279,616368436,0,0,0,0,0,0,0,0,0,0,0,0,0,0,0,0,0,0,0,0,0,0,0
687713001,551096190,548592629,0,0,0,0,0,0,0,0,0,0,0,0,0,0,0,0,0,0,0,0,0,0,0
754534848,685374026,750538185,0,0,0,0,0,0,0,0,0,0,0,0,0,0,0,0,0,0,0,0,0,0,0
619889355,617803798,750406365,0,0,0,0,0,0,0,0,0,0,0,0,0,0,0,0,0,0,0,0,0,0,0
619875835,550665090,749889545,0,0,0,0,0,0,0,0,0,0,0,0,0,0,0,0,0,0,0,0,0,0,0
754090181,617765895,750038092,0,0,0,0,0,0,0,0,0,0,0,0,0,0,0,0,0,0,0,0,0,0,0
619858919,751953493,615867077,0,0,0,0,0,0,0,0,0,0,0,0,0,0,0,0,0,0,0,0,0,0,0
619220606,550390462,615392268,0,0,0,0,0,0,0,0,0,0,0,0,0,0,0,0,0,0,0,0,0,0,0
618142921,547458013,679514728,0,0,0,0,0,0,0,0,0,0,0,0,0,0,0,0,0,0,0,0,0,0,0
684912887,616091627,546894991,0,0,0,0,0,0,0,0,0,0,0,0,0,0,0,0,0,0,0,0,0,0,0
618248379,548599742,545925833,0,0,0,0,0,0,0,0,0,0,0,0,0,0,0,0,0,0,0,0,0,0,0
617801130,683240429,547001204,0,0,0,0,0,0,0,0,0,0,0,0,0,0,0,0,0,0,0,0,0,0,0
617778864,615693409,681195701,0,0,0,0,0,0,0,0,0,0,0,0,0,0,0,0,0,0,0,0,0,0,0
617778864,548570705,680818737,0,0,0,0,0,0,0,0,0,0,0,0,0,0,0,0,0,0,0,0,0,0,0
550653109,615653208,613763136,0,0,0,0,0,0,0,0,0,0,0,0,0,0,0,0,0,0,0,0,0,0,0
684233931,547925130,680397502,0,0,0,0,0,0,0,0,0,0,0,0,0,0,0,0,0,0,0,0,0,0,0
751363759,615065180,546115163,0,0,0,0,0,0,0,0,0,0,0,0,0,0,0,0,0,0,0,0,0,0,0
682148094,680107809,543980858,0,0,0,0,0,0,0,0,0,0,0,0,0,0,0,0,0,0,0,0,0,0,0
547551959,613015374,543956114,0,0,0,0,0,0,0,0,0,0,0,0,0,0,0,0,0,0,0,0,0,0,0
681747184,679652384,543436621,0,0,0,0,0,0,0,0,0,0,0,0,0,0,0,0,0,0,0,0,0,0,0
681742305,545551088,610569986,0,0,0,0,0,0,0,0,0,0,0,0,0,0,0,0,0,0,0,0,0,0,0
548595605,681178309,544917366,0,0,0,0,0,0,0,0,0,0,0,0,0,0,0,0,0,0,0,0,0,0,0
548522713,613476172,544661949,0,0,0,0,0,0,0,0,0,0,0,0,0,0,0,0,0,0,0,0,0,0,0
747191270,543839567,541766686,0,0,0,0,0,0,0,0,0,0,0,0,0,0,0,0,0,0,0,0,0,0,0
546493149,544401578,542306202,0,0,0,0,0,0,0,0,0,0,0,0,0,0,0,0,0,0,0,0,0,0,0
546428518,745912705,542503734,0,0,0,0,0,0,0,0,0,0,0,0,0,0,0,0,0,0,0,0,0,0,0
678016393,541731166,673882164,0,0,0,0,0,0,0,0,0,0,0,0,0,0,0,0,0,0,0,0,0,0,0
678590116,542276733,540181077,0,0,0,0,0,0,0,0,0,0,0,0,0,0,0,0,0,0,0,0,0,0,0
678527222,676395461,674262932,0,0,0,0,0,0,0,0,0,0,0,0,0,0,0,0,0,0,0,0,0,0,0
609759485,540552437,538454253,0,0,0,0,0,0,0,0,0,0,0,0,0,0,0,0,0,0,0,0,0,0,0
542661371,540564210,672684521,0,0,0,0,0,0,0,0,0,0,0,0,0,0,0,0,0,0,0,0,0,0,0
542279018,540182584,538086406,0,0,0,0,0,0,0,0,0,0,0,0,0,0,0,0,0,0,0,0,0,0,0
542278603,540183480,538088356,0,0,0,0,0,0,0,0,0,0,0,0,0,0,0,0,0,0,0,0,0,0,0
542274555,674394097,672295911,0,0,0,0,0,0,0,0,0,0,0,0,0,0,0,0,0,0,0,0,0,0,0
676451026,540126656,538020013,0,0,0,0,0,0,0,0,0,0,0,0,0,0,0,0,0,0,0,0,0,0,0
542162328,540052863,537943654,0,0,0,0,0,0,0,0,0,0,0,0,0,0,0,0,0,0,0,0,0,0,0
542163103,540055444,537948554,0,0,0,0,0,0,0,0,0,0,0,0,0,0,0,0,0,0,0,0,0,0,0
608711132,673721293,537405117,0,0,0,0,0,0,0,0,0,0,0,0,0,0,0,0,0,0,0,0,0,0,0
541638904,539544047,537448934,0,0,0,0,0,0,0,0,0,0,0,0,0,0,0,0,0,0,0,0,0,0,0
