0,1,2,3,4,5,6,7,8,9,10,11,12,13,14,15,16,17,18,19,20,21,22,23,24,25
589884139,587784691,585685242,583203053,581102079,0,0,0,0,0,0,0,0,0,0,0,0,0,0,0,0,0,0,0,0,0
589893112,587397815,585299138,583200206,581099749,578999292,0,0,0,0,0,0,0,0,0,0,0,0,0,0,0,0,0,0,0,0
589893112,587793151,585299138,583200206,581099749,578999292,0,0,0,0,0,0,0,0,0,0,0,0,0,0,0,0,0,0,0,0
723699272,587383641,585285227,650295932,715305632,578990019,0,0,0,0,0,0,0,0,0,0,0,0,0,0,0,0,0,0,0,0
656587843,587381077,585283687,583186041,581087902,578990019,0,0,0,0,0,0,0,0,0,0,0,0,0,0,0,0,0,0,0,0
589453742,587357625,585261508,583165647,581070565,646084603,0,0,0,0,0,0,0,0,0,0,0,0,0,0,0,0,0,0,0,0
589430718,587335368,585240529,583145946,581053421,580387066,0,0,0,0,0,0,0,0,0,0,0,0,0,0,0,0,0,0,0,0
590908069,588810415,586712506,584614852,582516442,580417775,645428734,0,0,0,0,0,0,0,0,0,0,0,0,0,0,0,0,0,0,0
591259087,589165287,586743813,584644125,582540365,580436861,578334881,576234681,574136006,572037588,569938913,567840495,0,0,0,0,0,0,0,0,0,0,0,0,0,0
591225780,656242894,587042025,584670985,582563391,580456053,578351773,576249272,574149573,572049874,569950176,565750522,0,0,0,0,0,0,0,0,0,0,0,0,0,0
590975523,588873527,586771275,584669024,582561928,580454576,578350798,576248546,572049142,0,0,0,0,0,0,0,0,0,0,0,0,0,0,0,0,0
590935513,588835809,586736362,584636658,582153974,0,0,0,0,0,0,0,0,0,0,0,0,0,0,0,0,0,0,0,0,0
591024780,723136921,586813862,584709300,582595534,580482025,578372605,642969238,573761447,705880247,569563847,567464919,565365991,563267319,0,0,0,0,0,0,0,0,0,0,0,0
590536096,588437932,586339768,651350212,582142173,580042741,0,0,0,0,0,0,0,0,0,0,0,0,0,0,0,0,0,0,0,0
657652517,588445241,586346829,584248417,582148744,580048560,577949134,575850210,573752300,571654390,0,0,0,0,0,0,0,0,0,0,0,0,0,0,0,0
590506843,588410475,586314107,584217739,582122155,580026827,577930723,575834611,573737723,0,0,0,0,0,0,0,0,0,0,0,0,0,0,0,0,0
590508182,588411554,586315183,584218811,582123220,580027372,577931519,0,0,0,0,0,0,0,0,0,0,0,0,0,0,0,0,0,0,0
590508242,588411866,586315491,584218860,582123261,0,0,0,0,0,0,0,0,0,0,0,0,0,0,0,0,0,0,0,0,0
590718194,588339471,586247973,584156731,582071144,579985557,577896631,575804877,573710553,571616228,569521904,567427580,0,0,0,0,0,0,0,0,0,0,0,0,0,0
657851196,588648068,586554060,584105756,582002605,0,0,0,0,0,0,0,0,0,0,0,0,0,0,0,0,0,0,0,0,0
590479595,588384754,586290169,583534046,581440498,0,0,0,0,0,0,0,0,0,0,0,0,0,0,0,0,0,0,0,0,0
656943842,587738602,585642482,650654969,0,0,0,0,0,0,0,0,0,0,0,0,0,0,0,0,0,0,0,0,0,0
589833603,587737490,585641378,583545265,581449936,579354862,0,0,0,0,0,0,0,0,0,0,0,0,0,0,0,0,0,0,0,0
589849293,587752149,585655005,583557861,581460726,0,0,0,0,0,0,0,0,0,0,0,0,0,0,0,0,0,0,0,0,0
589900573,587800113,585699653,650708057,581496450,579392682,644399304,575189725,573091047,570992113,703110907,0,0,0,0,0,0,0,0,0,0,0,0,0,0,0
589893256,587793045,585693859,583593904,715708619,579388134,577286650,0,0,0,0,0,0,0,0,0,0,0,0,0,0,0,0,0,0,0
589880793,587781602,585682410,583583219,0,0,0,0,0,0,0,0,0,0,0,0,0,0,0,0,0,0,0,0,0,0
587736115,585640008,583544156,581449093,579354030,577258445,575162337,573065707,570969078,0,0,0,0,0,0,0,0,0,0,0,0,0,0,0,0,0
581960006,579891317,712033176,709950127,573641659,571551430,569461201,701588701,565281000,563190771,561100542,558371226,556276917,621291472,552088300,0,0,0,0,0,0,0,0,0,0,0
648969258,579764873,577668815,709789949,573076761,772305712,635990599,633892958,0,0,0,0,0,0,0,0,0,0,0,0,0,0,0,0,0,0
581859642,579764112,577668563,575174405,573076763,772305712,635990599,633892958,0,0,0,0,0,0,0,0,0,0,0,0,0,0,0,0,0,0
646276438,644166320,642060524,706864914,704772145,568461135,566368365,564275596,562182826,560090313,557997544,0,0,0,0,0,0,0,0,0,0,0,0,0,0,0
580773169,645793423,576593104,574498800,572050709,569950773,702068565,565751157,630760084,695769012,559451604,557351667,0,0,0,0,0,0,0,0,0,0,0,0,0,0
580155651,578056298,575957935,573860049,571762164,569541406,567445056,699566178,630360964,561155751,559059401,556962795,0,0,0,0,0,0,0,0,0,0,0,0,0,0
580195915,578091420,575988946,640997868,571611151,569516842,634531396,699545695,563233658,561139349,559045040,556950475,554856166,0,0,0,0,0,0,0,0,0,0,0,0,0
579652099,577575534,575492789,774729176,772371968,703158564,566836551,0,0,0,0,0,0,0,0,0,0,0,0,0,0,0,0,0,0,0
579651335,577575280,575492789,774729176,772371968,703158564,566836551,0,0,0,0,0,0,0,0,0,0,0,0,0,0,0,0,0,0,0
646772818,711800996,575497690,573406197,705261077,568940592,566837579,564734566,629740417,560529309,692643768,556323028,554220015,0,0,0,0,0,0,0,0,0,0,0,0,0
577053003,574948748,572849069,570748366,568647663,566367768,564273977,562180442,560086907,625102235,690117308,553806045,618821373,0,0,0,0,0,0,0,0,0,0,0,0,0
712939528,576624971,574527853,572430991,570333872,568236754,633248755,563634969,561537851,559440477,557343358,555245984,553148865,551051491,0,0,0,0,0,0,0,0,0,0,0,0
645185345,575975564,573876658,638886359,636636421,567432492,632446289,630351223,561147293,559052482,556957670,0,0,0,0,0,0,0,0,0,0,0,0,0,0,0
578082106,575980164,640989607,569682159,567429147,632443196,563239774,561144960,559050145,556955331,0,0,0,0,0,0,0,0,0,0,0,0,0,0,0,0
575325768,573214551,571103590,568992117,566880645,564768151,0,0,0,0,0,0,0,0,0,0,0,0,0,0,0,0,0,0,0,0
574940215,572839780,570739346,568638655,566538221,564282915,562189137,560095359,692219053,555907803,0,0,0,0,0,0,0,0,0,0,0,0,0,0,0,0
642685248,573479284,638491304,569285597,566779926,564681803,562583681,560485559,625496301,0,0,0,0,0,0,0,0,0,0,0,0,0,0,0,0,0
575530815,640545890,571342726,569248425,567154380,565060591,562614295,560514106,558413662,623422081,554213029,552112841,617121260,0,0,0,0,0,0,0,0,0,0,0,0,0
573577332,571491460,569405588,701537187,565233587,697365444,695278804,558975461,556889589,621285234,552083360,549990094,547897084,0,0,0,0,0,0,0,0,0,0,0,0,0
570314253,568218955,566123914,564028873,561549834,626559305,557351049,555251656,0,0,0,0,0,0,0,0,0,0,0,0,0,0,0,0,0,0
569645689,567550398,565362189,563263314,561164439,626174428,0,0,0,0,0,0,0,0,0,0,0,0,0,0,0,0,0,0,0,0
566675368,564561875,562078215,559997746,557916509,555836040,687973299,618783966,683155710,0,0,0,0,0,0,0,0,0,0,0,0,0,0,0,0,0
564138121,562059937,627090616,557903568,555824616,553746431,553127260,551036326,616054256,0,0,0,0,0,0,0,0,0,0,0,0,0,0,0,0,0
565901527,563788512,561675496,693779955,557449469,0,0,0,0,0,0,0,0,0,0,0,0,0,0,0,0,0,0,0,0,0
696874667,560545985,558434521,690541555,0,0,0,0,0,0,0,0,0,0,0,0,0,0,0,0,0,0,0,0,0,0
563412737,561310533,559207564,557105106,621952803,552752491,550661299,548569593,0,0,0,0,0,0,0,0,0,0,0,0,0,0,0,0,0,0
627325921,558016795,555918924,553822332,0,0,0,0,0,0,0,0,0,0,0,0,0,0,0,0,0,0,0,0,0,0
629069845,694079103,624870635,555239258,754471624,0,0,0,0,0,0,0,0,0,0,0,0,0,0,0,0,0,0,0,0,0
627972419,625882545,623423519,554210190,619214845,0,0,0,0,0,0,0,0,0,0,0,0,0,0,0,0,0,0,0,0,0
626821635,758963552,622669757,687439644,752429942,683203029,0,0,0,0,0,0,0,0,0,0,0,0,0,0,0,0,0,0,0,0
758963804,555560634,754548760,752429942,683203029,0,0,0,0,0,0,0,0,0,0,0,0,0,0,0,0,0,0,0,0,0
554997005,620005492,617904860,682785360,0,0,0,0,0,0,0,0,0,0,0,0,0,0,0,0,0,0,0,0,0,0
554998807,620006780,550797283,548566869,0,0,0,0,0,0,0,0,0,0,0,0,0,0,0,0,0,0,0,0,0,0
551066857,548977074,614010125,545102688,542998057,0,0,0,0,0,0,0,0,0,0,0,0,0,0,0,0,0,0,0,0,0
550689480,548599428,546963379,544919137,0,0,0,0,0,0,0,0,0,0,0,0,0,0,0,0,0,0,0,0,0,0
549980878,548533493,546394770,611365424,542145552,540450539,605476042,0,0,0,0,0,0,0,0,0,0,0,0,0,0,0,0,0,0,0
682794743,546480535,611492918,542287126,674513138,605307089,0,0,0,0,0,0,0,0,0,0,0,0,0,0,0,0,0,0,0,0
545432033,543335797,541239120,606251307,604154630,0,0,0,0,0,0,0,0,0,0,0,0,0,0,0,0,0,0,0,0,0
545430749,543332481,541234530,539136580,537038629,0,0,0,0,0,0,0,0,0,0,0,0,0,0,0,0,0,0,0,0,0
545376440,543253870,541148246,539042621,738263588,0,0,0,0,0,0,0,0,0,0,0,0,0,0,0,0,0,0,0,0,0
546841593,543278038,675389633,539066028,671177623,0,0,0,0,0,0,0,0,0,0,0,0,0,0,0,0,0,0,0,0,0
613967546,544762383,610178253,608081047,605983840,0,0,0,0,0,0,0,0,0,0,0,0,0,0,0,0,0,0,0,0,0
546469770,611619762,609525867,540322852,0,0,0,0,0,0,0,0,0,0,0,0,0,0,0,0,0,0,0,0,0,0
546453200,611438401,542223378,741694431,538279856,0,0,0,0,0,0,0,0,0,0,0,0,0,0,0,0,0,0,0,0,0
612926959,543729551,541635183,539541071,537446703,0,0,0,0,0,0,0,0,0,0,0,0,0,0,0,0,0,0,0,0,0
545833374,677971222,541975008,606980530,671986053,0,0,0,0,0,0,0,0,0,0,0,0,0,0,0,0,0,0,0,0,0
545835735,543762017,541672761,539583762,537754082,0,0,0,0,0,0,0,0,0,0,0,0,0,0,0,0,0,0,0,0,0
545861093,543801999,608826482,537547833,0,0,0,0,0,0,0,0,0,0,0,0,0,0,0,0,0,0,0,0,0,0
546850511,544747865,542648881,538895068,0,0,0,0,0,0,0,0,0,0,0,0,0,0,0,0,0,0,0,0,0,0
543351794,541257442,539163089,537459446,0,0,0,0,0,0,0,0,0,0,0,0,0,0,0,0,0,0,0,0,0,0
543343853,608358352,539154868,537060248,0,0,0,0,0,0,0,0,0,0,0,0,0,0,0,0,0,0,0,0,0,0
543285467,608284602,539066010,536956281,0,0,0,0,0,0,0,0,0,0,0,0,0,0,0,0,0,0,0,0,0,0
544783780,542693742,674821432,672730626,0,0,0,0,0,0,0,0,0,0,0,0,0,0,0,0,0,0,0,0,0,0
544369111,542269891,540170671,538071707,0,0,0,0,0,0,0,0,0,0,0,0,0,0,0,0,0,0,0,0,0,0
543702525,541604079,539505632,537406929,0,0,0,0,0,0,0,0,0,0,0,0,0,0,0,0,0,0,0,0,0,0
543705572,541606853,539508134,537409414,0,0,0,0,0,0,0,0,0,0,0,0,0,0,0,0,0,0,0,0,0,0
543707333,541609118,539511159,537412943,0,0,0,0,0,0,0,0,0,0,0,0,0,0,0,0,0,0,0,0,0,0
745085980,609070783,674069613,671959579,0,0,0,0,0,0,0,0,0,0,0,0,0,0,0,0,0,0,0,0,0,0
610843127,541641700,539549136,537456572,0,0,0,0,0,0,0,0,0,0,0,0,0,0,0,0,0,0,0,0,0,0
590893035,588796146,586699257,0,0,0,0,0,0,0,0,0,0,0,0,0,0,0,0,0,0,0,0,0,0,0
563109659,695269743,693211074,0,0,0,0,0,0,0,0,0,0,0,0,0,0,0,0,0,0,0,0,0,0,0
758937841,756672350,687422924,0,0,0,0,0,0,0,0,0,0,0,0,0,0,0,0,0,0,0,0,0,0,0
690860072,755893744,753444788,0,0,0,0,0,0,0,0,0,0,0,0,0,0,0,0,0,0,0,0,0,0,0
686479790,617218280,614650778,0,0,0,0,0,0,0,0,0,0,0,0,0,0,0,0,0,0,0,0,0,0,0
551725223,549627858,614639102,0,0,0,0,0,0,0,0,0,0,0,0,0,0,0,0,0,0,0,0,0,0,0
552005382,549870981,547430161,0,0,0,0,0,0,0,0,0,0,0,0,0,0,0,0,0,0,0,0,0,0,0
553159593,551060427,548961006,0,0,0,0,0,0,0,0,0,0,0,0,0,0,0,0,0,0,0,0,0,0,0
552788533,617796723,548586932,0,0,0,0,0,0,0,0,0,0,0,0,0,0,0,0,0,0,0,0,0,0,0
619567369,617490824,615024391,0,0,0,0,0,0,0,0,0,0,0,0,0,0,0,0,0,0,0,0,0,0,0
614017139,545063031,744274726,0,0,0,0,0,0,0,0,0,0,0,0,0,0,0,0,0,0,0,0,0,0,0
680663609,544549464,542460942,0,0,0,0,0,0,0,0,0,0,0,0,0,0,0,0,0,0,0,0,0,0,0
543257461,541150562,673260877,0,0,0,0,0,0,0,0,0,0,0,0,0,0,0,0,0,0,0,0,0,0,0
675474422,539162344,537452793,0,0,0,0,0,0,0,0,0,0,0,0,0,0,0,0,0,0,0,0,0,0,0
542660858,607672299,538466013,0,0,0,0,0,0,0,0,0,0,0,0,0,0,0,0,0,0,0,0,0,0,0
542662650,540565483,538468317,0,0,0,0,0,0,0,0,0,0,0,0,0,0,0,0,0,0,0,0,0,0,0
542676974,540582362,538487750,0,0,0,0,0,0,0,0,0,0,0,0,0,0,0,0,0,0,0,0,0,0,0
542680825,540587747,538494669,0,0,0,0,0,0,0,0,0,0,0,0,0,0,0,0,0,0,0,0,0,0,0
542269158,540168396,672285105,0,0,0,0,0,0,0,0,0,0,0,0,0,0,0,0,0,0,0,0,0,0,0
