0,1,2,3,4,5,6,7,8,9,10,11,12,13,14,15,16,17,18,19,20,21,22,23,24,25
590104591,588016948,585929561,650951037,581763527,646558230,577337935,575230836,573128839,571026585,568924588,566822335,564721105,562619107,560516854,0,0,0,0,0,0,0,0,0,0,0
589949278,587844976,719958402,583636628,581525176,579413724,577306615,574812376,572712934,570613492,0,0,0,0,0,0,0,0,0,0,0,0,0,0,0,0
589487539,587389122,652399312,717409503,581091836,0,0,0,0,0,0,0,0,0,0,0,0,0,0,0,0,0,0,0,0,0
589489309,587390891,585292473,583194055,581094115,578994431,0,0,0,0,0,0,0,0,0,0,0,0,0,0,0,0,0,0,0,0
589474779,587377381,585279983,583182585,0,0,0,0,0,0,0,0,0,0,0,0,0,0,0,0,0,0,0,0,0,0
589471903,587374507,719494839,583180228,581083101,578985719,0,0,0,0,0,0,0,0,0,0,0,0,0,0,0,0,0,0,0,0
589464144,587367783,585271167,583174806,581078724,578982898,0,0,0,0,0,0,0,0,0,0,0,0,0,0,0,0,0,0,0,0
589463368,587367005,585270386,583173767,581077936,578981850,711103225,0,0,0,0,0,0,0,0,0,0,0,0,0,0,0,0,0,0,0
723672278,587358946,585263341,583167481,0,0,0,0,0,0,0,0,0,0,0,0,0,0,0,0,0,0,0,0,0,0
589442258,587347678,585253098,583158262,0,0,0,0,0,0,0,0,0,0,0,0,0,0,0,0,0,0,0,0,0,0
589440463,587345883,585251559,583156979,0,0,0,0,0,0,0,0,0,0,0,0,0,0,0,0,0,0,0,0,0,0
589409455,587317180,585224649,583132374,581043952,580389605,0,0,0,0,0,0,0,0,0,0,0,0,0,0,0,0,0,0,0,0
723611069,587302089,719428308,650228191,581033719,580390592,578297826,576203768,0,0,0,0,0,0,0,0,0,0,0,0,0,0,0,0,0,0
589309600,587224751,585139901,583055307,580982247,578295917,576202397,574107061,639120589,569916646,567821310,0,0,0,0,0,0,0,0,0,0,0,0,0,0,0
591309685,589212313,587114940,585017568,582506540,580409971,578313128,576216267,574119133,572022254,0,0,0,0,0,0,0,0,0,0,0,0,0,0,0,0
590899202,655910681,586704433,584607050,582509434,580412074,578314958,576217573,574120433,572023293,0,0,0,0,0,0,0,0,0,0,0,0,0,0,0,0
591282102,589187030,587091958,584624410,582523480,580422805,712540612,576224227,574126067,0,0,0,0,0,0,0,0,0,0,0,0,0,0,0,0,0
590917297,588818876,586720456,584621780,582522091,0,0,0,0,0,0,0,0,0,0,0,0,0,0,0,0,0,0,0,0,0
591222599,589131630,587040917,584950204,582561039,580452189,578345368,576241855,574141651,572041446,704158714,0,0,0,0,0,0,0,0,0,0,0,0,0,0,0
725435189,589127262,587037063,584946607,582563845,580453205,578346897,574142925,639151584,637051124,0,0,0,0,0,0,0,0,0,0,0,0,0,0,0,0
590923457,588824014,586724827,584625384,0,0,0,0,0,0,0,0,0,0,0,0,0,0,0,0,0,0,0,0,0,0
590924996,588825553,586726110,584626666,0,0,0,0,0,0,0,0,0,0,0,0,0,0,0,0,0,0,0,0,0,0
591203984,656216748,587011531,584915433,582607403,580508779,578410395,576312508,574215116,572117468,570019818,0,0,0,0,0,0,0,0,0,0,0,0,0,0,0
591208435,588890899,586786349,584682055,649678971,580458416,578350808,576246003,707983354,0,0,0,0,0,0,0,0,0,0,0,0,0,0,0,0,0
591182495,589094848,587006177,584702727,649695560,580470922,712577467,643363035,574152428,572050428,0,0,0,0,0,0,0,0,0,0,0,0,0,0,0,0
590956687,588854943,586753454,584651709,582546396,580058860,0,0,0,0,0,0,0,0,0,0,0,0,0,0,0,0,0,0,0,0
590960341,588858591,586756585,584654579,582152893,580051166,577950711,0,0,0,0,0,0,0,0,0,0,0,0,0,0,0,0,0,0,0
591017397,588911552,586806476,584700887,716804334,647165034,577954971,575854779,573756107,571657691,569559019,567460347,0,0,0,0,0,0,0,0,0,0,0,0,0,0
591004361,588900052,586794974,584689641,582154832,580052111,577950910,575850973,573752300,571653884,0,0,0,0,0,0,0,0,0,0,0,0,0,0,0,0
590531992,655542694,586335925,584237764,580039934,0,0,0,0,0,0,0,0,0,0,0,0,0,0,0,0,0,0,0,0,0
590531686,588433785,586335884,584238239,582139331,647149285,0,0,0,0,0,0,0,0,0,0,0,0,0,0,0,0,0,0,0,0
590529639,588431482,586333068,584234396,0,0,0,0,0,0,0,0,0,0,0,0,0,0,0,0,0,0,0,0,0,0
657623107,722635093,720538214,584223864,783453594,580030653,577934039,575837161,573740273,571643386,0,0,0,0,0,0,0,0,0,0,0,0,0,0,0,0
590679625,588579181,586479249,584378550,582097413,580007501,577915780,710039720,573726650,571631308,569535966,567440624,0,0,0,0,0,0,0,0,0,0,0,0,0,0
590719061,588615545,586512284,651517631,582072589,579987796,577899401,575808685,573714622,571620560,636635617,567432691,0,0,0,0,0,0,0,0,0,0,0,0,0,0
657812415,588601052,720716281,584170013,582083671,579996562,712125117,575815898,573721321,571626999,0,0,0,0,0,0,0,0,0,0,0,0,0,0,0,0
724915191,588358934,720483887,584173895,582086008,579997608,577907661,575815397,573720561,571625981,0,0,0,0,0,0,0,0,0,0,0,0,0,0,0,0
590459326,588366537,586274005,718398945,582092536,579343852,0,0,0,0,0,0,0,0,0,0,0,0,0,0,0,0,0,0,0,0
590443756,588352244,586260733,583535223,581442211,579349455,577255408,0,0,0,0,0,0,0,0,0,0,0,0,0,0,0,0,0,0,0
589833378,587737263,585641148,583545033,581450211,579355134,0,0,0,0,0,0,0,0,0,0,0,0,0,0,0,0,0,0,0,0
589851910,587754523,585657137,583560006,581462386,579364765,577267389,575170003,573072862,570975465,635987187,700998654,0,0,0,0,0,0,0,0,0,0,0,0,0,0
590204805,588111526,586018246,718142439,581495086,579390319,577287584,575186625,573087697,570988514,568889586,0,0,0,0,0,0,0,0,0,0,0,0,0,0,0
589897481,587796512,585695544,650704463,581491071,579386543,577284563,575184107,573085175,0,0,0,0,0,0,0,0,0,0,0,0,0,0,0,0,0
589890119,587789659,585688687,583587459,648591018,579377105,577274093,0,0,0,0,0,0,0,0,0,0,0,0,0,0,0,0,0,0,0
724394375,588085416,585994184,583902697,581512495,579403888,577298848,575195841,573095889,638104801,568895986,0,0,0,0,0,0,0,0,0,0,0,0,0,0,0
589894539,587794074,585694377,717811639,581490389,579386610,0,0,0,0,0,0,0,0,0,0,0,0,0,0,0,0,0,0,0,0
589976295,587870192,585763832,581101589,579000412,576900241,641909684,706920134,570604504,568506346,566408187,0,0,0,0,0,0,0,0,0,0,0,0,0,0,0
587915632,720024192,583697552,581576112,579455696,577340138,574815335,639824511,570615705,568516019,566416077,564316391,0,0,0,0,0,0,0,0,0,0,0,0,0,0
588049156,585960244,583872099,581792962,579421477,644419947,575205786,640213169,571002824,568901087,566799606,0,0,0,0,0,0,0,0,0,0,0,0,0,0,0
585453064,583350327,648351127,579134967,643965254,641873782,572670351,570576039,568481727,566387159,631401711,0,0,0,0,0,0,0,0,0,0,0,0,0,0,0
586542870,584436810,582321838,579970328,712104033,642907025,640813481,571612097,569519320,567426798,0,0,0,0,0,0,0,0,0,0,0,0,0,0,0,0
586163540,584079465,582008724,579937214,712077278,575775731,573048196,570953885,568859319,566765008,564670442,0,0,0,0,0,0,0,0,0,0,0,0,0,0,0
583717502,715806121,579460309,577339381,574811513,572711832,570611895,568511958,566412021,0,0,0,0,0,0,0,0,0,0,0,0,0,0,0,0,0
583198993,581098821,578998393,576898975,574800313,706920134,570604755,568506848,566408941,564311034,0,0,0,0,0,0,0,0,0,0,0,0,0,0,0,0
583271608,648205576,578996562,576896905,574798254,637711314,568504549,566406647,0,0,0,0,0,0,0,0,0,0,0,0,0,0,0,0,0,0
583010150,580943251,578876607,576801760,708937462,572000622,569906059,567811753,565717447,563623140,0,0,0,0,0,0,0,0,0,0,0,0,0,0,0,0
584856546,582631739,580499087,712592334,710477048,573762521,571660028,0,0,0,0,0,0,0,0,0,0,0,0,0,0,0,0,0,0,0
584421124,582309228,580197332,577893673,575802973,573709687,571616145,569522602,567429060,699553245,563242231,0,0,0,0,0,0,0,0,0,0,0,0,0,0,0
651030302,581832590,579390722,577286742,575185038,573085610,570986182,635995617,566787325,0,0,0,0,0,0,0,0,0,0,0,0,0,0,0,0,0
581174744,578998322,576898162,574799259,706918577,570602695,566406647,0,0,0,0,0,0,0,0,0,0,0,0,0,0,0,0,0,0,0
715398528,713210647,576893313,574794440,572696300,0,0,0,0,0,0,0,0,0,0,0,0,0,0,0,0,0,0,0,0,0
648356937,579138754,576854307,574763615,572669821,704793499,568481977,566388183,564294133,0,0,0,0,0,0,0,0,0,0,0,0,0,0,0,0,0
582772145,647631128,578399586,576285075,574179244,572073413,569967582,567862520,565372666,0,0,0,0,0,0,0,0,0,0,0,0,0,0,0,0,0
783630901,580194227,712113689,575804763,573711482,571618202,0,0,0,0,0,0,0,0,0,0,0,0,0,0,0,0,0,0,0,0
582305103,781520828,577896214,777131852,573711720,705835651,636633246,701648314,565337045,563243248,0,0,0,0,0,0,0,0,0,0,0,0,0,0,0,0
581882681,713999071,577259871,575164592,707285977,0,0,0,0,0,0,0,0,0,0,0,0,0,0,0,0,0,0,0,0,0
579430604,576911238,574805158,572703414,570602695,0,0,0,0,0,0,0,0,0,0,0,0,0,0,0,0,0,0,0,0,0
580130683,578035929,575848224,573750336,571652191,569554303,634565278,565358270,563260382,628271357,0,0,0,0,0,0,0,0,0,0,0,0,0,0,0,0
580140323,578044288,575947709,573850845,571753980,569548834,567451457,565354080,697474431,561159582,626171324,556965339,554868218,0,0,0,0,0,0,0,0,0,0,0,0,0
580214880,578103236,710010638,707918383,571607632,636624241,701640595,565330613,563238358,561145848,0,0,0,0,0,0,0,0,0,0,0,0,0,0,0,0
647366227,578135235,575768085,707897146,571590751,569501828,567412138,565323214,630343155,0,0,0,0,0,0,0,0,0,0,0,0,0,0,0,0,0
580314891,712401788,576064713,573956849,571552799,0,0,0,0,0,0,0,0,0,0,0,0,0,0,0,0,0,0,0,0,0
579788149,577688033,575158061,573062225,570966133,568870297,566774204,564678368,0,0,0,0,0,0,0,0,0,0,0,0,0,0,0,0,0,0
577509840,575305752,573194042,705300060,636080509,633968799,564748225,629745379,761459150,0,0,0,0,0,0,0,0,0,0,0,0,0,0,0,0,0
576996706,574900153,572803300,570596887,635608642,566402414,564305305,562208197,560111088,0,0,0,0,0,0,0,0,0,0,0,0,0,0,0,0,0
576750334,710864777,708765121,639556857,569912629,567817838,565723302,563628767,0,0,0,0,0,0,0,0,0,0,0,0,0,0,0,0,0,0
578656381,643681232,574481403,572064810,569962069,567858817,565755564,563652312,0,0,0,0,0,0,0,0,0,0,0,0,0,0,0,0,0,0
578593643,576518589,574431718,639218962,637110843,567893860,565785741,563677622,561570271,0,0,0,0,0,0,0,0,0,0,0,0,0,0,0,0,0
578099226,575993721,641000872,571790552,569517328,634533695,565332335,630348446,561146830,626162941,0,0,0,0,0,0,0,0,0,0,0,0,0,0,0,0
578195614,576073182,573631750,705764134,636570950,701596003,0,0,0,0,0,0,0,0,0,0,0,0,0,0,0,0,0,0,0,0
577688131,575588251,573489607,571390963,568870947,566773841,564677247,629690287,694703073,0,0,0,0,0,0,0,0,0,0,0,0,0,0,0,0,0
577619300,575531963,640548582,571011606,703127105,633916268,564705432,562603460,761827823,0,0,0,0,0,0,0,0,0,0,0,0,0,0,0,0,0
577610304,642635950,640545765,638121503,636017494,701022350,564700869,629705980,0,0,0,0,0,0,0,0,0,0,0,0,0,0,0,0,0,0
645836914,576630475,574532855,569923154,567826302,565729706,563633110,0,0,0,0,0,0,0,0,0,0,0,0,0,0,0,0,0,0,0
641997722,572793039,570605580,702724672,566408564,765636520,629320412,0,0,0,0,0,0,0,0,0,0,0,0,0,0,0,0,0,0,0
642059872,774169047,771896921,635594448,0,0,0,0,0,0,0,0,0,0,0,0,0,0,0,0,0,0,0,0,0,0
574961154,572857409,637862784,635759807,633656318,564276551,562186117,560095427,0,0,0,0,0,0,0,0,0,0,0,0,0,0,0,0,0,0
576552512,708681340,639483831,570286323,634978353,565764717,630768296,561553892,0,0,0,0,0,0,0,0,0,0,0,0,0,0,0,0,0,0
575950631,573853285,571755939,569658849,567450152,565353062,563256228,561159394,0,0,0,0,0,0,0,0,0,0,0,0,0,0,0,0,0,0
643130992,573915563,571809255,703721003,634523238,565325986,563237597,0,0,0,0,0,0,0,0,0,0,0,0,0,0,0,0,0,0,0
709927066,774966211,705788397,635972820,0,0,0,0,0,0,0,0,0,0,0,0,0,0,0,0,0,0,0,0,0,0
573237155,705335228,568998101,566879470,631435823,562223495,560120030,0,0,0,0,0,0,0,0,0,0,0,0,0,0,0,0,0,0,0
708697870,572388687,570296464,702422737,565758996,563656277,561553558,559451095,0,0,0,0,0,0,0,0,0,0,0,0,0,0,0,0,0,0
573961003,571834560,770825826,768757494,0,0,0,0,0,0,0,0,0,0,0,0,0,0,0,0,0,0,0,0,0,0
641093043,571868140,569453870,567375465,565296548,697434334,0,0,0,0,0,0,0,0,0,0,0,0,0,0,0,0,0,0,0,0
638474796,569271683,634286041,564692529,629701509,560492763,0,0,0,0,0,0,0,0,0,0,0,0,0,0,0,0,0,0,0,0
638438954,703460237,634263279,631817554,763928500,0,0,0,0,0,0,0,0,0,0,0,0,0,0,0,0,0,0,0,0,0
572192217,570070763,702166782,563270978,561169057,0,0,0,0,0,0,0,0,0,0,0,0,0,0,0,0,0,0,0,0,0
568657716,633662855,564449499,629290296,560092044,558002399,0,0,0,0,0,0,0,0,0,0,0,0,0,0,0,0,0,0,0,0
637193773,567961184,767164306,563713988,561590006,559075064,0,0,0,0,0,0,0,0,0,0,0,0,0,0,0,0,0,0,0,0
566565432,631568538,763499783,560086378,625107916,0,0,0,0,0,0,0,0,0,0,0,0,0,0,0,0,0,0,0,0,0
635190773,767188787,765066094,695833769,693710308,556980215,0,0,0,0,0,0,0,0,0,0,0,0,0,0,0,0,0,0,0,0
634285150,632191183,562592833,560492722,0,0,0,0,0,0,0,0,0,0,0,0,0,0,0,0,0,0,0,0,0,0
632661784,764764299,628431613,626136187,691165933,0,0,0,0,0,0,0,0,0,0,0,0,0,0,0,0,0,0,0,0,0
699402601,764448665,762385098,558371985,0,0,0,0,0,0,0,0,0,0,0,0,0,0,0,0,0,0,0,0,0,0
696838380,560542893,625574509,556388398,755818469,686592422,684475239,0,0,0,0,0,0,0,0,0,0,0,0,0,0,0,0,0,0,0
562836403,761930281,692679585,555932671,0,0,0,0,0,0,0,0,0,0,0,0,0,0,0,0,0,0,0,0,0,0
631173414,629071283,559429183,624446155,0,0,0,0,0,0,0,0,0,0,0,0,0,0,0,0,0,0,0,0,0,0
563386143,628392875,626161477,624069586,0,0,0,0,0,0,0,0,0,0,0,0,0,0,0,0,0,0,0,0,0,0
696826107,560524228,558439308,556354900,554270492,619531482,550312610,615312232,0,0,0,0,0,0,0,0,0,0,0,0,0,0,0,0,0,0
695740915,559420101,555860458,553751506,685860535,549534364,547425920,679512878,543612375,0,0,0,0,0,0,0,0,0,0,0,0,0,0,0,0,0
628643061,693653192,624446106,555239275,553141306,616481745,547279169,0,0,0,0,0,0,0,0,0,0,0,0,0,0,0,0,0,0,0
558465222,757677767,621347016,552124359,0,0,0,0,0,0,0,0,0,0,0,0,0,0,0,0,0,0,0,0,0,0
558395898,623408863,554204101,686325675,550012049,547916151,545822760,678320081,676221623,539905437,537806978,0,0,0,0,0,0,0,0,0,0,0,0,0,0,0
687979680,685861743,683743550,681626382,0,0,0,0,0,0,0,0,0,0,0,0,0,0,0,0,0,0,0,0,0,0
555229688,685892839,616672452,614560929,545312569,610712779,608629928,0,0,0,0,0,0,0,0,0,0,0,0,0,0,0,0,0,0,0
622353142,620255165,551048581,548950605,547271582,0,0,0,0,0,0,0,0,0,0,0,0,0,0,0,0,0,0,0,0,0
554870774,552775582,617789510,548677868,0,0,0,0,0,0,0,0,0,0,0,0,0,0,0,0,0,0,0,0,0,0
551737570,549650322,682193365,545939293,0,0,0,0,0,0,0,0,0,0,0,0,0,0,0,0,0,0,0,0,0,0
551737570,550052604,682193365,545939293,0,0,0,0,0,0,0,0,0,0,0,0,0,0,0,0,0,0,0,0,0,0
618837483,549633226,681755560,545446466,0,0,0,0,0,0,0,0,0,0,0,0,0,0,0,0,0,0,0,0,0,0
551722196,616734074,614636833,545540116,0,0,0,0,0,0,0,0,0,0,0,0,0,0,0,0,0,0,0,0,0,0
618827005,616726975,614626945,679776452,543469834,0,0,0,0,0,0,0,0,0,0,0,0,0,0,0,0,0,0,0,0,0
618819287,549605505,614609706,545589287,0,0,0,0,0,0,0,0,0,0,0,0,0,0,0,0,0,0,0,0,0,0
753034213,683818648,614603082,545601120,0,0,0,0,0,0,0,0,0,0,0,0,0,0,0,0,0,0,0,0,0,0
618801631,616685709,681677372,545665861,0,0,0,0,0,0,0,0,0,0,0,0,0,0,0,0,0,0,0,0,0,0
553125370,683803600,547480753,545356369,543544557,541456589,539367597,738605965,0,0,0,0,0,0,0,0,0,0,0,0,0,0,0,0,0,0
685895659,549563070,547448210,746625035,0,0,0,0,0,0,0,0,0,0,0,0,0,0,0,0,0,0,0,0,0,0
553148381,551050927,548953728,547267310,545170531,543073333,540976135,0,0,0,0,0,0,0,0,0,0,0,0,0,0,0,0,0,0,0
553160190,551067101,548974012,546889049,545125357,543024076,540922794,605930632,0,0,0,0,0,0,0,0,0,0,0,0,0,0,0,0,0,0
552092669,549994479,547896289,545796023,543695757,541597567,539499377,537401187,0,0,0,0,0,0,0,0,0,0,0,0,0,0,0,0,0,0
687359971,551042999,548943500,545193089,541101812,538993645,536885734,0,0,0,0,0,0,0,0,0,0,0,0,0,0,0,0,0,0,0
750962115,547542663,545907699,543856066,541774258,0,0,0,0,0,0,0,0,0,0,0,0,0,0,0,0,0,0,0,0,0
549630974,547534577,545439437,543344553,675465629,539151504,537055108,0,0,0,0,0,0,0,0,0,0,0,0,0,0,0,0,0,0,0
683828218,547507668,545392992,543497448,541406145,673532315,537223284,0,0,0,0,0,0,0,0,0,0,0,0,0,0,0,0,0,0,0
616714461,547500715,612489749,543516028,608535627,606446362,0,0,0,0,0,0,0,0,0,0,0,0,0,0,0,0,0,0,0,0
551034623,548933095,612488397,543263643,675377802,539056761,671170921,0,0,0,0,0,0,0,0,0,0,0,0,0,0,0,0,0,0,0
551069930,548977613,681113460,544814108,610121207,540909531,538806974,0,0,0,0,0,0,0,0,0,0,0,0,0,0,0,0,0,0,0
685287157,548977114,546894474,544810553,542718238,540625923,538812384,0,0,0,0,0,0,0,0,0,0,0,0,0,0,0,0,0,0,0
551082467,616109221,681389800,545028402,0,0,0,0,0,0,0,0,0,0,0,0,0,0,0,0,0,0,0,0,0,0
617804023,683209698,546933093,679271904,542944183,607942797,672941413,0,0,0,0,0,0,0,0,0,0,0,0,0,0,0,0,0,0,0
617089270,615656185,546432701,678534787,676431728,540111197,672225866,0,0,0,0,0,0,0,0,0,0,0,0,0,0,0,0,0,0,0
550022381,547933120,545858873,544045994,541940861,539835473,537730085,0,0,0,0,0,0,0,0,0,0,0,0,0,0,0,0,0,0,0
547529960,545434015,543337814,541241150,539144230,537047566,0,0,0,0,0,0,0,0,0,0,0,0,0,0,0,0,0,0,0,0
547538249,545433116,744774889,541353691,673476556,537164222,0,0,0,0,0,0,0,0,0,0,0,0,0,0,0,0,0,0,0,0
547512045,545401229,543291181,541189389,539300585,671425481,0,0,0,0,0,0,0,0,0,0,0,0,0,0,0,0,0,0,0,0
548936679,679583942,677456510,541131622,539025230,536918070,0,0,0,0,0,0,0,0,0,0,0,0,0,0,0,0,0,0,0,0
548935381,545355706,677442416,675333719,539007295,604007719,0,0,0,0,0,0,0,0,0,0,0,0,0,0,0,0,0,0,0,0
548945650,546842018,544738387,541159420,539055603,604060650,0,0,0,0,0,0,0,0,0,0,0,0,0,0,0,0,0,0,0,0
548974587,546897818,544820538,676947994,540900082,538795986,0,0,0,0,0,0,0,0,0,0,0,0,0,0,0,0,0,0,0,0
548566266,546458266,544350522,542249754,540336373,538242773,0,0,0,0,0,0,0,0,0,0,0,0,0,0,0,0,0,0,0,0
547899116,545797794,543696471,541597758,0,0,0,0,0,0,0,0,0,0,0,0,0,0,0,0,0,0,0,0,0,0
547906300,747135685,543712912,541615998,539519085,537422684,0,0,0,0,0,0,0,0,0,0,0,0,0,0,0,0,0,0,0,0
682124798,545811372,543715674,541619006,539522339,537425416,0,0,0,0,0,0,0,0,0,0,0,0,0,0,0,0,0,0,0,0
547916266,545825707,543735148,541640278,539545153,537450283,0,0,0,0,0,0,0,0,0,0,0,0,0,0,0,0,0,0,0,0
547553272,545840840,543750550,541655173,539560052,604574051,0,0,0,0,0,0,0,0,0,0,0,0,0,0,0,0,0,0,0,0
545441755,543348647,541253014,539157124,537061491,0,0,0,0,0,0,0,0,0,0,0,0,0,0,0,0,0,0,0,0,0
545431034,543333837,541236670,539139503,537042592,0,0,0,0,0,0,0,0,0,0,0,0,0,0,0,0,0,0,0,0,0
545406175,677514917,541196434,539096190,536994923,0,0,0,0,0,0,0,0,0,0,0,0,0,0,0,0,0,0,0,0,0
545389509,610381183,541168232,539064146,536960314,0,0,0,0,0,0,0,0,0,0,0,0,0,0,0,0,0,0,0,0,0
612461385,543549668,608569793,606481824,537284739,0,0,0,0,0,0,0,0,0,0,0,0,0,0,0,0,0,0,0,0,0
546837726,543287535,608295141,539085020,536983762,0,0,0,0,0,0,0,0,0,0,0,0,0,0,0,0,0,0,0,0,0
546854650,544756425,542658744,540561576,538464151,0,0,0,0,0,0,0,0,0,0,0,0,0,0,0,0,0,0,0,0,0
681079784,544766410,542669759,540573109,672693931,0,0,0,0,0,0,0,0,0,0,0,0,0,0,0,0,0,0,0,0,0
546867705,678992339,542678983,540583098,538487214,0,0,0,0,0,0,0,0,0,0,0,0,0,0,0,0,0,0,0,0,0
546905593,544821471,542728408,540635600,672760008,0,0,0,0,0,0,0,0,0,0,0,0,0,0,0,0,0,0,0,0,0
546905593,544822493,542729428,540636620,672761283,0,0,0,0,0,0,0,0,0,0,0,0,0,0,0,0,0,0,0,0,0
546491644,544400331,542305211,540209835,538114715,0,0,0,0,0,0,0,0,0,0,0,0,0,0,0,0,0,0,0,0,0
546483136,544387198,609399399,540193873,538097211,0,0,0,0,0,0,0,0,0,0,0,0,0,0,0,0,0,0,0,0,0
680657580,544323666,542219828,674333462,739605491,0,0,0,0,0,0,0,0,0,0,0,0,0,0,0,0,0,0,0,0,0
545802720,543703470,608714653,606616716,537410172,0,0,0,0,0,0,0,0,0,0,0,0,0,0,0,0,0,0,0,0,0
680036064,543725989,541630354,539534718,537439339,0,0,0,0,0,0,0,0,0,0,0,0,0,0,0,0,0,0,0,0,0
680036064,610836649,608741270,606645891,537441648,0,0,0,0,0,0,0,0,0,0,0,0,0,0,0,0,0,0,0,0,0
680050169,543744214,541649866,539555774,537460914,0,0,0,0,0,0,0,0,0,0,0,0,0,0,0,0,0,0,0,0,0
543350508,608364000,539159765,537064393,0,0,0,0,0,0,0,0,0,0,0,0,0,0,0,0,0,0,0,0,0,0
543339518,541242870,539146221,537049573,0,0,0,0,0,0,0,0,0,0,0,0,0,0,0,0,0,0,0,0,0,0
543328231,541230556,539132882,537035207,0,0,0,0,0,0,0,0,0,0,0,0,0,0,0,0,0,0,0,0,0,0
543323635,541225705,539127519,537029332,0,0,0,0,0,0,0,0,0,0,0,0,0,0,0,0,0,0,0,0,0,0
543507393,541413772,539320407,537227554,0,0,0,0,0,0,0,0,0,0,0,0,0,0,0,0,0,0,0,0,0,0
543313904,541214693,539115481,537016014,0,0,0,0,0,0,0,0,0,0,0,0,0,0,0,0,0,0,0,0,0,0
544740261,542640784,540541564,536977906,0,0,0,0,0,0,0,0,0,0,0,0,0,0,0,0,0,0,0,0,0,0
678969831,542654170,540556237,538458304,0,0,0,0,0,0,0,0,0,0,0,0,0,0,0,0,0,0,0,0,0,0
544814062,542722275,540630488,538538701,0,0,0,0,0,0,0,0,0,0,0,0,0,0,0,0,0,0,0,0,0,0
544380611,542283442,540186017,605197712,0,0,0,0,0,0,0,0,0,0,0,0,0,0,0,0,0,0,0,0,0,0
544371942,542273753,540175308,605185726,0,0,0,0,0,0,0,0,0,0,0,0,0,0,0,0,0,0,0,0,0,0
543704033,541606358,539508426,537410750,0,0,0,0,0,0,0,0,0,0,0,0,0,0,0,0,0,0,0,0,0,0
543713783,675834350,539519717,537422812,0,0,0,0,0,0,0,0,0,0,0,0,0,0,0,0,0,0,0,0,0,0
543715040,541618388,539521480,671642300,0,0,0,0,0,0,0,0,0,0,0,0,0,0,0,0,0,0,0,0,0,0
610823659,541618143,539521235,537424583,0,0,0,0,0,0,0,0,0,0,0,0,0,0,0,0,0,0,0,0,0,0
591195527,589106601,587018188,0,0,0,0,0,0,0,0,0,0,0,0,0,0,0,0,0,0,0,0,0,0,0
707531430,705308461,770268084,0,0,0,0,0,0,0,0,0,0,0,0,0,0,0,0,0,0,0,0,0,0,0
708145000,571810028,636622717,0,0,0,0,0,0,0,0,0,0,0,0,0,0,0,0,0,0,0,0,0,0,0
708167632,772901947,569505435,0,0,0,0,0,0,0,0,0,0,0,0,0,0,0,0,0,0,0,0,0,0,0
634583830,565372261,630378163,0,0,0,0,0,0,0,0,0,0,0,0,0,0,0,0,0,0,0,0,0,0,0
698656593,629443811,694318724,0,0,0,0,0,0,0,0,0,0,0,0,0,0,0,0,0,0,0,0,0,0,0
633169923,631098303,695785593,0,0,0,0,0,0,0,0,0,0,0,0,0,0,0,0,0,0,0,0,0,0,0
696940709,694788846,558022394,0,0,0,0,0,0,0,0,0,0,0,0,0,0,0,0,0,0,0,0,0,0,0
563749820,561633751,559516659,0,0,0,0,0,0,0,0,0,0,0,0,0,0,0,0,0,0,0,0,0,0,0
630366377,762487330,559169948,0,0,0,0,0,0,0,0,0,0,0,0,0,0,0,0,0,0,0,0,0,0,0
764280371,627977169,759736173,0,0,0,0,0,0,0,0,0,0,0,0,0,0,0,0,0,0,0,0,0,0,0
629056808,626959332,624450971,0,0,0,0,0,0,0,0,0,0,0,0,0,0,0,0,0,0,0,0,0,0,0
763205000,760812065,758692796,0,0,0,0,0,0,0,0,0,0,0,0,0,0,0,0,0,0,0,0,0,0,0
623034862,554273273,552226742,0,0,0,0,0,0,0,0,0,0,0,0,0,0,0,0,0,0,0,0,0,0,0
755525870,619610612,550398475,0,0,0,0,0,0,0,0,0,0,0,0,0,0,0,0,0,0,0,0,0,0,0
755525870,619216134,550398475,0,0,0,0,0,0,0,0,0,0,0,0,0,0,0,0,0,0,0,0,0,0,0
554199807,619216957,617507435,0,0,0,0,0,0,0,0,0,0,0,0,0,0,0,0,0,0,0,0,0,0,0
753478821,550091306,615297953,0,0,0,0,0,0,0,0,0,0,0,0,0,0,0,0,0,0,0,0,0,0,0
551737961,616756240,548010988,0,0,0,0,0,0,0,0,0,0,0,0,0,0,0,0,0,0,0,0,0,0,0
618813111,549596746,614784732,0,0,0,0,0,0,0,0,0,0,0,0,0,0,0,0,0,0,0,0,0,0,0
618807199,549585444,749018023,0,0,0,0,0,0,0,0,0,0,0,0,0,0,0,0,0,0,0,0,0,0,0
685882734,751154643,749094455,0,0,0,0,0,0,0,0,0,0,0,0,0,0,0,0,0,0,0,0,0,0,0
754510055,752447855,750582762,0,0,0,0,0,0,0,0,0,0,0,0,0,0,0,0,0,0,0,0,0,0,0
754122181,752451235,616173126,0,0,0,0,0,0,0,0,0,0,0,0,0,0,0,0,0,0,0,0,0,0,0
552790715,752456136,683289726,0,0,0,0,0,0,0,0,0,0,0,0,0,0,0,0,0,0,0,0,0,0,0
619886569,550683827,548589948,0,0,0,0,0,0,0,0,0,0,0,0,0,0,0,0,0,0,0,0,0,0,0
552757188,550646064,750053277,0,0,0,0,0,0,0,0,0,0,0,0,0,0,0,0,0,0,0,0,0,0,0
753444232,751707622,615380818,0,0,0,0,0,0,0,0,0,0,0,0,0,0,0,0,0,0,0,0,0,0,0
618169531,616077162,547237486,0,0,0,0,0,0,0,0,0,0,0,0,0,0,0,0,0,0,0,0,0,0,0
550669931,615680284,546598448,0,0,0,0,0,0,0,0,0,0,0,0,0,0,0,0,0,0,0,0,0,0,0
543513318,541424580,539335589,0,0,0,0,0,0,0,0,0,0,0,0,0,0,0,0,0,0,0,0,0,0,0
544898012,542814927,674949314,0,0,0,0,0,0,0,0,0,0,0,0,0,0,0,0,0,0,0,0,0,0,0
541260287,539543032,537448175,0,0,0,0,0,0,0,0,0,0,0,0,0,0,0,0,0,0,0,0,0,0,0
675435770,539119344,537020390,0,0,0,0,0,0,0,0,0,0,0,0,0,0,0,0,0,0,0,0,0,0,0
542646778,540548080,538449382,0,0,0,0,0,0,0,0,0,0,0,0,0,0,0,0,0,0,0,0,0,0,0
542304509,540208885,538113516,0,0,0,0,0,0,0,0,0,0,0,0,0,0,0,0,0,0,0,0,0,0,0
542303993,540208369,672330472,0,0,0,0,0,0,0,0,0,0,0,0,0,0,0,0,0,0,0,0,0,0,0
542263798,540164588,538065122,0,0,0,0,0,0,0,0,0,0,0,0,0,0,0,0,0,0,0,0,0,0,0
541613050,539515635,537418477,0,0,0,0,0,0,0,0,0,0,0,0,0,0,0,0,0,0,0,0,0,0,0
