0,1,2,3,4,5,6,7,8,9,10,11,12,13,14,15,16,17,18,19,20,21,22,23,24,25
589932326,587828797,585725012,583621483,648620185,579402185,577295341,0,0,0,0,0,0,0,0,0,0,0,0,0,0,0,0,0,0,0
589907380,587805632,585704140,583602393,581496561,579005937,0,0,0,0,0,0,0,0,0,0,0,0,0,0,0,0,0,0,0,0
589894629,587794413,585694965,583204041,581103073,579001849,0,0,0,0,0,0,0,0,0,0,0,0,0,0,0,0,0,0,0,0
724228650,587904063,585796948,583689577,581572241,579454906,644450521,575233516,0,0,0,0,0,0,0,0,0,0,0,0,0,0,0,0,0,0
590015293,587907407,585799265,717909108,581573017,713672638,644450521,575233516,0,0,0,0,0,0,0,0,0,0,0,0,0,0,0,0,0,0
589988975,587881089,719990675,583665061,715764681,579428333,576909466,574807748,572708313,570608878,0,0,0,0,0,0,0,0,0,0,0,0,0,0,0,0
589494648,587395720,585297048,583198120,581097928,578997480,576897791,0,0,0,0,0,0,0,0,0,0,0,0,0,0,0,0,0,0,0
791324560,587890334,585782700,583675066,581557718,579439602,576909932,574809237,572710313,570611390,702729938,566413287,564314363,0,0,0,0,0,0,0,0,0,0,0,0,0
589978538,587872183,585765828,583660241,715762410,579008086,576906123,641914798,572707264,570608594,566411254,0,0,0,0,0,0,0,0,0,0,0,0,0,0,0
724201138,587872705,585761999,583651806,581106772,579002304,0,0,0,0,0,0,0,0,0,0,0,0,0,0,0,0,0,0,0,0
589485951,587387792,652398240,583191217,581091795,578992373,0,0,0,0,0,0,0,0,0,0,0,0,0,0,0,0,0,0,0,0
589472133,587374995,585277601,583180463,581083082,578985958,711106299,0,0,0,0,0,0,0,0,0,0,0,0,0,0,0,0,0,0,0
589468885,587371998,585274855,583177968,0,0,0,0,0,0,0,0,0,0,0,0,0,0,0,0,0,0,0,0,0,0
589462464,587365834,652378068,717390303,581076723,0,0,0,0,0,0,0,0,0,0,0,0,0,0,0,0,0,0,0,0,0
589625874,654634302,585424747,583324311,581220590,578963789,576871824,574778300,572682962,637696488,568492287,0,0,0,0,0,0,0,0,0,0,0,0,0,0,0
656724699,587515896,719464732,583152697,648169842,578969260,576876248,641890548,0,0,0,0,0,0,0,0,0,0,0,0,0,0,0,0,0,0
589616629,587340822,585246513,583152204,581060481,578969015,576876000,708999163,0,0,0,0,0,0,0,0,0,0,0,0,0,0,0,0,0,0
589436727,587342413,585247844,583153274,648170406,578969555,576876533,0,0,0,0,0,0,0,0,0,0,0,0,0,0,0,0,0,0,0
589440345,587345260,652359039,650264210,581062584,578969820,643984886,0,0,0,0,0,0,0,0,0,0,0,0,0,0,0,0,0,0,0
589639822,587538859,719655369,583336678,581042216,578952547,711078799,708985517,572672699,704795082,568482264,566387175,564291830,0,0,0,0,0,0,0,0,0,0,0,0,0
589430937,587336359,585242036,583147714,581056221,578964984,0,0,0,0,0,0,0,0,0,0,0,0,0,0,0,0,0,0,0,0
589413974,587320679,585227128,583133577,581043114,578953420,576861925,574768630,639782142,0,0,0,0,0,0,0,0,0,0,0,0,0,0,0,0,0
589411784,721536467,585225949,583132903,581043196,580391390,578298103,0,0,0,0,0,0,0,0,0,0,0,0,0,0,0,0,0,0,0
723610018,587300783,585209020,583117257,581031139,578945021,578293974,576200172,574104567,0,0,0,0,0,0,0,0,0,0,0,0,0,0,0,0,0
590875057,588779452,586683591,584587986,582493671,580399101,0,0,0,0,0,0,0,0,0,0,0,0,0,0,0,0,0,0,0,0
589405671,587312623,585219831,650235902,582487975,580394697,578300386,710422771,574108923,0,0,0,0,0,0,0,0,0,0,0,0,0,0,0,0,0
589306739,587220096,585133710,583047324,580971450,578894811,711031284,576193364,574098281,572003199,569908116,567813033,565717950,563622867,561527528,559432189,0,0,0,0,0,0,0,0,0,0
590890702,588793816,586697185,584600555,582504191,0,0,0,0,0,0,0,0,0,0,0,0,0,0,0,0,0,0,0,0,0
590894218,588797080,586700199,718820789,582506450,580409582,0,0,0,0,0,0,0,0,0,0,0,0,0,0,0,0,0,0,0,0
590889523,588799854,586710441,584620769,0,0,0,0,0,0,0,0,0,0,0,0,0,0,0,0,0,0,0,0,0,0
591301942,589205083,587108224,585011621,582915312,580413759,578316151,576218524,641230254,572024001,637035731,567829478,565732345,0,0,0,0,0,0,0,0,0,0,0,0,0
590901853,655916937,586714550,584620769,0,0,0,0,0,0,0,0,0,0,0,0,0,0,0,0,0,0,0,0,0,0
591281427,589186110,587091050,584995733,582902508,580423240,578323338,576224437,574126283,572028129,637039094,0,0,0,0,0,0,0,0,0,0,0,0,0,0,0
658400242,588815174,586717845,584620769,0,0,0,0,0,0,0,0,0,0,0,0,0,0,0,0,0,0,0,0,0,0
590915624,588817212,586719055,584620643,582521226,714639281,578322894,777551073,574126827,572029173,637040126,0,0,0,0,0,0,0,0,0,0,0,0,0,0,0
590912345,588814697,586717051,584619405,0,0,0,0,0,0,0,0,0,0,0,0,0,0,0,0,0,0,0,0,0,0
590913888,588815728,586717568,584619408,0,0,0,0,0,0,0,0,0,0,0,0,0,0,0,0,0,0,0,0,0,0
591280882,588823825,653833770,651734595,582524532,580423589,712541386,777551073,641235438,572028411,0,0,0,0,0,0,0,0,0,0,0,0,0,0,0,0
591250634,589157864,586750475,584649001,582543972,580438431,578334924,576233450,574134264,0,0,0,0,0,0,0,0,0,0,0,0,0,0,0,0,0
590930062,588831135,788058286,718849980,0,0,0,0,0,0,0,0,0,0,0,0,0,0,0,0,0,0,0,0,0,0
590930837,723048866,788058286,718849980,0,0,0,0,0,0,0,0,0,0,0,0,0,0,0,0,0,0,0,0,0,0
590946884,588846422,586745960,584646266,716760223,580438979,578336989,576236783,574137848,0,0,0,0,0,0,0,0,0,0,0,0,0,0,0,0,0
591183372,589094449,587005271,584915325,582834376,580479257,578370129,576265079,574163850,572063389,569962416,634970050,565759957,563658984,561557755,0,0,0,0,0,0,0,0,0,0,0
591204543,589114331,587024119,584687128,582575695,647573126,578356656,576253132,574152410,572051688,569950966,0,0,0,0,0,0,0,0,0,0,0,0,0,0,0
590940104,588840658,586740444,584640231,582537211,0,0,0,0,0,0,0,0,0,0,0,0,0,0,0,0,0,0,0,0,0
591198693,589107708,586798105,718911536,582582878,580471949,578364336,576260295,574160339,572059870,569959146,702076150,565377013,0,0,0,0,0,0,0,0,0,0,0,0,0
591198693,588902146,586798105,718911536,582582878,580471949,578364336,576260295,574160339,572059870,569959146,702076150,565377013,0,0,0,0,0,0,0,0,0,0,0,0,0
591154896,589066469,586977274,584733462,0,0,0,0,0,0,0,0,0,0,0,0,0,0,0,0,0,0,0,0,0,0
590955732,588854492,586753508,584652269,582154691,580052963,712169723,0,0,0,0,0,0,0,0,0,0,0,0,0,0,0,0,0,0,0
591010179,588905874,586801056,584695983,582583244,580470505,578361599,575859648,573760463,571661278,569562350,567463165,0,0,0,0,0,0,0,0,0,0,0,0,0,0
590533093,588434926,586337014,584239102,0,0,0,0,0,0,0,0,0,0,0,0,0,0,0,0,0,0,0,0,0,0
590995413,588890848,653895148,584681719,0,0,0,0,0,0,0,0,0,0,0,0,0,0,0,0,0,0,0,0,0,0
658104279,588890850,653895148,584681719,0,0,0,0,0,0,0,0,0,0,0,0,0,0,0,0,0,0,0,0,0,0
724746199,588430816,586333161,651344114,0,0,0,0,0,0,0,0,0,0,0,0,0,0,0,0,0,0,0,0,0,0
590522336,588424937,586327538,584230394,0,0,0,0,0,0,0,0,0,0,0,0,0,0,0,0,0,0,0,0,0,0
590524952,588427313,586329673,584232290,582134163,580036291,577938407,0,0,0,0,0,0,0,0,0,0,0,0,0,0,0,0,0,0,0
590519503,588422616,586325472,584228329,582131451,0,0,0,0,0,0,0,0,0,0,0,0,0,0,0,0,0,0,0,0,0
590518751,588421608,586324464,584227577,0,0,0,0,0,0,0,0,0,0,0,0,0,0,0,0,0,0,0,0,0,0
590649328,588401422,586303014,584205116,582105960,580007317,0,0,0,0,0,0,0,0,0,0,0,0,0,0,0,0,0,0,0,0
590650354,588400654,586303012,584205114,582105960,580007317,0,0,0,0,0,0,0,0,0,0,0,0,0,0,0,0,0,0,0,0
590682731,588581777,586481334,584380123,582096940,580008053,577917100,575823824,573728739,571633653,0,0,0,0,0,0,0,0,0,0,0,0,0,0,0,0
590501092,655513835,586309107,584213243,0,0,0,0,0,0,0,0,0,0,0,0,0,0,0,0,0,0,0,0,0,0
590494151,588399058,586303709,584208617,582115071,0,0,0,0,0,0,0,0,0,0,0,0,0,0,0,0,0,0,0,0,0
590478206,722600845,586289052,651303851,582103498,714229737,577919231,0,0,0,0,0,0,0,0,0,0,0,0,0,0,0,0,0,0,0
590725106,588332815,586241829,584150844,716283497,579980950,577893048,575801294,573707226,571613157,569519088,567425019,0,0,0,0,0,0,0,0,0,0,0,0,0,0
724667529,588357527,586265254,584172980,582085585,579997166,577243885,0,0,0,0,0,0,0,0,0,0,0,0,0,0,0,0,0,0,0
590444183,588351907,720477103,584167099,582079700,647101165,577242839,575149034,573053683,570958077,0,0,0,0,0,0,0,0,0,0,0,0,0,0,0,0
590406487,588316517,586226547,584137090,582054816,0,0,0,0,0,0,0,0,0,0,0,0,0,0,0,0,0,0,0,0,0
590448117,588356091,786957677,583535746,581442218,579348688,0,0,0,0,0,0,0,0,0,0,0,0,0,0,0,0,0,0,0,0
589838931,587742564,585646196,717767301,581453736,579357900,577261796,575165429,573068541,0,0,0,0,0,0,0,0,0,0,0,0,0,0,0,0,0
589838121,587741504,585645143,583548782,581453212,579357898,577262319,0,0,0,0,0,0,0,0,0,0,0,0,0,0,0,0,0,0,0
589845115,654857098,585651354,583554473,581457865,646470120,0,0,0,0,0,0,0,0,0,0,0,0,0,0,0,0,0,0,0,0
590252143,722371724,586056617,583959495,581466893,0,0,0,0,0,0,0,0,0,0,0,0,0,0,0,0,0,0,0,0,0
589859959,587762055,585664151,583566247,581467335,646477542,577270270,0,0,0,0,0,0,0,0,0,0,0,0,0,0,0,0,0,0,0
589860480,587762831,585664927,583567021,581468362,579369446,711488764,0,0,0,0,0,0,0,0,0,0,0,0,0,0,0,0,0,0,0
589879434,587779991,585680804,583581618,581480397,579379433,577279229,0,0,0,0,0,0,0,0,0,0,0,0,0,0,0,0,0,0,0
590193305,588101307,653118173,583606789,581500234,579393166,577288641,575186658,573086963,0,0,0,0,0,0,0,0,0,0,0,0,0,0,0,0,0
589881727,587782288,585682593,583582898,581480659,579378421,0,0,0,0,0,0,0,0,0,0,0,0,0,0,0,0,0,0,0,0
724391636,588082669,585726987,717841701,581515608,579407241,577302446,575199686,573099987,571000287,568900587,566800887,0,0,0,0,0,0,0,0,0,0,0,0,0,0
589891756,587792311,585692355,583592399,581489382,579386364,0,0,0,0,0,0,0,0,0,0,0,0,0,0,0,0,0,0,0,0
591017769,723130429,586808657,582591115,580478386,578369743,576264930,574163948,572063734,569962751,567472091,565372650,563272953,0,0,0,0,0,0,0,0,0,0,0,0,0
587528474,585428289,583328361,581225143,713175821,711083336,708989296,572676228,570580632,568485035,566389439,631402706,696415974,560102906,0,0,0,0,0,0,0,0,0,0,0,0
589218308,587120430,585022552,650033070,580406795,578310733,576214136,574117262,572020644,569923770,567826896,565730022,563633149,0,0,0,0,0,0,0,0,0,0,0,0,0
589201180,587104578,652116840,650020788,580416518,578318656,576221031,574123642,639135117,569928865,567831476,632842695,563636443,628647918,0,0,0,0,0,0,0,0,0,0,0,0
588841973,586349763,584250320,582148844,0,0,0,0,0,0,0,0,0,0,0,0,0,0,0,0,0,0,0,0,0,0
588841973,586742269,584250320,582148844,0,0,0,0,0,0,0,0,0,0,0,0,0,0,0,0,0,0,0,0,0,0
588109258,586015718,583601927,581498433,646503295,577292204,575191495,573092565,570993634,568894959,566796028,0,0,0,0,0,0,0,0,0,0,0,0,0,0,0
585385745,583288389,581191085,578986013,576888683,574791326,0,0,0,0,0,0,0,0,0,0,0,0,0,0,0,0,0,0,0,0
585438748,583338053,581234329,579129836,576858930,574765660,639779185,570575238,568479899,566384816,564289733,562194650,560099824,0,0,0,0,0,0,0,0,0,0,0,0,0
587022609,719149627,582848144,580764132,578361384,576258130,574157927,706275196,569957265,634965670,565756348,563655889,561555430,559455227,0,0,0,0,0,0,0,0,0,0,0,0
653122845,583921489,581832888,713608227,644395631,575185059,573085628,570986198,568886767,0,0,0,0,0,0,0,0,0,0,0,0,0,0,0,0,0
585936640,583849261,581770887,579693281,577330474,575223639,573121645,571019652,636027034,566816433,631823303,562612446,694728181,0,0,0,0,0,0,0,0,0,0,0,0,0
583797551,581728394,713876707,711576874,575248470,573144173,571040131,703153561,701049519,564727749,562624476,627629042,558034940,0,0,0,0,0,0,0,0,0,0,0,0,0
583806202,581591868,579466874,577348265,575236808,573132503,705245927,568924150,566424510,564323546,696440054,0,0,0,0,0,0,0,0,0,0,0,0,0,0,0
717684157,580941333,578879590,711026339,574729420,572640992,570552820,569901244,567809246,0,0,0,0,0,0,0,0,0,0,0,0,0,0,0,0,0
719189777,582881390,580791242,645447700,576238147,574139226,706258033,569941640,634951583,565743799,563644878,561546213,559447292,0,0,0,0,0,0,0,0,0,0,0,0,0
719104521,582810213,714950337,578387467,576280121,574177872,572075623,569973374,634979989,632878508,697885124,561565403,559463154,0,0,0,0,0,0,0,0,0,0,0,0,0
584857667,649900712,580507667,578387551,576275090,708388012,572065734,569961696,634965754,0,0,0,0,0,0,0,0,0,0,0,0,0,0,0,0,0
584852057,582780840,580709624,712624952,576297312,641302643,572089991,569986459,567882927,565779395,563675607,561572843,559469311,0,0,0,0,0,0,0,0,0,0,0,0,0
584407831,582299504,714409161,577896467,642913599,573710422,638724972,569521795,634536345,699550640,563238599,628253149,559049972,0,0,0,0,0,0,0,0,0,0,0,0,0
648823278,579487801,577368686,575256209,573151394,571046580,568941765,701054679,698949864,562627578,560131541,558029811,0,0,0,0,0,0,0,0,0,0,0,0,0,0
649932063,580749224,578369042,576260438,574158456,572055450,569952700,567849694,0,0,0,0,0,0,0,0,0,0,0,0,0,0,0,0,0,0
582667705,580540886,578421740,576310523,573765130,571665959,703784516,567467873,565368702,563269787,561170617,559071446,556972531,0,0,0,0,0,0,0,0,0,0,0,0,0
581977866,579913040,577839236,575758247,640777912,571580106,703708635,567402220,564660426,629676776,0,0,0,0,0,0,0,0,0,0,0,0,0,0,0,0
648940146,579743722,577287240,642294403,774412449,570986431,568887005,768113913,0,0,0,0,0,0,0,0,0,0,0,0,0,0,0,0,0,0
581734186,579663767,577585896,642353698,640249917,638146136,568933492,566829711,564725930,562622917,560519136,692632827,0,0,0,0,0,0,0,0,0,0,0,0,0,0
580912282,713074887,576792042,574097991,572003695,569909654,567815614,565721831,0,0,0,0,0,0,0,0,0,0,0,0,0,0,0,0,0,0
579169096,577057202,574741760,639758627,570556999,568465002,566373006,564281011,562189015,560097019,0,0,0,0,0,0,0,0,0,0,0,0,0,0,0,0
647893285,578693509,643709380,641614308,572044809,569945641,567846473,699964777,630756744,628657576,626558408,624459240,0,0,0,0,0,0,0,0,0,0,0,0,0,0
580783486,578694365,576241696,775468351,572042079,569942654,567843228,565743803,563644377,561544695,0,0,0,0,0,0,0,0,0,0,0,0,0,0,0,0
580729901,578654640,576272139,574167863,639172706,569959822,567855546,565751013,0,0,0,0,0,0,0,0,0,0,0,0,0,0,0,0,0,0
580721250,779974360,576277547,574172498,572067449,569963169,567858120,565753072,0,0,0,0,0,0,0,0,0,0,0,0,0,0,0,0,0,0
714721140,578391454,710501562,641290440,572079064,569976294,567874037,565376956,764603345,762503144,0,0,0,0,0,0,0,0,0,0,0,0,0,0,0,0
580570668,578435700,576314019,708421819,572094419,569984747,567473574,565370328,0,0,0,0,0,0,0,0,0,0,0,0,0,0,0,0,0,0
714789182,578444913,576328083,775548323,572114868,570008003,567901394,565794530,697905138,0,0,0,0,0,0,0,0,0,0,0,0,0,0,0,0,0
580580237,578442686,710536926,641317614,572098303,636676456,567466141,565364945,0,0,0,0,0,0,0,0,0,0,0,0,0,0,0,0,0,0
580195690,578089663,643095031,573708828,571615032,569520981,567426929,632441742,630347691,628253384,559050469,0,0,0,0,0,0,0,0,0,0,0,0,0,0,0
580259411,578143402,576032996,573665801,571575335,569484868,567394402,565303935,563213468,695339961,559032023,556941556,0,0,0,0,0,0,0,0,0,0,0,0,0,0
714505496,645266079,575752194,774992943,638689628,569495178,567409591,699540708,0,0,0,0,0,0,0,0,0,0,0,0,0,0,0,0,0,0
579873261,577804799,575597993,640608206,571400436,566766402,564671079,629684364,627589041,558384854,556289531,0,0,0,0,0,0,0,0,0,0,0,0,0,0,0
579873261,644807006,575597993,640608206,571400436,566766402,564671079,629684364,627589041,558384854,556289531,0,0,0,0,0,0,0,0,0,0,0,0,0,0,0
579368520,577270902,575173014,573075110,570977463,568879817,633890777,564684266,629695482,0,0,0,0,0,0,0,0,0,0,0,0,0,0,0,0,0
579658006,577588643,575236613,774456372,571023204,568917395,633919682,698921714,0,0,0,0,0,0,0,0,0,0,0,0,0,0,0,0,0,0
713869842,577584290,575239940,573132851,571025762,636027536,566812096,564705008,0,0,0,0,0,0,0,0,0,0,0,0,0,0,0,0,0,0
647006694,577827838,575597310,570958921,568863852,566768527,564673459,562578134,627591929,0,0,0,0,0,0,0,0,0,0,0,0,0,0,0,0,0
647006694,644807351,575597310,570958921,568863852,566768527,564673459,562578134,627591929,0,0,0,0,0,0,0,0,0,0,0,0,0,0,0,0,0
577540751,642576090,640280580,571062826,568953935,566845044,564736412,696845509,560520173,0,0,0,0,0,0,0,0,0,0,0,0,0,0,0,0,0
711356252,776347812,640023752,637916652,568408857,566321725,631343712,562147716,560060840,557973452,555886064,555222005,0,0,0,0,0,0,0,0,0,0,0,0,0,0
576748951,574675897,572590026,570504923,568419820,700552445,565708646,563615893,628632003,559430386,0,0,0,0,0,0,0,0,0,0,0,0,0,0,0,0
645842789,643744182,574537439,572015628,569919029,567822686,565726599,563630255,561533912,0,0,0,0,0,0,0,0,0,0,0,0,0,0,0,0,0
578693212,643711434,574141188,572041019,569940592,634949283,632849110,0,0,0,0,0,0,0,0,0,0,0,0,0,0,0,0,0,0,0
712910434,576602057,574141440,572041012,569940840,567840412,565739984,0,0,0,0,0,0,0,0,0,0,0,0,0,0,0,0,0,0,0
578568993,710721942,641531856,572114190,637109832,567887747,565774525,630770935,0,0,0,0,0,0,0,0,0,0,0,0,0,0,0,0,0,0
578463099,576335017,708440768,639219415,704215535,567472766,632478650,697484279,0,0,0,0,0,0,0,0,0,0,0,0,0,0,0,0,0,0
578028932,575935204,640863260,638764364,636665468,567457708,565358812,0,0,0,0,0,0,0,0,0,0,0,0,0,0,0,0,0,0,0
645246332,576021726,707897367,571592008,569504376,567415977,565328346,0,0,0,0,0,0,0,0,0,0,0,0,0,0,0,0,0,0,0
644733210,709755237,573446026,571354288,569262550,634279674,564696356,562593866,560491376,558389142,556286396,0,0,0,0,0,0,0,0,0,0,0,0,0,0,0
644701961,642617180,640526214,571326128,569234906,701043719,564723505,763947355,560517765,558414767,556312025,0,0,0,0,0,0,0,0,0,0,0,0,0,0,0
642426145,573199437,705299064,568964516,701064143,564728570,629330427,0,0,0,0,0,0,0,0,0,0,0,0,0,0,0,0,0,0,0
574912633,572814012,570715135,568492619,633505932,564301774,0,0,0,0,0,0,0,0,0,0,0,0,0,0,0,0,0,0,0,0
575039326,640036753,570817221,702923513,700538421,564237929,763481756,761398223,0,0,0,0,0,0,0,0,0,0,0,0,0,0,0,0,0,0
574643476,572561718,771806551,568397433,566315675,564233917,562152159,626529236,0,0,0,0,0,0,0,0,0,0,0,0,0,0,0,0,0,0
576545347,574454893,572364183,570273474,635291884,565780251,697894213,628682607,559469978,557366468,555262702,0,0,0,0,0,0,0,0,0,0,0,0,0,0,0
710602167,574265549,572146658,704246007,634579745,632477303,563265741,0,0,0,0,0,0,0,0,0,0,0,0,0,0,0,0,0,0,0
575932076,573836238,638849263,569561113,567462715,565364060,563265662,561167264,559068610,624079075,0,0,0,0,0,0,0,0,0,0,0,0,0,0,0,0
710213709,573895040,638902195,569691623,634530850,565329494,563237257,561144763,559052269,0,0,0,0,0,0,0,0,0,0,0,0,0,0,0,0,0
710256200,573929868,706038736,703711774,567408738,699540134,563237098,0,0,0,0,0,0,0,0,0,0,0,0,0,0,0,0,0,0,0
709762086,640559711,571357337,569263827,566799376,631807817,562598275,694715325,558397175,0,0,0,0,0,0,0,0,0,0,0,0,0,0,0,0,0
642623099,774752445,571020546,636023876,633917830,631811784,0,0,0,0,0,0,0,0,0,0,0,0,0,0,0,0,0,0,0,0
572839433,570739265,568638840,633647022,564437478,562189094,627204189,692219285,0,0,0,0,0,0,0,0,0,0,0,0,0,0,0,0,0,0
572837447,637843867,635741424,633493839,564293540,562201848,0,0,0,0,0,0,0,0,0,0,0,0,0,0,0,0,0,0,0,0
639977760,637872992,702877089,700773089,631378730,629289066,560090795,558001132,0,0,0,0,0,0,0,0,0,0,0,0,0,0,0,0,0,0
706753215,570452942,769696732,566287595,698421753,564067300,559423320,557329808,622345160,0,0,0,0,0,0,0,0,0,0,0,0,0,0,0,0,0
574477860,572383839,637398682,635304661,632880147,630779982,561570953,559470788,557370623,554876411,0,0,0,0,0,0,0,0,0,0,0,0,0,0,0,0
708674600,639474776,637384073,568184506,633202666,563675166,561572430,626577790,557365423,555262175,0,0,0,0,0,0,0,0,0,0,0,0,0,0,0,0
641515549,572320601,570233749,635256528,565811215,630811978,561595014,559486914,691206350,621985272,0,0,0,0,0,0,0,0,0,0,0,0,0,0,0,0
574366378,706502358,570059015,635055155,632943199,630830731,0,0,0,0,0,0,0,0,0,0,0,0,0,0,0,0,0,0,0,0
574365098,639392726,570059015,635055155,632943199,630830731,0,0,0,0,0,0,0,0,0,0,0,0,0,0,0,0,0,0,0,0
641292999,639189973,569978339,567875313,565772543,764603345,762503144,0,0,0,0,0,0,0,0,0,0,0,0,0,0,0,0,0,0,0
571217112,569022988,566904126,631894895,696884641,761874642,692253385,0,0,0,0,0,0,0,0,0,0,0,0,0,0,0,0,0,0,0
571141750,569027725,566913956,766126522,562686929,694790632,558459135,757260948,553831638,0,0,0,0,0,0,0,0,0,0,0,0,0,0,0,0,0
637711896,568504663,566406549,631417043,0,0,0,0,0,0,0,0,0,0,0,0,0,0,0,0,0,0,0,0,0,0
571928363,569814880,567701397,632696777,563149574,695285818,760314222,624016034,756153046,0,0,0,0,0,0,0,0,0,0,0,0,0,0,0,0,0
571923949,703614231,634424889,766561628,563153536,628181667,760318149,691128039,554179035,0,0,0,0,0,0,0,0,0,0,0,0,0,0,0,0,0
571269120,569182779,634206070,699229362,630035181,694764076,625546599,556329891,621330142,0,0,0,0,0,0,0,0,0,0,0,0,0,0,0,0,0
569127458,567054454,564981450,629783583,761880179,759759303,0,0,0,0,0,0,0,0,0,0,0,0,0,0,0,0,0,0,0,0
568611355,633622689,631412789,629316540,0,0,0,0,0,0,0,0,0,0,0,0,0,0,0,0,0,0,0,0,0,0
568661781,566558803,631564944,562353359,560081431,557990486,555899286,620916694,0,0,0,0,0,0,0,0,0,0,0,0,0,0,0,0,0,0
635819320,633698232,765579845,763506117,0,0,0,0,0,0,0,0,0,0,0,0,0,0,0,0,0,0,0,0,0,0
568775462,633768803,564544417,696647134,560018469,557939811,622970016,553781726,620232936,0,0,0,0,0,0,0,0,0,0,0,0,0,0,0,0,0
702992692,700877423,564544172,562429417,560018478,625048682,555861159,620890594,620232936,0,0,0,0,0,0,0,0,0,0,0,0,0,0,0,0,0
702991310,566658551,564178218,562099285,560019840,557940908,757188310,620239081,0,0,0,0,0,0,0,0,0,0,0,0,0,0,0,0,0,0
637422959,635331042,565742422,764966857,0,0,0,0,0,0,0,0,0,0,0,0,0,0,0,0,0,0,0,0,0,0
570215944,568131657,566047626,631072715,695821839,693711440,557383825,756600274,0,0,0,0,0,0,0,0,0,0,0,0,0,0,0,0,0,0
637427349,635320062,565767526,561168514,0,0,0,0,0,0,0,0,0,0,0,0,0,0,0,0,0,0,0,0,0,0
635296069,767430101,630766947,561547251,0,0,0,0,0,0,0,0,0,0,0,0,0,0,0,0,0,0,0,0,0,0
635296611,566103787,630766961,628656121,0,0,0,0,0,0,0,0,0,0,0,0,0,0,0,0,0,0,0,0,0,0
568166192,566077552,698206640,763226864,626587699,557373300,622376628,553162229,0,0,0,0,0,0,0,0,0,0,0,0,0,0,0,0,0,0
568159513,566071644,563983775,696113891,626590248,758702443,555269550,553163249,0,0,0,0,0,0,0,0,0,0,0,0,0,0,0,0,0,0
634700600,632595145,630351464,628262905,0,0,0,0,0,0,0,0,0,0,0,0,0,0,0,0,0,0,0,0,0,0
701839634,632626517,563413401,628418780,760355625,691156845,554849456,619868659,0,0,0,0,0,0,0,0,0,0,0,0,0,0,0,0,0,0
567653924,565540208,563426748,561116178,760361053,758280361,689090805,0,0,0,0,0,0,0,0,0,0,0,0,0,0,0,0,0,0,0
632748148,563518900,628507379,558956860,556883067,756135866,754061305,0,0,0,0,0,0,0,0,0,0,0,0,0,0,0,0,0,0,0
766509701,563119279,561054423,692590200,623395063,0,0,0,0,0,0,0,0,0,0,0,0,0,0,0,0,0,0,0,0,0
697085566,762131453,759777916,757266172,0,0,0,0,0,0,0,0,0,0,0,0,0,0,0,0,0,0,0,0,0,0
562303380,627317469,759350065,623032955,688042181,0,0,0,0,0,0,0,0,0,0,0,0,0,0,0,0,0,0,0,0,0
629457671,694464104,625253064,555901236,553809045,551717110,0,0,0,0,0,0,0,0,0,0,0,0,0,0,0,0,0,0,0,0
563370831,561272777,559060047,624072904,0,0,0,0,0,0,0,0,0,0,0,0,0,0,0,0,0,0,0,0,0,0
764424427,561025276,625928146,556280115,621296274,552094706,0,0,0,0,0,0,0,0,0,0,0,0,0,0,0,0,0,0,0,0
764424427,560920435,625928146,556280115,621296274,552094706,0,0,0,0,0,0,0,0,0,0,0,0,0,0,0,0,0,0,0,0
563001884,628017254,625923760,556721404,554176329,0,0,0,0,0,0,0,0,0,0,0,0,0,0,0,0,0,0,0,0,0
561917255,559825828,557361154,622367585,620265408,0,0,0,0,0,0,0,0,0,0,0,0,0,0,0,0,0,0,0,0,0
763022775,693787861,691662578,554887487,619891886,0,0,0,0,0,0,0,0,0,0,0,0,0,0,0,0,0,0,0,0,0
628542608,559306975,623969594,689011084,686943453,0,0,0,0,0,0,0,0,0,0,0,0,0,0,0,0,0,0,0,0,0
558639952,757909454,755606861,753469645,0,0,0,0,0,0,0,0,0,0,0,0,0,0,0,0,0,0,0,0,0,0
759860163,690618856,620947778,618841292,0,0,0,0,0,0,0,0,0,0,0,0,0,0,0,0,0,0,0,0,0,0
558706500,623741894,621354312,619234507,0,0,0,0,0,0,0,0,0,0,0,0,0,0,0,0,0,0,0,0,0,0
558674748,623717568,621370948,686352073,0,0,0,0,0,0,0,0,0,0,0,0,0,0,0,0,0,0,0,0,0,0
624433383,687971007,685849733,683728715,681606929,0,0,0,0,0,0,0,0,0,0,0,0,0,0,0,0,0,0,0,0,0
758669270,555245677,553148419,618569613,616472355,0,0,0,0,0,0,0,0,0,0,0,0,0,0,0,0,0,0,0,0,0
624463812,622376268,620634569,618527825,0,0,0,0,0,0,0,0,0,0,0,0,0,0,0,0,0,0,0,0,0,0
624462568,555265165,687394097,551423690,616427117,0,0,0,0,0,0,0,0,0,0,0,0,0,0,0,0,0,0,0,0,0
624088743,756650745,553261518,551199394,0,0,0,0,0,0,0,0,0,0,0,0,0,0,0,0,0,0,0,0,0,0
624087977,689540862,553259989,685415083,0,0,0,0,0,0,0,0,0,0,0,0,0,0,0,0,0,0,0,0,0,0
624087977,622001442,553259989,685415083,0,0,0,0,0,0,0,0,0,0,0,0,0,0,0,0,0,0,0,0,0,0
624086689,621999124,620373985,685421756,0,0,0,0,0,0,0,0,0,0,0,0,0,0,0,0,0,0,0,0,0,0
624083870,621993998,687484925,685424352,0,0,0,0,0,0,0,0,0,0,0,0,0,0,0,0,0,0,0,0,0,0
624065500,621961594,619857689,752138166,615829845,0,0,0,0,0,0,0,0,0,0,0,0,0,0,0,0,0,0,0,0,0
556307703,554218174,552128645,550039116,749275411,546151008,0,0,0,0,0,0,0,0,0,0,0,0,0,0,0,0,0,0,0,0
553837565,552132350,617152485,547954637,545883267,610920760,675940128,539633927,671920871,0,0,0,0,0,0,0,0,0,0,0,0,0,0,0,0,0
553837565,551746779,617152485,547954637,545883267,610920760,675940128,539633927,671920871,0,0,0,0,0,0,0,0,0,0,0,0,0,0,0,0,0
553822460,618835161,549629879,547533717,545439279,677649861,541334179,539235969,537138015,0,0,0,0,0,0,0,0,0,0,0,0,0,0,0,0,0
688031991,551715283,616725167,547517068,612523040,543465649,541370509,606383977,671397446,0,0,0,0,0,0,0,0,0,0,0,0,0,0,0,0,0
553792474,551685548,549579135,614580817,545626565,543558717,608580112,0,0,0,0,0,0,0,0,0,0,0,0,0,0,0,0,0,0,0
620883404,551660953,549547365,748760369,545681043,0,0,0,0,0,0,0,0,0,0,0,0,0,0,0,0,0,0,0,0,0
555277792,687411624,752437103,616136246,614260867,0,0,0,0,0,0,0,0,0,0,0,0,0,0,0,0,0,0,0,0,0
554884333,552794045,551102696,549017804,546957177,544895782,542810890,540814055,0,0,0,0,0,0,0,0,0,0,0,0,0,0,0,0,0,0
689103069,552795814,618219231,549027266,546971242,544915984,542901482,0,0,0,0,0,0,0,0,0,0,0,0,0,0,0,0,0,0,0
689103069,687411197,618219231,549027266,546971242,544915984,542901482,0,0,0,0,0,0,0,0,0,0,0,0,0,0,0,0,0,0,0
554198259,552101325,550004903,547908225,545812495,544114837,542017391,539919689,604930850,0,0,0,0,0,0,0,0,0,0,0,0,0,0,0,0,0
551723771,549626849,547529928,679651196,543337264,541240342,539245048,537147615,0,0,0,0,0,0,0,0,0,0,0,0,0,0,0,0,0,0
551689458,549605543,614630492,680145372,0,0,0,0,0,0,0,0,0,0,0,0,0,0,0,0,0,0,0,0,0,0
620269040,618175439,548972974,546886219,612238559,610138558,540928926,538827901,0,0,0,0,0,0,0,0,0,0,0,0,0,0,0,0,0,0
552780779,550686664,548592294,546928638,544858076,542769361,607789510,538592190,0,0,0,0,0,0,0,0,0,0,0,0,0,0,0,0,0,0
619197947,549982892,548521211,546363279,0,0,0,0,0,0,0,0,0,0,0,0,0,0,0,0,0,0,0,0,0,0
552128746,550038989,547948973,545875025,544030702,541925839,539821997,0,0,0,0,0,0,0,0,0,0,0,0,0,0,0,0,0,0,0
549643235,547948280,680108186,610940986,541748506,673995506,671884753,0,0,0,0,0,0,0,0,0,0,0,0,0,0,0,0,0,0,0
683852517,614650800,545891062,543833284,541749428,673883299,537581971,0,0,0,0,0,0,0,0,0,0,0,0,0,0,0,0,0,0,0
549628415,547532503,545439070,610540258,541332923,539234451,537135979,0,0,0,0,0,0,0,0,0,0,0,0,0,0,0,0,0,0,0
549621496,547523555,545424036,543324262,541226321,539128380,604139303,0,0,0,0,0,0,0,0,0,0,0,0,0,0,0,0,0,0,0
551044349,616051911,679562232,543206860,541095358,538983855,536872609,0,0,0,0,0,0,0,0,0,0,0,0,0,0,0,0,0,0,0
617768432,548554164,546635259,611670340,542472456,0,0,0,0,0,0,0,0,0,0,0,0,0,0,0,0,0,0,0,0,0
550002172,547905000,545807275,543709806,541612634,539515206,537418034,0,0,0,0,0,0,0,0,0,0,0,0,0,0,0,0,0,0,0
550018030,547923927,747163538,543749967,608764216,539561506,537467660,0,0,0,0,0,0,0,0,0,0,0,0,0,0,0,0,0,0,0
550025714,615047618,545871925,611134367,609026672,539810881,537703187,0,0,0,0,0,0,0,0,0,0,0,0,0,0,0,0,0,0,0
547934911,545857974,543781036,541690792,539600293,537509793,0,0,0,0,0,0,0,0,0,0,0,0,0,0,0,0,0,0,0,0
547536120,545443013,543349650,608362881,539158129,537062240,0,0,0,0,0,0,0,0,0,0,0,0,0,0,0,0,0,0,0,0
547526631,545427838,543329300,541351148,539254217,604266405,0,0,0,0,0,0,0,0,0,0,0,0,0,0,0,0,0,0,0,0
547509956,545394234,677715630,541406851,539315799,537224232,0,0,0,0,0,0,0,0,0,0,0,0,0,0,0,0,0,0,0,0
548953069,546855026,612281071,543075527,540978591,605990518,0,0,0,0,0,0,0,0,0,0,0,0,0,0,0,0,0,0,0,0
548962809,546870464,544778375,542682740,607696224,538491725,0,0,0,0,0,0,0,0,0,0,0,0,0,0,0,0,0,0,0,0
547925986,545847410,544063740,609069527,674075315,537754509,0,0,0,0,0,0,0,0,0,0,0,0,0,0,0,0,0,0,0,0
545836270,543760026,541670013,539580001,671707716,0,0,0,0,0,0,0,0,0,0,0,0,0,0,0,0,0,0,0,0,0
545453807,543751897,541658315,539565502,537472432,0,0,0,0,0,0,0,0,0,0,0,0,0,0,0,0,0,0,0,0,0
545452618,543813848,541727176,606750136,604664232,0,0,0,0,0,0,0,0,0,0,0,0,0,0,0,0,0,0,0,0,0
545444944,543429074,541331625,539234432,537136982,0,0,0,0,0,0,0,0,0,0,0,0,0,0,0,0,0,0,0,0,0
612540650,744661428,541237922,673358480,537043837,0,0,0,0,0,0,0,0,0,0,0,0,0,0,0,0,0,0,0,0,0
612536283,543327353,541229401,539131192,537032983,0,0,0,0,0,0,0,0,0,0,0,0,0,0,0,0,0,0,0,0,0
612523175,543304478,608488428,606395326,537193616,0,0,0,0,0,0,0,0,0,0,0,0,0,0,0,0,0,0,0,0,0
612524028,543305907,541204635,539103362,537002089,0,0,0,0,0,0,0,0,0,0,0,0,0,0,0,0,0,0,0,0,0
546832556,677478849,541156017,539050912,671163280,0,0,0,0,0,0,0,0,0,0,0,0,0,0,0,0,0,0,0,0,0
546841321,677496039,541173719,740395463,536964280,0,0,0,0,0,0,0,0,0,0,0,0,0,0,0,0,0,0,0,0,0
613949889,544735603,541167085,673280739,604068056,0,0,0,0,0,0,0,0,0,0,0,0,0,0,0,0,0,0,0,0,0
613949889,543271160,541167085,673280739,604068056,0,0,0,0,0,0,0,0,0,0,0,0,0,0,0,0,0,0,0,0,0
546849637,545187309,610202311,540999586,536917993,0,0,0,0,0,0,0,0,0,0,0,0,0,0,0,0,0,0,0,0,0
613963698,544755229,543077858,608090543,538886014,0,0,0,0,0,0,0,0,0,0,0,0,0,0,0,0,0,0,0,0,0
613966489,545168357,543070891,540973426,538875961,0,0,0,0,0,0,0,0,0,0,0,0,0,0,0,0,0,0,0,0,0
546863065,611879780,542675518,540580119,538861544,0,0,0,0,0,0,0,0,0,0,0,0,0,0,0,0,0,0,0,0,0
546870759,544778684,609792173,540587679,538492305,0,0,0,0,0,0,0,0,0,0,0,0,0,0,0,0,0,0,0,0,0
546883524,544809022,609828369,608018908,740131503,0,0,0,0,0,0,0,0,0,0,0,0,0,0,0,0,0,0,0,0,0
546886333,544814129,609834498,675120587,538797212,0,0,0,0,0,0,0,0,0,0,0,0,0,0,0,0,0,0,0,0,0
546501570,544818651,542728140,540637886,672765103,0,0,0,0,0,0,0,0,0,0,0,0,0,0,0,0,0,0,0,0,0
680701946,544393650,542298263,540202877,538107491,0,0,0,0,0,0,0,0,0,0,0,0,0,0,0,0,0,0,0,0,0
680701946,544388823,542292171,540195519,605207731,0,0,0,0,0,0,0,0,0,0,0,0,0,0,0,0,0,0,0,0,0
546485429,611501861,542382578,540283842,538185106,0,0,0,0,0,0,0,0,0,0,0,0,0,0,0,0,0,0,0,0,0
546482380,544386690,542290025,540193360,538096696,0,0,0,0,0,0,0,0,0,0,0,0,0,0,0,0,0,0,0,0,0
747770588,544316527,542208843,607210022,538297342,0,0,0,0,0,0,0,0,0,0,0,0,0,0,0,0,0,0,0,0,0
680010235,544342004,542238694,540135128,538031563,0,0,0,0,0,0,0,0,0,0,0,0,0,0,0,0,0,0,0,0,0
680010235,544342007,676456168,540135128,739358151,0,0,0,0,0,0,0,0,0,0,0,0,0,0,0,0,0,0,0,0,0
545804518,543704202,541605996,539508045,537409838,0,0,0,0,0,0,0,0,0,0,0,0,0,0,0,0,0,0,0,0,0
545807055,543709322,541611892,539514461,537417286,0,0,0,0,0,0,0,0,0,0,0,0,0,0,0,0,0,0,0,0,0
545816052,543718853,541622199,539525800,537429146,0,0,0,0,0,0,0,0,0,0,0,0,0,0,0,0,0,0,0,0,0
545816052,543725220,608738952,606643565,537439570,0,0,0,0,0,0,0,0,0,0,0,0,0,0,0,0,0,0,0,0,0
612931569,610845599,541643396,539549801,537456461,0,0,0,0,0,0,0,0,0,0,0,0,0,0,0,0,0,0,0,0,0
545826780,677955998,541644169,606658932,537455712,0,0,0,0,0,0,0,0,0,0,0,0,0,0,0,0,0,0,0,0,0
747170470,543773467,541951716,539845301,604847750,0,0,0,0,0,0,0,0,0,0,0,0,0,0,0,0,0,0,0,0,0
543356157,541641721,539547884,604563167,0,0,0,0,0,0,0,0,0,0,0,0,0,0,0,0,0,0,0,0,0,0
543353582,541258722,740877566,671674614,0,0,0,0,0,0,0,0,0,0,0,0,0,0,0,0,0,0,0,0,0,0
543341779,541245887,539149739,537053848,0,0,0,0,0,0,0,0,0,0,0,0,0,0,0,0,0,0,0,0,0,0
677556982,541243111,539146712,537050313,0,0,0,0,0,0,0,0,0,0,0,0,0,0,0,0,0,0,0,0,0,0
543326956,541228765,539130830,537032639,0,0,0,0,0,0,0,0,0,0,0,0,0,0,0,0,0,0,0,0,0,0
543318938,541219454,673337698,537020742,0,0,0,0,0,0,0,0,0,0,0,0,0,0,0,0,0,0,0,0,0,0
543309032,675426264,539108296,537007801,0,0,0,0,0,0,0,0,0,0,0,0,0,0,0,0,0,0,0,0,0,0
543301590,541199810,539098799,536996763,0,0,0,0,0,0,0,0,0,0,0,0,0,0,0,0,0,0,0,0,0,0
543261839,608263260,606155561,537254387,0,0,0,0,0,0,0,0,0,0,0,0,0,0,0,0,0,0,0,0,0,0
544742381,609751259,540542410,536998897,0,0,0,0,0,0,0,0,0,0,0,0,0,0,0,0,0,0,0,0,0,0
544748533,609758436,540550612,538451909,0,0,0,0,0,0,0,0,0,0,0,0,0,0,0,0,0,0,0,0,0,0
544753644,542655970,540558296,538460366,0,0,0,0,0,0,0,0,0,0,0,0,0,0,0,0,0,0,0,0,0,0
677425651,608205800,538985694,671092182,0,0,0,0,0,0,0,0,0,0,0,0,0,0,0,0,0,0,0,0,0,0
544755694,542658017,741886932,538462920,0,0,0,0,0,0,0,0,0,0,0,0,0,0,0,0,0,0,0,0,0,0
544778983,542683866,540589005,538493887,0,0,0,0,0,0,0,0,0,0,0,0,0,0,0,0,0,0,0,0,0,0
678705880,743721376,540301674,538208563,0,0,0,0,0,0,0,0,0,0,0,0,0,0,0,0,0,0,0,0,0,0
544376762,542278561,540180616,538082671,0,0,0,0,0,0,0,0,0,0,0,0,0,0,0,0,0,0,0,0,0,0
544372729,542274542,540176099,538077912,0,0,0,0,0,0,0,0,0,0,0,0,0,0,0,0,0,0,0,0,0,0
543692517,541592532,673710274,538050040,0,0,0,0,0,0,0,0,0,0,0,0,0,0,0,0,0,0,0,0,0,0
543703289,541605099,539506653,537408462,0,0,0,0,0,0,0,0,0,0,0,0,0,0,0,0,0,0,0,0,0,0
543711032,541614096,539926496,537829304,0,0,0,0,0,0,0,0,0,0,0,0,0,0,0,0,0,0,0,0,0,0
543720690,541625059,539529171,537433540,0,0,0,0,0,0,0,0,0,0,0,0,0,0,0,0,0,0,0,0,0,0
543726305,675848911,539536317,537441451,0,0,0,0,0,0,0,0,0,0,0,0,0,0,0,0,0,0,0,0,0,0
543752820,675880280,673790012,604591136,0,0,0,0,0,0,0,0,0,0,0,0,0,0,0,0,0,0,0,0,0,0
543736562,541642978,539549395,537456067,0,0,0,0,0,0,0,0,0,0,0,0,0,0,0,0,0,0,0,0,0,0
589962010,587857964,719971390,0,0,0,0,0,0,0,0,0,0,0,0,0,0,0,0,0,0,0,0,0,0,0
589467376,587370488,585273599,0,0,0,0,0,0,0,0,0,0,0,0,0,0,0,0,0,0,0,0,0,0,0
792228465,588804483,586707092,0,0,0,0,0,0,0,0,0,0,0,0,0,0,0,0,0,0,0,0,0,0,0
581210647,780435876,711094551,0,0,0,0,0,0,0,0,0,0,0,0,0,0,0,0,0,0,0,0,0,0,0
566924854,699000721,696858092,0,0,0,0,0,0,0,0,0,0,0,0,0,0,0,0,0,0,0,0,0,0,0
633191071,764998977,628661989,0,0,0,0,0,0,0,0,0,0,0,0,0,0,0,0,0,0,0,0,0,0,0
563929814,561628713,559507320,0,0,0,0,0,0,0,0,0,0,0,0,0,0,0,0,0,0,0,0,0,0,0
694875170,558498707,555937710,0,0,0,0,0,0,0,0,0,0,0,0,0,0,0,0,0,0,0,0,0,0,0
694875170,558499219,555937710,0,0,0,0,0,0,0,0,0,0,0,0,0,0,0,0,0,0,0,0,0,0,0
694848441,759809011,757254089,0,0,0,0,0,0,0,0,0,0,0,0,0,0,0,0,0,0,0,0,0,0,0
560211833,625127987,623027935,0,0,0,0,0,0,0,0,0,0,0,0,0,0,0,0,0,0,0,0,0,0,0
561780577,761061883,758734741,0,0,0,0,0,0,0,0,0,0,0,0,0,0,0,0,0,0,0,0,0,0,0
763012997,693761735,624094591,0,0,0,0,0,0,0,0,0,0,0,0,0,0,0,0,0,0,0,0,0,0,0
561283616,626290893,624068745,0,0,0,0,0,0,0,0,0,0,0,0,0,0,0,0,0,0,0,0,0,0,0
762762176,693166663,758228417,0,0,0,0,0,0,0,0,0,0,0,0,0,0,0,0,0,0,0,0,0,0,0
760641808,691347158,622401237,0,0,0,0,0,0,0,0,0,0,0,0,0,0,0,0,0,0,0,0,0,0,0
693155501,691120850,689085945,0,0,0,0,0,0,0,0,0,0,0,0,0,0,0,0,0,0,0,0,0,0,0
625518032,623443740,688759639,0,0,0,0,0,0,0,0,0,0,0,0,0,0,0,0,0,0,0,0,0,0,0
624455300,622757323,553547809,0,0,0,0,0,0,0,0,0,0,0,0,0,0,0,0,0,0,0,0,0,0,0
624811583,555619285,687388522,0,0,0,0,0,0,0,0,0,0,0,0,0,0,0,0,0,0,0,0,0,0,0
758694304,622718717,754818920,0,0,0,0,0,0,0,0,0,0,0,0,0,0,0,0,0,0,0,0,0,0,0
758694304,622398731,754818920,0,0,0,0,0,0,0,0,0,0,0,0,0,0,0,0,0,0,0,0,0,0,0
624490133,756911594,754783564,0,0,0,0,0,0,0,0,0,0,0,0,0,0,0,0,0,0,0,0,0,0,0
622141991,754241789,617770724,0,0,0,0,0,0,0,0,0,0,0,0,0,0,0,0,0,0,0,0,0,0,0
622141991,686954766,617770724,0,0,0,0,0,0,0,0,0,0,0,0,0,0,0,0,0,0,0,0,0,0,0
756455561,754006857,751967737,0,0,0,0,0,0,0,0,0,0,0,0,0,0,0,0,0,0,0,0,0,0,0
618836902,616744218,547623055,0,0,0,0,0,0,0,0,0,0,0,0,0,0,0,0,0,0,0,0,0,0,0
618818493,549602370,614778822,0,0,0,0,0,0,0,0,0,0,0,0,0,0,0,0,0,0,0,0,0,0,0
754491859,618199321,750627918,0,0,0,0,0,0,0,0,0,0,0,0,0,0,0,0,0,0,0,0,0,0,0
619888879,617802854,683267299,0,0,0,0,0,0,0,0,0,0,0,0,0,0,0,0,0,0,0,0,0,0,0
619869947,550651007,749867522,0,0,0,0,0,0,0,0,0,0,0,0,0,0,0,0,0,0,0,0,0,0,0
686971365,617743179,615854772,0,0,0,0,0,0,0,0,0,0,0,0,0,0,0,0,0,0,0,0,0,0,0
619861500,550632578,749838087,0,0,0,0,0,0,0,0,0,0,0,0,0,0,0,0,0,0,0,0,0,0,0
551062713,616080986,614336562,0,0,0,0,0,0,0,0,0,0,0,0,0,0,0,0,0,0,0,0,0,0,0
551063007,548972694,547227570,0,0,0,0,0,0,0,0,0,0,0,0,0,0,0,0,0,0,0,0,0,0,0
551118692,549037611,681351800,0,0,0,0,0,0,0,0,0,0,0,0,0,0,0,0,0,0,0,0,0,0,0
751980220,548545123,546653779,0,0,0,0,0,0,0,0,0,0,0,0,0,0,0,0,0,0,0,0,0,0,0
548582638,546491768,544400642,0,0,0,0,0,0,0,0,0,0,0,0,0,0,0,0,0,0,0,0,0,0,0
546907453,545078871,610077453,0,0,0,0,0,0,0,0,0,0,0,0,0,0,0,0,0,0,0,0,0,0,0
543316895,541216902,539117677,0,0,0,0,0,0,0,0,0,0,0,0,0,0,0,0,0,0,0,0,0,0,0
543302141,541201395,539100647,0,0,0,0,0,0,0,0,0,0,0,0,0,0,0,0,0,0,0,0,0,0,0
543775555,541685795,539846908,0,0,0,0,0,0,0,0,0,0,0,0,0,0,0,0,0,0,0,0,0,0,0
541256182,539161577,537452285,0,0,0,0,0,0,0,0,0,0,0,0,0,0,0,0,0,0,0,0,0,0,0
541344175,539246212,537148761,0,0,0,0,0,0,0,0,0,0,0,0,0,0,0,0,0,0,0,0,0,0,0
541222403,673482205,604277946,0,0,0,0,0,0,0,0,0,0,0,0,0,0,0,0,0,0,0,0,0,0,0
541222403,539264731,604277946,0,0,0,0,0,0,0,0,0,0,0,0,0,0,0,0,0,0,0,0,0,0,0
743982331,674775540,538460140,0,0,0,0,0,0,0,0,0,0,0,0,0,0,0,0,0,0,0,0,0,0,0
676520383,607321263,538515939,0,0,0,0,0,0,0,0,0,0,0,0,0,0,0,0,0,0,0,0,0,0,0
676520383,540608766,538515939,0,0,0,0,0,0,0,0,0,0,0,0,0,0,0,0,0,0,0,0,0,0,0
542277116,540179188,605190380,0,0,0,0,0,0,0,0,0,0,0,0,0,0,0,0,0,0,0,0,0,0,0
542275070,540176625,538078181,0,0,0,0,0,0,0,0,0,0,0,0,0,0,0,0,0,0,0,0,0,0,0
609371840,540163504,538063775,0,0,0,0,0,0,0,0,0,0,0,0,0,0,0,0,0,0,0,0,0,0,0
609371840,540162989,538063001,0,0,0,0,0,0,0,0,0,0,0,0,0,0,0,0,0,0,0,0,0,0,0
542045693,674168532,605096440,0,0,0,0,0,0,0,0,0,0,0,0,0,0,0,0,0,0,0,0,0,0,0
541637620,539543271,537449177,0,0,0,0,0,0,0,0,0,0,0,0,0,0,0,0,0,0,0,0,0,0,0
