0,1,2,3,4,5,6,7,8,9,10,11,12,13,14,15,16,17,18,19,20,21,22,23,24,25
589495523,587396588,585297653,583198718,0,0,0,0,0,0,0,0,0,0,0,0,0,0,0,0,0,0,0,0,0,0
589929610,587826074,585722794,650728377,581510105,579401465,576907498,0,0,0,0,0,0,0,0,0,0,0,0,0,0,0,0,0,0,0
589913526,587811265,585709004,583606999,0,0,0,0,0,0,0,0,0,0,0,0,0,0,0,0,0,0,0,0,0,0
589493446,587394769,585295836,583197159,581096701,0,0,0,0,0,0,0,0,0,0,0,0,0,0,0,0,0,0,0,0,0
589915595,587813071,585710292,583607514,0,0,0,0,0,0,0,0,0,0,0,0,0,0,0,0,0,0,0,0,0,0
589945235,587841951,585738668,583635385,581525970,579416556,577310207,574811587,572712911,570614235,568515303,566416627,564317951,0,0,0,0,0,0,0,0,0,0,0,0,0
589486517,587388098,585289934,583191770,581092338,0,0,0,0,0,0,0,0,0,0,0,0,0,0,0,0,0,0,0,0,0
589482667,587384758,585286849,650297804,581090275,578991865,0,0,0,0,0,0,0,0,0,0,0,0,0,0,0,0,0,0,0,0
589480890,587382982,585285074,583187166,581088503,0,0,0,0,0,0,0,0,0,0,0,0,0,0,0,0,0,0,0,0,0
589479865,587381957,585284304,583186396,581088243,0,0,0,0,0,0,0,0,0,0,0,0,0,0,0,0,0,0,0,0,0
589562985,587467145,585371050,583275210,581094162,646103635,644004740,574797733,572699829,570602182,568504534,566406630,631417846,0,0,0,0,0,0,0,0,0,0,0,0,0
589569013,587384598,585286449,583188556,581089665,578990774,711109853,574794232,0,0,0,0,0,0,0,0,0,0,0,0,0,0,0,0,0,0
589474242,587376844,585279445,583182047,581084659,0,0,0,0,0,0,0,0,0,0,0,0,0,0,0,0,0,0,0,0,0
589476168,587378778,585281387,583183741,581086111,578988226,576890588,574793197,572695798,570598399,0,0,0,0,0,0,0,0,0,0,0,0,0,0,0,0
589464950,587368069,585271188,650283170,581077953,578981600,0,0,0,0,0,0,0,0,0,0,0,0,0,0,0,0,0,0,0,0
589466024,587369139,585272255,583175626,581079009,578982391,0,0,0,0,0,0,0,0,0,0,0,0,0,0,0,0,0,0,0,0
589464960,587367820,585270682,583173799,581077442,578981600,0,0,0,0,0,0,0,0,0,0,0,0,0,0,0,0,0,0,0,0
589595560,654606278,585399013,583168010,581072968,646087045,576882612,574786515,572689634,570593009,0,0,0,0,0,0,0,0,0,0,0,0,0,0,0,0
589602675,587504790,585406905,583308509,0,0,0,0,0,0,0,0,0,0,0,0,0,0,0,0,0,0,0,0,0,0
589606235,587507073,585408167,650418124,581066271,646082156,576879269,709001163,572687326,0,0,0,0,0,0,0,0,0,0,0,0,0,0,0,0,0
589605350,654459912,585255716,717378112,581067127,578973614,576879319,574783987,0,0,0,0,0,0,0,0,0,0,0,0,0,0,0,0,0,0
656564375,587359140,585263025,583166909,581071574,578976495,0,0,0,0,0,0,0,0,0,0,0,0,0,0,0,0,0,0,0,0
589636916,587535454,585433992,583333297,0,0,0,0,0,0,0,0,0,0,0,0,0,0,0,0,0,0,0,0,0,0
589636664,587535456,585433992,583333297,0,0,0,0,0,0,0,0,0,0,0,0,0,0,0,0,0,0,0,0,0,0
723650938,587338890,585244570,583149994,581058250,578966507,0,0,0,0,0,0,0,0,0,0,0,0,0,0,0,0,0,0,0,0
589413649,587320874,585228099,583135324,581045902,578957504,576867045,574774269,0,0,0,0,0,0,0,0,0,0,0,0,0,0,0,0,0,0
589395731,721521449,585211967,583120212,581033856,578946476,576856525,574764259,572669422,570574585,0,0,0,0,0,0,0,0,0,0,0,0,0,0,0,0
723629664,587319919,585227902,583135885,581047725,0,0,0,0,0,0,0,0,0,0,0,0,0,0,0,0,0,0,0,0,0
589428390,587333811,585239488,583145421,581054439,0,0,0,0,0,0,0,0,0,0,0,0,0,0,0,0,0,0,0,0,0
589388314,587296815,585205317,583113818,715245445,578941872,576852176,641869285,572666096,570571771,569902078,0,0,0,0,0,0,0,0,0,0,0,0,0,0,0
589428722,587334138,586679241,651693013,582491118,0,0,0,0,0,0,0,0,0,0,0,0,0,0,0,0,0,0,0,0,0
723614162,587305180,652322534,583122161,649594525,580393929,578300650,0,0,0,0,0,0,0,0,0,0,0,0,0,0,0,0,0,0,0
589367210,587278007,652297412,583099346,581017836,580388496,578296510,576202716,574107371,572011770,0,0,0,0,0,0,0,0,0,0,0,0,0,0,0,0
590875286,588779684,586684083,584588482,582494431,580400636,0,0,0,0,0,0,0,0,0,0,0,0,0,0,0,0,0,0,0,0
725103817,588789715,586693342,584596968,582501372,0,0,0,0,0,0,0,0,0,0,0,0,0,0,0,0,0,0,0,0,0
658011704,588805454,586707811,584610169,582512292,580414158,779642862,0,0,0,0,0,0,0,0,0,0,0,0,0,0,0,0,0,0,0
591279270,589184197,587089124,584627208,582526278,647533955,578325170,576226001,574127840,572029935,569931775,0,0,0,0,0,0,0,0,0,0,0,0,0,0,0
590932395,588832696,653842116,584633553,582531562,0,0,0,0,0,0,0,0,0,0,0,0,0,0,0,0,0,0,0,0,0
658311900,589112819,586792975,584688934,582578260,580467585,578360227,576256954,641265349,706273489,569955805,567855849,565755637,0,0,0,0,0,0,0,0,0,0,0,0,0
590989835,588886816,586784052,651789896,582572402,580463771,578357946,576255951,574155738,572055780,637064686,567476210,565376510,0,0,0,0,0,0,0,0,0,0,0,0,0
590950844,723067336,586748627,584647391,582543094,580054004,0,0,0,0,0,0,0,0,0,0,0,0,0,0,0,0,0,0,0,0
590542783,655552714,586345174,584246241,582145784,0,0,0,0,0,0,0,0,0,0,0,0,0,0,0,0,0,0,0,0,0
590992521,655997592,586784936,584680888,582570199,580459511,645065671,575855844,573756914,0,0,0,0,0,0,0,0,0,0,0,0,0,0,0,0,0
590951141,588850413,653858548,584648956,582151628,580050408,577950461,0,0,0,0,0,0,0,0,0,0,0,0,0,0,0,0,0,0,0
591024212,588917863,653920377,584705932,582590386,580474840,578363893,575861180,573761741,705879775,636671472,0,0,0,0,0,0,0,0,0,0,0,0,0,0,0
792392972,588956966,586847295,584737880,582615944,580494776,578378460,576268788,573765801,571665601,569565401,634573809,0,0,0,0,0,0,0,0,0,0,0,0,0,0
591008129,588904336,586800030,584695468,582583753,580472037,578363899,575860916,573761986,571663057,569564127,634574061,565366268,0,0,0,0,0,0,0,0,0,0,0,0,0
590528604,588430701,586333055,584235408,783463605,580038621,577940731,0,0,0,0,0,0,0,0,0,0,0,0,0,0,0,0,0,0,0
724837355,588431373,586333481,584235588,582136954,580038575,645049303,575842546,573745151,0,0,0,0,0,0,0,0,0,0,0,0,0,0,0,0,0
590630704,588533588,720653944,584339099,582241763,580033073,779262566,575839114,573741980,571645102,569547968,567450834,565353700,630365430,0,0,0,0,0,0,0,0,0,0,0,0
590517138,588420256,720540846,651335100,582129625,714250485,0,0,0,0,0,0,0,0,0,0,0,0,0,0,0,0,0,0,0,0
590507669,722629028,586315186,584219073,582123743,580028412,0,0,0,0,0,0,0,0,0,0,0,0,0,0,0,0,0,0,0,0
590790943,588682056,586573425,584464793,716562922,579952706,577873022,575787430,573696186,772931278,636621538,634530294,0,0,0,0,0,0,0,0,0,0,0,0,0,0
590444644,588352886,586261384,584169882,582084031,647106275,577242867,0,0,0,0,0,0,0,0,0,0,0,0,0,0,0,0,0,0,0
590784447,588676059,586567671,584106777,582030929,647064969,577875637,710007507,573698530,571606257,569514751,700979448,0,0,0,0,0,0,0,0,0,0,0,0,0,0
590478323,588383481,585630929,583535324,715659764,0,0,0,0,0,0,0,0,0,0,0,0,0,0,0,0,0,0,0,0,0
590461128,588368082,586275037,584181991,581435848,579344105,0,0,0,0,0,0,0,0,0,0,0,0,0,0,0,0,0,0,0,0
657521047,588320676,653338802,584139201,582055390,714188792,577245075,575151279,573055933,570960075,568864473,566768615,564672757,0,0,0,0,0,0,0,0,0,0,0,0,0
589834973,587738855,585642736,583546618,0,0,0,0,0,0,0,0,0,0,0,0,0,0,0,0,0,0,0,0,0,0
589840864,587744233,585647602,583550971,0,0,0,0,0,0,0,0,0,0,0,0,0,0,0,0,0,0,0,0,0,0
590278265,588179864,586081464,583982806,581446682,646461528,577257609,709379497,570969032,568872408,700993512,564679416,0,0,0,0,0,0,0,0,0,0,0,0,0,0
589844288,587747926,719868779,583554432,648566698,579361237,577264373,0,0,0,0,0,0,0,0,0,0,0,0,0,0,0,0,0,0,0
589855387,587757738,652768952,583562439,581464292,0,0,0,0,0,0,0,0,0,0,0,0,0,0,0,0,0,0,0,0,0
589877035,587777857,652787542,583579500,581478295,579377091,577276900,575177722,0,0,0,0,0,0,0,0,0,0,0,0,0,0,0,0,0,0
589884086,587784386,585684431,583584731,715699700,0,0,0,0,0,0,0,0,0,0,0,0,0,0,0,0,0,0,0,0,0
589878740,587779550,719897832,583580914,0,0,0,0,0,0,0,0,0,0,0,0,0,0,0,0,0,0,0,0,0,0
589910107,587808621,585707392,650714769,581500853,579395798,577292526,575191295,0,0,0,0,0,0,0,0,0,0,0,0,0,0,0,0,0,0
589401901,587309891,652326745,715256988,578951882,576862701,0,0,0,0,0,0,0,0,0,0,0,0,0,0,0,0,0,0,0,0
590471578,588378024,653393334,582099939,714227455,0,0,0,0,0,0,0,0,0,0,0,0,0,0,0,0,0,0,0,0,0
590414054,588324593,653344250,581441885,579349147,577255114,575160297,573064184,0,0,0,0,0,0,0,0,0,0,0,0,0,0,0,0,0,0
587477542,585380684,717501553,581187772,0,0,0,0,0,0,0,0,0,0,0,0,0,0,0,0,0,0,0,0,0,0
587204150,585164365,583123555,581511811,0,0,0,0,0,0,0,0,0,0,0,0,0,0,0,0,0,0,0,0,0,0
589187494,587092168,584996586,582524468,580424313,578325163,643335114,574128346,572030185,569932025,0,0,0,0,0,0,0,0,0,0,0,0,0,0,0,0
588960328,586850909,584741745,582620315,580499397,578383845,643383290,573764498,571664810,569564866,567465178,565365490,0,0,0,0,0,0,0,0,0,0,0,0,0,0
585901670,583818897,581750761,713671493,577335175,575223475,573119177,571015135,568911093,633531892,0,0,0,0,0,0,0,0,0,0,0,0,0,0,0,0
585367940,784599212,648287997,646103894,709014206,639807698,704818407,568503036,0,0,0,0,0,0,0,0,0,0,0,0,0,0,0,0,0,0
585107416,583024867,715174394,580841416,576203866,574108278,639121298,569916847,567821259,632834279,0,0,0,0,0,0,0,0,0,0,0,0,0,0,0,0
587103778,585007183,582910889,580416779,578318672,576220798,574123413,572025772,569928388,567830747,565733106,0,0,0,0,0,0,0,0,0,0,0,0,0,0,0
586539776,584433714,582318489,579974408,577891158,575802250,573709732,638726077,703742167,567431921,0,0,0,0,0,0,0,0,0,0,0,0,0,0,0,0
586067492,583970133,581872313,579360801,577263980,642276253,640179126,570973391,568876264,0,0,0,0,0,0,0,0,0,0,0,0,0,0,0,0,0
583725157,581596819,713686720,577348834,575236345,572716144,570615950,635624875,566416073,564316135,0,0,0,0,0,0,0,0,0,0,0,0,0,0,0,0
583452460,581323926,578884615,576811094,708947339,572640421,570551232,568461274,700589557,565708018,0,0,0,0,0,0,0,0,0,0,0,0,0,0,0,0
584776116,582650831,580526058,712626430,575859999,573761082,571662165,569563504,567464587,565365670,563266753,561167836,559069175,0,0,0,0,0,0,0,0,0,0,0,0,0
583540015,581444459,579349159,577254611,575159534,573063676,0,0,0,0,0,0,0,0,0,0,0,0,0,0,0,0,0,0,0,0
581224258,579119551,711087140,574776419,572681090,570586018,568490689,566395617,0,0,0,0,0,0,0,0,0,0,0,0,0,0,0,0,0,0
581237512,579129491,576861699,574769992,572675435,570581134,568486577,633501139,631406582,0,0,0,0,0,0,0,0,0,0,0,0,0,0,0,0,0
581237294,579129520,643970585,641878874,572675707,704798876,568486844,566392285,631406845,0,0,0,0,0,0,0,0,0,0,0,0,0,0,0,0,0
580941038,580844180,645851377,576201524,574105939,572010354,569915025,567819440,565723855,563628526,0,0,0,0,0,0,0,0,0,0,0,0,0,0,0,0
582836997,580755132,578368841,643373220,574163410,705885887,770885837,701668317,0,0,0,0,0,0,0,0,0,0,0,0,0,0,0,0,0,0
582827860,580751562,779694887,576260963,574159233,706274462,569954492,567851994,699967223,0,0,0,0,0,0,0,0,0,0,0,0,0,0,0,0,0
716896456,714762216,578420479,710076677,573760041,571660877,636670577,567462550,565363386,764590558,0,0,0,0,0,0,0,0,0,0,0,0,0,0,0,0
582262602,580161446,578061291,575826720,640839479,571634255,569538150,567441789,699563413,563249837,561153733,559057629,556961525,0,0,0,0,0,0,0,0,0,0,0,0,0
582400875,580267226,577840438,575761774,573673866,571585958,569498050,634519006,565321467,0,0,0,0,0,0,0,0,0,0,0,0,0,0,0,0,0
581963599,714120842,577833142,575754451,573666530,705796081,568854919,633870506,564668110,562574577,0,0,0,0,0,0,0,0,0,0,0,0,0,0,0,0
581884462,579784601,779011819,776486182,573063233,638075741,0,0,0,0,0,0,0,0,0,0,0,0,0,0,0,0,0,0,0,0
581882926,579784090,779011819,776486182,573063233,638075741,0,0,0,0,0,0,0,0,0,0,0,0,0,0,0,0,0,0,0,0
581852990,646868392,644773880,642285874,573079117,570981224,568883074,566785180,564687287,562589393,560491499,0,0,0,0,0,0,0,0,0,0,0,0,0,0,0
715728770,579402933,577296093,575192824,0,0,0,0,0,0,0,0,0,0,0,0,0,0,0,0,0,0,0,0,0,0
646734725,644669933,575262775,573154905,705264762,636048282,566831546,631832794,629725946,0,0,0,0,0,0,0,0,0,0,0,0,0,0,0,0,0
579483940,644473949,575252868,573148311,705261226,568938941,566834384,564729571,562625782,560132062,692247548,0,0,0,0,0,0,0,0,0,0,0,0,0,0,0
579231846,577103577,708924717,639729491,570534266,568447904,566361542,698491884,697827573,0,0,0,0,0,0,0,0,0,0,0,0,0,0,0,0,0
579260955,577133188,642124233,572908780,704719895,635524409,633437532,631350655,629263778,694285766,557980649,0,0,0,0,0,0,0,0,0,0,0,0,0,0,0
578842887,576779093,708920969,572617379,570531517,568445656,566359795,767034053,697834993,0,0,0,0,0,0,0,0,0,0,0,0,0,0,0,0,0
580141102,578044321,575947757,573743899,571646529,569549415,567452045,632463795,630366425,0,0,0,0,0,0,0,0,0,0,0,0,0,0,0,0,0
647266360,645166507,575830272,573734182,638746956,569542003,567445913,565349823,563253734,0,0,0,0,0,0,0,0,0,0,0,0,0,0,0,0,0
580218905,578109056,576003012,573901286,638709775,569507889,567414867,565322357,563229847,561137337,559045083,556952573,0,0,0,0,0,0,0,0,0,0,0,0,0,0
580209017,578097123,575798835,640814678,638722425,703739037,567429312,632445923,0,0,0,0,0,0,0,0,0,0,0,0,0,0,0,0,0,0
580234340,712340658,576016615,573680135,638696481,569495357,567403094,565311088,563217803,695342501,0,0,0,0,0,0,0,0,0,0,0,0,0,0,0,0
580243270,578129819,710239700,573919473,571583765,569492018,567400527,565308780,630325384,695342501,693251010,0,0,0,0,0,0,0,0,0,0,0,0,0,0,0
647354981,578127819,575772695,573682745,705810523,569503101,567412383,699540162,563232740,0,0,0,0,0,0,0,0,0,0,0,0,0,0,0,0,0
580306879,577803535,642835007,707855704,571550832,636572552,567376289,699506617,697419217,561114345,558370783,0,0,0,0,0,0,0,0,0,0,0,0,0,0,0
579883877,712035993,575741627,640763852,638677213,703699439,566758033,631774138,562572515,0,0,0,0,0,0,0,0,0,0,0,0,0,0,0,0,0
579874397,712029076,642845367,573650889,571565275,636588524,567394046,631774138,562573031,0,0,0,0,0,0,0,0,0,0,0,0,0,0,0,0,0
579790683,577690061,575156253,573060418,570964583,635977867,566773168,564677589,696799482,0,0,0,0,0,0,0,0,0,0,0,0,0,0,0,0,0
711643236,575296150,707400367,638179015,568956896,701061113,564324003,629329378,0,0,0,0,0,0,0,0,0,0,0,0,0,0,0,0,0,0
577437598,575317176,573208261,571099346,703208159,566882540,564773625,562229798,560129619,558029185,555928750,553828572,0,0,0,0,0,0,0,0,0,0,0,0,0,0
644177194,574956699,572852436,570555413,568464461,633483396,564284348,562194675,0,0,0,0,0,0,0,0,0,0,0,0,0,0,0,0,0,0
577123132,642117518,572902070,637904094,568420623,566333239,631354463,562158216,560070576,557982681,0,0,0,0,0,0,0,0,0,0,0,0,0,0,0,0
577157112,574665800,706802796,771830416,635532212,566342873,564262397,563613902,0,0,0,0,0,0,0,0,0,0,0,0,0,0,0,0,0,0
578734132,576634781,574536658,572016650,569920318,567824242,565728167,563631835,0,0,0,0,0,0,0,0,0,0,0,0,0,0,0,0,0,0
645790726,576591985,574498726,572405467,569948692,567847754,565746816,630754741,561544939,0,0,0,0,0,0,0,0,0,0,0,0,0,0,0,0,0
645167480,575959250,640842245,571637039,636649814,567444352,565348524,630362070,0,0,0,0,0,0,0,0,0,0,0,0,0,0,0,0,0,0
645235580,576002542,573702193,571618410,636643491,701668317,0,0,0,0,0,0,0,0,0,0,0,0,0,0,0,0,0,0,0,0
645263669,710251934,641034450,571584016,569498436,634520952,699544237,563241186,0,0,0,0,0,0,0,0,0,0,0,0,0,0,0,0,0,0
645318950,710309231,641092499,571875768,569768668,634460168,565264941,563178577,628201077,693223578,691137214,621941474,0,0,0,0,0,0,0,0,0,0,0,0,0,0
577771934,642813888,707840466,705757667,703675636,566759246,698884232,562574019,560481277,0,0,0,0,0,0,0,0,0,0,0,0,0,0,0,0,0
577537582,642574738,640489668,571296503,568952364,633951326,564732561,562623683,560513782,0,0,0,0,0,0,0,0,0,0,0,0,0,0,0,0,0
574883997,639897023,570692322,568512268,566413870,564315472,629325682,560118421,558020023,555921625,553823228,0,0,0,0,0,0,0,0,0,0,0,0,0,0,0
574975015,707087205,637873059,635767521,566361641,564272231,629292197,627203555,0,0,0,0,0,0,0,0,0,0,0,0,0,0,0,0,0,0
575044862,773895987,704708448,568412300,566334137,564255974,0,0,0,0,0,0,0,0,0,0,0,0,0,0,0,0,0,0,0,0
643716451,641621400,639526349,569938694,567839548,565740401,563641253,628650969,0,0,0,0,0,0,0,0,0,0,0,0,0,0,0,0,0,0
576518213,574433157,572348868,637105670,634995525,699993988,563666883,0,0,0,0,0,0,0,0,0,0,0,0,0,0,0,0,0,0,0
710673606,708591080,572164878,771379503,769267793,565830259,630827413,561606584,559494874,557383676,689101048,0,0,0,0,0,0,0,0,0,0,0,0,0,0,0
575937417,573841856,638854902,569555510,567456876,565358499,563259865,0,0,0,0,0,0,0,0,0,0,0,0,0,0,0,0,0,0,0
777339654,775235399,638913672,569701321,567414547,632433491,563234708,628253653,0,0,0,0,0,0,0,0,0,0,0,0,0,0,0,0,0,0
576054075,641054579,571837612,569729252,701608998,565305439,764545176,628241617,0,0,0,0,0,0,0,0,0,0,0,0,0,0,0,0,0,0
576104392,573990642,638632996,770769230,567362168,565281698,563201228,561119734,0,0,0,0,0,0,0,0,0,0,0,0,0,0,0,0,0,0
575673905,573595219,571516276,569437588,0,0,0,0,0,0,0,0,0,0,0,0,0,0,0,0,0,0,0,0,0,0
575670848,573592926,571515515,636546454,0,0,0,0,0,0,0,0,0,0,0,0,0,0,0,0,0,0,0,0,0,0
575548980,640564603,638471362,568894476,566793556,631801499,629700835,0,0,0,0,0,0,0,0,0,0,0,0,0,0,0,0,0,0,0
575544918,640560271,571357897,636008197,566798655,631806584,562596786,761822443,0,0,0,0,0,0,0,0,0,0,0,0,0,0,0,0,0,0
642645566,573442670,571349406,636364749,566807041,564706097,562605152,694721936,558403520,556302575,0,0,0,0,0,0,0,0,0,0,0,0,0,0,0,0
642575674,573371736,638385525,569181331,0,0,0,0,0,0,0,0,0,0,0,0,0,0,0,0,0,0,0,0,0,0
707530909,638349532,568996895,768202590,698972062,562632926,0,0,0,0,0,0,0,0,0,0,0,0,0,0,0,0,0,0,0,0
572537085,572454685,637462656,568252645,565721163,563628463,0,0,0,0,0,0,0,0,0,0,0,0,0,0,0,0,0,0,0,0
708596684,639261199,771359823,769241487,632904911,563275447,0,0,0,0,0,0,0,0,0,0,0,0,0,0,0,0,0,0,0,0
573465739,571369934,568888598,566788956,564689570,629698791,0,0,0,0,0,0,0,0,0,0,0,0,0,0,0,0,0,0,0,0
704655024,568363465,767615970,631323643,561521531,559430614,688408571,0,0,0,0,0,0,0,0,0,0,0,0,0,0,0,0,0,0,0
773728558,570309765,702435035,565747507,697863305,561543903,0,0,0,0,0,0,0,0,0,0,0,0,0,0,0,0,0,0,0,0
639442973,637360237,635277246,700005393,630785633,561566386,0,0,0,0,0,0,0,0,0,0,0,0,0,0,0,0,0,0,0,0
572194395,570079604,567964814,565850024,563736001,561621211,760832757,624093086,621989091,0,0,0,0,0,0,0,0,0,0,0,0,0,0,0,0,0
638845350,569640908,567545330,632476447,563268677,561170027,559071377,556972727,554873821,0,0,0,0,0,0,0,0,0,0,0,0,0,0,0,0,0
703251101,566917300,699018444,562685411,560135714,625141612,623038646,0,0,0,0,0,0,0,0,0,0,0,0,0,0,0,0,0,0,0
702901026,566570394,564263455,629290391,0,0,0,0,0,0,0,0,0,0,0,0,0,0,0,0,0,0,0,0,0,0
704449552,702371708,566076392,697898068,762891455,0,0,0,0,0,0,0,0,0,0,0,0,0,0,0,0,0,0,0,0,0
569259080,634276788,631807775,629704842,627602420,0,0,0,0,0,0,0,0,0,0,0,0,0,0,0,0,0,0,0,0,0
568344713,700496820,698430943,561520806,0,0,0,0,0,0,0,0,0,0,0,0,0,0,0,0,0,0,0,0,0,0
633652024,564442485,562341810,560241391,557996597,623011953,553809327,551715820,0,0,0,0,0,0,0,0,0,0,0,0,0,0,0,0,0,0
635236188,700272591,563695938,762900660,0,0,0,0,0,0,0,0,0,0,0,0,0,0,0,0,0,0,0,0,0,0
702294777,767183690,765050521,695807721,0,0,0,0,0,0,0,0,0,0,0,0,0,0,0,0,0,0,0,0,0,0
702188599,632950392,697930427,561183146,623044305,0,0,0,0,0,0,0,0,0,0,0,0,0,0,0,0,0,0,0,0,0
635104293,700083324,765063635,762497611,626160586,0,0,0,0,0,0,0,0,0,0,0,0,0,0,0,0,0,0,0,0,0
567970264,565845999,563277828,561174633,693289420,0,0,0,0,0,0,0,0,0,0,0,0,0,0,0,0,0,0,0,0,0
567468828,565369916,563271004,628280955,559073179,556974267,554875355,619885306,0,0,0,0,0,0,0,0,0,0,0,0,0,0,0,0,0,0
701814635,632600793,764563283,628256961,0,0,0,0,0,0,0,0,0,0,0,0,0,0,0,0,0,0,0,0,0,0
634812698,766901658,563179047,628223399,0,0,0,0,0,0,0,0,0,0,0,0,0,0,0,0,0,0,0,0,0,0
701951893,565601252,764482364,695312267,693250522,0,0,0,0,0,0,0,0,0,0,0,0,0,0,0,0,0,0,0,0,0
567187482,565090967,562586388,560488849,0,0,0,0,0,0,0,0,0,0,0,0,0,0,0,0,0,0,0,0,0,0
632986312,563747562,628288800,626183584,0,0,0,0,0,0,0,0,0,0,0,0,0,0,0,0,0,0,0,0,0,0
632172548,630080099,627987650,558406179,556304514,554202849,0,0,0,0,0,0,0,0,0,0,0,0,0,0,0,0,0,0,0,0
560219095,558024045,623043059,688408571,0,0,0,0,0,0,0,0,0,0,0,0,0,0,0,0,0,0,0,0,0,0
561516653,559421575,557326753,555231930,551042031,0,0,0,0,0,0,0,0,0,0,0,0,0,0,0,0,0,0,0,0,0
695632776,693512144,623974946,689009515,619826611,550643195,0,0,0,0,0,0,0,0,0,0,0,0,0,0,0,0,0,0,0,0
757257652,688487423,619313880,684356530,682291340,0,0,0,0,0,0,0,0,0,0,0,0,0,0,0,0,0,0,0,0,0
757257652,620952629,619313880,684356530,682291340,0,0,0,0,0,0,0,0,0,0,0,0,0,0,0,0,0,0,0,0,0
623023582,553816195,618826535,549740747,748971375,0,0,0,0,0,0,0,0,0,0,0,0,0,0,0,0,0,0,0,0,0
555915519,620925609,618827092,616849149,614753448,0,0,0,0,0,0,0,0,0,0,0,0,0,0,0,0,0,0,0,0,0
757389367,621065411,618813788,616726248,0,0,0,0,0,0,0,0,0,0,0,0,0,0,0,0,0,0,0,0,0,0
555902669,755118663,618980546,616896316,0,0,0,0,0,0,0,0,0,0,0,0,0,0,0,0,0,0,0,0,0,0
556141651,554014683,551669360,549602038,0,0,0,0,0,0,0,0,0,0,0,0,0,0,0,0,0,0,0,0,0,0
758689780,622399606,687703787,618472300,0,0,0,0,0,0,0,0,0,0,0,0,0,0,0,0,0,0,0,0,0,0
691857703,756894632,754536744,618196648,0,0,0,0,0,0,0,0,0,0,0,0,0,0,0,0,0,0,0,0,0,0
691705974,689575338,687445470,617800876,0,0,0,0,0,0,0,0,0,0,0,0,0,0,0,0,0,0,0,0,0,0
556297190,554201996,552106803,617512142,615412852,0,0,0,0,0,0,0,0,0,0,0,0,0,0,0,0,0,0,0,0,0
623763574,554569972,552124017,751340526,0,0,0,0,0,0,0,0,0,0,0,0,0,0,0,0,0,0,0,0,0,0
623747952,755885550,753458540,617126636,0,0,0,0,0,0,0,0,0,0,0,0,0,0,0,0,0,0,0,0,0,0
755572702,753500064,684318819,615136292,0,0,0,0,0,0,0,0,0,0,0,0,0,0,0,0,0,0,0,0,0,0
553836006,618855849,751389405,749307840,680147564,0,0,0,0,0,0,0,0,0,0,0,0,0,0,0,0,0,0,0,0,0
553836006,552143870,751389405,749307840,680147564,0,0,0,0,0,0,0,0,0,0,0,0,0,0,0,0,0,0,0,0,0
688473315,686401458,617219712,548038993,0,0,0,0,0,0,0,0,0,0,0,0,0,0,0,0,0,0,0,0,0,0
553816037,551717043,616727168,547519566,612662197,543460385,0,0,0,0,0,0,0,0,0,0,0,0,0,0,0,0,0,0,0,0
553796851,551688640,549581198,614581851,545627841,543562538,0,0,0,0,0,0,0,0,0,0,0,0,0,0,0,0,0,0,0,0
553787850,618786957,616676687,547457553,545649235,0,0,0,0,0,0,0,0,0,0,0,0,0,0,0,0,0,0,0,0,0
555237295,553135696,551478502,683603335,0,0,0,0,0,0,0,0,0,0,0,0,0,0,0,0,0,0,0,0,0,0
622349797,553138269,618585539,750711096,0,0,0,0,0,0,0,0,0,0,0,0,0,0,0,0,0,0,0,0,0,0
555243251,620253625,551046272,548948039,681493649,0,0,0,0,0,0,0,0,0,0,0,0,0,0,0,0,0,0,0,0,0
622365340,553165108,618546624,549334360,0,0,0,0,0,0,0,0,0,0,0,0,0,0,0,0,0,0,0,0,0,0
555252981,687378354,685285999,548975916,614338649,0,0,0,0,0,0,0,0,0,0,0,0,0,0,0,0,0,0,0,0,0
554892267,553191374,551109788,616137065,547145418,0,0,0,0,0,0,0,0,0,0,0,0,0,0,0,0,0,0,0,0,0
554885113,553186553,551102166,549018547,681179723,545023707,542912952,0,0,0,0,0,0,0,0,0,0,0,0,0,0,0,0,0,0,0
554873597,619888577,550685830,548592203,546970104,544918480,0,0,0,0,0,0,0,0,0,0,0,0,0,0,0,0,0,0,0,0
621975029,552767669,550669173,548570677,546598771,0,0,0,0,0,0,0,0,0,0,0,0,0,0,0,0,0,0,0,0,0
689079270,552760742,550659942,615668006,546617445,0,0,0,0,0,0,0,0,0,0,0,0,0,0,0,0,0,0,0,0,0
554186459,552078165,684806385,615567304,0,0,0,0,0,0,0,0,0,0,0,0,0,0,0,0,0,0,0,0,0,0
755562410,552166697,684532379,749515545,0,0,0,0,0,0,0,0,0,0,0,0,0,0,0,0,0,0,0,0,0,0
621332715,552139701,550054782,547970631,546112666,0,0,0,0,0,0,0,0,0,0,0,0,0,0,0,0,0,0,0,0,0
552130548,550042581,547953846,545884248,611125746,541911251,674022324,537698197,0,0,0,0,0,0,0,0,0,0,0,0,0,0,0,0,0,0
618804457,549585329,614584440,612740811,610682656,0,0,0,0,0,0,0,0,0,0,0,0,0,0,0,0,0,0,0,0,0
754456018,750898154,614570960,612436610,610303284,541084955,539412476,537327586,0,0,0,0,0,0,0,0,0,0,0,0,0,0,0,0,0,0
620256468,551050149,548952693,547268829,545172046,543075102,0,0,0,0,0,0,0,0,0,0,0,0,0,0,0,0,0,0,0,0
553174015,551086047,548997311,614036065,545071358,610074591,675078081,538754978,0,0,0,0,0,0,0,0,0,0,0,0,0,0,0,0,0,0
619891133,617800791,549044731,547024810,0,0,0,0,0,0,0,0,0,0,0,0,0,0,0,0,0,0,0,0,0,0
552090829,549990558,547890542,613350871,544255713,542146518,540037322,537928126,0,0,0,0,0,0,0,0,0,0,0,0,0,0,0,0,0,0
552095222,549996500,615006642,545795918,544138210,542042561,539946911,537851262,0,0,0,0,0,0,0,0,0,0,0,0,0,0,0,0,0,0
552100841,684221382,547906724,545810235,544118219,609129640,607032197,537825891,0,0,0,0,0,0,0,0,0,0,0,0,0,0,0,0,0,0
552101866,550005191,547908772,545813308,544113868,542016169,539918215,537820516,0,0,0,0,0,0,0,0,0,0,0,0,0,0,0,0,0,0
618159334,548953022,546854214,612283080,543077537,540981114,605993298,0,0,0,0,0,0,0,0,0,0,0,0,0,0,0,0,0,0,0
551061485,548967118,546879092,611899930,677255413,608046550,538837177,0,0,0,0,0,0,0,0,0,0,0,0,0,0,0,0,0,0,0
551068907,616085197,614002037,544808990,542716417,540916444,538814655,0,0,0,0,0,0,0,0,0,0,0,0,0,0,0,0,0,0,0
550696658,683215086,681145515,544858216,542769491,540681534,538593576,0,0,0,0,0,0,0,0,0,0,0,0,0,0,0,0,0,0,0
550678768,548582612,546488960,544395563,542299663,540281838,538183378,0,0,0,0,0,0,0,0,0,0,0,0,0,0,0,0,0,0,0
617105147,682115301,545796002,543694430,608704583,0,0,0,0,0,0,0,0,0,0,0,0,0,0,0,0,0,0,0,0,0
549998572,682118096,545800317,543700010,539939564,537843408,0,0,0,0,0,0,0,0,0,0,0,0,0,0,0,0,0,0,0,0
550008293,547912648,680037233,543726618,542006774,539908313,537809596,0,0,0,0,0,0,0,0,0,0,0,0,0,0,0,0,0,0,0
550022389,547931095,545850237,543769891,541678341,539856351,537753280,0,0,0,0,0,0,0,0,0,0,0,0,0,0,0,0,0,0,0
551068907,548973556,546499583,542297319,0,0,0,0,0,0,0,0,0,0,0,0,0,0,0,0,0,0,0,0,0,0
547538413,545449373,543779316,541689065,539598558,537508307,0,0,0,0,0,0,0,0,0,0,0,0,0,0,0,0,0,0,0,0
547497976,545384641,543270790,608276849,539065181,671179850,0,0,0,0,0,0,0,0,0,0,0,0,0,0,0,0,0,0,0,0
548953328,546855838,544758605,609770289,540564246,538878963,0,0,0,0,0,0,0,0,0,0,0,0,0,0,0,0,0,0,0,0
615700463,681122294,544828617,542738362,540648363,538558108,0,0,0,0,0,0,0,0,0,0,0,0,0,0,0,0,0,0,0,0
682797299,613593010,544388722,542292061,540195400,538098738,0,0,0,0,0,0,0,0,0,0,0,0,0,0,0,0,0,0,0,0
682793969,546478767,611490157,609392983,741513281,605198379,0,0,0,0,0,0,0,0,0,0,0,0,0,0,0,0,0,0,0,0
548526316,546395555,678483033,676374592,540048679,537940239,0,0,0,0,0,0,0,0,0,0,0,0,0,0,0,0,0,0,0,0
615001085,545787336,544333553,542231783,540130013,538028244,0,0,0,0,0,0,0,0,0,0,0,0,0,0,0,0,0,0,0,0
547890670,546434301,544315602,676428996,540107189,538002855,0,0,0,0,0,0,0,0,0,0,0,0,0,0,0,0,0,0,0,0
547916270,680044444,543737417,608751661,539548434,537795311,0,0,0,0,0,0,0,0,0,0,0,0,0,0,0,0,0,0,0,0
547919080,545831825,543744826,608759836,674103800,537786330,0,0,0,0,0,0,0,0,0,0,0,0,0,0,0,0,0,0,0,0
612952529,677998669,675912993,539833069,537724353,0,0,0,0,0,0,0,0,0,0,0,0,0,0,0,0,0,0,0,0,0
545843175,543759544,541667240,539574680,537482376,0,0,0,0,0,0,0,0,0,0,0,0,0,0,0,0,0,0,0,0,0
680079075,543830140,675972953,673898294,0,0,0,0,0,0,0,0,0,0,0,0,0,0,0,0,0,0,0,0,0,0
545435105,543339187,541242532,539145877,537049222,0,0,0,0,0,0,0,0,0,0,0,0,0,0,0,0,0,0,0,0,0
545400514,543275311,541413882,539326409,604347544,0,0,0,0,0,0,0,0,0,0,0,0,0,0,0,0,0,0,0,0,0
545402333,543293609,541193112,539092103,536991094,0,0,0,0,0,0,0,0,0,0,0,0,0,0,0,0,0,0,0,0,0
546842623,610388438,541173440,539067562,536961684,0,0,0,0,0,0,0,0,0,0,0,0,0,0,0,0,0,0,0,0,0
613963508,544756424,542659001,540561322,538463899,0,0,0,0,0,0,0,0,0,0,0,0,0,0,0,0,0,0,0,0,0
546857215,611869334,609772403,540566864,538469934,0,0,0,0,0,0,0,0,0,0,0,0,0,0,0,0,0,0,0,0,0
613967097,544762250,542665573,540568641,538471964,0,0,0,0,0,0,0,0,0,0,0,0,0,0,0,0,0,0,0,0,0
546862556,611880522,542676506,540958945,538859697,0,0,0,0,0,0,0,0,0,0,0,0,0,0,0,0,0,0,0,0,0
613973946,544776962,543051708,540951422,538851137,0,0,0,0,0,0,0,0,0,0,0,0,0,0,0,0,0,0,0,0,0
613973946,545151993,543051708,540951422,538851137,0,0,0,0,0,0,0,0,0,0,0,0,0,0,0,0,0,0,0,0,0
546866666,544773309,542677422,540581535,605594511,0,0,0,0,0,0,0,0,0,0,0,0,0,0,0,0,0,0,0,0,0
546873305,544782503,542687382,540592517,538497396,0,0,0,0,0,0,0,0,0,0,0,0,0,0,0,0,0,0,0,0,0
546880465,611901083,542698122,540604024,538509414,0,0,0,0,0,0,0,0,0,0,0,0,0,0,0,0,0,0,0,0,0
546889367,544807485,542715679,540916473,538813915,0,0,0,0,0,0,0,0,0,0,0,0,0,0,0,0,0,0,0,0,0
546923660,679067944,744087305,540868832,538764477,0,0,0,0,0,0,0,0,0,0,0,0,0,0,0,0,0,0,0,0,0
546489040,544395418,542299272,540203382,538107492,0,0,0,0,0,0,0,0,0,0,0,0,0,0,0,0,0,0,0,0,0
546470908,611479255,676489675,540173759,538075571,0,0,0,0,0,0,0,0,0,0,0,0,0,0,0,0,0,0,0,0,0
546450844,544551877,676683134,540379191,0,0,0,0,0,0,0,0,0,0,0,0,0,0,0,0,0,0,0,0,0,0
546461417,544357053,743583918,540157856,538058641,0,0,0,0,0,0,0,0,0,0,0,0,0,0,0,0,0,0,0,0,0
546444012,544333504,542231473,540129699,538027924,0,0,0,0,0,0,0,0,0,0,0,0,0,0,0,0,0,0,0,0,0
680035019,543723920,541628028,539532136,537436245,0,0,0,0,0,0,0,0,0,0,0,0,0,0,0,0,0,0,0,0,0
545822108,543730006,608743230,539538984,537443601,0,0,0,0,0,0,0,0,0,0,0,0,0,0,0,0,0,0,0,0,0
545844929,543762307,675887726,539577945,671703364,0,0,0,0,0,0,0,0,0,0,0,0,0,0,0,0,0,0,0,0,0
610850039,541646830,539552229,537457884,0,0,0,0,0,0,0,0,0,0,0,0,0,0,0,0,0,0,0,0,0,0
610442227,541236202,539139041,537041879,0,0,0,0,0,0,0,0,0,0,0,0,0,0,0,0,0,0,0,0,0,0
611845605,541198057,606205144,536993736,0,0,0,0,0,0,0,0,0,0,0,0,0,0,0,0,0,0,0,0,0,0
544770222,542674831,540579441,672701522,0,0,0,0,0,0,0,0,0,0,0,0,0,0,0,0,0,0,0,0,0,0
544787160,542692811,540598717,538504367,0,0,0,0,0,0,0,0,0,0,0,0,0,0,0,0,0,0,0,0,0,0
611901423,542698469,674822107,538509777,0,0,0,0,0,0,0,0,0,0,0,0,0,0,0,0,0,0,0,0,0,0
678600937,542286293,540189121,538092205,0,0,0,0,0,0,0,0,0,0,0,0,0,0,0,0,0,0,0,0,0,0
544365798,542265810,540165565,538065577,0,0,0,0,0,0,0,0,0,0,0,0,0,0,0,0,0,0,0,0,0,0
543703011,541604559,539506107,537407655,0,0,0,0,0,0,0,0,0,0,0,0,0,0,0,0,0,0,0,0,0,0
543720896,541625254,606638476,537434227,0,0,0,0,0,0,0,0,0,0,0,0,0,0,0,0,0,0,0,0,0,0
589900957,587799201,585696935,0,0,0,0,0,0,0,0,0,0,0,0,0,0,0,0,0,0,0,0,0,0,0
589480427,587382515,585284859,0,0,0,0,0,0,0,0,0,0,0,0,0,0,0,0,0,0,0,0,0,0,0
589472487,587375088,585277945,0,0,0,0,0,0,0,0,0,0,0,0,0,0,0,0,0,0,0,0,0,0,0
590893139,588795238,788023418,0,0,0,0,0,0,0,0,0,0,0,0,0,0,0,0,0,0,0,0,0,0,0
590895339,588798452,586701308,0,0,0,0,0,0,0,0,0,0,0,0,0,0,0,0,0,0,0,0,0,0,0
590677491,588378388,586284590,0,0,0,0,0,0,0,0,0,0,0,0,0,0,0,0,0,0,0,0,0,0,0
590679280,588376850,586284077,0,0,0,0,0,0,0,0,0,0,0,0,0,0,0,0,0,0,0,0,0,0,0
590486127,588391040,720513424,0,0,0,0,0,0,0,0,0,0,0,0,0,0,0,0,0,0,0,0,0,0,0
590484330,655498876,720513424,0,0,0,0,0,0,0,0,0,0,0,0,0,0,0,0,0,0,0,0,0,0,0
589837807,587741431,585645055,0,0,0,0,0,0,0,0,0,0,0,0,0,0,0,0,0,0,0,0,0,0,0
589897866,654906264,585696935,0,0,0,0,0,0,0,0,0,0,0,0,0,0,0,0,0,0,0,0,0,0,0
723258748,788145954,584670151,0,0,0,0,0,0,0,0,0,0,0,0,0,0,0,0,0,0,0,0,0,0,0
581228841,578960906,576872622,0,0,0,0,0,0,0,0,0,0,0,0,0,0,0,0,0,0,0,0,0,0,0
580565462,578443755,710547961,0,0,0,0,0,0,0,0,0,0,0,0,0,0,0,0,0,0,0,0,0,0,0
642686223,573489846,570956122,0,0,0,0,0,0,0,0,0,0,0,0,0,0,0,0,0,0,0,0,0,0,0
699055223,764014787,560128927,0,0,0,0,0,0,0,0,0,0,0,0,0,0,0,0,0,0,0,0,0,0,0
699035383,629409269,627227832,0,0,0,0,0,0,0,0,0,0,0,0,0,0,0,0,0,0,0,0,0,0,0
699035383,629333764,627227832,0,0,0,0,0,0,0,0,0,0,0,0,0,0,0,0,0,0,0,0,0,0,0
633177626,765321423,695782020,0,0,0,0,0,0,0,0,0,0,0,0,0,0,0,0,0,0,0,0,0,0,0
700120663,765080981,762932948,0,0,0,0,0,0,0,0,0,0,0,0,0,0,0,0,0,0,0,0,0,0,0
565525775,630520247,561133679,0,0,0,0,0,0,0,0,0,0,0,0,0,0,0,0,0,0,0,0,0,0,0
632146837,763949101,627615431,0,0,0,0,0,0,0,0,0,0,0,0,0,0,0,0,0,0,0,0,0,0,0
766290003,763994387,694739927,0,0,0,0,0,0,0,0,0,0,0,0,0,0,0,0,0,0,0,0,0,0,0
764194526,761895279,759361516,0,0,0,0,0,0,0,0,0,0,0,0,0,0,0,0,0,0,0,0,0,0,0
763789260,627125085,692185311,0,0,0,0,0,0,0,0,0,0,0,0,0,0,0,0,0,0,0,0,0,0,0
563977035,763226082,559468921,0,0,0,0,0,0,0,0,0,0,0,0,0,0,0,0,0,0,0,0,0,0,0
561258552,626177055,556967159,0,0,0,0,0,0,0,0,0,0,0,0,0,0,0,0,0,0,0,0,0,0,0
758695367,622411795,754793039,0,0,0,0,0,0,0,0,0,0,0,0,0,0,0,0,0,0,0,0,0,0,0
624093843,622460859,687531108,0,0,0,0,0,0,0,0,0,0,0,0,0,0,0,0,0,0,0,0,0,0,0
556282740,554626999,753970428,0,0,0,0,0,0,0,0,0,0,0,0,0,0,0,0,0,0,0,0,0,0,0
623398295,621724621,619631636,0,0,0,0,0,0,0,0,0,0,0,0,0,0,0,0,0,0,0,0,0,0,0
622424700,754766562,685514070,0,0,0,0,0,0,0,0,0,0,0,0,0,0,0,0,0,0,0,0,0,0,0
755827071,619278883,617144778,0,0,0,0,0,0,0,0,0,0,0,0,0,0,0,0,0,0,0,0,0,0,0
551840793,683838961,548577768,0,0,0,0,0,0,0,0,0,0,0,0,0,0,0,0,0,0,0,0,0,0,0
620256709,551049824,616474609,0,0,0,0,0,0,0,0,0,0,0,0,0,0,0,0,0,0,0,0,0,0,0
553206583,551077000,616055766,0,0,0,0,0,0,0,0,0,0,0,0,0,0,0,0,0,0,0,0,0,0,0
687429267,551137353,750580725,0,0,0,0,0,0,0,0,0,0,0,0,0,0,0,0,0,0,0,0,0,0,0
620303311,752454771,683278872,0,0,0,0,0,0,0,0,0,0,0,0,0,0,0,0,0,0,0,0,0,0,0
616712580,614608446,545588586,0,0,0,0,0,0,0,0,0,0,0,0,0,0,0,0,0,0,0,0,0,0,0
748247781,544897631,542825266,0,0,0,0,0,0,0,0,0,0,0,0,0,0,0,0,0,0,0,0,0,0,0
543752129,541661352,539571087,0,0,0,0,0,0,0,0,0,0,0,0,0,0,0,0,0,0,0,0,0,0,0
544387900,542383597,607389088,0,0,0,0,0,0,0,0,0,0,0,0,0,0,0,0,0,0,0,0,0,0,0
541232825,539135402,738364315,0,0,0,0,0,0,0,0,0,0,0,0,0,0,0,0,0,0,0,0,0,0,0
610203124,539038460,536934389,0,0,0,0,0,0,0,0,0,0,0,0,0,0,0,0,0,0,0,0,0,0,0
610203124,540998871,536934389,0,0,0,0,0,0,0,0,0,0,0,0,0,0,0,0,0,0,0,0,0,0,0
744381948,608064968,538856596,0,0,0,0,0,0,0,0,0,0,0,0,0,0,0,0,0,0,0,0,0,0,0
609788165,675173322,673073815,0,0,0,0,0,0,0,0,0,0,0,0,0,0,0,0,0,0,0,0,0,0,0
542670332,540574446,538478303,0,0,0,0,0,0,0,0,0,0,0,0,0,0,0,0,0,0,0,0,0,0,0
542282738,607293922,538087379,0,0,0,0,0,0,0,0,0,0,0,0,0,0,0,0,0,0,0,0,0,0,0
676497403,674399730,538084585,0,0,0,0,0,0,0,0,0,0,0,0,0,0,0,0,0,0,0,0,0,0,0
541613311,539516151,537418992,0,0,0,0,0,0,0,0,0,0,0,0,0,0,0,0,0,0,0,0,0,0,0
675845369,539532528,537437159,0,0,0,0,0,0,0,0,0,0,0,0,0,0,0,0,0,0,0,0,0,0,0
742958568,673753824,537440472,0,0,0,0,0,0,0,0,0,0,0,0,0,0,0,0,0,0,0,0,0,0,0
