0,1,2,3,4,5,6,7,8,9,10,11,12,13,14,15,16,17,18,19,20,21,22,23,24,25
657013404,587803051,585701562,583599817,581494759,579007736,0,0,0,0,0,0,0,0,0,0,0,0,0,0,0,0,0,0,0,0
590119539,588032420,585945302,583665676,581548913,646540759,576902280,706906050,0,0,0,0,0,0,0,0,0,0,0,0,0,0,0,0,0,0
589926268,654933131,585722011,717837738,581513671,579407075,577303288,709030622,572714216,570615282,568516348,0,0,0,0,0,0,0,0,0,0,0,0,0,0,0
657034141,654933680,585724356,583623639,581519868,713217673,576895645,0,0,0,0,0,0,0,0,0,0,0,0,0,0,0,0,0,0,0
589913801,587812563,585711068,583609830,581504249,579006157,644014309,574806006,706925310,0,0,0,0,0,0,0,0,0,0,0,0,0,0,0,0,0
589932975,587830714,585728197,583625680,581517797,579010209,576908736,574808789,572710367,570611690,568513268,566414847,0,0,0,0,0,0,0,0,0,0,0,0,0,0
590019093,587911209,585803325,717912912,715794295,579458974,711563451,575238094,573135576,571033057,568930539,566828021,564329139,562229448,560130013,558030322,0,0,0,0,0,0,0,0,0,0
590011209,587903579,585795948,583688317,581570720,646563009,577341659,575234284,0,0,0,0,0,0,0,0,0,0,0,0,0,0,0,0,0,0
589962949,587858383,585754840,583650530,581538805,579006814,576906121,574806437,572708275,570609858,568511440,566413022,564314860,562216442,0,0,0,0,0,0,0,0,0,0,0,0
589953246,587848423,585743345,583638522,648211545,579000983,576900293,574800612,572702451,0,0,0,0,0,0,0,0,0,0,0,0,0,0,0,0,0
589982925,587877078,585771487,583665641,581551867,579005494,576904809,574805387,639816091,570608812,568510397,566412238,564313823,562215664,560116991,0,0,0,0,0,0,0,0,0,0,0
589975517,587870181,585765101,583660789,581104644,579003459,576903282,574804113,572705953,570607793,568509632,566411472,564313312,629324015,560116991,0,0,0,0,0,0,0,0,0,0,0
656673935,654577841,585373140,650386165,581092160,578992772,576893878,574795480,572697833,570600186,0,0,0,0,0,0,0,0,0,0,0,0,0,0,0,0
589590930,587493039,585395149,583297260,648184879,578980461,711102106,574788024,572691142,570594517,568497635,566401010,0,0,0,0,0,0,0,0,0,0,0,0,0,0
589463413,587366787,585270162,583173536,581077181,578981082,643993583,709005566,0,0,0,0,0,0,0,0,0,0,0,0,0,0,0,0,0,0
589596820,587498673,585400527,583302124,581071662,578976617,576881046,709002675,706906050,704809425,568495328,566398702,564302077,0,0,0,0,0,0,0,0,0,0,0,0,0
589452155,721573770,585260185,650273191,581069765,578975203,711097593,0,0,0,0,0,0,0,0,0,0,0,0,0,0,0,0,0,0,0
589620618,587520937,719638983,650430693,715272745,578963046,576869779,574775217,572679616,570583759,568487902,566392301,564296444,0,0,0,0,0,0,0,0,0,0,0,0,0
589644376,587543160,585441944,583340728,581236216,578949694,576858734,574765709,572670365,570575277,568480189,566385101,698507485,562194670,560099582,0,0,0,0,0,0,0,0,0,0,0
589670924,587567922,585465175,583362173,581253575,578935321,576846929,574754679,572660362,570566045,568471984,566377666,564283605,562189287,560095226,0,0,0,0,0,0,0,0,0,0,0
656553649,587349181,585253832,583158483,581064938,0,0,0,0,0,0,0,0,0,0,0,0,0,0,0,0,0,0,0,0,0
589414285,587323792,719450771,583141782,581057947,578974113,576886949,0,0,0,0,0,0,0,0,0,0,0,0,0,0,0,0,0,0,0
589428169,587333586,585238491,583144165,581052407,580389625,0,0,0,0,0,0,0,0,0,0,0,0,0,0,0,0,0,0,0,0
589724314,587615929,585507802,583400699,580992839,578917005,576836030,574749919,572657647,637012973,0,0,0,0,0,0,0,0,0,0,0,0,0,0,0,0
589402037,587309247,719434186,583123924,581035498,713164031,578293465,576199146,574103282,706225147,0,0,0,0,0,0,0,0,0,0,0,0,0,0,0,0
590873795,588777933,586682326,651695583,582492402,0,0,0,0,0,0,0,0,0,0,0,0,0,0,0,0,0,0,0,0,0
590872715,588777112,586681509,584585905,582491595,580397541,578302456,0,0,0,0,0,0,0,0,0,0,0,0,0,0,0,0,0,0,0
590901220,588803819,586706418,584609018,0,0,0,0,0,0,0,0,0,0,0,0,0,0,0,0,0,0,0,0,0,0
590904961,588807311,586709660,584612010,582513861,647524575,578317812,0,0,0,0,0,0,0,0,0,0,0,0,0,0,0,0,0,0,0
590906730,588808825,586711176,584613271,716732597,580416722,645427432,576220919,574123519,0,0,0,0,0,0,0,0,0,0,0,0,0,0,0,0,0
591288532,656301547,586718729,584620577,582521168,580421760,578322852,643333563,574127047,572029139,569931487,567833835,565736183,0,0,0,0,0,0,0,0,0,0,0,0,0
591281655,588823570,586724904,584626238,582525801,580425620,712543669,576227274,574129365,572031456,569933547,567835637,0,0,0,0,0,0,0,0,0,0,0,0,0,0
590912916,588814753,586716589,584618425,582519506,580420330,779648509,0,0,0,0,0,0,0,0,0,0,0,0,0,0,0,0,0,0,0
658358681,589157564,587065055,584648455,582543180,580437138,578333381,576232166,641241846,0,0,0,0,0,0,0,0,0,0,0,0,0,0,0,0,0
590919906,588821225,586722800,584624120,0,0,0,0,0,0,0,0,0,0,0,0,0,0,0,0,0,0,0,0,0,0
591212009,588888582,721003037,584682293,582572900,781789842,578356918,576254413,574154201,572053988,569953520,702071036,0,0,0,0,0,0,0,0,0,0,0,0,0,0
591138632,589052008,586965385,584878761,582802666,580506928,578393952,710504065,574184081,706299297,569979313,567877058,565774546,563673058,561570546,559085295,0,0,0,0,0,0,0,0,0,0
591158748,589071092,653941264,718943528,582611031,580495238,578384297,576277697,641284812,572074200,569972452,567870704,632487367,563278298,561178348,559078142,0,0,0,0,0,0,0,0,0,0
724753881,722655715,586339821,584241398,0,0,0,0,0,0,0,0,0,0,0,0,0,0,0,0,0,0,0,0,0,0
590539442,588441277,586342855,584244434,582144999,580045308,0,0,0,0,0,0,0,0,0,0,0,0,0,0,0,0,0,0,0,0
590538921,722657974,586341827,584243408,582143467,0,0,0,0,0,0,0,0,0,0,0,0,0,0,0,0,0,0,0,0,0
590529765,722649580,586334196,584236539,0,0,0,0,0,0,0,0,0,0,0,0,0,0,0,0,0,0,0,0,0,0
657640840,588434070,586336164,651347121,649248204,580040680,577942268,0,0,0,0,0,0,0,0,0,0,0,0,0,0,0,0,0,0,0
591068359,588958162,586847710,584737513,647160354,577950064,575850148,640860349,571652823,703771889,0,0,0,0,0,0,0,0,0,0,0,0,0,0,0,0
590625114,588528249,586431384,584334519,582237686,580036411,645047914,575841674,640853145,571647145,569549753,567452617,565355224,697475560,561160696,0,0,0,0,0,0,0,0,0,0,0
590510733,655522972,586317740,584221372,582125532,580029947,0,0,0,0,0,0,0,0,0,0,0,0,0,0,0,0,0,0,0,0
590656547,588557390,586458233,718576548,582257658,647129942,577927063,575832002,573736151,571640045,0,0,0,0,0,0,0,0,0,0,0,0,0,0,0,0
590484786,588389445,586294360,584199275,582106256,647122357,577919697,575824867,640837612,571632630,569536767,0,0,0,0,0,0,0,0,0,0,0,0,0,0,0
590489439,588394609,720517252,584204694,582111931,580019168,577925371,0,0,0,0,0,0,0,0,0,0,0,0,0,0,0,0,0,0,0
590497450,722619317,586305984,584210123,582115809,580021495,0,0,0,0,0,0,0,0,0,0,0,0,0,0,0,0,0,0,0,0
590499541,588403678,653416678,584211951,0,0,0,0,0,0,0,0,0,0,0,0,0,0,0,0,0,0,0,0,0,0
590495968,588400360,586304752,584209144,0,0,0,0,0,0,0,0,0,0,0,0,0,0,0,0,0,0,0,0,0,0
724933349,722829823,586251809,584161083,582076784,714209958,577904078,575813097,573719030,0,0,0,0,0,0,0,0,0,0,0,0,0,0,0,0,0
724933349,588342534,586251809,584161083,582076784,714209958,577904078,575813097,573719030,0,0,0,0,0,0,0,0,0,0,0,0,0,0,0,0,0
657892368,588674125,586565002,584455622,716255044,0,0,0,0,0,0,0,0,0,0,0,0,0,0,0,0,0,0,0,0,0
590778266,588672698,586567385,584461047,582025782,647056748,644973974,777104048,640794044,705810378,0,0,0,0,0,0,0,0,0,0,0,0,0,0,0,0
590780089,588673746,586567147,584105739,582026558,579948401,644973974,777104048,640794044,705810378,0,0,0,0,0,0,0,0,0,0,0,0,0,0,0,0
590443673,588351398,720476851,584167103,582079960,579992562,577243865,776476652,573054454,0,0,0,0,0,0,0,0,0,0,0,0,0,0,0,0,0
590406727,588317787,720447344,718359173,582062513,714200539,712115707,776476652,573055998,0,0,0,0,0,0,0,0,0,0,0,0,0,0,0,0,0
590406541,588313986,586220406,584127595,0,0,0,0,0,0,0,0,0,0,0,0,0,0,0,0,0,0,0,0,0,0
590436553,588344786,586252763,584160740,582074103,579341992,577248454,575153627,573057509,570961647,568865785,0,0,0,0,0,0,0,0,0,0,0,0,0,0,0
589830834,587734716,585638599,583542738,581447656,579352829,0,0,0,0,0,0,0,0,0,0,0,0,0,0,0,0,0,0,0,0
589831311,587735452,585639337,583543222,581448144,579353321,577257725,0,0,0,0,0,0,0,0,0,0,0,0,0,0,0,0,0,0,0
589835853,587739486,585643119,583547008,581451425,579356099,577259997,575163630,573066998,705187839,0,0,0,0,0,0,0,0,0,0,0,0,0,0,0,0
590264227,588166591,720286684,583971576,581455926,646468463,577263002,575166391,573069253,570972371,635984353,566778352,564681470,0,0,0,0,0,0,0,0,0,0,0,0,0
589855813,587758170,585660527,583562628,581464494,579366360,644377079,0,0,0,0,0,0,0,0,0,0,0,0,0,0,0,0,0,0,0
590223912,588129099,586034287,583939219,581846490,579381542,577281371,642291069,573083791,570985633,568887474,566789316,564691157,562592999,0,0,0,0,0,0,0,0,0,0,0,0
589870427,587772010,585673593,583575177,0,0,0,0,0,0,0,0,0,0,0,0,0,0,0,0,0,0,0,0,0,0
589868415,587769997,585671580,583573162,581473223,579373540,577274362,0,0,0,0,0,0,0,0,0,0,0,0,0,0,0,0,0,0,0
724101913,587784498,585684555,583584612,581481878,646488008,711495406,0,0,0,0,0,0,0,0,0,0,0,0,0,0,0,0,0,0,0
590206450,587799059,652806702,583597386,581492098,579386809,711501027,575182079,0,0,0,0,0,0,0,0,0,0,0,0,0,0,0,0,0,0
589877725,789104869,652787951,583579642,0,0,0,0,0,0,0,0,0,0,0,0,0,0,0,0,0,0,0,0,0,0
589963497,587858673,585754616,581102123,579001191,644010131,574802353,572704192,570606031,702725598,566409965,564311804,0,0,0,0,0,0,0,0,0,0,0,0,0,0
587487522,585390161,583292799,782521307,578983231,576886916,574790066,572692936,570596063,635607797,0,0,0,0,0,0,0,0,0,0,0,0,0,0,0,0
723373602,654171721,584969585,582879168,580443156,578340431,576239734,574140810,572041629,569942705,567843524,565744599,630754282,561546493,0,0,0,0,0,0,0,0,0,0,0,0
585434921,583334995,715447976,579125756,576863042,574769772,572674433,570579094,568484011,566388672,564293333,562198250,560102911,0,0,0,0,0,0,0,0,0,0,0,0,0
587118858,585021235,582923398,580825305,578310428,576213829,574116954,572020079,569923203,702043800,565729197,563632321,561535446,559438571,557341695,0,0,0,0,0,0,0,0,0,0,0
586946349,584862810,582792883,647619601,645502292,576282753,641287831,572074926,569971140,702085595,565764081,563278072,0,0,0,0,0,0,0,0,0,0,0,0,0,0
586167272,651193330,581890717,577253736,575159456,573063612,638076632,770198516,0,0,0,0,0,0,0,0,0,0,0,0,0,0,0,0,0,0
583807160,581734904,713690685,711575662,575248526,573144990,571041710,636047293,768161485,631840477,562628333,694743293,558033892,623041532,0,0,0,0,0,0,0,0,0,0,0,0
583282974,581186420,579090123,644001044,709012289,706914903,704817517,568502403,566405017,564307631,562210245,560112859,558015217,0,0,0,0,0,0,0,0,0,0,0,0,0
583146410,581054663,578962916,711087610,0,0,0,0,0,0,0,0,0,0,0,0,0,0,0,0,0,0,0,0,0,0
583456937,581331951,578873660,576796529,574713236,572622758,570532535,702659783,0,0,0,0,0,0,0,0,0,0,0,0,0,0,0,0,0,0
584948513,582861177,580774097,578354455,576252482,574152792,572053101,569953667,634962840,565754286,563654339,561554647,559454700,0,0,0,0,0,0,0,0,0,0,0,0,0
584344601,582246539,580148477,577932634,575836051,573739440,571642828,569546216,0,0,0,0,0,0,0,0,0,0,0,0,0,0,0,0,0,0
584456723,716558188,580224195,577870605,575782968,573690446,571598180,569505657,567412111,565319588,563226810,628243152,559041511,556948479,0,0,0,0,0,0,0,0,0,0,0,0
651019013,581821793,713950397,577298950,575197492,573098059,570998626,568899449,566800016,564700583,562601150,560501717,558402284,0,0,0,0,0,0,0,0,0,0,0,0,0
581721699,579650242,577369355,575258937,573155152,571051366,703165052,566843538,564739241,0,0,0,0,0,0,0,0,0,0,0,0,0,0,0,0,0
581713507,579645119,577371912,575260726,573156430,571052133,703165052,566843538,564739241,0,0,0,0,0,0,0,0,0,0,0,0,0,0,0,0,0
648731272,579495602,577376465,575264997,573160431,571055865,568522297,566422870,631432307,562224017,560124334,558024908,623034345,0,0,0,0,0,0,0,0,0,0,0,0,0
581259043,646254508,643958042,641869150,572667264,570573986,635589827,566387941,0,0,0,0,0,0,0,0,0,0,0,0,0,0,0,0,0,0
581330015,713418197,576807989,641836144,639747470,570549676,568459978,566371048,0,0,0,0,0,0,0,0,0,0,0,0,0,0,0,0,0,0
580931181,713081502,711005890,708923609,706833892,570526704,0,0,0,0,0,0,0,0,0,0,0,0,0,0,0,0,0,0,0,0
715147890,713080992,711005890,708923609,706833892,570526704,0,0,0,0,0,0,0,0,0,0,0,0,0,0,0,0,0,0,0,0
715129850,580841763,578741376,576641982,574543837,572445693,567817536,632830302,563625597,561529499,559433401,557337559,555241461,0,0,0,0,0,0,0,0,0,0,0,0,0
582262830,580160428,577923602,642937937,573733233,571637393,569541552,567445712,699567344,0,0,0,0,0,0,0,0,0,0,0,0,0,0,0,0,0
581960880,579894225,577820137,575602643,573503473,0,0,0,0,0,0,0,0,0,0,0,0,0,0,0,0,0,0,0,0,0
581851713,579761063,577668339,575172137,573073474,570975835,568878451,633889674,631792290,562586043,560488659,558391531,0,0,0,0,0,0,0,0,0,0,0,0,0,0
581839921,579750590,577281835,575180913,707299476,570982839,568883674,633893629,0,0,0,0,0,0,0,0,0,0,0,0,0,0,0,0,0,0
579639436,577565403,642373649,573160236,571055430,0,0,0,0,0,0,0,0,0,0,0,0,0,0,0,0,0,0,0,0,0
579629984,577556970,575271713,573166393,571061074,568956010,566850690,698963099,562640307,0,0,0,0,0,0,0,0,0,0,0,0,0,0,0,0,0
713822850,711770363,642371663,640259703,705256609,568927434,633925618,0,0,0,0,0,0,0,0,0,0,0,0,0,0,0,0,0,0,0
579212155,577088744,574719034,572631391,570543748,635564457,566366928,631388406,0,0,0,0,0,0,0,0,0,0,0,0,0,0,0,0,0,0
578878753,643908701,574714247,572622492,637640625,702659783,0,0,0,0,0,0,0,0,0,0,0,0,0,0,0,0,0,0,0,0
577542012,776789947,573374683,571286779,770291999,566859328,564752992,562646912,694758304,558434496,556329184,620951543,0,0,0,0,0,0,0,0,0,0,0,0,0,0
577435750,709533319,707424663,571098536,568989880,633990856,564773337,562664682,560135763,558034304,555933101,553831642,0,0,0,0,0,0,0,0,0,0,0,0,0,0
577435274,709532837,707424179,705315521,703206862,566881500,564772842,562664184,560132949,625140865,555931310,553830363,0,0,0,0,0,0,0,0,0,0,0,0,0,0
711631059,709511910,707403760,705296378,566422297,564322628,562222959,560123290,558023365,623032560,0,0,0,0,0,0,0,0,0,0,0,0,0,0,0,0
576980395,641995254,572706596,570607946,568509296,566410646,564311996,629322209,0,0,0,0,0,0,0,0,0,0,0,0,0,0,0,0,0,0
577084458,642080654,572867009,570762226,568451628,633470813,564272014,763509182,560093423,0,0,0,0,0,0,0,0,0,0,0,0,0,0,0,0,0
578467766,576340185,708445417,706333690,770895147,567467368,565366180,563264992,0,0,0,0,0,0,0,0,0,0,0,0,0,0,0,0,0,0
578031338,575851576,573752923,571654526,569555873,567457220,766685158,0,0,0,0,0,0,0,0,0,0,0,0,0,0,0,0,0,0,0
712346461,576017851,573913322,571592227,636612181,567413384,565324475,764562666,0,0,0,0,0,0,0,0,0,0,0,0,0,0,0,0,0,0
577784833,642827075,573636454,638662791,703689642,634499019,565308142,562570491,0,0,0,0,0,0,0,0,0,0,0,0,0,0,0,0,0,0
577785993,642817700,573621682,705752256,569446862,567359708,565272554,630294263,560467835,558374306,556280777,554187248,0,0,0,0,0,0,0,0,0,0,0,0,0,0
577776012,575700659,573615043,571529681,569442783,567356397,565269754,562564429,560470391,692594336,623391689,621297906,0,0,0,0,0,0,0,0,0,0,0,0,0,0
577779373,709922760,573619413,571533795,703664880,567361533,564663356,562569577,560475797,558382274,623397358,0,0,0,0,0,0,0,0,0,0,0,0,0,0,0
577694282,575594642,573495990,571397594,569299198,566768422,564672585,562576748,560480912,558385075,556289239,554193402,0,0,0,0,0,0,0,0,0,0,0,0,0,0
711900674,575586734,573062150,570964316,0,0,0,0,0,0,0,0,0,0,0,0,0,0,0,0,0,0,0,0,0,0
578744722,576645320,641656035,569910818,567815233,565719902,563624060,561527963,559431609,557335767,555239925,0,0,0,0,0,0,0,0,0,0,0,0,0,0,0
575329334,573219406,571109734,568999806,768216469,564780973,562671045,560561116,692668915,555937699,553834709,0,0,0,0,0,0,0,0,0,0,0,0,0,0,0
642437265,573214619,571100582,568986291,701091008,698977229,562645979,694749673,558419191,0,0,0,0,0,0,0,0,0,0,0,0,0,0,0,0,0
574956823,639964227,570754160,568653469,633660873,564450294,562177323,560084568,557991813,555899057,553806557,0,0,0,0,0,0,0,0,0,0,0,0,0,0,0
575053490,774263271,570484006,568405595,767654544,564250309,562171898,695735536,0,0,0,0,0,0,0,0,0,0,0,0,0,0,0,0,0,0
574623807,572539734,704673388,568371587,700504730,564202416,629227205,0,0,0,0,0,0,0,0,0,0,0,0,0,0,0,0,0,0,0
574623303,572539227,570455152,635479940,700504730,564202416,629227205,0,0,0,0,0,0,0,0,0,0,0,0,0,0,0,0,0,0,0
576464458,574379633,572294808,704427712,568125415,565833234,563723833,561614432,559505031,691613358,555286741,552795115,0,0,0,0,0,0,0,0,0,0,0,0,0,0
710696339,574399433,572135938,704239416,567906926,700009636,697894618,561178619,0,0,0,0,0,0,0,0,0,0,0,0,0,0,0,0,0,0
643577000,574387413,639258116,637144624,635031900,565809545,563696053,561582561,559082219,0,0,0,0,0,0,0,0,0,0,0,0,0,0,0,0,0
576365884,708465508,706347404,704230068,0,0,0,0,0,0,0,0,0,0,0,0,0,0,0,0,0,0,0,0,0,0
710339039,573591827,705732928,636547692,701579161,565285061,697426162,0,0,0,0,0,0,0,0,0,0,0,0,0,0,0,0,0,0,0
709900705,707825595,571532756,703674606,566761331,0,0,0,0,0,0,0,0,0,0,0,0,0,0,0,0,0,0,0,0,0
575157318,573061475,570965377,568869535,566773437,564677595,562581497,0,0,0,0,0,0,0,0,0,0,0,0,0,0,0,0,0,0,0
575593547,640604019,705614492,636407236,567200237,562577218,560481387,625494419,556289724,554193637,0,0,0,0,0,0,0,0,0,0,0,0,0,0,0,0
776881436,573460299,571365498,770596777,567175385,631803405,562595647,560496754,625506725,690516441,0,0,0,0,0,0,0,0,0,0,0,0,0,0,0,0
575488043,573398104,571308165,569218226,567128287,564737040,562632765,627638121,692642711,556320964,554216689,0,0,0,0,0,0,0,0,0,0,0,0,0,0,0
573240763,571129288,569017814,634015203,564794865,562684159,627239954,759357002,623038850,620938170,618837746,0,0,0,0,0,0,0,0,0,0,0,0,0,0,0
706797756,570498407,635526416,700796089,564464739,562352143,0,0,0,0,0,0,0,0,0,0,0,0,0,0,0,0,0,0,0,0
574114711,639127218,569921998,567825642,0,0,0,0,0,0,0,0,0,0,0,0,0,0,0,0,0,0,0,0,0,0
641588753,572387137,637402992,568200352,566107344,563663875,561562674,693678946,557360017,555258817,553157617,0,0,0,0,0,0,0,0,0,0,0,0,0,0,0
573911287,571594281,569505106,567414654,0,0,0,0,0,0,0,0,0,0,0,0,0,0,0,0,0,0,0,0,0,0
640585472,571380019,636392037,567186584,565089738,696805376,627599154,692610405,556295319,621306825,552100604,0,0,0,0,0,0,0,0,0,0,0,0,0,0,0
640552449,571350074,636365682,567163563,565070052,629713183,560503641,558402962,556302539,0,0,0,0,0,0,0,0,0,0,0,0,0,0,0,0,0
707602442,705514562,703426682,701338802,565033450,629744677,627638365,625532821,556317645,0,0,0,0,0,0,0,0,0,0,0,0,0,0,0,0,0
638253400,569031792,566918792,564806048,629801911,761907407,558468072,623048813,553836715,551733480,0,0,0,0,0,0,0,0,0,0,0,0,0,0,0,0
570883472,702987706,566656739,564177685,562096958,560015464,557934737,757180346,687990756,0,0,0,0,0,0,0,0,0,0,0,0,0,0,0,0,0
570435950,635463300,566272667,564190898,562108104,560026334,557944308,557318500,622335902,687353305,0,0,0,0,0,0,0,0,0,0,0,0,0,0,0,0
639384300,570063135,635054413,565828733,765037739,561593818,559083215,0,0,0,0,0,0,0,0,0,0,0,0,0,0,0,0,0,0,0
571848017,636841652,567394851,632424070,764562666,0,0,0,0,0,0,0,0,0,0,0,0,0,0,0,0,0,0,0,0,0
571481824,569399019,567316470,565114262,563014095,558377795,556283516,554189237,552094702,0,0,0,0,0,0,0,0,0,0,0,0,0,0,0,0,0
571317042,636335979,567137189,632156126,562624795,560520533,625525134,556312008,0,0,0,0,0,0,0,0,0,0,0,0,0,0,0,0,0,0
638423849,636332379,701349774,565040577,562949365,560528939,558425181,556321425,755544003,552113656,0,0,0,0,0,0,0,0,0,0,0,0,0,0,0,0
571251240,703384155,634190734,564996290,697129205,560560428,692668511,690559122,755559365,686341113,0,0,0,0,0,0,0,0,0,0,0,0,0,0,0,0
568594329,566499013,564403186,562218279,560119890,558021503,555922859,0,0,0,0,0,0,0,0,0,0,0,0,0,0,0,0,0,0,0
568710422,566602832,564495498,629497028,560280831,557964354,555876732,688007350,753029359,0,0,0,0,0,0,0,0,0,0,0,0,0,0,0,0,0
702591078,767637162,698466286,764940216,0,0,0,0,0,0,0,0,0,0,0,0,0,0,0,0,0,0,0,0,0,0
568338290,566267288,564196285,696341986,760748708,0,0,0,0,0,0,0,0,0,0,0,0,0,0,0,0,0,0,0,0,0
637424914,635334319,632846666,630743014,0,0,0,0,0,0,0,0,0,0,0,0,0,0,0,0,0,0,0,0,0,0
570258944,769497674,566083477,631104479,561577260,760797302,691582145,0,0,0,0,0,0,0,0,0,0,0,0,0,0,0,0,0,0,0
570079078,567951510,700042694,697915637,628282076,0,0,0,0,0,0,0,0,0,0,0,0,0,0,0,0,0,0,0,0,0
570094961,702196107,565861797,697963199,561630424,693732082,624094081,554881482,0,0,0,0,0,0,0,0,0,0,0,0,0,0,0,0,0,0
569639300,567543985,632557534,563269652,561170754,559071855,556972957,554874058,552775160,0,0,0,0,0,0,0,0,0,0,0,0,0,0,0,0,0
569651251,567554671,632567211,563362024,628271917,559065194,556967334,621978338,0,0,0,0,0,0,0,0,0,0,0,0,0,0,0,0,0,0
569660956,567563346,565465993,563368639,695488758,626169653,556963948,554867363,552770522,0,0,0,0,0,0,0,0,0,0,0,0,0,0,0,0,0
636815186,567598286,766655061,764569808,0,0,0,0,0,0,0,0,0,0,0,0,0,0,0,0,0,0,0,0,0,0
636325895,634248361,631823945,763925227,0,0,0,0,0,0,0,0,0,0,0,0,0,0,0,0,0,0,0,0,0,0
633984743,564769527,562228524,560125778,558023801,0,0,0,0,0,0,0,0,0,0,0,0,0,0,0,0,0,0,0,0,0
701168047,631942850,562717654,761927657,558485501,555935800,553833603,618840526,0,0,0,0,0,0,0,0,0,0,0,0,0,0,0,0,0,0
566250322,698388592,696309135,627120045,557931724,555852267,553130689,0,0,0,0,0,0,0,0,0,0,0,0,0,0,0,0,0,0,0
568161339,566072952,631093428,561896177,559481905,624485741,555271082,553165287,0,0,0,0,0,0,0,0,0,0,0,0,0,0,0,0,0,0
702210105,565875809,563758986,628751794,693743835,556987224,0,0,0,0,0,0,0,0,0,0,0,0,0,0,0,0,0,0,0,0
567561493,565464403,563367058,628378832,559061528,624073558,689085333,552770771,0,0,0,0,0,0,0,0,0,0,0,0,0,0,0,0,0,0
634520515,565320915,563229411,561137907,760373246,0,0,0,0,0,0,0,0,0,0,0,0,0,0,0,0,0,0,0,0,0
769055299,766917059,563172177,761794296,0,0,0,0,0,0,0,0,0,0,0,0,0,0,0,0,0,0,0,0,0,0
567728211,699827603,697709523,762381595,626087771,556902811,554826715,0,0,0,0,0,0,0,0,0,0,0,0,0,0,0,0,0,0,0
567284043,565206122,563128201,695267752,558971334,556893157,554177706,552088563,0,0,0,0,0,0,0,0,0,0,0,0,0,0,0,0,0,0
566763344,564668270,562572940,560477610,692600008,556287206,0,0,0,0,0,0,0,0,0,0,0,0,0,0,0,0,0,0,0,0
564663878,629677929,627583373,558379953,623393747,554190070,0,0,0,0,0,0,0,0,0,0,0,0,0,0,0,0,0,0,0,0
696959099,560616099,692708812,556365556,620944054,0,0,0,0,0,0,0,0,0,0,0,0,0,0,0,0,0,0,0,0,0
562492140,627074092,557895525,622933917,687972822,752364280,0,0,0,0,0,0,0,0,0,0,0,0,0,0,0,0,0,0,0,0
564002586,763238521,694039513,624472633,622368664,553155832,0,0,0,0,0,0,0,0,0,0,0,0,0,0,0,0,0,0,0,0
563900580,763153900,693754935,758742655,689512648,754115835,0,0,0,0,0,0,0,0,0,0,0,0,0,0,0,0,0,0,0,0
563096706,695244198,693173962,690487632,621291192,0,0,0,0,0,0,0,0,0,0,0,0,0,0,0,0,0,0,0,0,0
697124889,627935361,692963306,757661266,755548090,0,0,0,0,0,0,0,0,0,0,0,0,0,0,0,0,0,0,0,0,0
560746112,760002514,757720614,688487801,552146124,0,0,0,0,0,0,0,0,0,0,0,0,0,0,0,0,0,0,0,0,0
628989010,559793830,624816377,622389582,620281761,618173684,0,0,0,0,0,0,0,0,0,0,0,0,0,0,0,0,0,0,0,0
763121084,693775906,758753158,622403050,0,0,0,0,0,0,0,0,0,0,0,0,0,0,0,0,0,0,0,0,0,0
763102454,693795648,758773639,756641997,619897556,0,0,0,0,0,0,0,0,0,0,0,0,0,0,0,0,0,0,0,0,0
561000754,693153389,691087528,756131299,0,0,0,0,0,0,0,0,0,0,0,0,0,0,0,0,0,0,0,0,0,0
627966249,558767240,556677094,621326149,619222180,0,0,0,0,0,0,0,0,0,0,0,0,0,0,0,0,0,0,0,0,0
762113305,558714522,623465496,755561878,0,0,0,0,0,0,0,0,0,0,0,0,0,0,0,0,0,0,0,0,0,0
759888905,556430414,755625618,619275991,616749538,0,0,0,0,0,0,0,0,0,0,0,0,0,0,0,0,0,0,0,0,0
558020078,555929745,755166259,552197618,550123478,548050361,0,0,0,0,0,0,0,0,0,0,0,0,0,0,0,0,0,0,0,0
626953393,557346820,622357588,620259750,618161654,0,0,0,0,0,0,0,0,0,0,0,0,0,0,0,0,0,0,0,0,0
760793316,758728784,689778096,553430556,0,0,0,0,0,0,0,0,0,0,0,0,0,0,0,0,0,0,0,0,0,0
760009740,757946035,755575383,619227390,0,0,0,0,0,0,0,0,0,0,0,0,0,0,0,0,0,0,0,0,0,0
557318646,553771694,551660154,549548358,547436818,679891060,0,0,0,0,0,0,0,0,0,0,0,0,0,0,0,0,0,0,0,0
557352942,756589228,553172587,551082282,549325279,547208218,0,0,0,0,0,0,0,0,0,0,0,0,0,0,0,0,0,0,0,0
624075712,621981544,552778513,617881785,548673635,0,0,0,0,0,0,0,0,0,0,0,0,0,0,0,0,0,0,0,0,0
556962211,554864955,619993043,550787692,548690949,0,0,0,0,0,0,0,0,0,0,0,0,0,0,0,0,0,0,0,0,0
556930182,621923341,620061077,550873885,0,0,0,0,0,0,0,0,0,0,0,0,0,0,0,0,0,0,0,0,0,0
691039859,756085930,686913762,751318519,0,0,0,0,0,0,0,0,0,0,0,0,0,0,0,0,0,0,0,0,0,0
556302843,554209489,552116135,550022781,547929427,613291469,611183698,541973801,539873024,0,0,0,0,0,0,0,0,0,0,0,0,0,0,0,0,0
623428057,621353567,619545817,684533600,0,0,0,0,0,0,0,0,0,0,0,0,0,0,0,0,0,0,0,0,0,0
755157984,686387698,751439796,682275191,0,0,0,0,0,0,0,0,0,0,0,0,0,0,0,0,0,0,0,0,0,0
622352119,620253907,618155951,548949132,546849311,679397035,543083143,540986722,538890302,0,0,0,0,0,0,0,0,0,0,0,0,0,0,0,0,0
689496228,687415618,685610453,616386931,0,0,0,0,0,0,0,0,0,0,0,0,0,0,0,0,0,0,0,0,0,0
555280372,553194702,551109801,750351236,681180951,612135073,542916989,540807769,0,0,0,0,0,0,0,0,0,0,0,0,0,0,0,0,0,0
551744199,751387352,682203303,613062675,0,0,0,0,0,0,0,0,0,0,0,0,0,0,0,0,0,0,0,0,0,0
553138164,551037392,548936620,679571431,543228862,541123248,539016866,536910485,0,0,0,0,0,0,0,0,0,0,0,0,0,0,0,0,0,0
620278479,551080601,548991586,614313653,612191761,0,0,0,0,0,0,0,0,0,0,0,0,0,0,0,0,0,0,0,0,0
552770041,550672352,615683782,546476666,611487022,542280725,540302583,605314525,0,0,0,0,0,0,0,0,0,0,0,0,0,0,0,0,0,0
619850464,550636737,548532385,546411330,544583391,542494142,540404894,538314878,0,0,0,0,0,0,0,0,0,0,0,0,0,0,0,0,0,0
619826045,684823364,682712075,546711900,0,0,0,0,0,0,0,0,0,0,0,0,0,0,0,0,0,0,0,0,0,0
552127958,550036667,547945632,545866832,544042747,541938913,539835336,604840621,0,0,0,0,0,0,0,0,0,0,0,0,0,0,0,0,0,0
684250876,547943653,545867680,543792730,675920451,606721836,537522966,0,0,0,0,0,0,0,0,0,0,0,0,0,0,0,0,0,0,0
616750842,681766371,612965342,543777458,541686435,539595412,537504389,0,0,0,0,0,0,0,0,0,0,0,0,0,0,0,0,0,0,0
551050737,548953301,546855554,544757807,609769491,608086256,538880469,0,0,0,0,0,0,0,0,0,0,0,0,0,0,0,0,0,0,0
550675180,682795728,546481787,544385573,743615496,540293606,538196168,0,0,0,0,0,0,0,0,0,0,0,0,0,0,0,0,0,0,0
616059635,546851251,544751987,542654046,674773833,538458419,0,0,0,0,0,0,0,0,0,0,0,0,0,0,0,0,0,0,0,0
548951783,546852762,544753998,542656564,540558875,538884858,0,0,0,0,0,0,0,0,0,0,0,0,0,0,0,0,0,0,0,0
615027680,545832317,543746073,676202736,606993870,537784237,0,0,0,0,0,0,0,0,0,0,0,0,0,0,0,0,0,0,0,0
547918331,680065588,544054371,541948193,0,0,0,0,0,0,0,0,0,0,0,0,0,0,0,0,0,0,0,0,0,0
545434841,543340908,541244744,539148580,537052416,0,0,0,0,0,0,0,0,0,0,0,0,0,0,0,0,0,0,0,0,0
545432718,677553924,541343186,539245732,537148022,0,0,0,0,0,0,0,0,0,0,0,0,0,0,0,0,0,0,0,0,0
545418225,543310489,541209723,673326686,537008448,0,0,0,0,0,0,0,0,0,0,0,0,0,0,0,0,0,0,0,0,0
545407389,543294493,541390319,539297476,537205657,0,0,0,0,0,0,0,0,0,0,0,0,0,0,0,0,0,0,0,0,0
612509300,543497650,608517746,606428978,0,0,0,0,0,0,0,0,0,0,0,0,0,0,0,0,0,0,0,0,0,0
679608170,610618820,608530830,606442584,604354338,0,0,0,0,0,0,0,0,0,0,0,0,0,0,0,0,0,0,0,0,0
545395342,543509969,608532371,606446166,738577689,0,0,0,0,0,0,0,0,0,0,0,0,0,0,0,0,0,0,0,0,0
679619805,744607596,541176136,539071010,537227512,0,0,0,0,0,0,0,0,0,0,0,0,0,0,0,0,0,0,0,0,0
546833134,543281067,675394452,606181756,536968805,0,0,0,0,0,0,0,0,0,0,0,0,0,0,0,0,0,0,0,0,0
546834155,543279026,541174683,539070085,536965743,0,0,0,0,0,0,0,0,0,0,0,0,0,0,0,0,0,0,0,0,0
546842583,610378736,742490594,539058388,536952518,0,0,0,0,0,0,0,0,0,0,0,0,0,0,0,0,0,0,0,0,0
681068762,544749430,542650709,540551987,0,0,0,0,0,0,0,0,0,0,0,0,0,0,0,0,0,0,0,0,0,0
613962975,611863168,542656353,540558145,538460193,0,0,0,0,0,0,0,0,0,0,0,0,0,0,0,0,0,0,0,0,0
613975174,545152985,543053474,540953963,538854452,0,0,0,0,0,0,0,0,0,0,0,0,0,0,0,0,0,0,0,0,0
748214636,679332525,543009904,540904755,0,0,0,0,0,0,0,0,0,0,0,0,0,0,0,0,0,0,0,0,0,0
681090297,544783039,542689192,674812817,538501243,0,0,0,0,0,0,0,0,0,0,0,0,0,0,0,0,0,0,0,0,0
681090297,544792462,609809770,607717447,538517028,0,0,0,0,0,0,0,0,0,0,0,0,0,0,0,0,0,0,0,0,0
546875887,544800114,542708554,674834979,673037299,0,0,0,0,0,0,0,0,0,0,0,0,0,0,0,0,0,0,0,0,0
546889672,544829703,542988731,540878457,538769207,0,0,0,0,0,0,0,0,0,0,0,0,0,0,0,0,0,0,0,0,0
546889672,612207613,542988731,540878457,538769207,0,0,0,0,0,0,0,0,0,0,0,0,0,0,0,0,0,0,0,0,0
546897842,544830768,609852932,675100369,538775206,0,0,0,0,0,0,0,0,0,0,0,0,0,0,0,0,0,0,0,0,0
681127312,612184557,542965690,540854920,538744150,0,0,0,0,0,0,0,0,0,0,0,0,0,0,0,0,0,0,0,0,0
748227050,746178158,542769989,540688924,538737643,0,0,0,0,0,0,0,0,0,0,0,0,0,0,0,0,0,0,0,0,0
546916831,611974525,677000541,540700988,538619164,0,0,0,0,0,0,0,0,0,0,0,0,0,0,0,0,0,0,0,0,0
546497495,544817890,542729169,540640447,538551726,0,0,0,0,0,0,0,0,0,0,0,0,0,0,0,0,0,0,0,0,0
546499416,544873684,542793152,674930092,672849561,0,0,0,0,0,0,0,0,0,0,0,0,0,0,0,0,0,0,0,0,0
613605181,746212077,542807518,607838414,0,0,0,0,0,0,0,0,0,0,0,0,0,0,0,0,0,0,0,0,0,0
613590155,611597548,542390969,540293253,538195537,0,0,0,0,0,0,0,0,0,0,0,0,0,0,0,0,0,0,0,0,0
613578869,544508616,609522831,540319063,538224158,0,0,0,0,0,0,0,0,0,0,0,0,0,0,0,0,0,0,0,0,0
613583077,678588512,542271539,607280902,538217940,0,0,0,0,0,0,0,0,0,0,0,0,0,0,0,0,0,0,0,0,0
613576586,611621353,542418101,540323968,538229580,0,0,0,0,0,0,0,0,0,0,0,0,0,0,0,0,0,0,0,0,0
546463651,544354329,542426343,540333241,672457611,0,0,0,0,0,0,0,0,0,0,0,0,0,0,0,0,0,0,0,0,0
546453607,678754734,542445681,540354868,0,0,0,0,0,0,0,0,0,0,0,0,0,0,0,0,0,0,0,0,0,0
680676250,544534984,609553539,540354878,0,0,0,0,0,0,0,0,0,0,0,0,0,0,0,0,0,0,0,0,0,0
613565888,544342860,542241061,540347129,538255569,0,0,0,0,0,0,0,0,0,0,0,0,0,0,0,0,0,0,0,0,0
613560293,611433832,542217791,607219477,538287336,0,0,0,0,0,0,0,0,0,0,0,0,0,0,0,0,0,0,0,0,0
546439618,678530895,542206249,540386047,538298841,0,0,0,0,0,0,0,0,0,0,0,0,0,0,0,0,0,0,0,0,0
546444253,544310356,542200870,540393717,538308551,0,0,0,0,0,0,0,0,0,0,0,0,0,0,0,0,0,0,0,0,0
546445807,544323998,542218371,607221608,538007118,0,0,0,0,0,0,0,0,0,0,0,0,0,0,0,0,0,0,0,0,0
546427321,544304747,743525713,540093752,672205598,0,0,0,0,0,0,0,0,0,0,0,0,0,0,0,0,0,0,0,0,0
546431453,678500181,676386599,540430071,672567754,0,0,0,0,0,0,0,0,0,0,0,0,0,0,0,0,0,0,0,0,0
545789413,544342266,676459761,540141288,538040287,0,0,0,0,0,0,0,0,0,0,0,0,0,0,0,0,0,0,0,0,0
545794272,677905292,676446458,540124654,538020321,0,0,0,0,0,0,0,0,0,0,0,0,0,0,0,0,0,0,0,0,0
545789864,544299225,743513795,540075951,537963416,0,0,0,0,0,0,0,0,0,0,0,0,0,0,0,0,0,0,0,0,0
545796297,543693703,541594737,539495772,537396806,0,0,0,0,0,0,0,0,0,0,0,0,0,0,0,0,0,0,0,0,0
545803685,543702572,542033915,539938259,537842603,0,0,0,0,0,0,0,0,0,0,0,0,0,0,0,0,0,0,0,0,0
545802063,544131731,609144920,539940382,0,0,0,0,0,0,0,0,0,0,0,0,0,0,0,0,0,0,0,0,0,0
545809809,544118271,609129425,539922852,604934006,0,0,0,0,0,0,0,0,0,0,0,0,0,0,0,0,0,0,0,0,0
545809809,543713800,609129425,539922852,604934006,0,0,0,0,0,0,0,0,0,0,0,0,0,0,0,0,0,0,0,0,0
545856663,544026841,676133021,674021218,537691942,0,0,0,0,0,0,0,0,0,0,0,0,0,0,0,0,0,0,0,0,0
610911250,541925588,539821726,537718632,0,0,0,0,0,0,0,0,0,0,0,0,0,0,0,0,0,0,0,0,0,0
543345656,541250026,539154397,537058767,0,0,0,0,0,0,0,0,0,0,0,0,0,0,0,0,0,0,0,0,0,0
543341297,541244902,539148507,537052112,0,0,0,0,0,0,0,0,0,0,0,0,0,0,0,0,0,0,0,0,0,0
610442727,541236693,539139522,537042351,0,0,0,0,0,0,0,0,0,0,0,0,0,0,0,0,0,0,0,0,0,0
543328214,541230531,539132592,537034653,0,0,0,0,0,0,0,0,0,0,0,0,0,0,0,0,0,0,0,0,0,0
543325881,541227422,539128964,537030505,0,0,0,0,0,0,0,0,0,0,0,0,0,0,0,0,0,0,0,0,0,0
543323122,541224675,539125973,537027527,0,0,0,0,0,0,0,0,0,0,0,0,0,0,0,0,0,0,0,0,0,0
610430452,541222631,539123929,537024971,0,0,0,0,0,0,0,0,0,0,0,0,0,0,0,0,0,0,0,0,0,0
543315923,541216449,539116718,537017244,0,0,0,0,0,0,0,0,0,0,0,0,0,0,0,0,0,0,0,0,0,0
543315951,541215966,673333453,537015740,0,0,0,0,0,0,0,0,0,0,0,0,0,0,0,0,0,0,0,0,0,0
543313633,541213133,673330361,537012389,0,0,0,0,0,0,0,0,0,0,0,0,0,0,0,0,0,0,0,0,0,0
610425591,541217258,606226652,537018319,0,0,0,0,0,0,0,0,0,0,0,0,0,0,0,0,0,0,0,0,0,0
544736237,541201899,539100638,537000145,0,0,0,0,0,0,0,0,0,0,0,0,0,0,0,0,0,0,0,0,0,0
544738541,542639331,606213365,537004782,0,0,0,0,0,0,0,0,0,0,0,0,0,0,0,0,0,0,0,0,0,0
544738541,675421949,606213365,537004782,0,0,0,0,0,0,0,0,0,0,0,0,0,0,0,0,0,0,0,0,0,0
544754406,542650826,540546990,604096493,0,0,0,0,0,0,0,0,0,0,0,0,0,0,0,0,0,0,0,0,0,0
544753402,542655209,540556759,538458566,0,0,0,0,0,0,0,0,0,0,0,0,0,0,0,0,0,0,0,0,0,0
545189747,543094590,540999178,536873458,0,0,0,0,0,0,0,0,0,0,0,0,0,0,0,0,0,0,0,0,0,0
544757719,542660292,607671728,538465181,0,0,0,0,0,0,0,0,0,0,0,0,0,0,0,0,0,0,0,0,0,0
544757941,542660508,540562819,672682859,0,0,0,0,0,0,0,0,0,0,0,0,0,0,0,0,0,0,0,0,0,0
544759755,542662582,540565409,538468236,0,0,0,0,0,0,0,0,0,0,0,0,0,0,0,0,0,0,0,0,0,0
544761566,542664652,540567738,538470823,0,0,0,0,0,0,0,0,0,0,0,0,0,0,0,0,0,0,0,0,0,0
544764926,542668525,540572381,605584844,0,0,0,0,0,0,0,0,0,0,0,0,0,0,0,0,0,0,0,0,0,0
544773357,676895709,540582861,538487485,0,0,0,0,0,0,0,0,0,0,0,0,0,0,0,0,0,0,0,0,0,0
544784313,542690721,540597130,672721266,0,0,0,0,0,0,0,0,0,0,0,0,0,0,0,0,0,0,0,0,0,0
544782794,542688949,540595104,538501258,0,0,0,0,0,0,0,0,0,0,0,0,0,0,0,0,0,0,0,0,0,0
544786626,542694311,540601995,605618031,0,0,0,0,0,0,0,0,0,0,0,0,0,0,0,0,0,0,0,0,0,0
679002576,542691516,540597928,605613203,0,0,0,0,0,0,0,0,0,0,0,0,0,0,0,0,0,0,0,0,0,0
679302358,610083999,742193001,538756916,0,0,0,0,0,0,0,0,0,0,0,0,0,0,0,0,0,0,0,0,0,0
544785657,542692840,540600279,538507718,0,0,0,0,0,0,0,0,0,0,0,0,0,0,0,0,0,0,0,0,0,0
544404684,542704886,540613863,538523096,0,0,0,0,0,0,0,0,0,0,0,0,0,0,0,0,0,0,0,0,0,0
544397308,676520427,674425818,538113738,0,0,0,0,0,0,0,0,0,0,0,0,0,0,0,0,0,0,0,0,0,0
544399824,542305212,540210600,538518523,0,0,0,0,0,0,0,0,0,0,0,0,0,0,0,0,0,0,0,0,0,0
544400832,542306981,674835963,538528238,0,0,0,0,0,0,0,0,0,0,0,0,0,0,0,0,0,0,0,0,0,0
544394911,542300286,540205404,538110011,0,0,0,0,0,0,0,0,0,0,0,0,0,0,0,0,0,0,0,0,0,0
611496147,542290876,540194468,538098061,0,0,0,0,0,0,0,0,0,0,0,0,0,0,0,0,0,0,0,0,0,0
544379307,542281614,540183921,538086228,0,0,0,0,0,0,0,0,0,0,0,0,0,0,0,0,0,0,0,0,0,0
544363494,542262994,540162750,538062249,0,0,0,0,0,0,0,0,0,0,0,0,0,0,0,0,0,0,0,0,0,0
544349915,542247622,540145841,538043548,0,0,0,0,0,0,0,0,0,0,0,0,0,0,0,0,0,0,0,0,0,0
544325785,609327222,674328404,538003249,0,0,0,0,0,0,0,0,0,0,0,0,0,0,0,0,0,0,0,0,0,0
543693052,541593069,539493086,538056697,0,0,0,0,0,0,0,0,0,0,0,0,0,0,0,0,0,0,0,0,0,0
543694591,541595379,539495910,537396698,0,0,0,0,0,0,0,0,0,0,0,0,0,0,0,0,0,0,0,0,0,0
543706598,541608662,606619846,537413303,0,0,0,0,0,0,0,0,0,0,0,0,0,0,0,0,0,0,0,0,0,0
745033973,541609704,606620890,537414349,0,0,0,0,0,0,0,0,0,0,0,0,0,0,0,0,0,0,0,0,0,0
745033973,541609957,539512277,537414340,0,0,0,0,0,0,0,0,0,0,0,0,0,0,0,0,0,0,0,0,0,0
543712738,541615575,539518668,671639233,0,0,0,0,0,0,0,0,0,0,0,0,0,0,0,0,0,0,0,0,0,0
543713948,608726146,606629480,671641423,0,0,0,0,0,0,0,0,0,0,0,0,0,0,0,0,0,0,0,0,0,0
543721466,675842802,539528937,537432800,0,0,0,0,0,0,0,0,0,0,0,0,0,0,0,0,0,0,0,0,0,0
543722741,541627111,539531481,537435851,0,0,0,0,0,0,0,0,0,0,0,0,0,0,0,0,0,0,0,0,0,0
610853815,608762268,606669697,604578150,0,0,0,0,0,0,0,0,0,0,0,0,0,0,0,0,0,0,0,0,0,0
589570450,587490555,719469675,0,0,0,0,0,0,0,0,0,0,0,0,0,0,0,0,0,0,0,0,0,0,0
589570450,587366404,719469675,0,0,0,0,0,0,0,0,0,0,0,0,0,0,0,0,0,0,0,0,0,0,0
589450730,587355123,585259516,0,0,0,0,0,0,0,0,0,0,0,0,0,0,0,0,0,0,0,0,0,0,0
589394702,587314505,585234051,0,0,0,0,0,0,0,0,0,0,0,0,0,0,0,0,0,0,0,0,0,0,0
590880495,588784374,586688253,0,0,0,0,0,0,0,0,0,0,0,0,0,0,0,0,0,0,0,0,0,0,0
590210024,654907155,585699899,0,0,0,0,0,0,0,0,0,0,0,0,0,0,0,0,0,0,0,0,0,0,0
655503595,586299379,584204026,0,0,0,0,0,0,0,0,0,0,0,0,0,0,0,0,0,0,0,0,0,0,0
648325756,578973964,711104370,0,0,0,0,0,0,0,0,0,0,0,0,0,0,0,0,0,0,0,0,0,0,0
581232261,713183249,576883828,0,0,0,0,0,0,0,0,0,0,0,0,0,0,0,0,0,0,0,0,0,0,0
644546491,575317968,774535898,0,0,0,0,0,0,0,0,0,0,0,0,0,0,0,0,0,0,0,0,0,0,0
709494127,573171055,571064433,0,0,0,0,0,0,0,0,0,0,0,0,0,0,0,0,0,0,0,0,0,0,0
708352641,572093282,771377986,0,0,0,0,0,0,0,0,0,0,0,0,0,0,0,0,0,0,0,0,0,0,0
569135704,567054220,564972223,0,0,0,0,0,0,0,0,0,0,0,0,0,0,0,0,0,0,0,0,0,0,0
569135192,701271180,564972223,0,0,0,0,0,0,0,0,0,0,0,0,0,0,0,0,0,0,0,0,0,0,0
635977865,566773687,564678373,0,0,0,0,0,0,0,0,0,0,0,0,0,0,0,0,0,0,0,0,0,0,0
568084841,767162889,765013934,0,0,0,0,0,0,0,0,0,0,0,0,0,0,0,0,0,0,0,0,0,0,0
767433066,630766855,628658599,0,0,0,0,0,0,0,0,0,0,0,0,0,0,0,0,0,0,0,0,0,0,0
632568949,630367772,561160887,0,0,0,0,0,0,0,0,0,0,0,0,0,0,0,0,0,0,0,0,0,0,0
766887258,764758780,628234925,0,0,0,0,0,0,0,0,0,0,0,0,0,0,0,0,0,0,0,0,0,0,0
766887258,764518666,628234925,0,0,0,0,0,0,0,0,0,0,0,0,0,0,0,0,0,0,0,0,0,0,0
766334273,630049530,627624623,0,0,0,0,0,0,0,0,0,0,0,0,0,0,0,0,0,0,0,0,0,0,0
694188151,759262172,758648214,0,0,0,0,0,0,0,0,0,0,0,0,0,0,0,0,0,0,0,0,0,0,0
626167762,624068891,554984552,0,0,0,0,0,0,0,0,0,0,0,0,0,0,0,0,0,0,0,0,0,0,0
757760622,688499916,618843375,0,0,0,0,0,0,0,0,0,0,0,0,0,0,0,0,0,0,0,0,0,0,0
690663360,688521710,618847083,0,0,0,0,0,0,0,0,0,0,0,0,0,0,0,0,0,0,0,0,0,0,0
691712644,756675018,754115477,0,0,0,0,0,0,0,0,0,0,0,0,0,0,0,0,0,0,0,0,0,0,0
624227439,554839326,754083004,0,0,0,0,0,0,0,0,0,0,0,0,0,0,0,0,0,0,0,0,0,0,0
758557230,756408801,754046884,0,0,0,0,0,0,0,0,0,0,0,0,0,0,0,0,0,0,0,0,0,0,0
553688314,687795644,685258897,0,0,0,0,0,0,0,0,0,0,0,0,0,0,0,0,0,0,0,0,0,0,0
622119301,552748058,617769633,0,0,0,0,0,0,0,0,0,0,0,0,0,0,0,0,0,0,0,0,0,0,0
622143082,620029946,550651031,0,0,0,0,0,0,0,0,0,0,0,0,0,0,0,0,0,0,0,0,0,0,0
622143082,754057735,550651031,0,0,0,0,0,0,0,0,0,0,0,0,0,0,0,0,0,0,0,0,0,0,0
756390954,754268108,617747580,0,0,0,0,0,0,0,0,0,0,0,0,0,0,0,0,0,0,0,0,0,0,0
756454560,686883885,617722540,0,0,0,0,0,0,0,0,0,0,0,0,0,0,0,0,0,0,0,0,0,0,0
621712941,619617006,751329963,0,0,0,0,0,0,0,0,0,0,0,0,0,0,0,0,0,0,0,0,0,0,0
755551706,753495071,550300758,0,0,0,0,0,0,0,0,0,0,0,0,0,0,0,0,0,0,0,0,0,0,0
620263049,618559176,616457240,0,0,0,0,0,0,0,0,0,0,0,0,0,0,0,0,0,0,0,0,0,0,0
754847048,618182431,548960765,0,0,0,0,0,0,0,0,0,0,0,0,0,0,0,0,0,0,0,0,0,0,0
754635408,618254564,548584954,0,0,0,0,0,0,0,0,0,0,0,0,0,0,0,0,0,0,0,0,0,0,0
551046634,616056795,546846129,0,0,0,0,0,0,0,0,0,0,0,0,0,0,0,0,0,0,0,0,0,0,0
547523827,545417500,610574402,0,0,0,0,0,0,0,0,0,0,0,0,0,0,0,0,0,0,0,0,0,0,0
615004636,546390260,544226727,0,0,0,0,0,0,0,0,0,0,0,0,0,0,0,0,0,0,0,0,0,0,0
547906805,545812511,544113472,0,0,0,0,0,0,0,0,0,0,0,0,0,0,0,0,0,0,0,0,0,0,0
546895756,679303056,610082111,0,0,0,0,0,0,0,0,0,0,0,0,0,0,0,0,0,0,0,0,0,0,0
545839984,544060300,541953347,0,0,0,0,0,0,0,0,0,0,0,0,0,0,0,0,0,0,0,0,0,0,0
541254141,539159536,537064931,0,0,0,0,0,0,0,0,0,0,0,0,0,0,0,0,0,0,0,0,0,0,0
541252600,539157484,537062112,0,0,0,0,0,0,0,0,0,0,0,0,0,0,0,0,0,0,0,0,0,0,0
608824181,539620990,537526150,0,0,0,0,0,0,0,0,0,0,0,0,0,0,0,0,0,0,0,0,0,0,0
541330109,539242385,537154661,0,0,0,0,0,0,0,0,0,0,0,0,0,0,0,0,0,0,0,0,0,0,0
541231867,539134189,537036256,0,0,0,0,0,0,0,0,0,0,0,0,0,0,0,0,0,0,0,0,0,0,0
541225209,539126765,671245793,0,0,0,0,0,0,0,0,0,0,0,0,0,0,0,0,0,0,0,0,0,0,0
541190865,673305793,738312112,0,0,0,0,0,0,0,0,0,0,0,0,0,0,0,0,0,0,0,0,0,0,0
543094777,539034357,536926698,0,0,0,0,0,0,0,0,0,0,0,0,0,0,0,0,0,0,0,0,0,0,0
542674685,540578549,538482413,0,0,0,0,0,0,0,0,0,0,0,0,0,0,0,0,0,0,0,0,0,0,0
543027165,675140794,538818709,0,0,0,0,0,0,0,0,0,0,0,0,0,0,0,0,0,0,0,0,0,0,0
609495727,607750108,739839100,0,0,0,0,0,0,0,0,0,0,0,0,0,0,0,0,0,0,0,0,0,0,0
743823772,607523922,672550410,0,0,0,0,0,0,0,0,0,0,0,0,0,0,0,0,0,0,0,0,0,0,0
541605881,539507691,604518109,0,0,0,0,0,0,0,0,0,0,0,0,0,0,0,0,0,0,0,0,0,0,0
542039280,539943878,537848732,0,0,0,0,0,0,0,0,0,0,0,0,0,0,0,0,0,0,0,0,0,0,0
541623800,539527914,537432028,0,0,0,0,0,0,0,0,0,0,0,0,0,0,0,0,0,0,0,0,0,0,0
541624569,539528686,537432802,0,0,0,0,0,0,0,0,0,0,0,0,0,0,0,0,0,0,0,0,0,0,0
