0,1,2,3,4,5,6,7,8,9,10,11,12,13,14,15,16,17,18,19,20,21,22,23,24,25
590136469,789374389,585958614,583870198,581539131,579424634,577314473,642318280,573107928,638115303,703122679,0,0,0,0,0,0,0,0,0,0,0,0,0,0,0
589889510,587790316,719908595,583591417,581104617,579004155,0,0,0,0,0,0,0,0,0,0,0,0,0,0,0,0,0,0,0,0
589490647,587392223,652402918,717413358,715313918,0,0,0,0,0,0,0,0,0,0,0,0,0,0,0,0,0,0,0,0,0
589948325,587844528,585740731,583636934,581526750,579416309,644018863,574809546,572710871,570611941,568513010,0,0,0,0,0,0,0,0,0,0,0,0,0,0,0
656593635,587386859,585288946,583191033,0,0,0,0,0,0,0,0,0,0,0,0,0,0,0,0,0,0,0,0,0,0
657031647,587821287,585719535,583617782,581104527,579003570,576903883,574804956,572706789,570608877,568510710,566412798,0,0,0,0,0,0,0,0,0,0,0,0,0,0
657048268,587836885,585734366,717849318,581523704,713224075,711123626,574806720,572708554,570610389,635621087,566414058,564315892,562217471,0,0,0,0,0,0,0,0,0,0,0,0
590012281,587905671,585798804,583692193,581575868,579460054,577348330,709458935,707356926,637727843,568520311,566421386,564322461,562223792,560125123,558026198,555927529,553828860,0,0,0,0,0,0,0,0
589491979,721610787,585294395,583195475,581095299,578994867,576895447,574796782,706916602,0,0,0,0,0,0,0,0,0,0,0,0,0,0,0,0,0
589484658,587386497,585288592,583190687,648200637,646101723,576894450,0,0,0,0,0,0,0,0,0,0,0,0,0,0,0,0,0,0,0
589476064,654487272,585281009,583183609,0,0,0,0,0,0,0,0,0,0,0,0,0,0,0,0,0,0,0,0,0,0
589473347,587375439,719495003,583179367,581080703,578982039,576883881,641894837,639797435,635602117,0,0,0,0,0,0,0,0,0,0,0,0,0,0,0,0
723796716,654484236,719495719,583180865,581083509,646095017,711106513,574791659,572694520,0,0,0,0,0,0,0,0,0,0,0,0,0,0,0,0,0
589472024,587374891,585277758,583180369,581083255,578985885,576888762,574791629,572694487,704814816,568499946,566402803,564305661,0,0,0,0,0,0,0,0,0,0,0,0,0
589469582,587372442,585275558,583178418,581081546,578984418,576887540,0,0,0,0,0,0,0,0,0,0,0,0,0,0,0,0,0,0,0
589468331,587371446,585274562,583177421,581080804,578983930,0,0,0,0,0,0,0,0,0,0,0,0,0,0,0,0,0,0,0,0
589466226,587369088,585272207,650283934,648187838,578982623,576886518,0,0,0,0,0,0,0,0,0,0,0,0,0,0,0,0,0,0,0
589614434,587515011,585415588,583316165,581060366,646076497,576874116,641888165,572683190,570587079,568491223,566395112,564299001,0,0,0,0,0,0,0,0,0,0,0,0,0
589633292,654641460,585432413,583331462,715444440,578958129,643975534,574773400,572678060,570582977,568487638,566392298,564296959,0,0,0,0,0,0,0,0,0,0,0,0,0
589460208,587364340,585268729,583172351,0,0,0,0,0,0,0,0,0,0,0,0,0,0,0,0,0,0,0,0,0,0
656537639,587333690,585238605,650252895,581051781,578959530,576866245,574771671,572675808,637688808,568484081,566388218,0,0,0,0,0,0,0,0,0,0,0,0,0,0
589451994,587356131,585260267,717381875,0,0,0,0,0,0,0,0,0,0,0,0,0,0,0,0,0,0,0,0,0,0
589641415,587539940,585224711,583131940,581042525,578953878,574770395,706893033,570580470,0,0,0,0,0,0,0,0,0,0,0,0,0,0,0,0,0
589417554,587322724,652336758,583133065,581040302,713164242,0,0,0,0,0,0,0,0,0,0,0,0,0,0,0,0,0,0,0,0
656488493,587287872,585196114,650213219,581017991,646040490,576842694,574750680,572655841,570561514,568466931,566372604,565707756,630721526,0,0,0,0,0,0,0,0,0,0,0,0
723952492,587627915,585520811,583413706,715194896,578900046,576817789,574730653,572638636,570546364,568454347,566362075,564269291,562177018,695731435,626529534,0,0,0,0,0,0,0,0,0,0
589399948,587307674,585215400,583123126,581035473,578947309,578290142,643305456,574101242,0,0,0,0,0,0,0,0,0,0,0,0,0,0,0,0,0
589437436,588776415,586681063,584585456,0,0,0,0,0,0,0,0,0,0,0,0,0,0,0,0,0,0,0,0,0,0
589423083,587313877,585204671,583095465,0,0,0,0,0,0,0,0,0,0,0,0,0,0,0,0,0,0,0,0,0,0
589373324,587282586,585192104,583101622,581017554,578933741,578290094,576196552,574101205,572005858,637019374,567815164,0,0,0,0,0,0,0,0,0,0,0,0,0,0
589346405,587257205,585168261,583078549,580997557,578916564,576831468,574742524,574096290,639109809,569905857,567810769,565715681,563620593,0,0,0,0,0,0,0,0,0,0,0,0
589369246,587278505,786513590,583095492,0,0,0,0,0,0,0,0,0,0,0,0,0,0,0,0,0,0,0,0,0,0
790695845,587278511,585187001,583095492,782336984,578925039,578289801,710412961,0,0,0,0,0,0,0,0,0,0,0,0,0,0,0,0,0,0
790695845,587277999,585187001,583095746,782336984,578925039,578289801,710412961,0,0,0,0,0,0,0,0,0,0,0,0,0,0,0,0,0,0
589310270,587222607,719352672,583047537,580969363,578890676,643916749,574720222,572627687,570535407,568443127,565708695,563613609,561518524,626532558,557328609,555233524,0,0,0,0,0,0,0,0,0
590879676,588783558,586687439,584591320,649605098,580401149,0,0,0,0,0,0,0,0,0,0,0,0,0,0,0,0,0,0,0,0
590884547,588788429,586692056,584595683,582500345,0,0,0,0,0,0,0,0,0,0,0,0,0,0,0,0,0,0,0,0,0
589344731,587255779,585166827,583077107,582941690,580392001,712515697,576203153,574107041,572010929,569914817,567818961,565722849,563626737,0,0,0,0,0,0,0,0,0,0,0,0
590898726,588801338,586704206,584606818,582509449,580412336,578314957,576217568,574120426,639132147,569925885,0,0,0,0,0,0,0,0,0,0,0,0,0,0,0
591300351,588805915,586708274,584610888,582512757,580414882,578316996,576219611,574122214,572024817,637036284,0,0,0,0,0,0,0,0,0,0,0,0,0,0,0
590904650,588807004,586709358,584611712,582513572,580415432,578317539,576219893,574122494,0,0,0,0,0,0,0,0,0,0,0,0,0,0,0,0,0
590907149,588809248,586711604,584613959,582515566,580417429,578319282,576221637,574124239,572026841,569929442,567831788,632843253,563636991,0,0,0,0,0,0,0,0,0,0,0,0
590907441,588809541,586711385,584613485,582514837,580416188,712535513,710437869,641231606,0,0,0,0,0,0,0,0,0,0,0,0,0,0,0,0,0
591288409,589192574,587096482,585000646,582520594,580420953,712539278,576223153,574125507,572027860,704147685,567832310,0,0,0,0,0,0,0,0,0,0,0,0,0,0
590903502,588806104,586708449,584610794,582512893,0,0,0,0,0,0,0,0,0,0,0,0,0,0,0,0,0,0,0,0,0
590912169,790140341,586715586,584617423,582517992,0,0,0,0,0,0,0,0,0,0,0,0,0,0,0,0,0,0,0,0,0
590930180,588831002,586731569,584632391,649639795,781755808,0,0,0,0,0,0,0,0,0,0,0,0,0,0,0,0,0,0,0,0
725148161,588831256,586731822,584632389,649639795,781755808,0,0,0,0,0,0,0,0,0,0,0,0,0,0,0,0,0,0,0,0
658029710,588822171,586723496,584624821,582524879,580424680,578325244,0,0,0,0,0,0,0,0,0,0,0,0,0,0,0,0,0,0,0
590930528,588831088,586731904,584632464,582530991,580429774,578329574,576230390,574132222,0,0,0,0,0,0,0,0,0,0,0,0,0,0,0,0,0
725460114,589149615,587056587,584963560,582552103,580447584,578344331,576243111,574143926,572044740,569945554,567846368,565747182,563647996,0,0,0,0,0,0,0,0,0,0,0,0
725455233,589146534,587055308,719181040,582550076,714660738,645447351,576236763,574137325,706255359,0,0,0,0,0,0,0,0,0,0,0,0,0,0,0,0
591214187,589122954,587031721,584940488,582571531,580462665,578356855,576254614,708372134,572054453,704171973,567854292,699971812,563654131,0,0,0,0,0,0,0,0,0,0,0,0
725157299,588840383,586740170,584639958,582536941,0,0,0,0,0,0,0,0,0,0,0,0,0,0,0,0,0,0,0,0,0
590956975,588856250,586755524,584654799,582550499,580447224,577958629,575859187,573760762,0,0,0,0,0,0,0,0,0,0,0,0,0,0,0,0,0
590536373,588437952,586339787,584241366,582142189,0,0,0,0,0,0,0,0,0,0,0,0,0,0,0,0,0,0,0,0,0
590543171,588444247,586345323,584246655,582145959,580045519,577946093,0,0,0,0,0,0,0,0,0,0,0,0,0,0,0,0,0,0,0
724740038,588425169,586327772,651339238,582132732,0,0,0,0,0,0,0,0,0,0,0,0,0,0,0,0,0,0,0,0,0
590522984,588425592,586328199,584230807,582133173,580035796,577938411,575841018,0,0,0,0,0,0,0,0,0,0,0,0,0,0,0,0,0,0
590520133,588422997,586325861,651337589,582131350,580034230,577937103,575839967,573742823,571645679,569548535,567451391,0,0,0,0,0,0,0,0,0,0,0,0,0,0
590636504,588539118,586318603,584221985,582125645,580029305,577932698,710053552,573738939,571642054,636654033,567448285,565351400,563254259,561157374,0,0,0,0,0,0,0,0,0,0,0
590665551,588565873,586466195,584366773,649215744,647123524,645030007,575826586,573730475,571634620,569538509,567442398,565346543,0,0,0,0,0,0,0,0,0,0,0,0,0
590668902,588568966,586469030,584369095,582105358,580013903,577920895,575826591,573730991,571635135,569539536,768770271,0,0,0,0,0,0,0,0,0,0,0,0,0,0
590498393,588402794,586306939,584211340,582117038,580022736,577927658,575832059,0,0,0,0,0,0,0,0,0,0,0,0,0,0,0,0,0,0
657821989,588609869,586506869,584403613,649403628,579992131,577903231,575812006,573717946,571623886,703747298,567435510,0,0,0,0,0,0,0,0,0,0,0,0,0,0
590703999,722819738,586500277,584398800,582078990,579990853,577899630,642915977,573712279,571617445,569522611,567427777,565332943,563238108,561143274,626157303,0,0,0,0,0,0,0,0,0,0
590741099,588637320,586533796,584430273,582051840,647076664,577880419,642898559,573695886,571602076,569507754,701631160,565319623,563225813,561132003,626147057,0,0,0,0,0,0,0,0,0,0
590753605,588647785,586542733,584436657,716539642,579970377,644995199,575797924,573704374,571611592,569518810,567426029,565332991,0,0,0,0,0,0,0,0,0,0,0,0,0
590764322,588659266,653663074,584449923,582336965,579953421,577868095,575778656,573685616,571592320,569499281,567406241,565312945,563219138,561125842,559032802,556939506,0,0,0,0,0,0,0,0,0
791815390,588393703,586298607,584203255,0,0,0,0,0,0,0,0,0,0,0,0,0,0,0,0,0,0,0,0,0,0
657579942,588376755,586282688,651296971,582097123,580006393,0,0,0,0,0,0,0,0,0,0,0,0,0,0,0,0,0,0,0,0
590458241,722582928,586272416,584179631,582090702,580001516,577243642,0,0,0,0,0,0,0,0,0,0,0,0,0,0,0,0,0,0,0
590764922,588659352,586553526,584448469,582038041,579958358,577874308,575786146,573693361,571600576,569507791,634523102,565321710,563228925,0,0,0,0,0,0,0,0,0,0,0,0
657595630,588391926,585630447,583535352,0,0,0,0,0,0,0,0,0,0,0,0,0,0,0,0,0,0,0,0,0,0
590434370,655451990,586251883,584160639,582075046,579989708,577901033,575145197,573050617,0,0,0,0,0,0,0,0,0,0,0,0,0,0,0,0,0
590439811,655456912,586256286,584164268,716295112,579990501,577900283,575148262,573052912,570957562,0,0,0,0,0,0,0,0,0,0,0,0,0,0,0,0
590779880,588284687,586199855,584115022,716259725,579969742,577243311,0,0,0,0,0,0,0,0,0,0,0,0,0,0,0,0,0,0,0
589830360,654843360,585638377,583542514,0,0,0,0,0,0,0,0,0,0,0,0,0,0,0,0,0,0,0,0,0,0
590356535,588269128,586181465,584093802,582015628,579936942,577854152,575766489,573674210,571581930,569489395,566755982,564660897,629674931,560470982,558376153,556281067,688403710,0,0,0,0,0,0,0,0
590447070,722571235,586260201,584166638,649185528,579340195,577245112,0,0,0,0,0,0,0,0,0,0,0,0,0,0,0,0,0,0,0
589825168,654838686,719851949,583538876,581445081,579351287,0,0,0,0,0,0,0,0,0,0,0,0,0,0,0,0,0,0,0,0
589841352,587744722,585648092,583551462,648564217,0,0,0,0,0,0,0,0,0,0,0,0,0,0,0,0,0,0,0,0,0
589844065,587747184,585650303,583553422,581456812,579360201,577263327,575166701,573069557,570972668,0,0,0,0,0,0,0,0,0,0,0,0,0,0,0,0
589849108,587751977,585654847,583557717,648569216,579363244,577266123,0,0,0,0,0,0,0,0,0,0,0,0,0,0,0,0,0,0,0
724069978,654863979,719875197,583560334,0,0,0,0,0,0,0,0,0,0,0,0,0,0,0,0,0,0,0,0,0,0
589861729,587763824,585665918,583568013,581469355,579370696,577272286,575174381,640185844,570979324,0,0,0,0,0,0,0,0,0,0,0,0,0,0,0,0
590217900,588123593,586029030,784915719,581486657,579384443,577283238,575183299,573084881,570986207,568887789,566789371,0,0,0,0,0,0,0,0,0,0,0,0,0,0
589873251,587774324,585675653,583576982,581476537,579375837,711493368,0,0,0,0,0,0,0,0,0,0,0,0,0,0,0,0,0,0,0
589864402,587766235,585668069,583569902,0,0,0,0,0,0,0,0,0,0,0,0,0,0,0,0,0,0,0,0,0,0
590209236,588115179,585696777,583597346,715711317,579389832,577287855,709404874,573088472,570989541,568890867,0,0,0,0,0,0,0,0,0,0,0,0,0,0,0
589870277,654880462,585673176,583574498,581474805,0,0,0,0,0,0,0,0,0,0,0,0,0,0,0,0,0,0,0,0,0
590188477,588095959,720220911,717831179,581508410,579403625,577300878,575199910,707318451,571001793,568902604,701020888,0,0,0,0,0,0,0,0,0,0,0,0,0,0
590180066,588087798,719940368,583620901,581514062,579406968,577302934,575200939,573101238,571001793,568902604,701020888,0,0,0,0,0,0,0,0,0,0,0,0,0,0
590130997,588041556,585951860,718079124,715996627,579438871,577330247,642334311,573124472,571023496,568922520,566821544,564721336,562620360,560519385,558418409,556317433,0,0,0,0,0,0,0,0,0
590713568,722828026,653362203,582077035,579991968,577903048,575812067,573718000,705841405,0,0,0,0,0,0,0,0,0,0,0,0,0,0,0,0,0
590713568,588344321,653362203,582077035,579991968,577903048,575812067,573718000,705841405,0,0,0,0,0,0,0,0,0,0,0,0,0,0,0,0,0
721609375,585293483,650304182,581095886,578996454,576897783,0,0,0,0,0,0,0,0,0,0,0,0,0,0,0,0,0,0,0,0
587513100,585413435,717531241,581211334,578971177,576877934,574783388,706905267,0,0,0,0,0,0,0,0,0,0,0,0,0,0,0,0,0,0
589170956,654185526,584982625,582890933,580433165,578331979,576232309,641242505,572035230,569936819,567838151,565739739,563641327,0,0,0,0,0,0,0,0,0,0,0,0,0
588521804,586425714,584329625,716452071,580038717,577940599,710060445,573745329,571647684,569550295,567452906,565355517,0,0,0,0,0,0,0,0,0,0,0,0,0,0
588553229,586454580,651465051,582256042,580156153,577926459,575830627,573734262,571637898,569541278,567444913,565348549,630361048,561155564,0,0,0,0,0,0,0,0,0,0,0,0
586866700,584757540,582636628,580516485,578401449,710510017,574189261,572086233,704200677,567879921,565776893,563277760,561177559,559077358,0,0,0,0,0,0,0,0,0,0,0,0
721087088,584759682,582636965,580515273,578398948,573766234,571666803,569567372,567467941,699586238,630378198,628278767,0,0,0,0,0,0,0,0,0,0,0,0,0,0
586436197,584339596,582243802,580029743,577931626,575833745,573736357,705856440,569541324,768770271,565346543,0,0,0,0,0,0,0,0,0,0,0,0,0,0,0
586174750,584088629,582013538,647046287,577856690,575770568,573679060,705805023,569495787,567404022,631769792,562566870,560472555,0,0,0,0,0,0,0,0,0,0,0,0,0
585648992,583552877,581458057,579363496,0,0,0,0,0,0,0,0,0,0,0,0,0,0,0,0,0,0,0,0,0,0
585997075,583904568,716034435,579729101,577302538,575200815,573101378,571001942,568902761,566803324,564704144,562604707,560505527,558406346,556307165,554207984,0,0,0,0,0,0,0,0,0,0
717677739,581338858,578863664,576783966,574699129,706825607,570517141,568426147,566335154,564244161,763479759,0,0,0,0,0,0,0,0,0,0,0,0,0,0,0
584847040,716867080,580524619,578407549,576296351,574192304,572088000,569983953,567879650,565775602,697497033,561178084,0,0,0,0,0,0,0,0,0,0,0,0,0,0
584371995,649379177,580168119,578067698,575820576,573724724,571628616,569532764,567436656,565340804,563244696,561148844,559052736,556956885,554861033,552765182,0,0,0,0,0,0,0,0,0,0
584068404,581993822,579919495,577838758,575753146,573661636,571570126,569478616,567387106,565295597,563204088,560466859,558372289,556277975,554183405,0,0,0,0,0,0,0,0,0,0,0
718178062,581864289,579768244,577671666,575171616,573074229,570976842,568879455,566782068,564684681,562587294,560489907,558392776,556295389,554198002,0,0,0,0,0,0,0,0,0,0,0
583848978,581770358,579693273,577329961,575222620,707338102,772344208,568915628,566812615,0,0,0,0,0,0,0,0,0,0,0,0,0,0,0,0,0
648721680,579489864,577373297,575264140,573160602,705274536,703170997,566849731,564746193,696860382,560539116,558435578,555938246,553837535,551736824,0,0,0,0,0,0,0,0,0,0,0
581190668,579093898,576997353,709008944,572694095,570596975,568499599,566402478,564305358,629317101,0,0,0,0,0,0,0,0,0,0,0,0,0,0,0,0
581195335,579097777,643994375,574788924,639800662,570594929,568498059,566400934,564304064,629316058,560110325,0,0,0,0,0,0,0,0,0,0,0,0,0,0,0
581281333,579169424,577061076,708953097,639750943,570548790,568455245,566361955,564267898,562174353,560081063,557987518,555894228,553800683,0,0,0,0,0,0,0,0,0,0,0,0
648469962,578847765,576774218,574692204,572603006,570514063,568424863,700552367,564244159,763479759,0,0,0,0,0,0,0,0,0,0,0,0,0,0,0,0
581009857,578928611,576843516,576195520,641209295,572005599,637019374,567815422,0,0,0,0,0,0,0,0,0,0,0,0,0,0,0,0,0,0
580917085,713071507,576781754,708918228,572611809,704740589,568434170,567804776,565710728,563616937,561522890,559428843,0,0,0,0,0,0,0,0,0,0,0,0,0,0
582660423,580533373,578414246,643410880,574197454,572092635,569988073,634992374,565376161,630384574,695392732,626183417,0,0,0,0,0,0,0,0,0,0,0,0,0,0
582233174,580137130,578040808,575844633,640856109,571649858,569552471,567455084,699575169,563260053,561162666,559065279,556967636,621979112,686990333,0,0,0,0,0,0,0,0,0,0,0
582243655,580145821,578048221,575837966,573740836,571643961,636655950,567449956,699570554,563255951,561158821,559061946,556964816,689085413,552770811,0,0,0,0,0,0,0,0,0,0,0
582285103,580180873,578078412,575977721,573715991,571620653,569525315,567429978,565334640,563239303,561144221,559048884,556953546,554858208,552762871,0,0,0,0,0,0,0,0,0,0,0
649460246,580236405,578125755,710237162,573676809,571584288,569491512,567398991,632415334,563213950,561120661,626137004,556935620,554843099,552750579,0,0,0,0,0,0,0,0,0,0,0
582349405,580231868,577863946,575777081,573685073,571593064,569501056,634517911,565316271,563224263,695349982,559040502,0,0,0,0,0,0,0,0,0,0,0,0,0,0
582414537,579893274,712038482,575739511,640759433,571561628,569472687,567383745,565294804,563205862,560465088,558372832,0,0,0,0,0,0,0,0,0,0,0,0,0,0
581838139,579746197,577653209,575187979,573089569,570991160,568892750,566794341,564695931,696814994,560498856,558400447,556302037,554203627,0,0,0,0,0,0,0,0,0,0,0,0
581762400,579688141,711549988,575223643,707338102,772344208,568915628,566812615,0,0,0,0,0,0,0,0,0,0,0,0,0,0,0,0,0,0
581980141,579795070,577694162,573056299,570960455,568864611,566768767,564672667,629685686,694698706,625494252,0,0,0,0,0,0,0,0,0,0,0,0,0,0,0
713839733,577551305,575275269,573170209,638172988,636067160,566852212,564746384,562640300,761860808,625538020,555939821,0,0,0,0,0,0,0,0,0,0,0,0,0,0
579490577,577359953,709457788,573131666,705240743,568915389,633915602,766025193,0,0,0,0,0,0,0,0,0,0,0,0,0,0,0,0,0,0
579519087,711615891,575285419,640289206,571076034,568970958,566866138,564761062,562655985,694768637,558035077,555934884,620943554,551734497,0,0,0,0,0,0,0,0,0,0,0,0
646639973,644500643,575267531,573156575,571045619,635630204,633528243,564317419,0,0,0,0,0,0,0,0,0,0,0,0,0,0,0,0,0,0
579529914,577407443,575293411,573187819,571082228,703195132,564325396,562226229,627235925,558027894,555928727,553829560,551730393,616740089,0,0,0,0,0,0,0,0,0,0,0,0
579176967,711282038,642065855,707072229,637659921,568459063,700584028,564274561,562182566,560090827,625107696,0,0,0,0,0,0,0,0,0,0,0,0,0,0,0
579186764,711295910,574972640,572626435,570533661,635550006,566348880,562164099,560070812,557978804,555886797,618812155,0,0,0,0,0,0,0,0,0,0,0,0,0,0
579220800,711322765,574995394,572891869,570788343,568424217,566333492,564242511,629260649,560061060,557970079,555878586,553787861,551697136,0,0,0,0,0,0,0,0,0,0,0,0
713440580,577100209,574706689,572618533,570530377,568442221,633462929,564265142,562176987,0,0,0,0,0,0,0,0,0,0,0,0,0,0,0,0,0
578841211,710989477,776018881,639713231,570516446,702645996,700558074,632816758,563614362,561520830,626536161,0,0,0,0,0,0,0,0,0,0,0,0,0,0,0
580831784,578732934,576634565,574536677,572016137,569919784,567823176,565726567,563629959,561533606,559436998,557340389,0,0,0,0,0,0,0,0,0,0,0,0,0,0
580750522,578370069,576262990,574161003,569957541,702073025,767079646,630759931,0,0,0,0,0,0,0,0,0,0,0,0,0,0,0,0,0,0
580555671,578433976,576321230,574215897,572110564,570005231,567899898,632484707,563275908,561175972,559076036,556976100,0,0,0,0,0,0,0,0,0,0,0,0,0,0
580126527,578032536,575937235,775167472,571655446,569557300,567459410,565361264,563263375,561165229,559067084,556968938,0,0,0,0,0,0,0,0,0,0,0,0,0,0
580129346,578033051,710154967,573841140,571655446,569557300,567459410,565361264,563263375,561165229,559067084,556968938,0,0,0,0,0,0,0,0,0,0,0,0,0,0
580233045,578116801,642890769,573691190,772926810,703726463,567418019,632436167,563236588,0,0,0,0,0,0,0,0,0,0,0,0,0,0,0,0,0
579865805,712011233,575713007,640733173,571407539,569308627,634318579,562568761,560473433,558378105,556282777,554187449,619200985,549997050,0,0,0,0,0,0,0,0,0,0,0,0
646900549,577690804,575591164,573059621,570963786,568867694,566772115,564676536,562580956,0,0,0,0,0,0,0,0,0,0,0,0,0,0,0,0,0
646871652,644776381,575571961,573076763,570978873,568881238,566783347,564685456,629696685,694707659,558392296,0,0,0,0,0,0,0,0,0,0,0,0,0,0,0
579757400,577663153,575567852,640189710,570982956,568884810,633895783,564688773,562590883,560492992,558394846,556296955,0,0,0,0,0,0,0,0,0,0,0,0,0,0
579745840,644762255,575559631,573464047,570989587,568890931,566792275,564693619,562594963,560496307,558397651,556298995,0,0,0,0,0,0,0,0,0,0,0,0,0,0
646836038,577637283,575545568,573101315,571001377,568901696,566801759,564701822,562602140,627611066,558402521,556302840,0,0,0,0,0,0,0,0,0,0,0,0,0,0
579642093,711811060,575529209,573105409,705209347,0,0,0,0,0,0,0,0,0,0,0,0,0,0,0,0,0,0,0,0,0
577021467,574921310,639931519,570724257,568625603,566527204,564291597,562195759,560100177,625113202,555908500,553812662,685934551,549621240,0,0,0,0,0,0,0,0,0,0,0,0
576855272,574761974,572666877,639108085,569903869,0,0,0,0,0,0,0,0,0,0,0,0,0,0,0,0,0,0,0,0,0
578741546,643750761,775870088,572445352,570347207,568248806,565721610,563625514,561529417,559433064,557336968,622349736,553144521,551048169,0,0,0,0,0,0,0,0,0,0,0,0
645806095,643721420,574129195,572027016,637033189,0,0,0,0,0,0,0,0,0,0,0,0,0,0,0,0,0,0,0,0,0
645692369,576337169,574229550,706340171,570014825,567907206,565799331,563691712,695801564,559087565,624091895,0,0,0,0,0,0,0,0,0,0,0,0,0,0,0
645207044,575995721,775221867,571795086,636803759,567594705,565494259,563228956,561134910,626149727,691164289,554852515,552758212,550663910,0,0,0,0,0,0,0,0,0,0,0,0
578094645,575991679,573891236,638899656,703907821,567421978,766654782,563234659,561140872,559047085,556953298,554859255,0,0,0,0,0,0,0,0,0,0,0,0,0,0
578097493,575995280,573895342,638904011,569694953,567416846,565322539,563228233,561133926,559039875,556945824,0,0,0,0,0,0,0,0,0,0,0,0,0,0,0
712432682,643197066,775302586,638973674,569454115,701589588,699507589,563207862,695342568,0,0,0,0,0,0,0,0,0,0,0,0,0,0,0,0,0
578190509,709962029,573671785,638707875,770852061,767061751,0,0,0,0,0,0,0,0,0,0,0,0,0,0,0,0,0,0,0,0
578222044,575700762,573621046,705758291,569460847,701598347,699518377,563220166,0,0,0,0,0,0,0,0,0,0,0,0,0,0,0,0,0,0
577642254,575549777,640564082,571360150,569265337,634279131,565075198,562600997,560502088,558402923,623412877,688422832,552106450,550007796,0,0,0,0,0,0,0,0,0,0,0,0
577628193,575537264,707660952,638458559,569255911,566807571,631815994,763933026,560505994,558405554,556305114,0,0,0,0,0,0,0,0,0,0,0,0,0,0,0
778974511,575530132,573422278,571314425,568956719,768197217,0,0,0,0,0,0,0,0,0,0,0,0,0,0,0,0,0,0,0,0
575336869,573227953,705336508,703227592,566901204,699010016,629793516,627244804,558035504,757261659,620943750,685952177,616743131,0,0,0,0,0,0,0,0,0,0,0,0,0
575331291,707436776,705324788,568995327,631505655,562223163,627231861,625131439,555922411,0,0,0,0,0,0,0,0,0,0,0,0,0,0,0,0,0
574896727,639916236,637694032,635590341,0,0,0,0,0,0,0,0,0,0,0,0,0,0,0,0,0,0,0,0,0,0
574915418,639930061,771902796,568476608,0,0,0,0,0,0,0,0,0,0,0,0,0,0,0,0,0,0,0,0,0,0
575004425,572900400,570796374,568692093,633696931,564483786,562379761,560056352,557966150,555875949,553784980,753021371,616713443,0,0,0,0,0,0,0,0,0,0,0,0,0
575031062,572925244,637928290,568714377,566608559,564502741,629238275,560041002,557952848,555864438,553776029,551686851,549598697,0,0,0,0,0,0,0,0,0,0,0,0,0
576645156,708761217,639550942,569920061,567827609,767061751,0,0,0,0,0,0,0,0,0,0,0,0,0,0,0,0,0,0,0,0
576594590,641258765,639159676,569951724,701667583,0,0,0,0,0,0,0,0,0,0,0,0,0,0,0,0,0,0,0,0,0
643667005,574467955,572377769,637396446,567869463,565766221,563662211,561557944,559453934,0,0,0,0,0,0,0,0,0,0,0,0,0,0,0,0,0
576508672,574419239,572329038,637348468,568150171,566060738,563971304,561602067,559497273,557392480,555287686,620292524,551078867,683191545,543741129,0,0,0,0,0,0,0,0,0,0,0
710322162,573603101,705739073,703657572,634466694,565276585,764521675,627573185,558376703,0,0,0,0,0,0,0,0,0,0,0,0,0,0,0,0,0
575573785,573476927,571380069,636392075,701404082,565089752,562587906,560490536,558393167,556295797,554198427,552101057,617112551,0,0,0,0,0,0,0,0,0,0,0,0,0
642631172,707646508,571335508,569242236,634257315,565054923,630070258,560518686,558417733,556316781,621324692,552115132,550014179,0,0,0,0,0,0,0,0,0,0,0,0,0
575511996,573408740,638161168,568961337,768197217,0,0,0,0,0,0,0,0,0,0,0,0,0,0,0,0,0,0,0,0,0
640081579,570860753,635857399,566279206,698414924,629223538,560032665,692168127,555868645,553131763,0,0,0,0,0,0,0,0,0,0,0,0,0,0,0,0
574527783,706647386,570331789,635342783,566135794,0,0,0,0,0,0,0,0,0,0,0,0,0,0,0,0,0,0,0,0,0
573833847,638847395,569643472,634657276,565364017,563265118,695383434,0,0,0,0,0,0,0,0,0,0,0,0,0,0,0,0,0,0,0
573839448,571743363,569647278,634660057,699579661,630372664,561165668,559067535,556969402,0,0,0,0,0,0,0,0,0,0,0,0,0,0,0,0,0
573860374,571762503,569664888,567567017,565469146,563251731,561155396,559059061,556962726,554866391,0,0,0,0,0,0,0,0,0,0,0,0,0,0,0,0
641084931,571867197,703976054,634758063,565540073,563192875,628216675,559022236,556936917,0,0,0,0,0,0,0,0,0,0,0,0,0,0,0,0,0
640180528,570968164,568864920,566761676,0,0,0,0,0,0,0,0,0,0,0,0,0,0,0,0,0,0,0,0,0,0
774769474,705580473,568881712,768094118,0,0,0,0,0,0,0,0,0,0,0,0,0,0,0,0,0,0,0,0,0,0
640533271,638442843,636352671,567152868,766039338,629717870,560505266,558401525,0,0,0,0,0,0,0,0,0,0,0,0,0,0,0,0,0,0
705346079,569010761,566892916,698993566,696875720,560540402,558029795,0,0,0,0,0,0,0,0,0,0,0,0,0,0,0,0,0,0,0
704656257,568365474,566292163,698435812,561518477,760756202,0,0,0,0,0,0,0,0,0,0,0,0,0,0,0,0,0,0,0,0
706581262,704489530,568180070,566088083,698213566,561904104,626587158,624484673,689491308,553171607,618178498,616076269,0,0,0,0,0,0,0,0,0,0,0,0,0,0
773588455,570084359,635083809,700083260,630865238,561647217,693756299,557429412,555320254,553210840,685319154,548596935,0,0,0,0,0,0,0,0,0,0,0,0,0,0
571737534,703859684,567464977,565366327,563267677,695386499,559070121,556971471,621981684,0,0,0,0,0,0,0,0,0,0,0,0,0,0,0,0,0
705973081,770883083,634577328,767061751,0,0,0,0,0,0,0,0,0,0,0,0,0,0,0,0,0,0,0,0,0,0
705973081,636758525,634577328,767061751,0,0,0,0,0,0,0,0,0,0,0,0,0,0,0,0,0,0,0,0,0,0
571762444,569664578,567566713,565469103,630480101,561155365,559059035,624071569,554866120,552769790,0,0,0,0,0,0,0,0,0,0,0,0,0,0,0,0
571894812,771110994,567673992,699782078,563453940,695303474,559001959,556917659,554832847,0,0,0,0,0,0,0,0,0,0,0,0,0,0,0,0,0
638508334,569300837,567202203,565103569,560480578,558385016,556289454,0,0,0,0,0,0,0,0,0,0,0,0,0,0,0,0,0,0,0
638475773,568892701,566794295,564695890,562597484,627607942,558400673,556302012,554203606,552105201,0,0,0,0,0,0,0,0,0,0,0,0,0,0,0,0
569039929,634031466,631914393,562689480,694790133,625136993,0,0,0,0,0,0,0,0,0,0,0,0,0,0,0,0,0,0,0,0
568616465,566518593,564420978,562323362,560225746,558009355,623021627,620925035,618828699,616732107,547526651,0,0,0,0,0,0,0,0,0,0,0,0,0,0,0
635833348,566618422,765837927,696622233,560297674,625299707,555859253,620880742,618792599,616705224,614617593,0,0,0,0,0,0,0,0,0,0,0,0,0,0,0
568330071,566247789,698382979,562082969,694218159,692134852,555834331,553751026,551032218,548940496,0,0,0,0,0,0,0,0,0,0,0,0,0,0,0,0
570212112,568128335,566043789,698177740,561607693,760823627,557386634,689494472,0,0,0,0,0,0,0,0,0,0,0,0,0,0,0,0,0,0
636784913,567576909,565478024,630488003,695497727,559053379,624067198,554863034,754094325,0,0,0,0,0,0,0,0,0,0,0,0,0,0,0,0,0
569778953,634778184,565558920,563448775,628199695,626115662,556922765,621946827,0,0,0,0,0,0,0,0,0,0,0,0,0,0,0,0,0,0
569765894,567674928,565584729,563495043,0,0,0,0,0,0,0,0,0,0,0,0,0,0,0,0,0,0,0,0,0,0
636371488,634278530,565076966,562596938,560495534,0,0,0,0,0,0,0,0,0,0,0,0,0,0,0,0,0,0,0,0,0
770532679,768459728,698934361,629704164,0,0,0,0,0,0,0,0,0,0,0,0,0,0,0,0,0,0,0,0,0,0
566501183,564405644,562310106,560117041,692235902,623028426,0,0,0,0,0,0,0,0,0,0,0,0,0,0,0,0,0,0,0,0
568070317,565992670,563763986,695865155,693749364,758741668,756625109,687010009,0,0,0,0,0,0,0,0,0,0,0,0,0,0,0,0,0,0
635095156,565870991,563755689,561641155,559525853,691628280,554886810,619891681,0,0,0,0,0,0,0,0,0,0,0,0,0,0,0,0,0,0
567991964,565880493,765095613,695875278,626655454,691653103,554891561,552790113,617797784,548587472,0,0,0,0,0,0,0,0,0,0,0,0,0,0,0,0
702203839,565870801,563755491,561640949,559083790,556982101,621989275,619887842,0,0,0,0,0,0,0,0,0,0,0,0,0,0,0,0,0,0
567549771,565454696,563359366,561264037,0,0,0,0,0,0,0,0,0,0,0,0,0,0,0,0,0,0,0,0,0,0
567573030,565474902,563376775,628387511,693397992,556957985,621970769,686983554,550670002,548573923,0,0,0,0,0,0,0,0,0,0,0,0,0,0,0,0
634696224,565487954,697606019,561288884,559189477,691167774,554855503,619869567,617774768,548571106,0,0,0,0,0,0,0,0,0,0,0,0,0,0,0,0
567591443,565490773,563390103,561289433,559045669,556952167,554858665,619874026,0,0,0,0,0,0,0,0,0,0,0,0,0,0,0,0,0,0
634842540,699825139,630252098,561074313,693223632,0,0,0,0,0,0,0,0,0,0,0,0,0,0,0,0,0,0,0,0,0
566232950,698390184,763438042,626533550,0,0,0,0,0,0,0,0,0,0,0,0,0,0,0,0,0,0,0,0,0,0
631506381,562302196,560124451,625134409,623035504,688045464,551729087,549630182,0,0,0,0,0,0,0,0,0,0,0,0,0,0,0,0,0,0
564413734,562316382,560219543,558122447,555917327,553819974,618831740,616734388,547528172,0,0,0,0,0,0,0,0,0,0,0,0,0,0,0,0,0
631693455,562471354,627466980,557893143,757137729,553730156,685866646,549567937,614595819,0,0,0,0,0,0,0,0,0,0,0,0,0,0,0,0,0
564155033,562083771,560011740,692157949,557322087,622342091,0,0,0,0,0,0,0,0,0,0,0,0,0,0,0,0,0,0,0,0
633149463,698177137,763204810,693710630,557380992,555268058,0,0,0,0,0,0,0,0,0,0,0,0,0,0,0,0,0,0,0,0
700201158,563767815,695863366,626633348,691620035,554890454,0,0,0,0,0,0,0,0,0,0,0,0,0,0,0,0,0,0,0,0
632986764,697963198,695831791,626185916,0,0,0,0,0,0,0,0,0,0,0,0,0,0,0,0,0,0,0,0,0,0
565451608,563356057,628369370,626178340,691188326,554872232,552773610,0,0,0,0,0,0,0,0,0,0,0,0,0,0,0,0,0,0,0
565473057,563374698,561276594,559178235,624069453,554864790,552768991,0,0,0,0,0,0,0,0,0,0,0,0,0,0,0,0,0,0,0
565045566,562955673,627975412,625524049,623418796,0,0,0,0,0,0,0,0,0,0,0,0,0,0,0,0,0,0,0,0,0
696962197,694839731,558499282,556377585,688055676,618841568,0,0,0,0,0,0,0,0,0,0,0,0,0,0,0,0,0,0,0,0
562417664,560309570,558201220,556093126,620873233,753004883,616700565,748832215,0,0,0,0,0,0,0,0,0,0,0,0,0,0,0,0,0,0
564047186,561949874,559436819,557340274,555244243,0,0,0,0,0,0,0,0,0,0,0,0,0,0,0,0,0,0,0,0,0
631134770,696142466,694041553,557371682,756604529,620293054,684911048,0,0,0,0,0,0,0,0,0,0,0,0,0,0,0,0,0,0,0
697325631,628142185,760284308,691100607,554172566,753412589,0,0,0,0,0,0,0,0,0,0,0,0,0,0,0,0,0,0,0,0
630108174,628009953,625498796,555244243,0,0,0,0,0,0,0,0,0,0,0,0,0,0,0,0,0,0,0,0,0,0
560241463,558141819,556042175,553806348,618820687,549617299,547522774,0,0,0,0,0,0,0,0,0,0,0,0,0,0,0,0,0,0,0
559963423,625006176,622939298,620873188,620234167,547886542,0,0,0,0,0,0,0,0,0,0,0,0,0,0,0,0,0,0,0,0
561939768,559842692,624854990,555251482,553153891,551056297,548958446,0,0,0,0,0,0,0,0,0,0,0,0,0,0,0,0,0,0,0
561258875,626272461,556971818,554872956,619882958,0,0,0,0,0,0,0,0,0,0,0,0,0,0,0,0,0,0,0,0,0
561264455,626277309,624076608,554869688,0,0,0,0,0,0,0,0,0,0,0,0,0,0,0,0,0,0,0,0,0,0
561330184,626332012,624224977,621946947,686969515,0,0,0,0,0,0,0,0,0,0,0,0,0,0,0,0,0,0,0,0,0
561335343,559230048,691342226,555019973,620023542,550648114,682776676,546486520,0,0,0,0,0,0,0,0,0,0,0,0,0,0,0,0,0,0
628526900,693504688,691102776,554822067,0,0,0,0,0,0,0,0,0,0,0,0,0,0,0,0,0,0,0,0,0,0
628493236,626382822,623986721,554794324,552710789,751953845,548543461,0,0,0,0,0,0,0,0,0,0,0,0,0,0,0,0,0,0,0
560910628,625920873,556713392,688832246,619202110,549997701,682119883,0,0,0,0,0,0,0,0,0,0,0,0,0,0,0,0,0,0,0
560850977,625868647,556668078,554577141,552123710,550020741,749244107,0,0,0,0,0,0,0,0,0,0,0,0,0,0,0,0,0,0,0
558117722,556021405,621034206,551725354,549627500,547529646,0,0,0,0,0,0,0,0,0,0,0,0,0,0,0,0,0,0,0,0
558121026,556024768,620929352,618831812,0,0,0,0,0,0,0,0,0,0,0,0,0,0,0,0,0,0,0,0,0,0
558121026,556024767,620929352,618831812,0,0,0,0,0,0,0,0,0,0,0,0,0,0,0,0,0,0,0,0,0,0
692347698,556032128,553934029,618827300,616730994,547526080,0,0,0,0,0,0,0,0,0,0,0,0,0,0,0,0,0,0,0,0
759610561,690381562,687923772,685848950,683774639,681700329,0,0,0,0,0,0,0,0,0,0,0,0,0,0,0,0,0,0,0,0
759610561,555780099,687923772,685848950,683774639,681700329,0,0,0,0,0,0,0,0,0,0,0,0,0,0,0,0,0,0,0,0
761019533,691847403,622446411,687424429,684909822,0,0,0,0,0,0,0,0,0,0,0,0,0,0,0,0,0,0,0,0,0
559164634,556975129,756207184,619894920,684908994,0,0,0,0,0,0,0,0,0,0,0,0,0,0,0,0,0,0,0,0,0
693495353,758494075,689275070,619813641,550620748,682753934,0,0,0,0,0,0,0,0,0,0,0,0,0,0,0,0,0,0,0,0
625844792,757974661,554560722,619246112,550030446,682141627,0,0,0,0,0,0,0,0,0,0,0,0,0,0,0,0,0,0,0,0
557724944,555631976,553539266,551066141,548964983,0,0,0,0,0,0,0,0,0,0,0,0,0,0,0,0,0,0,0,0,0
758954764,622658917,553472702,752444697,616110706,0,0,0,0,0,0,0,0,0,0,0,0,0,0,0,0,0,0,0,0,0
556568320,621603170,753745605,550071339,749277839,0,0,0,0,0,0,0,0,0,0,0,0,0,0,0,0,0,0,0,0,0
755792491,686615503,684305715,749289108,0,0,0,0,0,0,0,0,0,0,0,0,0,0,0,0,0,0,0,0,0,0
620940542,619275733,751441785,749390877,0,0,0,0,0,0,0,0,0,0,0,0,0,0,0,0,0,0,0,0,0,0
553929531,618940836,616734233,614637188,0,0,0,0,0,0,0,0,0,0,0,0,0,0,0,0,0,0,0,0,0,0
755417595,551594313,750855309,681681618,0,0,0,0,0,0,0,0,0,0,0,0,0,0,0,0,0,0,0,0,0,0
622654001,620576404,618499832,683222365,0,0,0,0,0,0,0,0,0,0,0,0,0,0,0,0,0,0,0,0,0,0
554879729,619904881,752468165,683294093,0,0,0,0,0,0,0,0,0,0,0,0,0,0,0,0,0,0,0,0,0,0
554879729,687423741,752468165,683294093,0,0,0,0,0,0,0,0,0,0,0,0,0,0,0,0,0,0,0,0,0,0
622127370,620022899,550809821,615667026,0,0,0,0,0,0,0,0,0,0,0,0,0,0,0,0,0,0,0,0,0,0
622194242,552968866,751932428,615637356,0,0,0,0,0,0,0,0,0,0,0,0,0,0,0,0,0,0,0,0,0,0
551743457,550053078,547976608,747411700,0,0,0,0,0,0,0,0,0,0,0,0,0,0,0,0,0,0,0,0,0,0
618847197,550054647,749305293,680162642,0,0,0,0,0,0,0,0,0,0,0,0,0,0,0,0,0,0,0,0,0,0
618838761,549637790,547545427,680149215,0,0,0,0,0,0,0,0,0,0,0,0,0,0,0,0,0,0,0,0,0,0
618828508,616730018,748849256,545549495,543456009,0,0,0,0,0,0,0,0,0,0,0,0,0,0,0,0,0,0,0,0,0
618778560,549547897,681643057,545717082,0,0,0,0,0,0,0,0,0,0,0,0,0,0,0,0,0,0,0,0,0,0
553173245,551089864,549005460,547174126,0,0,0,0,0,0,0,0,0,0,0,0,0,0,0,0,0,0,0,0,0,0
753435583,550016375,615032366,613294923,0,0,0,0,0,0,0,0,0,0,0,0,0,0,0,0,0,0,0,0,0,0
552108281,550016693,615033969,680398748,0,0,0,0,0,0,0,0,0,0,0,0,0,0,0,0,0,0,0,0,0,0
552124901,550039214,749279607,680351692,0,0,0,0,0,0,0,0,0,0,0,0,0,0,0,0,0,0,0,0,0,0
550685168,682809800,681141231,611965373,542769069,674899100,538594443,0,0,0,0,0,0,0,0,0,0,0,0,0,0,0,0,0,0,0
550658036,548554958,546440028,544548070,542456768,540365466,538274164,0,0,0,0,0,0,0,0,0,0,0,0,0,0,0,0,0,0,0
617128157,547928746,747177487,544057452,541953592,606958596,0,0,0,0,0,0,0,0,0,0,0,0,0,0,0,0,0,0,0,0
550019308,547928765,545851184,544056985,676170858,741175611,537744911,0,0,0,0,0,0,0,0,0,0,0,0,0,0,0,0,0,0,0
616063223,546858041,545166961,543069489,0,0,0,0,0,0,0,0,0,0,0,0,0,0,0,0,0,0,0,0,0,0
548970747,546887084,544802396,676927298,607725863,538524173,0,0,0,0,0,0,0,0,0,0,0,0,0,0,0,0,0,0,0,0
548599786,546908346,611943535,542745431,540656190,672784421,0,0,0,0,0,0,0,0,0,0,0,0,0,0,0,0,0,0,0,0
548593654,546907867,544836763,676966021,674877552,538571354,0,0,0,0,0,0,0,0,0,0,0,0,0,0,0,0,0,0,0,0
548558072,546442132,611435825,542223633,741691627,605383114,0,0,0,0,0,0,0,0,0,0,0,0,0,0,0,0,0,0,0,0
547886563,546430182,544310449,542205854,607209867,537996153,0,0,0,0,0,0,0,0,0,0,0,0,0,0,0,0,0,0,0,0
547901678,545798477,544136355,542040685,539944504,537848324,0,0,0,0,0,0,0,0,0,0,0,0,0,0,0,0,0,0,0,0
682131676,612937761,544088158,541986848,0,0,0,0,0,0,0,0,0,0,0,0,0,0,0,0,0,0,0,0,0,0
545845974,543778153,541690949,606712609,671949558,0,0,0,0,0,0,0,0,0,0,0,0,0,0,0,0,0,0,0,0,0
612989310,745316290,541873031,539756363,0,0,0,0,0,0,0,0,0,0,0,0,0,0,0,0,0,0,0,0,0,0
545443801,543353492,541259391,539578104,604595180,0,0,0,0,0,0,0,0,0,0,0,0,0,0,0,0,0,0,0,0,0
545445315,543354748,541259877,539585017,604602864,0,0,0,0,0,0,0,0,0,0,0,0,0,0,0,0,0,0,0,0,0
612549863,610460052,541256312,539161691,537067071,0,0,0,0,0,0,0,0,0,0,0,0,0,0,0,0,0,0,0,0,0
545439158,543346773,541251125,539155732,671351792,0,0,0,0,0,0,0,0,0,0,0,0,0,0,0,0,0,0,0,0,0
545433807,543338847,541242682,606255124,537144299,0,0,0,0,0,0,0,0,0,0,0,0,0,0,0,0,0,0,0,0,0
545431775,543335078,541237907,539140992,537044077,0,0,0,0,0,0,0,0,0,0,0,0,0,0,0,0,0,0,0,0,0
545429968,543332245,541234818,673355118,537040219,0,0,0,0,0,0,0,0,0,0,0,0,0,0,0,0,0,0,0,0,0
546835443,610400726,608299208,539088570,536987052,0,0,0,0,0,0,0,0,0,0,0,0,0,0,0,0,0,0,0,0,0
679605476,543255695,541146996,673256283,536931396,0,0,0,0,0,0,0,0,0,0,0,0,0,0,0,0,0,0,0,0,0
546850118,545175244,543077798,540980352,538882907,0,0,0,0,0,0,0,0,0,0,0,0,0,0,0,0,0,0,0,0,0
546856145,544758418,542660990,540563561,538466388,0,0,0,0,0,0,0,0,0,0,0,0,0,0,0,0,0,0,0,0,0
546863515,545157078,610166423,608066647,538858007,0,0,0,0,0,0,0,0,0,0,0,0,0,0,0,0,0,0,0,0,0
547238589,612255054,610160168,540956932,0,0,0,0,0,0,0,0,0,0,0,0,0,0,0,0,0,0,0,0,0,0
546868209,544781454,542687853,540594251,538500394,0,0,0,0,0,0,0,0,0,0,0,0,0,0,0,0,0,0,0,0,0
681089527,678998986,609795258,540591531,538496412,0,0,0,0,0,0,0,0,0,0,0,0,0,0,0,0,0,0,0,0,0
613994658,544806953,542716160,540914639,538811046,0,0,0,0,0,0,0,0,0,0,0,0,0,0,0,0,0,0,0,0,0
546876146,544787394,609801906,540598691,538504339,0,0,0,0,0,0,0,0,0,0,0,0,0,0,0,0,0,0,0,0,0
546875641,679008440,542697890,540604813,538510967,0,0,0,0,0,0,0,0,0,0,0,0,0,0,0,0,0,0,0,0,0
546922168,679085389,542785065,607811333,672943322,0,0,0,0,0,0,0,0,0,0,0,0,0,0,0,0,0,0,0,0,0
546908393,611963017,542770538,540687690,672822570,0,0,0,0,0,0,0,0,0,0,0,0,0,0,0,0,0,0,0,0,0
613590506,544386178,542289504,540192829,538096155,0,0,0,0,0,0,0,0,0,0,0,0,0,0,0,0,0,0,0,0,0
613577064,678726635,542413762,540318361,538222961,0,0,0,0,0,0,0,0,0,0,0,0,0,0,0,0,0,0,0,0,0
613577705,544367031,542268070,540169365,538070660,0,0,0,0,0,0,0,0,0,0,0,0,0,0,0,0,0,0,0,0,0
546464724,544358011,542257501,540157247,538056737,0,0,0,0,0,0,0,0,0,0,0,0,0,0,0,0,0,0,0,0,0
546458543,544342033,542440921,674566821,605367153,0,0,0,0,0,0,0,0,0,0,0,0,0,0,0,0,0,0,0,0,0
613556417,544330335,542226239,607231006,538272762,0,0,0,0,0,0,0,0,0,0,0,0,0,0,0,0,0,0,0,0,0
613535891,611673083,542473674,540383129,605401447,0,0,0,0,0,0,0,0,0,0,0,0,0,0,0,0,0,0,0,0,0
546436572,544310665,676421485,540097106,537990455,0,0,0,0,0,0,0,0,0,0,0,0,0,0,0,0,0,0,0,0,0
545795050,543687566,542228984,540124138,538019292,0,0,0,0,0,0,0,0,0,0,0,0,0,0,0,0,0,0,0,0,0
612907482,543693949,541594462,539494975,0,0,0,0,0,0,0,0,0,0,0,0,0,0,0,0,0,0,0,0,0,0
545810121,543714142,675834939,539520535,537825260,0,0,0,0,0,0,0,0,0,0,0,0,0,0,0,0,0,0,0,0,0
545810404,543714958,541618289,539521620,537425208,0,0,0,0,0,0,0,0,0,0,0,0,0,0,0,0,0,0,0,0,0
612920802,543716272,541619871,539523214,537426557,0,0,0,0,0,0,0,0,0,0,0,0,0,0,0,0,0,0,0,0,0
545814672,544109558,542010821,539912085,604922212,0,0,0,0,0,0,0,0,0,0,0,0,0,0,0,0,0,0,0,0,0
545817844,543724996,541629364,539533476,537437844,0,0,0,0,0,0,0,0,0,0,0,0,0,0,0,0,0,0,0,0,0
545829362,543747238,541654924,673779827,537470042,0,0,0,0,0,0,0,0,0,0,0,0,0,0,0,0,0,0,0,0,0
546847939,611853663,542645566,538898931,0,0,0,0,0,0,0,0,0,0,0,0,0,0,0,0,0,0,0,0,0,0
678017808,609020337,674008925,537671177,0,0,0,0,0,0,0,0,0,0,0,0,0,0,0,0,0,0,0,0,0,0
543356920,541642744,539548653,537454562,0,0,0,0,0,0,0,0,0,0,0,0,0,0,0,0,0,0,0,0,0,0
610872041,675897036,539595695,537511826,0,0,0,0,0,0,0,0,0,0,0,0,0,0,0,0,0,0,0,0,0,0
543341310,541245168,539149026,604161748,0,0,0,0,0,0,0,0,0,0,0,0,0,0,0,0,0,0,0,0,0,0
543344575,608359064,539155826,604170315,0,0,0,0,0,0,0,0,0,0,0,0,0,0,0,0,0,0,0,0,0,0
543331266,608342443,539136149,537038462,0,0,0,0,0,0,0,0,0,0,0,0,0,0,0,0,0,0,0,0,0,0
610427785,541218133,673335073,537177319,0,0,0,0,0,0,0,0,0,0,0,0,0,0,0,0,0,0,0,0,0,0
543306113,541201993,539098642,537199319,0,0,0,0,0,0,0,0,0,0,0,0,0,0,0,0,0,0,0,0,0,0
543314652,675432137,539114422,604123299,0,0,0,0,0,0,0,0,0,0,0,0,0,0,0,0,0,0,0,0,0,0
544743402,542644188,540544973,672663230,0,0,0,0,0,0,0,0,0,0,0,0,0,0,0,0,0,0,0,0,0,0
544737979,675403762,539082468,536978647,0,0,0,0,0,0,0,0,0,0,0,0,0,0,0,0,0,0,0,0,0,0
611850404,541164527,673268182,604045756,0,0,0,0,0,0,0,0,0,0,0,0,0,0,0,0,0,0,0,0,0,0
611850404,542638179,673268182,604045756,0,0,0,0,0,0,0,0,0,0,0,0,0,0,0,0,0,0,0,0,0,0
544752796,542653540,540554541,673108716,0,0,0,0,0,0,0,0,0,0,0,0,0,0,0,0,0,0,0,0,0,0
544777143,542682780,540588418,605602919,0,0,0,0,0,0,0,0,0,0,0,0,0,0,0,0,0,0,0,0,0,0
544800611,609824026,540910024,605909631,0,0,0,0,0,0,0,0,0,0,0,0,0,0,0,0,0,0,0,0,0,0
544803791,542713785,540623778,538533772,0,0,0,0,0,0,0,0,0,0,0,0,0,0,0,0,0,0,0,0,0,0
544800739,542709457,540618943,538528172,0,0,0,0,0,0,0,0,0,0,0,0,0,0,0,0,0,0,0,0,0,0
544404681,542704884,540613602,538522320,0,0,0,0,0,0,0,0,0,0,0,0,0,0,0,0,0,0,0,0,0,0
544393655,542298017,540202379,538106740,0,0,0,0,0,0,0,0,0,0,0,0,0,0,0,0,0,0,0,0,0,0
544384499,542287592,540190684,538093776,0,0,0,0,0,0,0,0,0,0,0,0,0,0,0,0,0,0,0,0,0,0
544379597,542282166,540184479,605195656,0,0,0,0,0,0,0,0,0,0,0,0,0,0,0,0,0,0,0,0,0,0
544372939,542272408,540171877,605180210,0,0,0,0,0,0,0,0,0,0,0,0,0,0,0,0,0,0,0,0,0,0
544356500,542250062,540144648,605361343,0,0,0,0,0,0,0,0,0,0,0,0,0,0,0,0,0,0,0,0,0,0
544348366,542246072,540144547,538042254,0,0,0,0,0,0,0,0,0,0,0,0,0,0,0,0,0,0,0,0,0,0
543719124,541623231,539527339,537431191,0,0,0,0,0,0,0,0,0,0,0,0,0,0,0,0,0,0,0,0,0,0
544064759,676176580,539853201,739073885,0,0,0,0,0,0,0,0,0,0,0,0,0,0,0,0,0,0,0,0,0,0
543765285,743278780,539838559,604833793,0,0,0,0,0,0,0,0,0,0,0,0,0,0,0,0,0,0,0,0,0,0
590883057,588786935,586690557,0,0,0,0,0,0,0,0,0,0,0,0,0,0,0,0,0,0,0,0,0,0,0
658278466,656040269,720651621,0,0,0,0,0,0,0,0,0,0,0,0,0,0,0,0,0,0,0,0,0,0,0
590646729,655659755,586305557,0,0,0,0,0,0,0,0,0,0,0,0,0,0,0,0,0,0,0,0,0,0,0
590475859,588389432,586303773,0,0,0,0,0,0,0,0,0,0,0,0,0,0,0,0,0,0,0,0,0,0,0
587540208,585206341,583095699,0,0,0,0,0,0,0,0,0,0,0,0,0,0,0,0,0,0,0,0,0,0,0
587352017,719443645,583099304,0,0,0,0,0,0,0,0,0,0,0,0,0,0,0,0,0,0,0,0,0,0,0
577434084,575316979,707427578,0,0,0,0,0,0,0,0,0,0,0,0,0,0,0,0,0,0,0,0,0,0,0
642684250,707688620,570990848,0,0,0,0,0,0,0,0,0,0,0,0,0,0,0,0,0,0,0,0,0,0,0
770067437,767649379,631384270,0,0,0,0,0,0,0,0,0,0,0,0,0,0,0,0,0,0,0,0,0,0,0
634273146,766026498,629704331,0,0,0,0,0,0,0,0,0,0,0,0,0,0,0,0,0,0,0,0,0,0,0
768517718,564701008,763534268,0,0,0,0,0,0,0,0,0,0,0,0,0,0,0,0,0,0,0,0,0,0,0
629440637,627211322,625119464,0,0,0,0,0,0,0,0,0,0,0,0,0,0,0,0,0,0,0,0,0,0,0
764237945,560548869,625537166,0,0,0,0,0,0,0,0,0,0,0,0,0,0,0,0,0,0,0,0,0,0,0
625265525,623003943,553809611,0,0,0,0,0,0,0,0,0,0,0,0,0,0,0,0,0,0,0,0,0,0,0
556080268,620893754,753033434,0,0,0,0,0,0,0,0,0,0,0,0,0,0,0,0,0,0,0,0,0,0,0
624167922,554879580,686995898,0,0,0,0,0,0,0,0,0,0,0,0,0,0,0,0,0,0,0,0,0,0,0
690488776,554808297,686887866,0,0,0,0,0,0,0,0,0,0,0,0,0,0,0,0,0,0,0,0,0,0,0
691030992,755954417,552087696,0,0,0,0,0,0,0,0,0,0,0,0,0,0,0,0,0,0,0,0,0,0,0
691030992,756084214,552087696,0,0,0,0,0,0,0,0,0,0,0,0,0,0,0,0,0,0,0,0,0,0,0
623764838,554573567,619227287,0,0,0,0,0,0,0,0,0,0,0,0,0,0,0,0,0,0,0,0,0,0,0
620918518,618802482,616890227,0,0,0,0,0,0,0,0,0,0,0,0,0,0,0,0,0,0,0,0,0,0,0
755117820,752967238,751193235,0,0,0,0,0,0,0,0,0,0,0,0,0,0,0,0,0,0,0,0,0,0,0
687868643,685805307,618591619,0,0,0,0,0,0,0,0,0,0,0,0,0,0,0,0,0,0,0,0,0,0,0
622754869,620661246,618162626,0,0,0,0,0,0,0,0,0,0,0,0,0,0,0,0,0,0,0,0,0,0,0
619249651,684288940,548002404,0,0,0,0,0,0,0,0,0,0,0,0,0,0,0,0,0,0,0,0,0,0,0
552254533,684336521,615092942,0,0,0,0,0,0,0,0,0,0,0,0,0,0,0,0,0,0,0,0,0,0,0
753211240,616884194,614610280,0,0,0,0,0,0,0,0,0,0,0,0,0,0,0,0,0,0,0,0,0,0,0
754459626,683767745,748749187,0,0,0,0,0,0,0,0,0,0,0,0,0,0,0,0,0,0,0,0,0,0,0
620256688,618570991,616474174,0,0,0,0,0,0,0,0,0,0,0,0,0,0,0,0,0,0,0,0,0,0,0
754755657,685577918,549027122,0,0,0,0,0,0,0,0,0,0,0,0,0,0,0,0,0,0,0,0,0,0,0
754097856,550674278,615686155,0,0,0,0,0,0,0,0,0,0,0,0,0,0,0,0,0,0,0,0,0,0,0
753954136,684776587,548489406,0,0,0,0,0,0,0,0,0,0,0,0,0,0,0,0,0,0,0,0,0,0,0
552101804,550006067,548310447,0,0,0,0,0,0,0,0,0,0,0,0,0,0,0,0,0,0,0,0,0,0,0
552124313,751369747,615367297,0,0,0,0,0,0,0,0,0,0,0,0,0,0,0,0,0,0,0,0,0,0,0
684336521,547989112,545793605,0,0,0,0,0,0,0,0,0,0,0,0,0,0,0,0,0,0,0,0,0,0,0
618185648,750319193,547188553,0,0,0,0,0,0,0,0,0,0,0,0,0,0,0,0,0,0,0,0,0,0,0
751936480,749815475,546320687,0,0,0,0,0,0,0,0,0,0,0,0,0,0,0,0,0,0,0,0,0,0,0
547543620,545927413,543879885,0,0,0,0,0,0,0,0,0,0,0,0,0,0,0,0,0,0,0,0,0,0,0
547523781,679768302,610568218,0,0,0,0,0,0,0,0,0,0,0,0,0,0,0,0,0,0,0,0,0,0,0
547900406,546236896,544231143,0,0,0,0,0,0,0,0,0,0,0,0,0,0,0,0,0,0,0,0,0,0,0
615024638,612954632,544056328,0,0,0,0,0,0,0,0,0,0,0,0,0,0,0,0,0,0,0,0,0,0,0
615024638,546180094,544056328,0,0,0,0,0,0,0,0,0,0,0,0,0,0,0,0,0,0,0,0,0,0,0
545887379,745309679,676083899,0,0,0,0,0,0,0,0,0,0,0,0,0,0,0,0,0,0,0,0,0,0,0
746734125,543483218,608500746,0,0,0,0,0,0,0,0,0,0,0,0,0,0,0,0,0,0,0,0,0,0,0
679587918,610662772,541473324,0,0,0,0,0,0,0,0,0,0,0,0,0,0,0,0,0,0,0,0,0,0,0
679573456,543199073,541081916,0,0,0,0,0,0,0,0,0,0,0,0,0,0,0,0,0,0,0,0,0,0,0
613980231,545142873,543041549,0,0,0,0,0,0,0,0,0,0,0,0,0,0,0,0,0,0,0,0,0,0,0
546876363,544788107,609802612,0,0,0,0,0,0,0,0,0,0,0,0,0,0,0,0,0,0,0,0,0,0,0
681150207,544897715,677039258,0,0,0,0,0,0,0,0,0,0,0,0,0,0,0,0,0,0,0,0,0,0,0
545806155,544124539,609136696,0,0,0,0,0,0,0,0,0,0,0,0,0,0,0,0,0,0,0,0,0,0,0
610917221,608848667,741096391,0,0,0,0,0,0,0,0,0,0,0,0,0,0,0,0,0,0,0,0,0,0,0
678621673,542310359,540603885,0,0,0,0,0,0,0,0,0,0,0,0,0,0,0,0,0,0,0,0,0,0,0
678621673,542696443,540603885,0,0,0,0,0,0,0,0,0,0,0,0,0,0,0,0,0,0,0,0,0,0,0
611610868,542407565,607421989,0,0,0,0,0,0,0,0,0,0,0,0,0,0,0,0,0,0,0,0,0,0,0
544315157,743806646,540402265,0,0,0,0,0,0,0,0,0,0,0,0,0,0,0,0,0,0,0,0,0,0,0
745626166,743831757,674654310,0,0,0,0,0,0,0,0,0,0,0,0,0,0,0,0,0,0,0,0,0,0,0
675958524,539658482,537575912,0,0,0,0,0,0,0,0,0,0,0,0,0,0,0,0,0,0,0,0,0,0,0
610201559,606131964,671130098,0,0,0,0,0,0,0,0,0,0,0,0,0,0,0,0,0,0,0,0,0,0,0
610201559,540998307,671130098,0,0,0,0,0,0,0,0,0,0,0,0,0,0,0,0,0,0,0,0,0,0,0
542667770,540571373,538474976,0,0,0,0,0,0,0,0,0,0,0,0,0,0,0,0,0,0,0,0,0,0,0
676965301,540674956,538603618,0,0,0,0,0,0,0,0,0,0,0,0,0,0,0,0,0,0,0,0,0,0,0
677012978,540716772,538638037,0,0,0,0,0,0,0,0,0,0,0,0,0,0,0,0,0,0,0,0,0,0,0
541607926,539509993,537412060,0,0,0,0,0,0,0,0,0,0,0,0,0,0,0,0,0,0,0,0,0,0,0
542154482,674257636,605034454,0,0,0,0,0,0,0,0,0,0,0,0,0,0,0,0,0,0,0,0,0,0,0
608755897,539553194,537459098,0,0,0,0,0,0,0,0,0,0,0,0,0,0,0,0,0,0,0,0,0,0,0
